n2376_3_1_1_4,n2376_3_1_1_4_3
n2379_3_1_1_4,n2379_3_1_1_4_3
n2383_3_1_1_4,n2383_3_1_1_4_3
n2385_3_1_1_4,n2385_3_1_1_4_3
n2386_3_1_1_4,n2386_3_1_1_4_3
n2389_3_1_1_4,n2389_3_1_1_4_3
n2390_3_1_1_4,n2390_3_1_1_4_3
n2394_3_1_1_5,n2394_3_1_1_5_3
n2395_3_1_1_4,n2395_3_1_1_4_3
n2397_3_1_1_5,n2397_3_1_1_5_3
n2398_3_1_1_5,n2398_3_1_1_5_3
n2399_3_1_1_5,n2399_3_1_1_5_3
n2400_3_1_1_4,n2400_3_1_1_4_3
n2401_3_1_1_4,n2401_3_1_1_4_3
n2402_3_1_1_5,n2402_3_1_1_5_3
n2404_3_1_1_5,n2404_3_1_1_5_3
n2405_3_1_1_4,n2405_3_1_1_4_3
n2406_3_1_1_5,n2406_3_1_1_5_3
n2408_3_1_1_5,n2408_3_1_1_5_3
n2409_3_1_1_4,n2409_3_1_1_4_3
n2413_3_1_1_4,n2413_3_1_1_4_3
n2414_3_1_1_5,n2414_3_1_1_5_3
n2415_3_1_1_5,n2415_3_1_1_5_3
n2417_3_1_1_5,n2417_3_1_1_5_3
n2418_3_1_1_4,n2418_3_1_1_4_3
n2420_3_1_1_5,n2420_3_1_1_5_3
n2422_3_1_1_5,n2422_3_1_1_5_3
n2424_3_1_1_5,n2424_3_1_1_5_3
n2426_3_1_1_5,n2426_3_1_1_5_3
n2427_3_1_1_4,n2427_3_1_1_4_3
n2429_3_1_1_4,n2429_3_1_1_4_3
n2430_3_1_1_5,n2430_3_1_1_5_3
n2431_3_1_1_5,n2431_3_1_1_5_3
n2432_3_1_1_5,n2432_3_1_1_5_3
n2433_3_1_1_5,n2433_3_1_1_5_3
n2435_3_1_1_4,n2435_3_1_1_4_3
n2436_3_1_1_4,n2436_3_1_1_4_3
n2437_3_1_1_5,n2437_3_1_1_5_3
n2438_3_1_1_4,n2438_3_1_1_4_3
n2439_3_1_1_5,n2439_3_1_1_5_3
n2440_3_1_1_4,n2440_3_1_1_4_3
n2442_3_1_1_5,n2442_3_1_1_5_3
n2443_3_1_1_4,n2443_3_1_1_4_3
n2445_3_1_1_5,n2445_3_1_1_5_3
n2448_3_1_1_5,n2448_3_1_1_5_3
n2449_3_1_1_4,n2449_3_1_1_4_3
n2450_3_1_1_5,n2450_3_1_1_5_3
n2451_3_1_1_5,n2451_3_1_1_5_3
n2453_3_1_1_5,n2453_3_1_1_5_3
n2456_3_1_1_4,n2456_3_1_1_4_3
n2458_3_1_1_4,n2458_3_1_1_4_3
n2459_3_1_1_4,n2459_3_1_1_4_3
n2460_3_1_1_4,n2460_3_1_1_4_3
n2463_3_1_1_5,n2463_3_1_1_5_3
n2465_3_1_1_5,n2465_3_1_1_5_3
n2466_3_1_1_5,n2466_3_1_1_5_3
n2468_3_1_1_5,n2468_3_1_1_5_3
n2469_3_1_1_5,n2469_3_1_1_5_3
n2471_3_1_1_4,n2471_3_1_1_4_3
n2473_3_1_1_4,n2473_3_1_1_4_3
n2478_3_1_1_5,n2478_3_1_1_5_3
n2481_3_1_1_5,n2481_3_1_1_5_3
n2483_3_1_1_4,n2483_3_1_1_4_3
n2484_3_1_1_4,n2484_3_1_1_4_3
n2485_3_1_1_5,n2485_3_1_1_5_3
n2486_3_1_1_5,n2486_3_1_1_5_3
n2487_3_1_1_5,n2487_3_1_1_5_3
n2489_3_1_1_5,n2489_3_1_1_5_3
n2490_3_1_1_4,n2490_3_1_1_4_3
n2491_3_1_1_4,n2491_3_1_1_4_3
n2493_3_1_1_5,n2493_3_1_1_5_3
n2501_3_1_1_4,n2501_3_1_1_4_3
n2502_3_1_1_5,n2502_3_1_1_5_3
n2503_3_1_1_5,n2503_3_1_1_5_3
n2504_3_1_1_5,n2504_3_1_1_5_3
n2505_3_1_1_5,n2505_3_1_1_5_3
n2508_3_1_1_4,n2508_3_1_1_4_3
n2509_3_1_1_4,n2509_3_1_1_4_3
n2511_3_1_1_5,n2511_3_1_1_5_3
n2517_3_1_1_5,n2517_3_1_1_5_3
n2518_3_1_1_5,n2518_3_1_1_5_3
n2519_3_1_1_5,n2519_3_1_1_5_3
n2520_3_1_1_5,n2520_3_1_1_5_3
n2525_3_1_1_5,n2525_3_1_1_5_3
n2526_3_1_1_4,n2526_3_1_1_4_3
n2532_3_1_1_5,n2532_3_1_1_5_3
n2537_3_1_1_5,n2537_3_1_1_5_3
n2539_3_1_1_5,n2539_3_1_1_5_3
n2541_3_1_1_4,n2541_3_1_1_4_3
n2542_3_1_1_5,n2542_3_1_1_5_3
n2547_3_1_1_5,n2547_3_1_1_5_3
n2552_3_1_1_4,n2552_3_1_1_4_3
n2555_3_1_1_5,n2555_3_1_1_5_3
n2556_3_1_1_4,n2556_3_1_1_4_3
n2557_3_1_1_4,n2557_3_1_1_4_3
n2560_3_1_1_4,n2560_3_1_1_4_3
n2562_3_1_1_5,n2562_3_1_1_5_3
n2564_3_1_1_4,n2564_3_1_1_4_3
n2565_3_1_1_5,n2565_3_1_1_5_3
n2568_3_1_1_4,n2568_3_1_1_4_3
n2570_3_1_1_5,n2570_3_1_1_5_3
n2571_3_1_1_5,n2571_3_1_1_5_3
n2572_3_1_1_5,n2572_3_1_1_5_3
n2573_3_1_1_5,n2573_3_1_1_5_3
n2575_3_1_1_4,n2575_3_1_1_4_3
n2580_3_1_1_4,n2580_3_1_1_4_3
n2581_3_1_1_5,n2581_3_1_1_5_3
n2587_3_1_1_5,n2587_3_1_1_5_3
n2588_3_1_1_4,n2588_3_1_1_4_3
n2592_3_1_1_5,n2592_3_1_1_5_3
n2594_3_1_1_5,n2594_3_1_1_5_3
n2595_3_1_1_5,n2595_3_1_1_5_3
n2597_3_1_1_5,n2597_3_1_1_5_3
n2599_3_1_1_5,n2599_3_1_1_5_3
n2600_3_1_1_5,n2600_3_1_1_5_3
n2601_3_1_1_4,n2601_3_1_1_4_3
n2607_3_1_1_5,n2607_3_1_1_5_3
n2608_3_1_1_5,n2608_3_1_1_5_3
n2609_3_1_1_4,n2609_3_1_1_4_3
n2610_3_1_1_5,n2610_3_1_1_5_3
n2611_3_1_1_4,n2611_3_1_1_4_3
n2613_3_1_1_4,n2613_3_1_1_4_3
n2617_3_1_1_4,n2617_3_1_1_4_3
n2618_3_1_1_4,n2618_3_1_1_4_3
n2621_3_1_1_4,n2621_3_1_1_4_3
n2625_3_1_1_5,n2625_3_1_1_5_3
n2629_3_1_1_5,n2629_3_1_1_5_3
n2631_3_1_1_4,n2631_3_1_1_4_3
n2632_3_1_1_5,n2632_3_1_1_5_3
n2634_3_1_1_5,n2634_3_1_1_5_3
n2635_3_1_1_5,n2635_3_1_1_5_3
n2639_3_1_1_4,n2639_3_1_1_4_3
n2643_3_1_1_4,n2643_3_1_1_4_3
n2645_3_1_1_5,n2645_3_1_1_5_3
n2647_3_1_1_5,n2647_3_1_1_5_3
n2649_3_1_1_4,n2649_3_1_1_4_3
n2655_3_1_1_4,n2655_3_1_1_4_3
n2656_3_1_1_5,n2656_3_1_1_5_3
n2658_3_1_1_4,n2658_3_1_1_4_3
n2668_3_1_1_5,n2668_3_1_1_5_3
n2670_3_1_1_5,n2670_3_1_1_5_3
n2674_3_1_1_4,n2674_3_1_1_4_3
n2676_3_1_1_5,n2676_3_1_1_5_3
n2677_3_1_1_5,n2677_3_1_1_5_3
n2679_3_1_1_4,n2679_3_1_1_4_3
n2680_3_1_1_5,n2680_3_1_1_5_3
n2683_3_1_1_5,n2683_3_1_1_5_3
n2684_3_1_1_4,n2684_3_1_1_4_3
n2687_3_1_1_5,n2687_3_1_1_5_3
n2689_3_1_1_5,n2689_3_1_1_5_3
n2690_3_1_1_5,n2690_3_1_1_5_3
n2693_3_1_1_5,n2693_3_1_1_5_3
n2694_3_1_1_5,n2694_3_1_1_5_3
n2695_3_1_1_5,n2695_3_1_1_5_3
n2698_3_1_1_5,n2698_3_1_1_5_3
n2699_3_1_1_4,n2699_3_1_1_4_3
n2701_3_1_1_5,n2701_3_1_1_5_3
n2702_3_1_1_5,n2702_3_1_1_5_3
n2703_3_1_1_4,n2703_3_1_1_4_3
n2707_3_1_1_5,n2707_3_1_1_5_3
n2712_3_1_1_4,n2712_3_1_1_4_3
n2713_3_1_1_4,n2713_3_1_1_4_3
n2716_3_1_1_4,n2716_3_1_1_4_3
n2717_3_1_1_5,n2717_3_1_1_5_3
n2718_3_1_1_5,n2718_3_1_1_5_3
n2721_3_1_1_5,n2721_3_1_1_5_3
n2722_3_1_1_5,n2722_3_1_1_5_3
n2723_3_1_1_5,n2723_3_1_1_5_3
n2725_3_1_1_4,n2725_3_1_1_4_3
n2732_3_1_1_4,n2732_3_1_1_4_3
n2733_3_1_1_4,n2733_3_1_1_4_3
n2735_3_1_1_4,n2735_3_1_1_4_3
n2736_3_1_1_4,n2736_3_1_1_4_3
n2737_3_1_1_4,n2737_3_1_1_4_3
n2738_3_1_1_5,n2738_3_1_1_5_3
n2739_3_1_1_4,n2739_3_1_1_4_3
n2741_3_1_1_4,n2741_3_1_1_4_3
n2742_3_1_1_5,n2742_3_1_1_5_3
n2743_3_1_1_4,n2743_3_1_1_4_3
n2744_3_1_1_4,n2744_3_1_1_4_3
n2745_3_1_1_5,n2745_3_1_1_5_3
n2746_3_1_1_5,n2746_3_1_1_5_3
n2752_3_1_1_4,n2752_3_1_1_4_3
n2753_3_1_1_4,n2753_3_1_1_4_3
n2756_3_1_1_5,n2756_3_1_1_5_3
n2757_3_1_1_4,n2757_3_1_1_4_3
n2758_3_1_1_4,n2758_3_1_1_4_3
n2759_3_1_1_5,n2759_3_1_1_5_3
n2762_3_1_1_4,n2762_3_1_1_4_3
n2764_3_1_1_5,n2764_3_1_1_5_3
n2765_3_1_1_4,n2765_3_1_1_4_3
n2766_3_1_1_4,n2766_3_1_1_4_3
n2769_3_1_1_5,n2769_3_1_1_5_3
n2770_3_1_1_4,n2770_3_1_1_4_3
n2771_3_1_1_5,n2771_3_1_1_5_3
n2772_3_1_1_5,n2772_3_1_1_5_3
n2774_3_1_1_5,n2774_3_1_1_5_3
n2775_3_1_1_5,n2775_3_1_1_5_3
n2777_3_1_1_5,n2777_3_1_1_5_3
n2779_3_1_1_5,n2779_3_1_1_5_3
n2780_3_1_1_5,n2780_3_1_1_5_3
n2781_3_1_1_5,n2781_3_1_1_5_3
n2782_3_1_1_5,n2782_3_1_1_5_3
n2785_3_1_1_4,n2785_3_1_1_4_3
n2787_3_1_1_4,n2787_3_1_1_4_3
n2789_3_1_1_5,n2789_3_1_1_5_3
n2790_3_1_1_4,n2790_3_1_1_4_3
n2792_3_1_1_4,n2792_3_1_1_4_3
n2793_3_1_1_4,n2793_3_1_1_4_3
n2796_3_1_1_5,n2796_3_1_1_5_3
n2797_3_1_1_4,n2797_3_1_1_4_3
n2802_3_1_1_5,n2802_3_1_1_5_3
n2803_3_1_1_4,n2803_3_1_1_4_3
n2804_3_1_1_5,n2804_3_1_1_5_3
n2806_3_1_1_5,n2806_3_1_1_5_3
n2807_3_1_1_4,n2807_3_1_1_4_3
n2808_3_1_1_5,n2808_3_1_1_5_3
n2809_3_1_1_5,n2809_3_1_1_5_3
n2811_3_1_1_4,n2811_3_1_1_4_3
n2812_3_1_1_4,n2812_3_1_1_4_3
n2815_3_1_1_4,n2815_3_1_1_4_3
n2816_3_1_1_5,n2816_3_1_1_5_3
n2819_3_1_1_5,n2819_3_1_1_5_3
n2820_3_1_1_5,n2820_3_1_1_5_3
n2824_3_1_1_5,n2824_3_1_1_5_3
n2825_3_1_1_5,n2825_3_1_1_5_3
n2827_3_1_1_4,n2827_3_1_1_4_3
n2830_3_1_1_5,n2830_3_1_1_5_3
n2831_3_1_1_5,n2831_3_1_1_5_3
n2832_3_1_1_4,n2832_3_1_1_4_3
n2834_3_1_1_5,n2834_3_1_1_5_3
n2837_3_1_1_4,n2837_3_1_1_4_3
n2838_3_1_1_5,n2838_3_1_1_5_3
n2839_3_1_1_4,n2839_3_1_1_4_3
n2840_3_1_1_5,n2840_3_1_1_5_3
n2841_3_1_1_4,n2841_3_1_1_4_3
n2842_3_1_1_5,n2842_3_1_1_5_3
n2845_3_1_1_4,n2845_3_1_1_4_3
n2846_3_1_1_4,n2846_3_1_1_4_3
n2855_3_1_1_4,n2855_3_1_1_4_3
n2857_3_1_1_4,n2857_3_1_1_4_3
n2858_3_1_1_4,n2858_3_1_1_4_3
n2860_3_1_1_5,n2860_3_1_1_5_3
n2863_3_1_1_5,n2863_3_1_1_5_3
n2867_3_1_1_5,n2867_3_1_1_5_3
n2868_3_1_1_5,n2868_3_1_1_5_3
n2869_3_1_1_5,n2869_3_1_1_5_3
n2873_3_1_1_4,n2873_3_1_1_4_3
n2875_3_1_1_5,n2875_3_1_1_5_3
n2876_3_1_1_4,n2876_3_1_1_4_3
n2877_3_1_1_4,n2877_3_1_1_4_3
n2880_3_1_1_5,n2880_3_1_1_5_3
n2883_3_1_1_4,n2883_3_1_1_4_3
n2884_3_1_1_5,n2884_3_1_1_5_3
n2886_3_1_1_5,n2886_3_1_1_5_3
n2888_3_1_1_4,n2888_3_1_1_4_3
n2890_3_1_1_4,n2890_3_1_1_4_3
n2891_3_1_1_4,n2891_3_1_1_4_3
n2893_3_1_1_5,n2893_3_1_1_5_3
n2895_3_1_1_4,n2895_3_1_1_4_3
n2896_3_1_1_4,n2896_3_1_1_4_3
n2897_3_1_1_4,n2897_3_1_1_4_3
n2900_3_1_1_4,n2900_3_1_1_4_3
n2901_3_1_1_5,n2901_3_1_1_5_3
n2902_3_1_1_5,n2902_3_1_1_5_3
n2903_3_1_1_4,n2903_3_1_1_4_3
n2904_3_1_1_5,n2904_3_1_1_5_3
n2905_3_1_1_4,n2905_3_1_1_4_3
n2906_3_1_1_4,n2906_3_1_1_4_3
n2909_3_1_1_5,n2909_3_1_1_5_3
n2910_3_1_1_5,n2910_3_1_1_5_3
n2911_3_1_1_4,n2911_3_1_1_4_3
n2914_3_1_1_4,n2914_3_1_1_4_3
n2916_3_1_1_5,n2916_3_1_1_5_3
n2923_3_1_1_4,n2923_3_1_1_4_3
n2924_3_1_1_4,n2924_3_1_1_4_3
n2925_3_1_1_4,n2925_3_1_1_4_3
n2928_3_1_1_5,n2928_3_1_1_5_3
n2930_3_1_1_5,n2930_3_1_1_5_3
n2933_3_1_1_4,n2933_3_1_1_4_3
n2934_3_1_1_5,n2934_3_1_1_5_3
n2935_3_1_1_4,n2935_3_1_1_4_3
n2936_3_1_1_4,n2936_3_1_1_4_3
n2937_3_1_1_5,n2937_3_1_1_5_3
n2938_3_1_1_4,n2938_3_1_1_4_3
n2940_3_1_1_4,n2940_3_1_1_4_3
n2942_3_1_1_5,n2942_3_1_1_5_3
n2943_3_1_1_4,n2943_3_1_1_4_3
n2946_3_1_1_5,n2946_3_1_1_5_3
n2947_3_1_1_5,n2947_3_1_1_5_3
n2948_3_1_1_4,n2948_3_1_1_4_3
n2954_3_1_1_5,n2954_3_1_1_5_3
n2955_3_1_1_4,n2955_3_1_1_4_3
n2956_3_1_1_4,n2956_3_1_1_4_3
n2957_3_1_1_4,n2957_3_1_1_4_3
n2958_3_1_1_4,n2958_3_1_1_4_3
n2961_3_1_1_4,n2961_3_1_1_4_3
n2962_3_1_1_5,n2962_3_1_1_5_3
n2963_3_1_1_5,n2963_3_1_1_5_3
n2964_3_1_1_5,n2964_3_1_1_5_3
n2966_3_1_1_4,n2966_3_1_1_4_3
n2968_3_1_1_4,n2968_3_1_1_4_3
n2972_3_1_1_5,n2972_3_1_1_5_3
n2974_3_1_1_4,n2974_3_1_1_4_3
n2976_3_1_1_4,n2976_3_1_1_4_3
n2980_3_1_1_4,n2980_3_1_1_4_3
n2982_3_1_1_5,n2982_3_1_1_5_3
n2983_3_1_1_5,n2983_3_1_1_5_3
n2986_3_1_1_4,n2986_3_1_1_4_3
n2987_3_1_1_5,n2987_3_1_1_5_3
n2988_3_1_1_4,n2988_3_1_1_4_3
n2990_3_1_1_5,n2990_3_1_1_5_3
n2991_3_1_1_5,n2991_3_1_1_5_3
n2992_3_1_1_5,n2992_3_1_1_5_3
n2994_3_1_1_4,n2994_3_1_1_4_3
n2997_3_1_1_4,n2997_3_1_1_4_3
n2998_3_1_1_4,n2998_3_1_1_4_3
n3002_3_1_1_5,n3002_3_1_1_5_3
n3003_3_1_1_4,n3003_3_1_1_4_3
n3005_3_1_1_5,n3005_3_1_1_5_3
n3009_3_1_1_5,n3009_3_1_1_5_3
n3011_3_1_1_4,n3011_3_1_1_4_3
n3012_3_1_1_5,n3012_3_1_1_5_3
n3014_3_1_1_4,n3014_3_1_1_4_3
n3019_3_1_1_4,n3019_3_1_1_4_3
n3020_3_1_1_5,n3020_3_1_1_5_3
n3021_3_1_1_4,n3021_3_1_1_4_3
n3023_3_1_1_4,n3023_3_1_1_4_3
n3025_3_1_1_5,n3025_3_1_1_5_3
n3026_3_1_1_4,n3026_3_1_1_4_3
n3028_3_1_1_5,n3028_3_1_1_5_3
n3029_3_1_1_5,n3029_3_1_1_5_3
n3030_3_1_1_4,n3030_3_1_1_4_3
n3032_3_1_1_5,n3032_3_1_1_5_3
n3034_3_1_1_5,n3034_3_1_1_5_3
n3035_3_1_1_4,n3035_3_1_1_4_3
n3038_3_1_1_4,n3038_3_1_1_4_3
n3047_3_1_1_4,n3047_3_1_1_4_3
n3049_3_1_1_4,n3049_3_1_1_4_3
n3050_3_1_1_5,n3050_3_1_1_5_3
n3051_3_1_1_5,n3051_3_1_1_5_3
n3052_3_1_1_5,n3052_3_1_1_5_3
n3053_3_1_1_5,n3053_3_1_1_5_3
n3054_3_1_1_5,n3054_3_1_1_5_3
n3055_3_1_1_4,n3055_3_1_1_4_3
n3057_3_1_1_4,n3057_3_1_1_4_3
n3059_3_1_1_4,n3059_3_1_1_4_3
n3064_3_1_1_4,n3064_3_1_1_4_3
n3065_3_1_1_4,n3065_3_1_1_4_3
n3066_3_1_1_4,n3066_3_1_1_4_3
n3067_3_1_1_5,n3067_3_1_1_5_3
n3069_3_1_1_4,n3069_3_1_1_4_3
n3070_3_1_1_4,n3070_3_1_1_4_3
n3071_3_1_1_4,n3071_3_1_1_4_3
n3072_3_1_1_5,n3072_3_1_1_5_3
n3074_3_1_1_5,n3074_3_1_1_5_3
n3079_3_1_1_4,n3079_3_1_1_4_3
n3081_3_1_1_4,n3081_3_1_1_4_3
n3082_3_1_1_4,n3082_3_1_1_4_3
n3085_3_1_1_5,n3085_3_1_1_5_3
n3086_3_1_1_4,n3086_3_1_1_4_3
n3087_3_1_1_4,n3087_3_1_1_4_3
n3088_3_1_1_4,n3088_3_1_1_4_3
n3089_3_1_1_4,n3089_3_1_1_4_3
n3092_3_1_1_5,n3092_3_1_1_5_3
n3094_3_1_1_4,n3094_3_1_1_4_3
n3099_3_1_1_4,n3099_3_1_1_4_3
n3100_3_1_1_5,n3100_3_1_1_5_3
n3101_3_1_1_4,n3101_3_1_1_4_3
n3103_3_1_1_5,n3103_3_1_1_5_3
n3106_3_1_1_4,n3106_3_1_1_4_3
n3108_3_1_1_5,n3108_3_1_1_5_3
n3113_3_1_1_5,n3113_3_1_1_5_3
n3114_3_1_1_4,n3114_3_1_1_4_3
n3115_3_1_1_4,n3115_3_1_1_4_3
n3116_3_1_1_5,n3116_3_1_1_5_3
n3123_3_1_1_4,n3123_3_1_1_4_3
n3130_3_1_1_4,n3130_3_1_1_4_3
n3134_3_1_1_4,n3134_3_1_1_4_3
n3135_3_1_1_5,n3135_3_1_1_5_3
n3136_3_1_1_4,n3136_3_1_1_4_3
n3140_3_1_1_4,n3140_3_1_1_4_3
n3141_3_1_1_4,n3141_3_1_1_4_3
n3145_3_1_1_5,n3145_3_1_1_5_3
n3147_3_1_1_5,n3147_3_1_1_5_3
n3149_3_1_1_4,n3149_3_1_1_4_3
n3150_3_1_1_5,n3150_3_1_1_5_3
n3151_3_1_1_4,n3151_3_1_1_4_3
n3155_3_1_1_4,n3155_3_1_1_4_3
n3157_3_1_1_4,n3157_3_1_1_4_3
n3158_3_1_1_5,n3158_3_1_1_5_3
n3159_3_1_1_5,n3159_3_1_1_5_3
n3161_3_1_1_4,n3161_3_1_1_4_3
n3162_3_1_1_4,n3162_3_1_1_4_3
n3164_3_1_1_5,n3164_3_1_1_5_3
n3165_3_1_1_5,n3165_3_1_1_5_3
n3166_3_1_1_4,n3166_3_1_1_4_3
n3169_3_1_1_5,n3169_3_1_1_5_3
n3172_3_1_1_4,n3172_3_1_1_4_3
n3173_3_1_1_4,n3173_3_1_1_4_3
n3176_3_1_1_4,n3176_3_1_1_4_3
n3178_3_1_1_4,n3178_3_1_1_4_3
n3180_3_1_1_4,n3180_3_1_1_4_3
n3181_3_1_1_5,n3181_3_1_1_5_3
n3182_3_1_1_5,n3182_3_1_1_5_3
n3184_3_1_1_5,n3184_3_1_1_5_3
n3187_3_1_1_5,n3187_3_1_1_5_3
n3188_3_1_1_4,n3188_3_1_1_4_3
n3192_3_1_1_5,n3192_3_1_1_5_3
n3193_3_1_1_5,n3193_3_1_1_5_3
n3194_3_1_1_5,n3194_3_1_1_5_3
n3195_3_1_1_5,n3195_3_1_1_5_3
n3196_3_1_1_5,n3196_3_1_1_5_3
n3200_3_1_1_5,n3200_3_1_1_5_3
n3203_3_1_1_4,n3203_3_1_1_4_3
n3204_3_1_1_5,n3204_3_1_1_5_3
n3205_3_1_1_4,n3205_3_1_1_4_3
n3207_3_1_1_5,n3207_3_1_1_5_3
n3208_3_1_1_4,n3208_3_1_1_4_3
n3210_3_1_1_5,n3210_3_1_1_5_3
n3212_3_1_1_5,n3212_3_1_1_5_3
n3217_3_1_1_5,n3217_3_1_1_5_3
n3219_3_1_1_5,n3219_3_1_1_5_3
n3223_3_1_1_4,n3223_3_1_1_4_3
n3224_3_1_1_5,n3224_3_1_1_5_3
n3226_3_1_1_4,n3226_3_1_1_4_3
n3227_3_1_1_4,n3227_3_1_1_4_3
n3229_3_1_1_4,n3229_3_1_1_4_3
n3230_3_1_1_4,n3230_3_1_1_4_3
n3231_3_1_1_4,n3231_3_1_1_4_3
n3232_3_1_1_4,n3232_3_1_1_4_3
n3238_3_1_1_4,n3238_3_1_1_4_3
n3239_3_1_1_4,n3239_3_1_1_4_3
n3240_3_1_1_5,n3240_3_1_1_5_3
n3241_3_1_1_4,n3241_3_1_1_4_3
n3242_3_1_1_5,n3242_3_1_1_5_3
n3243_3_1_1_5,n3243_3_1_1_5_3
n3245_3_1_1_5,n3245_3_1_1_5_3
n3247_3_1_1_4,n3247_3_1_1_4_3
n3248_3_1_1_4,n3248_3_1_1_4_3
n3249_3_1_1_5,n3249_3_1_1_5_3
n3252_3_1_1_5,n3252_3_1_1_5_3
n3253_3_1_1_4,n3253_3_1_1_4_3
n3254_3_1_1_5,n3254_3_1_1_5_3
n3255_3_1_1_5,n3255_3_1_1_5_3
n3256_3_1_1_5,n3256_3_1_1_5_3
n3258_3_1_1_5,n3258_3_1_1_5_3
n3260_3_1_1_4,n3260_3_1_1_4_3
n3261_3_1_1_5,n3261_3_1_1_5_3
n3263_3_1_1_4,n3263_3_1_1_4_3
n3269_3_1_1_4,n3269_3_1_1_4_3
n3272_3_1_1_4,n3272_3_1_1_4_3
n3273_3_1_1_5,n3273_3_1_1_5_3
n3275_3_1_1_5,n3275_3_1_1_5_3
n3281_3_1_1_5,n3281_3_1_1_5_3
n3287_3_1_1_5,n3287_3_1_1_5_3
n3288_3_1_1_5,n3288_3_1_1_5_3
n3289_3_1_1_4,n3289_3_1_1_4_3
n3290_3_1_1_5,n3290_3_1_1_5_3
n3291_3_1_1_5,n3291_3_1_1_5_3
n3293_3_1_1_5,n3293_3_1_1_5_3
n3296_3_1_1_5,n3296_3_1_1_5_3
n3297_3_1_1_5,n3297_3_1_1_5_3
n3298_3_1_1_5,n3298_3_1_1_5_3
n3301_3_1_1_5,n3301_3_1_1_5_3
n3303_3_1_1_5,n3303_3_1_1_5_3
n3304_3_1_1_5,n3304_3_1_1_5_3
n3306_3_1_1_4,n3306_3_1_1_4_3
n3307_3_1_1_5,n3307_3_1_1_5_3
n3309_3_1_1_4,n3309_3_1_1_4_3
n3310_3_1_1_4,n3310_3_1_1_4_3
n3311_3_1_1_5,n3311_3_1_1_5_3
n3314_3_1_1_5,n3314_3_1_1_5_3
n3315_3_1_1_5,n3315_3_1_1_5_3
n3317_3_1_1_4,n3317_3_1_1_4_3
n3318_3_1_1_4,n3318_3_1_1_4_3
n3321_3_1_1_4,n3321_3_1_1_4_3
n3322_3_1_1_4,n3322_3_1_1_4_3
n3325_3_1_1_5,n3325_3_1_1_5_3
n3326_3_1_1_4,n3326_3_1_1_4_3
n3327_3_1_1_5,n3327_3_1_1_5_3
n3337_3_1_1_5,n3337_3_1_1_5_3
n3338_3_1_1_5,n3338_3_1_1_5_3
n3339_3_1_1_5,n3339_3_1_1_5_3
n3341_3_1_1_5,n3341_3_1_1_5_3
n3342_3_1_1_4,n3342_3_1_1_4_3
n3343_3_1_1_5,n3343_3_1_1_5_3
n3345_3_1_1_4,n3345_3_1_1_4_3
n3350_3_1_1_5,n3350_3_1_1_5_3
n3353_3_1_1_5,n3353_3_1_1_5_3
n3354_3_1_1_4,n3354_3_1_1_4_3
n3355_3_1_1_5,n3355_3_1_1_5_3
n3358_3_1_1_5,n3358_3_1_1_5_3
n3360_3_1_1_5,n3360_3_1_1_5_3
n3361_3_1_1_4,n3361_3_1_1_4_3
n3363_3_1_1_5,n3363_3_1_1_5_3
n3364_3_1_1_5,n3364_3_1_1_5_3
n3367_3_1_1_5,n3367_3_1_1_5_3
n3370_3_1_1_5,n3370_3_1_1_5_3
n3372_3_1_1_4,n3372_3_1_1_4_3
n3374_3_1_1_4,n3374_3_1_1_4_3
n3375_3_1_1_4,n3375_3_1_1_4_3
n3377_3_1_1_4,n3377_3_1_1_4_3
n3380_3_1_1_4,n3380_3_1_1_4_3
n3381_3_1_1_5,n3381_3_1_1_5_3
n3382_3_1_1_5,n3382_3_1_1_5_3
n3383_3_1_1_4,n3383_3_1_1_4_3
n3385_3_1_1_4,n3385_3_1_1_4_3
n3386_3_1_1_4,n3386_3_1_1_4_3
n3387_3_1_1_4,n3387_3_1_1_4_3
n3389_3_1_1_4,n3389_3_1_1_4_3
n3390_3_1_1_5,n3390_3_1_1_5_3
n3391_3_1_1_5,n3391_3_1_1_5_3
n3392_3_1_1_4,n3392_3_1_1_4_3
n3393_3_1_1_5,n3393_3_1_1_5_3
n3395_3_1_1_5,n3395_3_1_1_5_3
n3397_3_1_1_4,n3397_3_1_1_4_3
n3398_3_1_1_5,n3398_3_1_1_5_3
n3399_3_1_1_5,n3399_3_1_1_5_3
n3401_3_1_1_5,n3401_3_1_1_5_3
n3403_3_1_1_4,n3403_3_1_1_4_3
n3404_3_1_1_5,n3404_3_1_1_5_3
n3405_3_1_1_5,n3405_3_1_1_5_3
n3407_3_1_1_5,n3407_3_1_1_5_3
n3408_3_1_1_4,n3408_3_1_1_4_3
n3409_3_1_1_4,n3409_3_1_1_4_3
n3412_3_1_1_4,n3412_3_1_1_4_3
n3413_3_1_1_5,n3413_3_1_1_5_3
n3414_3_1_1_4,n3414_3_1_1_4_3
n3415_3_1_1_5,n3415_3_1_1_5_3
n3419_3_1_1_4,n3419_3_1_1_4_3
n3420_3_1_1_5,n3420_3_1_1_5_3
n3421_3_1_1_5,n3421_3_1_1_5_3
n3423_3_1_1_4,n3423_3_1_1_4_3
n3424_3_1_1_5,n3424_3_1_1_5_3
n3426_3_1_1_4,n3426_3_1_1_4_3
n3427_3_1_1_5,n3427_3_1_1_5_3
n3428_3_1_1_5,n3428_3_1_1_5_3
n3429_3_1_1_4,n3429_3_1_1_4_3
n3434_3_1_1_5,n3434_3_1_1_5_3
n3437_3_1_1_4,n3437_3_1_1_4_3
n3440_3_1_1_5,n3440_3_1_1_5_3
n3441_3_1_1_4,n3441_3_1_1_4_3
n3442_3_1_1_5,n3442_3_1_1_5_3
n3444_3_1_1_4,n3444_3_1_1_4_3
n3450_3_1_1_5,n3450_3_1_1_5_3
n3451_3_1_1_4,n3451_3_1_1_4_3
n3452_3_1_1_5,n3452_3_1_1_5_3
n3456_3_1_1_5,n3456_3_1_1_5_3
n3457_3_1_1_4,n3457_3_1_1_4_3
n3458_3_1_1_5,n3458_3_1_1_5_3
n3459_3_1_1_5,n3459_3_1_1_5_3
n3461_3_1_1_5,n3461_3_1_1_5_3
n3462_3_1_1_4,n3462_3_1_1_4_3
n3464_3_1_1_4,n3464_3_1_1_4_3
n3468_3_1_1_4,n3468_3_1_1_4_3
n3470_3_1_1_4,n3470_3_1_1_4_3
n3471_3_1_1_4,n3471_3_1_1_4_3
n3473_3_1_1_4,n3473_3_1_1_4_3
n3474_3_1_1_5,n3474_3_1_1_5_3
n3475_3_1_1_5,n3475_3_1_1_5_3
n3476_3_1_1_4,n3476_3_1_1_4_3
n3480_3_1_1_5,n3480_3_1_1_5_3
n3484_3_1_1_5,n3484_3_1_1_5_3
n3485_3_1_1_5,n3485_3_1_1_5_3
n3490_3_1_1_4,n3490_3_1_1_4_3
n3492_3_1_1_5,n3492_3_1_1_5_3
n3493_3_1_1_4,n3493_3_1_1_4_3
n3495_3_1_1_4,n3495_3_1_1_4_3
n3496_3_1_1_4,n3496_3_1_1_4_3
n3498_3_1_1_4,n3498_3_1_1_4_3
n3499_3_1_1_5,n3499_3_1_1_5_3
n3500_3_1_1_5,n3500_3_1_1_5_3
n3501_3_1_1_4,n3501_3_1_1_4_3
n3502_3_1_1_5,n3502_3_1_1_5_3
n3508_3_1_1_4,n3508_3_1_1_4_3
n3510_3_1_1_4,n3510_3_1_1_4_3
n3511_3_1_1_4,n3511_3_1_1_4_3
n3514_3_1_1_5,n3514_3_1_1_5_3
n3518_3_1_1_5,n3518_3_1_1_5_3
n3521_3_1_1_5,n3521_3_1_1_5_3
n3523_3_1_1_4,n3523_3_1_1_4_3
n3525_3_1_1_4,n3525_3_1_1_4_3
n3528_3_1_1_5,n3528_3_1_1_5_3
n3529_3_1_1_4,n3529_3_1_1_4_3
n3530_3_1_1_4,n3530_3_1_1_4_3
n3531_3_1_1_4,n3531_3_1_1_4_3
n3533_3_1_1_4,n3533_3_1_1_4_3
n3536_3_1_1_5,n3536_3_1_1_5_3
n3537_3_1_1_5,n3537_3_1_1_5_3
n3538_3_1_1_4,n3538_3_1_1_4_3
n3539_3_1_1_5,n3539_3_1_1_5_3
n3546_3_1_1_5,n3546_3_1_1_5_3
n3547_3_1_1_4,n3547_3_1_1_4_3
n3549_3_1_1_4,n3549_3_1_1_4_3
n3553_3_1_1_5,n3553_3_1_1_5_3
n3554_3_1_1_4,n3554_3_1_1_4_3
n3555_3_1_1_4,n3555_3_1_1_4_3
n3557_3_1_1_5,n3557_3_1_1_5_3
n3558_3_1_1_5,n3558_3_1_1_5_3
n3560_3_1_1_5,n3560_3_1_1_5_3
n3561_3_1_1_4,n3561_3_1_1_4_3
n3564_3_1_1_5,n3564_3_1_1_5_3
n3567_3_1_1_5,n3567_3_1_1_5_3
n3570_3_1_1_4,n3570_3_1_1_4_3
n3571_3_1_1_5,n3571_3_1_1_5_3
n3573_3_1_1_5,n3573_3_1_1_5_3
n3574_3_1_1_4,n3574_3_1_1_4_3
n3577_3_1_1_5,n3577_3_1_1_5_3
n3582_3_1_1_5,n3582_3_1_1_5_3
n3583_3_1_1_5,n3583_3_1_1_5_3
n3585_3_1_1_4,n3585_3_1_1_4_3
n3589_3_1_1_4,n3589_3_1_1_4_3
n3593_3_1_1_4,n3593_3_1_1_4_3
n3595_3_1_1_4,n3595_3_1_1_4_3
n3596_3_1_1_5,n3596_3_1_1_5_3
n3598_3_1_1_4,n3598_3_1_1_4_3
n3599_3_1_1_4,n3599_3_1_1_4_3
n3604_3_1_1_4,n3604_3_1_1_4_3
n3606_3_1_1_5,n3606_3_1_1_5_3
n3610_3_1_1_5,n3610_3_1_1_5_3
n3613_3_1_1_5,n3613_3_1_1_5_3
n3614_3_1_1_5,n3614_3_1_1_5_3
n3615_3_1_1_4,n3615_3_1_1_4_3
n3619_3_1_1_4,n3619_3_1_1_4_3
n3621_3_1_1_5,n3621_3_1_1_5_3
n3622_3_1_1_4,n3622_3_1_1_4_3
n3623_3_1_1_5,n3623_3_1_1_5_3
n3624_3_1_1_4,n3624_3_1_1_4_3
n3628_3_1_1_4,n3628_3_1_1_4_3
n3629_3_1_1_4,n3629_3_1_1_4_3
n3632_3_1_1_5,n3632_3_1_1_5_3
n3633_3_1_1_4,n3633_3_1_1_4_3
n3636_3_1_1_4,n3636_3_1_1_4_3
n3637_3_1_1_4,n3637_3_1_1_4_3
n3642_3_1_1_5,n3642_3_1_1_5_3
n3648_3_1_1_5,n3648_3_1_1_5_3
n3650_3_1_1_5,n3650_3_1_1_5_3
n3652_3_1_1_5,n3652_3_1_1_5_3
n3653_3_1_1_5,n3653_3_1_1_5_3
n3655_3_1_1_4,n3655_3_1_1_4_3
n3656_3_1_1_4,n3656_3_1_1_4_3
n3663_3_1_1_4,n3663_3_1_1_4_3
n3665_3_1_1_5,n3665_3_1_1_5_3
n3669_3_1_1_4,n3669_3_1_1_4_3
n3674_3_1_1_5,n3674_3_1_1_5_3
n3675_3_1_1_4,n3675_3_1_1_4_3
n3679_3_1_1_4,n3679_3_1_1_4_3
n3682_3_1_1_5,n3682_3_1_1_5_3
n3683_3_1_1_5,n3683_3_1_1_5_3
n3685_3_1_1_5,n3685_3_1_1_5_3
n3688_3_1_1_5,n3688_3_1_1_5_3
n3690_3_1_1_4,n3690_3_1_1_4_3
n3691_3_1_1_4,n3691_3_1_1_4_3
n3697_3_1_1_5,n3697_3_1_1_5_3
n3698_3_1_1_5,n3698_3_1_1_5_3
n3699_3_1_1_5,n3699_3_1_1_5_3
n3700_3_1_1_4,n3700_3_1_1_4_3
n3703_3_1_1_5,n3703_3_1_1_5_3
n3705_3_1_1_4,n3705_3_1_1_4_3
n3706_3_1_1_4,n3706_3_1_1_4_3
n3712_3_1_1_4,n3712_3_1_1_4_3
n3713_3_1_1_5,n3713_3_1_1_5_3
n3715_3_1_1_5,n3715_3_1_1_5_3
n3717_3_1_1_5,n3717_3_1_1_5_3
n3718_3_1_1_5,n3718_3_1_1_5_3
n3719_3_1_1_5,n3719_3_1_1_5_3
n3720_3_1_1_4,n3720_3_1_1_4_3
n3722_3_1_1_5,n3722_3_1_1_5_3
n3724_3_1_1_4,n3724_3_1_1_4_3
n3729_3_1_1_5,n3729_3_1_1_5_3
n3732_3_1_1_4,n3732_3_1_1_4_3
n3734_3_1_1_4,n3734_3_1_1_4_3
n3735_3_1_1_4,n3735_3_1_1_4_3
n3737_3_1_1_5,n3737_3_1_1_5_3
n3738_3_1_1_5,n3738_3_1_1_5_3
n3739_3_1_1_5,n3739_3_1_1_5_3
n3741_3_1_1_4,n3741_3_1_1_4_3
n3742_3_1_1_5,n3742_3_1_1_5_3
n3743_3_1_1_5,n3743_3_1_1_5_3
n3744_3_1_1_4,n3744_3_1_1_4_3
n3745_3_1_1_5,n3745_3_1_1_5_3
n3746_3_1_1_5,n3746_3_1_1_5_3
n3747_3_1_1_5,n3747_3_1_1_5_3
n3748_3_1_1_5,n3748_3_1_1_5_3
n3749_3_1_1_4,n3749_3_1_1_4_3
n3753_3_1_1_4,n3753_3_1_1_4_3
n3754_3_1_1_4,n3754_3_1_1_4_3
n3755_3_1_1_4,n3755_3_1_1_4_3
n3759_3_1_1_5,n3759_3_1_1_5_3
n3761_3_1_1_4,n3761_3_1_1_4_3
n3765_3_1_1_5,n3765_3_1_1_5_3
n3766_3_1_1_4,n3766_3_1_1_4_3
n3768_3_1_1_4,n3768_3_1_1_4_3
n3769_3_1_1_5,n3769_3_1_1_5_3
n3770_3_1_1_5,n3770_3_1_1_5_3
n3771_3_1_1_4,n3771_3_1_1_4_3
n3777_3_1_1_4,n3777_3_1_1_4_3
n3780_3_1_1_5,n3780_3_1_1_5_3
n3781_3_1_1_4,n3781_3_1_1_4_3
n3782_3_1_1_5,n3782_3_1_1_5_3
n3783_3_1_1_4,n3783_3_1_1_4_3
n3784_3_1_1_4,n3784_3_1_1_4_3
n3786_3_1_1_5,n3786_3_1_1_5_3
n3787_3_1_1_4,n3787_3_1_1_4_3
n3788_3_1_1_5,n3788_3_1_1_5_3
n3790_3_1_1_4,n3790_3_1_1_4_3
n3796_3_1_1_5,n3796_3_1_1_5_3
n3797_3_1_1_5,n3797_3_1_1_5_3
n3798_3_1_1_4,n3798_3_1_1_4_3
n3800_3_1_1_5,n3800_3_1_1_5_3
n3805_3_1_1_5,n3805_3_1_1_5_3
n3806_3_1_1_4,n3806_3_1_1_4_3
n3807_3_1_1_5,n3807_3_1_1_5_3
n3808_3_1_1_4,n3808_3_1_1_4_3
n3812_3_1_1_4,n3812_3_1_1_4_3
n3817_3_1_1_5,n3817_3_1_1_5_3
n3818_3_1_1_5,n3818_3_1_1_5_3
n3820_3_1_1_4,n3820_3_1_1_4_3
n3824_3_1_1_4,n3824_3_1_1_4_3
n3829_3_1_1_5,n3829_3_1_1_5_3
n3831_3_1_1_5,n3831_3_1_1_5_3
n3834_3_1_1_4,n3834_3_1_1_4_3
n3835_3_1_1_4,n3835_3_1_1_4_3
n3836_3_1_1_5,n3836_3_1_1_5_3
n3838_3_1_1_4,n3838_3_1_1_4_3
n3847_3_1_1_5,n3847_3_1_1_5_3
n3848_3_1_1_5,n3848_3_1_1_5_3
n3849_3_1_1_5,n3849_3_1_1_5_3
n3850_3_1_1_4,n3850_3_1_1_4_3
n3852_3_1_1_4,n3852_3_1_1_4_3
n3853_3_1_1_4,n3853_3_1_1_4_3
n3855_3_1_1_5,n3855_3_1_1_5_3
n3858_3_1_1_4,n3858_3_1_1_4_3
n3859_3_1_1_5,n3859_3_1_1_5_3
n3862_3_1_1_4,n3862_3_1_1_4_3
n3863_3_1_1_4,n3863_3_1_1_4_3
n3866_3_1_1_5,n3866_3_1_1_5_3
n3869_3_1_1_4,n3869_3_1_1_4_3
n3871_3_1_1_4,n3871_3_1_1_4_3
n3873_3_1_1_5,n3873_3_1_1_5_3
n3874_3_1_1_5,n3874_3_1_1_5_3
n3876_3_1_1_5,n3876_3_1_1_5_3
n3878_3_1_1_5,n3878_3_1_1_5_3
n3879_3_1_1_5,n3879_3_1_1_5_3
n3881_3_1_1_5,n3881_3_1_1_5_3
n3883_3_1_1_5,n3883_3_1_1_5_3
n3884_3_1_1_5,n3884_3_1_1_5_3
n3885_3_1_1_4,n3885_3_1_1_4_3
n3888_3_1_1_4,n3888_3_1_1_4_3
n3889_3_1_1_4,n3889_3_1_1_4_3
n3892_3_1_1_5,n3892_3_1_1_5_3
n3895_3_1_1_5,n3895_3_1_1_5_3
n3897_3_1_1_4,n3897_3_1_1_4_3
n3898_3_1_1_4,n3898_3_1_1_4_3
n3905_3_1_1_5,n3905_3_1_1_5_3
n3908_3_1_1_5,n3908_3_1_1_5_3
n3910_3_1_1_5,n3910_3_1_1_5_3
n3913_3_1_1_5,n3913_3_1_1_5_3
n3914_3_1_1_5,n3914_3_1_1_5_3
n3916_3_1_1_5,n3916_3_1_1_5_3
n3918_3_1_1_5,n3918_3_1_1_5_3
n3919_3_1_1_5,n3919_3_1_1_5_3
n3922_3_1_1_4,n3922_3_1_1_4_3
n3925_3_1_1_4,n3925_3_1_1_4_3
n3926_3_1_1_4,n3926_3_1_1_4_3
n3929_3_1_1_4,n3929_3_1_1_4_3
n3931_3_1_1_4,n3931_3_1_1_4_3
n3932_3_1_1_5,n3932_3_1_1_5_3
n3933_3_1_1_4,n3933_3_1_1_4_3
n3936_3_1_1_4,n3936_3_1_1_4_3
n3939_3_1_1_4,n3939_3_1_1_4_3
n3940_3_1_1_5,n3940_3_1_1_5_3
n3942_3_1_1_4,n3942_3_1_1_4_3
n3944_3_1_1_5,n3944_3_1_1_5_3
n3947_3_1_1_4,n3947_3_1_1_4_3
n3949_3_1_1_4,n3949_3_1_1_4_3
n3951_3_1_1_5,n3951_3_1_1_5_3
n3958_3_1_1_5,n3958_3_1_1_5_3
n3959_3_1_1_5,n3959_3_1_1_5_3
n3960_3_1_1_4,n3960_3_1_1_4_3
n3961_3_1_1_5,n3961_3_1_1_5_3
n3963_3_1_1_5,n3963_3_1_1_5_3
n3966_3_1_1_5,n3966_3_1_1_5_3
n3967_3_1_1_5,n3967_3_1_1_5_3
n3968_3_1_1_4,n3968_3_1_1_4_3
n3970_3_1_1_5,n3970_3_1_1_5_3
n3971_3_1_1_5,n3971_3_1_1_5_3
n3972_3_1_1_5,n3972_3_1_1_5_3
n3973_3_1_1_4,n3973_3_1_1_4_3
n3977_3_1_1_4,n3977_3_1_1_4_3
n3982_3_1_1_5,n3982_3_1_1_5_3
n3984_3_1_1_5,n3984_3_1_1_5_3
n3985_3_1_1_5,n3985_3_1_1_5_3
n3986_3_1_1_5,n3986_3_1_1_5_3
n3988_3_1_1_4,n3988_3_1_1_4_3
n3989_3_1_1_4,n3989_3_1_1_4_3
n3992_3_1_1_5,n3992_3_1_1_5_3
n3993_3_1_1_4,n3993_3_1_1_4_3
n3995_3_1_1_4,n3995_3_1_1_4_3
n3996_3_1_1_5,n3996_3_1_1_5_3
n3997_3_1_1_4,n3997_3_1_1_4_3
n3998_3_1_1_5,n3998_3_1_1_5_3
n4000_3_1_1_4,n4000_3_1_1_4_3
n4002_3_1_1_4,n4002_3_1_1_4_3
n4003_3_1_1_4,n4003_3_1_1_4_3
n4005_3_1_1_4,n4005_3_1_1_4_3
n4008_3_1_1_4,n4008_3_1_1_4_3
n4009_3_1_1_5,n4009_3_1_1_5_3
n4011_3_1_1_4,n4011_3_1_1_4_3
n4012_3_1_1_4,n4012_3_1_1_4_3
n4013_3_1_1_5,n4013_3_1_1_5_3
n4015_3_1_1_5,n4015_3_1_1_5_3
n4017_3_1_1_4,n4017_3_1_1_4_3
n4018_3_1_1_5,n4018_3_1_1_5_3
n4019_3_1_1_4,n4019_3_1_1_4_3
n4020_3_1_1_5,n4020_3_1_1_5_3
n4021_3_1_1_4,n4021_3_1_1_4_3
n4022_3_1_1_5,n4022_3_1_1_5_3
n4024_3_1_1_5,n4024_3_1_1_5_3
n4025_3_1_1_5,n4025_3_1_1_5_3
n4026_3_1_1_5,n4026_3_1_1_5_3
n4028_3_1_1_5,n4028_3_1_1_5_3
n4030_3_1_1_5,n4030_3_1_1_5_3
n4031_3_1_1_4,n4031_3_1_1_4_3
n4032_3_1_1_5,n4032_3_1_1_5_3
n4033_3_1_1_4,n4033_3_1_1_4_3
n4035_3_1_1_5,n4035_3_1_1_5_3
n4036_3_1_1_5,n4036_3_1_1_5_3
n4037_3_1_1_4,n4037_3_1_1_4_3
n4038_3_1_1_5,n4038_3_1_1_5_3
n4040_3_1_1_5,n4040_3_1_1_5_3
n4046_3_1_1_4,n4046_3_1_1_4_3
n4047_3_1_1_5,n4047_3_1_1_5_3
n4050_3_1_1_4,n4050_3_1_1_4_3
n4056_3_1_1_4,n4056_3_1_1_4_3
n4057_3_1_1_5,n4057_3_1_1_5_3
n4061_3_1_1_5,n4061_3_1_1_5_3
n4063_3_1_1_4,n4063_3_1_1_4_3
n4068_3_1_1_5,n4068_3_1_1_5_3
n4071_3_1_1_4,n4071_3_1_1_4_3
n4075_3_1_1_5,n4075_3_1_1_5_3
n4076_3_1_1_5,n4076_3_1_1_5_3
n4077_3_1_1_4,n4077_3_1_1_4_3
n4078_3_1_1_5,n4078_3_1_1_5_3
n4079_3_1_1_4,n4079_3_1_1_4_3
n4082_3_1_1_5,n4082_3_1_1_5_3
n4083_3_1_1_4,n4083_3_1_1_4_3
n4084_3_1_1_4,n4084_3_1_1_4_3
n4087_3_1_1_5,n4087_3_1_1_5_3
n4088_3_1_1_4,n4088_3_1_1_4_3
n4089_3_1_1_5,n4089_3_1_1_5_3
n4090_3_1_1_5,n4090_3_1_1_5_3
n4091_3_1_1_5,n4091_3_1_1_5_3
n4092_3_1_1_4,n4092_3_1_1_4_3
n4095_3_1_1_5,n4095_3_1_1_5_3
n4096_3_1_1_5,n4096_3_1_1_5_3
n4101_3_1_1_4,n4101_3_1_1_4_3
n4104_3_1_1_4,n4104_3_1_1_4_3
n4107_3_1_1_4,n4107_3_1_1_4_3
n4108_3_1_1_5,n4108_3_1_1_5_3
n4112_3_1_1_4,n4112_3_1_1_4_3
n4113_3_1_1_5,n4113_3_1_1_5_3
n4115_3_1_1_5,n4115_3_1_1_5_3
n4117_3_1_1_5,n4117_3_1_1_5_3
n4118_3_1_1_5,n4118_3_1_1_5_3
n4121_3_1_1_5,n4121_3_1_1_5_3
n4122_3_1_1_4,n4122_3_1_1_4_3
n4123_3_1_1_5,n4123_3_1_1_5_3
n4125_3_1_1_5,n4125_3_1_1_5_3
n4128_3_1_1_5,n4128_3_1_1_5_3
n4131_3_1_1_5,n4131_3_1_1_5_3
n4134_3_1_1_5,n4134_3_1_1_5_3
n4135_3_1_1_4,n4135_3_1_1_4_3
n4136_3_1_1_5,n4136_3_1_1_5_3
n4137_3_1_1_5,n4137_3_1_1_5_3
n4138_3_1_1_4,n4138_3_1_1_4_3
n4139_3_1_1_4,n4139_3_1_1_4_3
n4140_3_1_1_5,n4140_3_1_1_5_3
n4141_3_1_1_4,n4141_3_1_1_4_3
n4142_3_1_1_5,n4142_3_1_1_5_3
n4143_3_1_1_5,n4143_3_1_1_5_3
n4145_3_1_1_5,n4145_3_1_1_5_3
n4146_3_1_1_5,n4146_3_1_1_5_3
n4147_3_1_1_4,n4147_3_1_1_4_3
n4149_3_1_1_4,n4149_3_1_1_4_3
n4150_3_1_1_4,n4150_3_1_1_4_3
n4152_3_1_1_4,n4152_3_1_1_4_3
n4156_3_1_1_5,n4156_3_1_1_5_3
n4157_3_1_1_4,n4157_3_1_1_4_3
n4158_3_1_1_4,n4158_3_1_1_4_3
n4159_3_1_1_4,n4159_3_1_1_4_3
n4160_3_1_1_5,n4160_3_1_1_5_3
n4161_3_1_1_4,n4161_3_1_1_4_3
n4165_3_1_1_5,n4165_3_1_1_5_3
n4166_3_1_1_4,n4166_3_1_1_4_3
n4170_3_1_1_5,n4170_3_1_1_5_3
n4178_3_1_1_4,n4178_3_1_1_4_3
n4182_3_1_1_5,n4182_3_1_1_5_3
n4186_3_1_1_5,n4186_3_1_1_5_3
n4188_3_1_1_4,n4188_3_1_1_4_3
n4190_3_1_1_5,n4190_3_1_1_5_3
n4191_3_1_1_5,n4191_3_1_1_5_3
n4192_3_1_1_4,n4192_3_1_1_4_3
n4197_3_1_1_4,n4197_3_1_1_4_3
n4198_3_1_1_4,n4198_3_1_1_4_3
n4200_3_1_1_5,n4200_3_1_1_5_3
n4202_3_1_1_4,n4202_3_1_1_4_3
n4204_3_1_1_4,n4204_3_1_1_4_3
n4206_3_1_1_5,n4206_3_1_1_5_3
n4207_3_1_1_5,n4207_3_1_1_5_3
n4208_3_1_1_5,n4208_3_1_1_5_3
n4209_3_1_1_4,n4209_3_1_1_4_3
n4210_3_1_1_4,n4210_3_1_1_4_3
n4211_3_1_1_5,n4211_3_1_1_5_3
n4212_3_1_1_5,n4212_3_1_1_5_3
n4213_3_1_1_4,n4213_3_1_1_4_3
n4218_3_1_1_4,n4218_3_1_1_4_3
n4219_3_1_1_4,n4219_3_1_1_4_3
n4220_3_1_1_5,n4220_3_1_1_5_3
n4222_3_1_1_4,n4222_3_1_1_4_3
n4225_3_1_1_5,n4225_3_1_1_5_3
n4228_3_1_1_4,n4228_3_1_1_4_3
n4231_3_1_1_5,n4231_3_1_1_5_3
n4232_3_1_1_4,n4232_3_1_1_4_3
n4233_3_1_1_4,n4233_3_1_1_4_3
n4238_3_1_1_4,n4238_3_1_1_4_3
n4240_3_1_1_5,n4240_3_1_1_5_3
n4241_3_1_1_4,n4241_3_1_1_4_3
n4242_3_1_1_4,n4242_3_1_1_4_3
n4243_3_1_1_5,n4243_3_1_1_5_3
n4245_3_1_1_5,n4245_3_1_1_5_3
n4246_3_1_1_4,n4246_3_1_1_4_3
n4249_3_1_1_4,n4249_3_1_1_4_3
n4251_3_1_1_5,n4251_3_1_1_5_3
n4252_3_1_1_4,n4252_3_1_1_4_3
n4258_3_1_1_4,n4258_3_1_1_4_3
n4259_3_1_1_4,n4259_3_1_1_4_3
n4261_3_1_1_5,n4261_3_1_1_5_3
n4262_3_1_1_4,n4262_3_1_1_4_3
n4264_3_1_1_5,n4264_3_1_1_5_3
n4266_3_1_1_4,n4266_3_1_1_4_3
n4267_3_1_1_5,n4267_3_1_1_5_3
n4268_3_1_1_4,n4268_3_1_1_4_3
n4269_3_1_1_4,n4269_3_1_1_4_3
n4270_3_1_1_4,n4270_3_1_1_4_3
n4271_3_1_1_5,n4271_3_1_1_5_3
n4272_3_1_1_4,n4272_3_1_1_4_3
n4273_3_1_1_5,n4273_3_1_1_5_3
n4276_3_1_1_4,n4276_3_1_1_4_3
n4277_3_1_1_5,n4277_3_1_1_5_3
n4278_3_1_1_4,n4278_3_1_1_4_3
n4281_3_1_1_5,n4281_3_1_1_5_3
n4282_3_1_1_4,n4282_3_1_1_4_3
n4283_3_1_1_4,n4283_3_1_1_4_3
n4286_3_1_1_4,n4286_3_1_1_4_3
n4287_3_1_1_4,n4287_3_1_1_4_3
n4295_3_1_1_5,n4295_3_1_1_5_3
n4296_3_1_1_4,n4296_3_1_1_4_3
n4297_3_1_1_4,n4297_3_1_1_4_3
n4298_3_1_1_5,n4298_3_1_1_5_3
n4300_3_1_1_4,n4300_3_1_1_4_3
n4302_3_1_1_5,n4302_3_1_1_5_3
n4303_3_1_1_4,n4303_3_1_1_4_3
n4304_3_1_1_4,n4304_3_1_1_4_3
n4306_3_1_1_5,n4306_3_1_1_5_3
n4309_3_1_1_5,n4309_3_1_1_5_3
n4311_3_1_1_5,n4311_3_1_1_5_3
n4312_3_1_1_4,n4312_3_1_1_4_3
n4313_3_1_1_5,n4313_3_1_1_5_3
n4314_3_1_1_5,n4314_3_1_1_5_3
n4315_3_1_1_4,n4315_3_1_1_4_3
n4317_3_1_1_4,n4317_3_1_1_4_3
n4318_3_1_1_5,n4318_3_1_1_5_3
n4319_3_1_1_4,n4319_3_1_1_4_3
n4320_3_1_1_4,n4320_3_1_1_4_3
n4321_3_1_1_5,n4321_3_1_1_5_3
n4323_3_1_1_5,n4323_3_1_1_5_3
n4327_3_1_1_5,n4327_3_1_1_5_3
n4328_3_1_1_5,n4328_3_1_1_5_3
n4329_3_1_1_4,n4329_3_1_1_4_3
n4331_3_1_1_4,n4331_3_1_1_4_3
n4335_3_1_1_4,n4335_3_1_1_4_3
n4336_3_1_1_5,n4336_3_1_1_5_3
n4340_3_1_1_5,n4340_3_1_1_5_3
n4341_3_1_1_5,n4341_3_1_1_5_3
n4342_3_1_1_4,n4342_3_1_1_4_3
n4343_3_1_1_5,n4343_3_1_1_5_3
n4344_3_1_1_5,n4344_3_1_1_5_3
n4346_3_1_1_5,n4346_3_1_1_5_3
n4347_3_1_1_4,n4347_3_1_1_4_3
n4348_3_1_1_5,n4348_3_1_1_5_3
n4350_3_1_1_4,n4350_3_1_1_4_3
n4353_3_1_1_4,n4353_3_1_1_4_3
n4354_3_1_1_4,n4354_3_1_1_4_3
n4358_3_1_1_4,n4358_3_1_1_4_3
n4360_3_1_1_5,n4360_3_1_1_5_3
n4362_3_1_1_5,n4362_3_1_1_5_3
n4367_3_1_1_4,n4367_3_1_1_4_3
n4370_3_1_1_5,n4370_3_1_1_5_3
n4371_3_1_1_5,n4371_3_1_1_5_3
n4373_3_1_1_4,n4373_3_1_1_4_3
n4374_3_1_1_4,n4374_3_1_1_4_3
n4377_3_1_1_4,n4377_3_1_1_4_3
n4379_3_1_1_4,n4379_3_1_1_4_3
n4383_3_1_1_4,n4383_3_1_1_4_3
n4386_3_1_1_5,n4386_3_1_1_5_3
n4387_3_1_1_5,n4387_3_1_1_5_3
n4388_3_1_1_5,n4388_3_1_1_5_3
n4390_3_1_1_5,n4390_3_1_1_5_3
n4391_3_1_1_5,n4391_3_1_1_5_3
n4392_3_1_1_4,n4392_3_1_1_4_3
n4393_3_1_1_4,n4393_3_1_1_4_3
n4395_3_1_1_5,n4395_3_1_1_5_3
n4397_3_1_1_4,n4397_3_1_1_4_3
n4398_3_1_1_4,n4398_3_1_1_4_3
n4400_3_1_1_5,n4400_3_1_1_5_3
n4401_3_1_1_4,n4401_3_1_1_4_3
n4402_3_1_1_5,n4402_3_1_1_5_3
n4404_3_1_1_5,n4404_3_1_1_5_3
n4405_3_1_1_5,n4405_3_1_1_5_3
n4407_3_1_1_5,n4407_3_1_1_5_3
n4409_3_1_1_4,n4409_3_1_1_4_3
n4411_3_1_1_4,n4411_3_1_1_4_3
n4413_3_1_1_4,n4413_3_1_1_4_3
n4414_3_1_1_5,n4414_3_1_1_5_3
n4415_3_1_1_4,n4415_3_1_1_4_3
n4417_3_1_1_5,n4417_3_1_1_5_3
n4421_3_1_1_4,n4421_3_1_1_4_3
n4422_3_1_1_4,n4422_3_1_1_4_3
n4429_3_1_1_5,n4429_3_1_1_5_3
n4430_3_1_1_4,n4430_3_1_1_4_3
n4432_3_1_1_4,n4432_3_1_1_4_3
n4433_3_1_1_5,n4433_3_1_1_5_3
n4435_3_1_1_4,n4435_3_1_1_4_3
n4438_3_1_1_4,n4438_3_1_1_4_3
n4440_3_1_1_5,n4440_3_1_1_5_3
n4441_3_1_1_4,n4441_3_1_1_4_3
n4442_3_1_1_5,n4442_3_1_1_5_3
n4443_3_1_1_4,n4443_3_1_1_4_3
n4444_3_1_1_4,n4444_3_1_1_4_3
n4445_3_1_1_5,n4445_3_1_1_5_3
n4447_3_1_1_4,n4447_3_1_1_4_3
n4453_3_1_1_5,n4453_3_1_1_5_3
n4454_3_1_1_4,n4454_3_1_1_4_3
n4456_3_1_1_5,n4456_3_1_1_5_3
n4457_3_1_1_5,n4457_3_1_1_5_3
n4458_3_1_1_4,n4458_3_1_1_4_3
n4459_3_1_1_5,n4459_3_1_1_5_3
n4460_3_1_1_5,n4460_3_1_1_5_3
n4461_3_1_1_5,n4461_3_1_1_5_3
n4463_3_1_1_4,n4463_3_1_1_4_3
n4464_3_1_1_5,n4464_3_1_1_5_3
n4466_3_1_1_5,n4466_3_1_1_5_3
n4467_3_1_1_5,n4467_3_1_1_5_3
n4468_3_1_1_5,n4468_3_1_1_5_3
n4470_3_1_1_4,n4470_3_1_1_4_3
n4473_3_1_1_4,n4473_3_1_1_4_3
n4475_3_1_1_4,n4475_3_1_1_4_3
n4476_3_1_1_5,n4476_3_1_1_5_3
n4478_3_1_1_5,n4478_3_1_1_5_3
n4485_3_1_1_5,n4485_3_1_1_5_3
n4490_3_1_1_4,n4490_3_1_1_4_3
n4491_3_1_1_5,n4491_3_1_1_5_3
n4494_3_1_1_5,n4494_3_1_1_5_3
n4495_3_1_1_4,n4495_3_1_1_4_3
n4496_3_1_1_5,n4496_3_1_1_5_3
n4500_3_1_1_4,n4500_3_1_1_4_3
n4503_3_1_1_4,n4503_3_1_1_4_3
n4507_3_1_1_4,n4507_3_1_1_4_3
n4513_3_1_1_5,n4513_3_1_1_5_3
n4516_3_1_1_4,n4516_3_1_1_4_3
n4518_3_1_1_5,n4518_3_1_1_5_3
n4522_3_1_1_5,n4522_3_1_1_5_3
n4525_3_1_1_5,n4525_3_1_1_5_3
n4526_3_1_1_4,n4526_3_1_1_4_3
n4527_3_1_1_5,n4527_3_1_1_5_3
n4531_3_1_1_4,n4531_3_1_1_4_3
n4535_3_1_1_5,n4535_3_1_1_5_3
n4536_3_1_1_4,n4536_3_1_1_4_3
n4544_3_1_1_4,n4544_3_1_1_4_3
n4545_3_1_1_4,n4545_3_1_1_4_3
n4546_3_1_1_4,n4546_3_1_1_4_3
n4549_3_1_1_5,n4549_3_1_1_5_3
n4551_3_1_1_4,n4551_3_1_1_4_3
n4560_3_1_1_4,n4560_3_1_1_4_3
n4561_3_1_1_4,n4561_3_1_1_4_3
n4562_3_1_1_4,n4562_3_1_1_4_3
n4563_3_1_1_5,n4563_3_1_1_5_3
n4565_3_1_1_4,n4565_3_1_1_4_3
n4568_3_1_1_5,n4568_3_1_1_5_3
n4569_3_1_1_5,n4569_3_1_1_5_3
n4573_3_1_1_5,n4573_3_1_1_5_3
n4575_3_1_1_5,n4575_3_1_1_5_3
n4576_3_1_1_4,n4576_3_1_1_4_3
n4580_3_1_1_5,n4580_3_1_1_5_3
n4581_3_1_1_4,n4581_3_1_1_4_3
n4588_3_1_1_5,n4588_3_1_1_5_3
n4589_3_1_1_5,n4589_3_1_1_5_3
n4591_3_1_1_5,n4591_3_1_1_5_3
n4592_3_1_1_4,n4592_3_1_1_4_3
n4594_3_1_1_4,n4594_3_1_1_4_3
n4595_3_1_1_5,n4595_3_1_1_5_3
n4596_3_1_1_4,n4596_3_1_1_4_3
n4599_3_1_1_5,n4599_3_1_1_5_3
n4603_3_1_1_5,n4603_3_1_1_5_3
n4605_3_1_1_5,n4605_3_1_1_5_3
n4606_3_1_1_4,n4606_3_1_1_4_3
n4607_3_1_1_5,n4607_3_1_1_5_3
n4608_3_1_1_5,n4608_3_1_1_5_3
n4611_3_1_1_4,n4611_3_1_1_4_3
n4612_3_1_1_4,n4612_3_1_1_4_3
n4613_3_1_1_5,n4613_3_1_1_5_3
n4614_3_1_1_4,n4614_3_1_1_4_3
n4615_3_1_1_4,n4615_3_1_1_4_3
n4617_3_1_1_4,n4617_3_1_1_4_3
n4620_3_1_1_5,n4620_3_1_1_5_3
n4624_3_1_1_5,n4624_3_1_1_5_3
n4625_3_1_1_5,n4625_3_1_1_5_3
n4627_3_1_1_5,n4627_3_1_1_5_3
n4633_3_1_1_4,n4633_3_1_1_4_3
n4634_3_1_1_4,n4634_3_1_1_4_3
n4637_3_1_1_5,n4637_3_1_1_5_3
n4641_3_1_1_4,n4641_3_1_1_4_3
n4642_3_1_1_5,n4642_3_1_1_5_3
n4648_3_1_1_5,n4648_3_1_1_5_3
n4649_3_1_1_5,n4649_3_1_1_5_3
n4653_3_1_1_4,n4653_3_1_1_4_3
n4654_3_1_1_4,n4654_3_1_1_4_3
n4658_3_1_1_4,n4658_3_1_1_4_3
n4659_3_1_1_5,n4659_3_1_1_5_3
n4660_3_1_1_4,n4660_3_1_1_4_3
n4663_3_1_1_4,n4663_3_1_1_4_3
n4664_3_1_1_4,n4664_3_1_1_4_3
n4665_3_1_1_4,n4665_3_1_1_4_3
n4668_3_1_1_4,n4668_3_1_1_4_3
n4670_3_1_1_4,n4670_3_1_1_4_3
n4674_3_1_1_4,n4674_3_1_1_4_3
n4675_3_1_1_4,n4675_3_1_1_4_3
n4676_3_1_1_4,n4676_3_1_1_4_3
n4677_3_1_1_5,n4677_3_1_1_5_3
n4678_3_1_1_5,n4678_3_1_1_5_3
n4683_3_1_1_4,n4683_3_1_1_4_3
n4684_3_1_1_4,n4684_3_1_1_4_3
n4686_3_1_1_5,n4686_3_1_1_5_3
n4688_3_1_1_5,n4688_3_1_1_5_3
n4690_3_1_1_4,n4690_3_1_1_4_3
n4691_3_1_1_4,n4691_3_1_1_4_3
n4694_3_1_1_5,n4694_3_1_1_5_3
n4696_3_1_1_5,n4696_3_1_1_5_3
n4698_3_1_1_4,n4698_3_1_1_4_3
n4703_3_1_1_5,n4703_3_1_1_5_3
n4705_3_1_1_4,n4705_3_1_1_4_3
n4706_3_1_1_5,n4706_3_1_1_5_3
n4707_3_1_1_4,n4707_3_1_1_4_3
n4708_3_1_1_4,n4708_3_1_1_4_3
n4710_3_1_1_5,n4710_3_1_1_5_3
n4713_3_1_1_5,n4713_3_1_1_5_3
n4715_3_1_1_4,n4715_3_1_1_4_3
n4717_3_1_1_4,n4717_3_1_1_4_3
n4718_3_1_1_4,n4718_3_1_1_4_3
n4720_3_1_1_5,n4720_3_1_1_5_3
n4721_3_1_1_4,n4721_3_1_1_4_3
n4722_3_1_1_5,n4722_3_1_1_5_3
n4723_3_1_1_4,n4723_3_1_1_4_3
n4724_3_1_1_4,n4724_3_1_1_4_3
n4726_3_1_1_5,n4726_3_1_1_5_3
n4729_3_1_1_4,n4729_3_1_1_4_3
n4731_3_1_1_5,n4731_3_1_1_5_3
n4733_3_1_1_4,n4733_3_1_1_4_3
n4734_3_1_1_4,n4734_3_1_1_4_3
n4735_3_1_1_4,n4735_3_1_1_4_3
n4736_3_1_1_5,n4736_3_1_1_5_3
n4737_3_1_1_5,n4737_3_1_1_5_3
n4738_3_1_1_4,n4738_3_1_1_4_3
n4739_3_1_1_5,n4739_3_1_1_5_3
n4740_3_1_1_5,n4740_3_1_1_5_3
n4745_3_1_1_5,n4745_3_1_1_5_3
n4748_3_1_1_4,n4748_3_1_1_4_3
n4749_3_1_1_5,n4749_3_1_1_5_3
n4750_3_1_1_5,n4750_3_1_1_5_3
n4752_3_1_1_5,n4752_3_1_1_5_3
n4753_3_1_1_4,n4753_3_1_1_4_3
n4756_3_1_1_5,n4756_3_1_1_5_3
n4758_3_1_1_5,n4758_3_1_1_5_3
n4764_3_1_1_4,n4764_3_1_1_4_3
n4769_3_1_1_5,n4769_3_1_1_5_3
n4770_3_1_1_5,n4770_3_1_1_5_3
n4771_3_1_1_4,n4771_3_1_1_4_3
n4774_3_1_1_5,n4774_3_1_1_5_3
n4776_3_1_1_5,n4776_3_1_1_5_3
n4778_3_1_1_5,n4778_3_1_1_5_3
n4779_3_1_1_4,n4779_3_1_1_4_3
n4782_3_1_1_5,n4782_3_1_1_5_3
n4785_3_1_1_5,n4785_3_1_1_5_3
n4786_3_1_1_5,n4786_3_1_1_5_3
n4789_3_1_1_5,n4789_3_1_1_5_3
n4790_3_1_1_4,n4790_3_1_1_4_3
n4792_3_1_1_4,n4792_3_1_1_4_3
n4793_3_1_1_4,n4793_3_1_1_4_3
n4794_3_1_1_4,n4794_3_1_1_4_3
n4796_3_1_1_4,n4796_3_1_1_4_3
n4797_3_1_1_4,n4797_3_1_1_4_3
n4798_3_1_1_4,n4798_3_1_1_4_3
n4800_3_1_1_5,n4800_3_1_1_5_3
n4801_3_1_1_5,n4801_3_1_1_5_3
n4803_3_1_1_5,n4803_3_1_1_5_3
n4804_3_1_1_4,n4804_3_1_1_4_3
n4806_3_1_1_5,n4806_3_1_1_5_3
n4808_3_1_1_5,n4808_3_1_1_5_3
n4809_3_1_1_4,n4809_3_1_1_4_3
n4812_3_1_1_5,n4812_3_1_1_5_3
n4813_3_1_1_4,n4813_3_1_1_4_3
n4816_3_1_1_4,n4816_3_1_1_4_3
n4819_3_1_1_4,n4819_3_1_1_4_3
n4820_3_1_1_4,n4820_3_1_1_4_3
n4821_3_1_1_5,n4821_3_1_1_5_3
n4822_3_1_1_5,n4822_3_1_1_5_3
n4823_3_1_1_5,n4823_3_1_1_5_3
n4826_3_1_1_5,n4826_3_1_1_5_3
n4829_3_1_1_5,n4829_3_1_1_5_3
n4831_3_1_1_4,n4831_3_1_1_4_3
n4832_3_1_1_4,n4832_3_1_1_4_3
n4835_3_1_1_4,n4835_3_1_1_4_3
n4836_3_1_1_4,n4836_3_1_1_4_3
n4839_3_1_1_4,n4839_3_1_1_4_3
n4845_3_1_1_5,n4845_3_1_1_5_3
n4847_3_1_1_4,n4847_3_1_1_4_3
n4849_3_1_1_4,n4849_3_1_1_4_3
n4850_3_1_1_5,n4850_3_1_1_5_3
n4852_3_1_1_4,n4852_3_1_1_4_3
n4854_3_1_1_5,n4854_3_1_1_5_3
n4856_3_1_1_5,n4856_3_1_1_5_3
n4857_3_1_1_4,n4857_3_1_1_4_3
n4861_3_1_1_4,n4861_3_1_1_4_3
n4862_3_1_1_5,n4862_3_1_1_5_3
n4863_3_1_1_4,n4863_3_1_1_4_3
n4867_3_1_1_5,n4867_3_1_1_5_3
n4868_3_1_1_5,n4868_3_1_1_5_3
n4869_3_1_1_4,n4869_3_1_1_4_3
n4870_3_1_1_5,n4870_3_1_1_5_3
n4882_3_1_1_4,n4882_3_1_1_4_3
n4887_3_1_1_4,n4887_3_1_1_4_3
n4892_3_1_1_5,n4892_3_1_1_5_3
n4894_3_1_1_4,n4894_3_1_1_4_3
n4898_3_1_1_4,n4898_3_1_1_4_3
n4903_3_1_1_5,n4903_3_1_1_5_3
n4904_3_1_1_4,n4904_3_1_1_4_3
n4905_3_1_1_5,n4905_3_1_1_5_3
n4906_3_1_1_5,n4906_3_1_1_5_3
n4908_3_1_1_5,n4908_3_1_1_5_3
n4913_3_1_1_4,n4913_3_1_1_4_3
n4917_3_1_1_5,n4917_3_1_1_5_3
n4918_3_1_1_5,n4918_3_1_1_5_3
n4921_3_1_1_5,n4921_3_1_1_5_3
n4923_3_1_1_5,n4923_3_1_1_5_3
