n1_3_1_1_1,n1_3_1_1_1_5
n2_3_1_1_1,n2_3_1_1_1_5
n3_3_1_1_1,n3_3_1_1_1_5
n4_3_1_1_1,n4_3_1_1_1_5
n5_3_1_1_1,n5_3_1_1_1_5
n6_3_1_1_1,n6_3_1_1_1_5
n7_3_1_1_1,n7_3_1_1_1_5
n8_3_1_1_1,n8_3_1_1_1_5
n9_3_1_1_1,n9_3_1_1_1_5
n10_3_1_1_1,n10_3_1_1_1_5
n11_3_1_1_1,n11_3_1_1_1_5
n12_3_1_1_1,n12_3_1_1_1_6
n13_3_1_1_1,n13_3_1_1_1_5
n14_3_1_1_1,n14_3_1_1_1_5
n15_3_1_1_1,n15_3_1_1_1_5
n17_3_1_1_1,n17_3_1_1_1_6
n18_3_1_1_1,n18_3_1_1_1_5
n19_3_1_1_1,n19_3_1_1_1_5
n20_3_1_1_1,n20_3_1_1_1_5
n21_3_1_1_1,n21_3_1_1_1_6
n22_3_1_1_1,n22_3_1_1_1_5
n23_3_1_1_1,n23_3_1_1_1_5
n24_3_1_1_1,n24_3_1_1_1_5
n25_3_1_1_1,n25_3_1_1_1_5
n26_3_1_1_1,n26_3_1_1_1_5
n27_3_1_1_1,n27_3_1_1_1_5
n28_3_1_1_1,n28_3_1_1_1_5
n29_3_1_1_1,n29_3_1_1_1_5
n30_3_1_1_1,n30_3_1_1_1_5
n31_3_1_1_1,n31_3_1_1_1_5
n32_3_1_1_1,n32_3_1_1_1_5
n33_3_1_1_1,n33_3_1_1_1_5
n34_3_1_1_1,n34_3_1_1_1_5
n35_3_1_1_1,n35_3_1_1_1_5
n36_3_1_1_1,n36_3_1_1_1_5
n37_3_1_1_1,n37_3_1_1_1_5
n38_3_1_1_1,n38_3_1_1_1_5
n39_3_1_1_1,n39_3_1_1_1_5
n40_3_1_1_1,n40_3_1_1_1_5
n41_3_1_1_1,n41_3_1_1_1_5
n43_3_1_1_1,n43_3_1_1_1_5
n44_3_1_1_1,n44_3_1_1_1_5
n45_3_1_1_1,n45_3_1_1_1_5
n46_3_1_1_1,n46_3_1_1_1_5
n47_3_1_1_1,n47_3_1_1_1_5
n48_3_1_1_1,n48_3_1_1_1_5
n49_3_1_1_1,n49_3_1_1_1_5
n50_3_1_1_1,n50_3_1_1_1_6
n51_3_1_1_1,n51_3_1_1_1_5
n52_3_1_1_1,n52_3_1_1_1_5
n53_3_1_1_1,n53_3_1_1_1_5
n54_3_1_1_1,n54_3_1_1_1_5
n55_3_1_1_1,n55_3_1_1_1_5
n56_3_1_1_1,n56_3_1_1_1_5
n57_3_1_1_1,n57_3_1_1_1_5
n58_3_1_1_1,n58_3_1_1_1_5
n59_3_1_1_1,n59_3_1_1_1_5
n60_3_1_1_1,n60_3_1_1_1_5
n61_3_1_1_1,n61_3_1_1_1_5
n62_3_1_1_1,n62_3_1_1_1_5
n63_3_1_1_1,n63_3_1_1_1_5
n64_3_1_1_1,n64_3_1_1_1_5
n65_3_1_1_1,n65_3_1_1_1_5
n66_3_1_1_1,n66_3_1_1_1_5
n67_3_1_1_1,n67_3_1_1_1_5
n68_3_1_1_1,n68_3_1_1_1_5
n69_3_1_1_1,n69_3_1_1_1_5
n70_3_1_1_1,n70_3_1_1_1_5
n71_3_1_1_1,n71_3_1_1_1_5
n72_3_1_1_1,n72_3_1_1_1_6
n73_3_1_1_1,n73_3_1_1_1_5
n74_3_1_1_1,n74_3_1_1_1_5
n75_3_1_1_1,n75_3_1_1_1_5
n76_3_1_1_1,n76_3_1_1_1_5
n77_3_1_1_1,n77_3_1_1_1_5
n78_3_1_1_1,n78_3_1_1_1_5
n79_3_1_1_1,n79_3_1_1_1_5
n80_3_1_1_1,n80_3_1_1_1_5
n81_3_1_1_1,n81_3_1_1_1_5
n82_3_1_1_1,n82_3_1_1_1_5
n83_3_1_1_1,n83_3_1_1_1_6
n84_3_1_1_1,n84_3_1_1_1_6
n85_3_1_1_1,n85_3_1_1_1_5
n86_3_1_1_1,n86_3_1_1_1_5
n87_3_1_1_1,n87_3_1_1_1_5
n88_3_1_1_1,n88_3_1_1_1_5
n89_3_1_1_1,n89_3_1_1_1_5
n90_3_1_1_1,n90_3_1_1_1_5
n91_3_1_1_1,n91_3_1_1_1_5
n92_3_1_1_1,n92_3_1_1_1_6
n93_3_1_1_1,n93_3_1_1_1_5
n94_3_1_1_1,n94_3_1_1_1_6
n95_3_1_1_1,n95_3_1_1_1_5
n97_3_1_1_1,n97_3_1_1_1_5
n98_3_1_1_1,n98_3_1_1_1_5
n99_3_1_1_1,n99_3_1_1_1_5
n100_3_1_1_1,n100_3_1_1_1_5
n101_3_1_1_1,n101_3_1_1_1_5
n102_3_1_1_1,n102_3_1_1_1_5
n103_3_1_1_1,n103_3_1_1_1_5
n104_3_1_1_1,n104_3_1_1_1_5
n105_3_1_1_1,n105_3_1_1_1_5
n106_3_1_1_1,n106_3_1_1_1_5
n107_3_1_1_1,n107_3_1_1_1_5
n108_3_1_1_1,n108_3_1_1_1_5
n109_3_1_1_1,n109_3_1_1_1_5
n110_3_1_1_1,n110_3_1_1_1_5
n112_3_1_1_1,n112_3_1_1_1_5
n113_3_1_1_1,n113_3_1_1_1_5
n114_3_1_1_1,n114_3_1_1_1_5
n115_3_1_1_1,n115_3_1_1_1_5
n116_3_1_1_1,n116_3_1_1_1_5
n117_3_1_1_1,n117_3_1_1_1_5
n118_3_1_1_1,n118_3_1_1_1_5
n119_3_1_1_1,n119_3_1_1_1_5
n120_3_1_1_1,n120_3_1_1_1_5
n121_3_1_1_1,n121_3_1_1_1_5
n122_3_1_1_1,n122_3_1_1_1_5
n123_3_1_1_1,n123_3_1_1_1_5
n124_3_1_1_1,n124_3_1_1_1_5
n125_3_1_1_1,n125_3_1_1_1_5
n127_3_1_1_1,n127_3_1_1_1_5
n128_3_1_1_1,n128_3_1_1_1_5
n129_3_1_1_1,n129_3_1_1_1_5
n130_3_1_1_1,n130_3_1_1_1_5
n131_3_1_1_1,n131_3_1_1_1_5
n132_3_1_1_1,n132_3_1_1_1_5
n133_3_1_1_1,n133_3_1_1_1_5
n134_3_1_1_1,n134_3_1_1_1_5
n135_3_1_1_1,n135_3_1_1_1_6
n136_3_1_1_1,n136_3_1_1_1_5
n137_3_1_1_1,n137_3_1_1_1_5
n138_3_1_1_1,n138_3_1_1_1_6
n139_3_1_1_1,n139_3_1_1_1_5
n140_3_1_1_1,n140_3_1_1_1_5
n141_3_1_1_1,n141_3_1_1_1_5
n142_3_1_1_1,n142_3_1_1_1_5
n143_3_1_1_1,n143_3_1_1_1_5
n144_3_1_1_1,n144_3_1_1_1_5
n145_3_1_1_1,n145_3_1_1_1_5
n146_3_1_1_1,n146_3_1_1_1_6
n147_3_1_1_1,n147_3_1_1_1_5
n149_3_1_1_1,n149_3_1_1_1_5
n150_3_1_1_1,n150_3_1_1_1_5
n151_3_1_1_1,n151_3_1_1_1_5
n152_3_1_1_1,n152_3_1_1_1_5
n153_3_1_1_1,n153_3_1_1_1_6
n154_3_1_1_1,n154_3_1_1_1_5
n155_3_1_1_1,n155_3_1_1_1_5
n156_3_1_1_1,n156_3_1_1_1_5
n157_3_1_1_1,n157_3_1_1_1_5
n158_3_1_1_1,n158_3_1_1_1_5
n159_3_1_1_1,n159_3_1_1_1_5
n160_3_1_1_1,n160_3_1_1_1_5
n161_3_1_1_1,n161_3_1_1_1_6
n162_3_1_1_1,n162_3_1_1_1_5
n163_3_1_1_1,n163_3_1_1_1_5
n164_3_1_1_1,n164_3_1_1_1_5
n165_3_1_1_1,n165_3_1_1_1_5
n166_3_1_1_1,n166_3_1_1_1_5
n168_3_1_1_1,n168_3_1_1_1_5
n169_3_1_1_1,n169_3_1_1_1_5
n171_3_1_1_1,n171_3_1_1_1_5
n172_3_1_1_1,n172_3_1_1_1_5
n173_3_1_1_1,n173_3_1_1_1_5
n174_3_1_1_1,n174_3_1_1_1_5
n175_3_1_1_1,n175_3_1_1_1_5
n176_3_1_1_1,n176_3_1_1_1_5
n177_3_1_1_1,n177_3_1_1_1_5
n178_3_1_1_1,n178_3_1_1_1_5
n179_3_1_1_1,n179_3_1_1_1_5
n180_3_1_1_1,n180_3_1_1_1_5
n181_3_1_1_1,n181_3_1_1_1_5
n182_3_1_1_1,n182_3_1_1_1_5
n184_3_1_1_1,n184_3_1_1_1_5
n185_3_1_1_1,n185_3_1_1_1_5
n186_3_1_1_1,n186_3_1_1_1_5
n187_3_1_1_1,n187_3_1_1_1_6
n188_3_1_1_1,n188_3_1_1_1_6
n189_3_1_1_1,n189_3_1_1_1_6
n190_3_1_1_1,n190_3_1_1_1_5
n191_3_1_1_1,n191_3_1_1_1_5
n192_3_1_1_1,n192_3_1_1_1_5
n193_3_1_1_1,n193_3_1_1_1_5
n194_3_1_1_1,n194_3_1_1_1_5
n195_3_1_1_1,n195_3_1_1_1_5
n196_3_1_1_1,n196_3_1_1_1_5
n197_3_1_1_1,n197_3_1_1_1_5
n198_3_1_1_1,n198_3_1_1_1_5
n199_3_1_1_1,n199_3_1_1_1_5
n200_3_1_1_1,n200_3_1_1_1_5
n201_3_1_1_1,n201_3_1_1_1_5
n202_3_1_1_1,n202_3_1_1_1_5
n203_3_1_1_1,n203_3_1_1_1_5
n205_3_1_1_1,n205_3_1_1_1_5
n206_3_1_1_1,n206_3_1_1_1_5
n207_3_1_1_1,n207_3_1_1_1_5
n208_3_1_1_1,n208_3_1_1_1_5
n209_3_1_1_1,n209_3_1_1_1_6
n210_3_1_1_1,n210_3_1_1_1_5
n212_3_1_1_1,n212_3_1_1_1_5
n213_3_1_1_1,n213_3_1_1_1_5
n214_3_1_1_1,n214_3_1_1_1_5
n215_3_1_1_1,n215_3_1_1_1_5
n216_3_1_1_1,n216_3_1_1_1_5
n217_3_1_1_1,n217_3_1_1_1_5
n218_3_1_1_1,n218_3_1_1_1_5
n219_3_1_1_1,n219_3_1_1_1_5
n220_3_1_1_1,n220_3_1_1_1_5
n221_3_1_1_1,n221_3_1_1_1_5
n222_3_1_1_1,n222_3_1_1_1_5
n223_3_1_1_1,n223_3_1_1_1_6
n224_3_1_1_1,n224_3_1_1_1_5
n225_3_1_1_1,n225_3_1_1_1_5
n226_3_1_1_1,n226_3_1_1_1_5
n227_3_1_1_1,n227_3_1_1_1_5
n228_3_1_1_1,n228_3_1_1_1_6
n229_3_1_1_1,n229_3_1_1_1_5
n230_3_1_1_1,n230_3_1_1_1_5
n231_3_1_1_1,n231_3_1_1_1_5
n232_3_1_1_1,n232_3_1_1_1_5
n233_3_1_1_1,n233_3_1_1_1_6
n234_3_1_1_1,n234_3_1_1_1_5
n235_3_1_1_1,n235_3_1_1_1_5
n236_3_1_1_1,n236_3_1_1_1_5
n237_3_1_1_1,n237_3_1_1_1_5
n238_3_1_1_1,n238_3_1_1_1_5
n239_3_1_1_1,n239_3_1_1_1_5
n240_3_1_1_1,n240_3_1_1_1_5
n241_3_1_1_1,n241_3_1_1_1_5
n242_3_1_1_1,n242_3_1_1_1_5
n243_3_1_1_1,n243_3_1_1_1_5
n244_3_1_1_1,n244_3_1_1_1_6
n245_3_1_1_1,n245_3_1_1_1_5
n246_3_1_1_1,n246_3_1_1_1_5
n247_3_1_1_1,n247_3_1_1_1_5
n248_3_1_1_1,n248_3_1_1_1_5
n249_3_1_1_1,n249_3_1_1_1_5
n250_3_1_1_1,n250_3_1_1_1_5
n251_3_1_1_1,n251_3_1_1_1_5
n252_3_1_1_1,n252_3_1_1_1_5
n253_3_1_1_1,n253_3_1_1_1_5
n254_3_1_1_1,n254_3_1_1_1_5
n255_3_1_1_1,n255_3_1_1_1_5
n256_3_1_1_1,n256_3_1_1_1_5
n257_3_1_1_1,n257_3_1_1_1_5
n258_3_1_1_1,n258_3_1_1_1_5
n259_3_1_1_1,n259_3_1_1_1_5
n260_3_1_1_1,n260_3_1_1_1_5
n261_3_1_1_1,n261_3_1_1_1_5
n262_3_1_1_1,n262_3_1_1_1_5
n263_3_1_1_1,n263_3_1_1_1_5
n264_3_1_1_1,n264_3_1_1_1_5
n265_3_1_1_1,n265_3_1_1_1_5
n267_3_1_1_1,n267_3_1_1_1_6
n268_3_1_1_1,n268_3_1_1_1_5
n269_3_1_1_1,n269_3_1_1_1_5
n270_3_1_1_1,n270_3_1_1_1_5
n271_3_1_1_1,n271_3_1_1_1_5
n272_3_1_1_1,n272_3_1_1_1_5
n273_3_1_1_1,n273_3_1_1_1_5
n274_3_1_1_1,n274_3_1_1_1_5
n275_3_1_1_1,n275_3_1_1_1_5
n277_3_1_1_1,n277_3_1_1_1_5
n278_3_1_1_1,n278_3_1_1_1_5
n279_3_1_1_1,n279_3_1_1_1_5
n280_3_1_1_1,n280_3_1_1_1_5
n281_3_1_1_1,n281_3_1_1_1_5
n282_3_1_1_1,n282_3_1_1_1_5
n283_3_1_1_1,n283_3_1_1_1_5
n284_3_1_1_1,n284_3_1_1_1_6
n285_3_1_1_1,n285_3_1_1_1_6
n286_3_1_1_1,n286_3_1_1_1_5
n287_3_1_1_1,n287_3_1_1_1_5
n288_3_1_1_1,n288_3_1_1_1_5
n289_3_1_1_1,n289_3_1_1_1_5
n290_3_1_1_1,n290_3_1_1_1_5
n291_3_1_1_1,n291_3_1_1_1_5
n293_3_1_1_1,n293_3_1_1_1_5
n294_3_1_1_1,n294_3_1_1_1_5
n295_3_1_1_1,n295_3_1_1_1_5
n296_3_1_1_1,n296_3_1_1_1_5
n297_3_1_1_1,n297_3_1_1_1_5
n298_3_1_1_1,n298_3_1_1_1_5
n299_3_1_1_1,n299_3_1_1_1_5
n300_3_1_1_1,n300_3_1_1_1_5
n301_3_1_1_1,n301_3_1_1_1_5
n302_3_1_1_1,n302_3_1_1_1_5
n303_3_1_1_1,n303_3_1_1_1_5
n304_3_1_1_1,n304_3_1_1_1_5
n305_3_1_1_1,n305_3_1_1_1_5
n306_3_1_1_1,n306_3_1_1_1_6
n307_3_1_1_1,n307_3_1_1_1_5
n308_3_1_1_1,n308_3_1_1_1_5
n309_3_1_1_1,n309_3_1_1_1_5
n310_3_1_1_1,n310_3_1_1_1_5
n311_3_1_1_1,n311_3_1_1_1_5
n312_3_1_1_1,n312_3_1_1_1_5
n313_3_1_1_1,n313_3_1_1_1_5
n314_3_1_1_1,n314_3_1_1_1_5
n316_3_1_1_1,n316_3_1_1_1_5
n317_3_1_1_1,n317_3_1_1_1_5
n318_3_1_1_1,n318_3_1_1_1_5
n319_3_1_1_1,n319_3_1_1_1_5
n320_3_1_1_1,n320_3_1_1_1_5
n321_3_1_1_1,n321_3_1_1_1_5
n322_3_1_1_1,n322_3_1_1_1_5
n323_3_1_1_1,n323_3_1_1_1_5
n324_3_1_1_1,n324_3_1_1_1_5
n325_3_1_1_1,n325_3_1_1_1_5
n326_3_1_1_1,n326_3_1_1_1_5
n327_3_1_1_1,n327_3_1_1_1_5
n328_3_1_1_1,n328_3_1_1_1_6
n329_3_1_1_1,n329_3_1_1_1_5
n330_3_1_1_1,n330_3_1_1_1_5
n331_3_1_1_1,n331_3_1_1_1_5
n332_3_1_1_1,n332_3_1_1_1_5
n333_3_1_1_1,n333_3_1_1_1_5
n334_3_1_1_1,n334_3_1_1_1_6
n335_3_1_1_1,n335_3_1_1_1_5
n336_3_1_1_1,n336_3_1_1_1_5
n337_3_1_1_1,n337_3_1_1_1_6
n338_3_1_1_1,n338_3_1_1_1_5
n339_3_1_1_1,n339_3_1_1_1_5
n340_3_1_1_1,n340_3_1_1_1_5
n341_3_1_1_1,n341_3_1_1_1_5
n342_3_1_1_1,n342_3_1_1_1_5
n343_3_1_1_1,n343_3_1_1_1_5
n344_3_1_1_1,n344_3_1_1_1_5
n345_3_1_1_1,n345_3_1_1_1_5
n346_3_1_1_1,n346_3_1_1_1_6
n347_3_1_1_1,n347_3_1_1_1_5
n348_3_1_1_1,n348_3_1_1_1_5
n349_3_1_1_1,n349_3_1_1_1_5
n350_3_1_1_1,n350_3_1_1_1_5
n351_3_1_1_1,n351_3_1_1_1_5
n352_3_1_1_1,n352_3_1_1_1_5
n353_3_1_1_1,n353_3_1_1_1_5
n354_3_1_1_1,n354_3_1_1_1_5
n355_3_1_1_1,n355_3_1_1_1_5
n356_3_1_1_1,n356_3_1_1_1_6
n357_3_1_1_1,n357_3_1_1_1_5
n358_3_1_1_1,n358_3_1_1_1_5
n359_3_1_1_1,n359_3_1_1_1_5
n360_3_1_1_1,n360_3_1_1_1_6
n361_3_1_1_1,n361_3_1_1_1_5
n362_3_1_1_1,n362_3_1_1_1_5
n363_3_1_1_1,n363_3_1_1_1_6
n364_3_1_1_1,n364_3_1_1_1_5
n365_3_1_1_1,n365_3_1_1_1_6
n366_3_1_1_1,n366_3_1_1_1_5
n367_3_1_1_1,n367_3_1_1_1_5
n368_3_1_1_1,n368_3_1_1_1_5
n369_3_1_1_1,n369_3_1_1_1_5
n370_3_1_1_1,n370_3_1_1_1_5
n371_3_1_1_1,n371_3_1_1_1_5
n372_3_1_1_1,n372_3_1_1_1_5
n373_3_1_1_1,n373_3_1_1_1_5
n374_3_1_1_1,n374_3_1_1_1_5
n375_3_1_1_1,n375_3_1_1_1_5
n376_3_1_1_1,n376_3_1_1_1_5
n377_3_1_1_1,n377_3_1_1_1_5
n378_3_1_1_1,n378_3_1_1_1_5
n379_3_1_1_1,n379_3_1_1_1_5
n380_3_1_1_1,n380_3_1_1_1_5
n381_3_1_1_1,n381_3_1_1_1_5
n382_3_1_1_1,n382_3_1_1_1_5
n383_3_1_1_1,n383_3_1_1_1_5
n384_3_1_1_1,n384_3_1_1_1_5
n385_3_1_1_1,n385_3_1_1_1_5
n386_3_1_1_1,n386_3_1_1_1_5
n387_3_1_1_1,n387_3_1_1_1_5
n389_3_1_1_1,n389_3_1_1_1_5
n390_3_1_1_1,n390_3_1_1_1_5
n391_3_1_1_1,n391_3_1_1_1_5
n392_3_1_1_1,n392_3_1_1_1_6
n393_3_1_1_1,n393_3_1_1_1_5
n394_3_1_1_1,n394_3_1_1_1_5
n395_3_1_1_1,n395_3_1_1_1_6
n396_3_1_1_1,n396_3_1_1_1_5
n397_3_1_1_1,n397_3_1_1_1_5
n398_3_1_1_1,n398_3_1_1_1_5
n399_3_1_1_1,n399_3_1_1_1_5
n400_3_1_1_1,n400_3_1_1_1_6
n401_3_1_1_1,n401_3_1_1_1_5
n402_3_1_1_1,n402_3_1_1_1_6
n403_3_1_1_1,n403_3_1_1_1_5
n404_3_1_1_1,n404_3_1_1_1_6
n405_3_1_1_1,n405_3_1_1_1_5
n406_3_1_1_1,n406_3_1_1_1_5
n407_3_1_1_1,n407_3_1_1_1_5
n408_3_1_1_1,n408_3_1_1_1_5
n409_3_1_1_1,n409_3_1_1_1_5
n410_3_1_1_1,n410_3_1_1_1_5
n411_3_1_1_1,n411_3_1_1_1_5
n412_3_1_1_1,n412_3_1_1_1_5
n413_3_1_1_1,n413_3_1_1_1_5
n414_3_1_1_1,n414_3_1_1_1_5
n415_3_1_1_1,n415_3_1_1_1_5
n416_3_1_1_1,n416_3_1_1_1_5
n417_3_1_1_1,n417_3_1_1_1_5
n418_3_1_1_1,n418_3_1_1_1_5
n419_3_1_1_1,n419_3_1_1_1_5
n420_3_1_1_1,n420_3_1_1_1_5
n421_3_1_1_1,n421_3_1_1_1_5
n422_3_1_1_1,n422_3_1_1_1_6
n423_3_1_1_1,n423_3_1_1_1_5
n424_3_1_1_1,n424_3_1_1_1_5
n425_3_1_1_1,n425_3_1_1_1_5
n426_3_1_1_1,n426_3_1_1_1_5
n427_3_1_1_1,n427_3_1_1_1_5
n428_3_1_1_1,n428_3_1_1_1_5
n429_3_1_1_1,n429_3_1_1_1_5
n430_3_1_1_1,n430_3_1_1_1_5
n431_3_1_1_1,n431_3_1_1_1_5
n432_3_1_1_1,n432_3_1_1_1_5
n433_3_1_1_1,n433_3_1_1_1_6
n435_3_1_1_1,n435_3_1_1_1_6
n436_3_1_1_1,n436_3_1_1_1_5
n437_3_1_1_1,n437_3_1_1_1_5
n438_3_1_1_1,n438_3_1_1_1_6
n439_3_1_1_1,n439_3_1_1_1_5
n440_3_1_1_1,n440_3_1_1_1_5
n441_3_1_1_1,n441_3_1_1_1_5
n442_3_1_1_1,n442_3_1_1_1_5
n443_3_1_1_1,n443_3_1_1_1_5
n444_3_1_1_1,n444_3_1_1_1_5
n445_3_1_1_1,n445_3_1_1_1_5
n446_3_1_1_1,n446_3_1_1_1_5
n447_3_1_1_1,n447_3_1_1_1_5
n448_3_1_1_1,n448_3_1_1_1_5
n449_3_1_1_1,n449_3_1_1_1_5
n450_3_1_1_1,n450_3_1_1_1_5
n451_3_1_1_1,n451_3_1_1_1_6
n452_3_1_1_1,n452_3_1_1_1_5
n453_3_1_1_1,n453_3_1_1_1_5
n454_3_1_1_1,n454_3_1_1_1_5
n455_3_1_1_1,n455_3_1_1_1_5
n456_3_1_1_1,n456_3_1_1_1_6
n457_3_1_1_1,n457_3_1_1_1_5
n458_3_1_1_1,n458_3_1_1_1_5
n459_3_1_1_1,n459_3_1_1_1_5
n460_3_1_1_1,n460_3_1_1_1_5
n461_3_1_1_1,n461_3_1_1_1_5
n462_3_1_1_1,n462_3_1_1_1_5
n464_3_1_1_1,n464_3_1_1_1_5
n465_3_1_1_1,n465_3_1_1_1_5
n466_3_1_1_1,n466_3_1_1_1_5
n467_3_1_1_1,n467_3_1_1_1_6
n468_3_1_1_1,n468_3_1_1_1_5
n469_3_1_1_1,n469_3_1_1_1_6
n470_3_1_1_1,n470_3_1_1_1_5
n471_3_1_1_1,n471_3_1_1_1_5
n472_3_1_1_1,n472_3_1_1_1_5
n473_3_1_1_1,n473_3_1_1_1_6
n474_3_1_1_1,n474_3_1_1_1_5
n475_3_1_1_1,n475_3_1_1_1_5
n476_3_1_1_1,n476_3_1_1_1_5
n477_3_1_1_1,n477_3_1_1_1_5
n478_3_1_1_1,n478_3_1_1_1_5
n479_3_1_1_1,n479_3_1_1_1_5
n480_3_1_1_1,n480_3_1_1_1_5
n481_3_1_1_1,n481_3_1_1_1_6
n482_3_1_1_1,n482_3_1_1_1_5
n483_3_1_1_1,n483_3_1_1_1_5
n484_3_1_1_1,n484_3_1_1_1_5
n485_3_1_1_1,n485_3_1_1_1_5
n486_3_1_1_1,n486_3_1_1_1_5
n487_3_1_1_1,n487_3_1_1_1_5
n488_3_1_1_1,n488_3_1_1_1_5
n489_3_1_1_1,n489_3_1_1_1_5
n490_3_1_1_1,n490_3_1_1_1_5
n491_3_1_1_1,n491_3_1_1_1_5
n493_3_1_1_1,n493_3_1_1_1_5
n494_3_1_1_1,n494_3_1_1_1_5
n495_3_1_1_1,n495_3_1_1_1_6
n496_3_1_1_1,n496_3_1_1_1_5
n497_3_1_1_1,n497_3_1_1_1_6
n498_3_1_1_1,n498_3_1_1_1_5
n499_3_1_1_1,n499_3_1_1_1_5
n500_3_1_1_1,n500_3_1_1_1_5
n501_3_1_1_1,n501_3_1_1_1_5
n502_3_1_1_1,n502_3_1_1_1_5
n503_3_1_1_1,n503_3_1_1_1_5
n504_3_1_1_1,n504_3_1_1_1_5
n505_3_1_1_1,n505_3_1_1_1_5
n506_3_1_1_1,n506_3_1_1_1_5
n507_3_1_1_1,n507_3_1_1_1_5
n508_3_1_1_1,n508_3_1_1_1_5
n509_3_1_1_1,n509_3_1_1_1_5
n510_3_1_1_1,n510_3_1_1_1_6
n511_3_1_1_1,n511_3_1_1_1_5
n512_3_1_1_1,n512_3_1_1_1_5
n513_3_1_1_1,n513_3_1_1_1_5
n514_3_1_1_1,n514_3_1_1_1_5
n515_3_1_1_1,n515_3_1_1_1_5
n516_3_1_1_1,n516_3_1_1_1_5
n517_3_1_1_1,n517_3_1_1_1_6
n519_3_1_1_1,n519_3_1_1_1_5
n520_3_1_1_1,n520_3_1_1_1_5
n521_3_1_1_1,n521_3_1_1_1_5
n522_3_1_1_1,n522_3_1_1_1_5
n523_3_1_1_1,n523_3_1_1_1_5
n524_3_1_1_1,n524_3_1_1_1_5
n525_3_1_1_1,n525_3_1_1_1_5
n526_3_1_1_1,n526_3_1_1_1_5
n527_3_1_1_1,n527_3_1_1_1_5
n528_3_1_1_1,n528_3_1_1_1_5
n529_3_1_1_1,n529_3_1_1_1_5
n530_3_1_1_1,n530_3_1_1_1_5
n531_3_1_1_1,n531_3_1_1_1_5
n532_3_1_1_1,n532_3_1_1_1_5
n533_3_1_1_1,n533_3_1_1_1_5
n534_3_1_1_1,n534_3_1_1_1_5
n535_3_1_1_1,n535_3_1_1_1_5
n536_3_1_1_1,n536_3_1_1_1_6
n537_3_1_1_1,n537_3_1_1_1_5
n538_3_1_1_1,n538_3_1_1_1_6
n539_3_1_1_1,n539_3_1_1_1_5
n540_3_1_1_1,n540_3_1_1_1_5
n541_3_1_1_1,n541_3_1_1_1_5
n542_3_1_1_1,n542_3_1_1_1_5
n543_3_1_1_1,n543_3_1_1_1_5
n544_3_1_1_1,n544_3_1_1_1_5
n545_3_1_1_1,n545_3_1_1_1_5
n546_3_1_1_1,n546_3_1_1_1_5
n547_3_1_1_1,n547_3_1_1_1_5
n548_3_1_1_1,n548_3_1_1_1_5
n549_3_1_1_1,n549_3_1_1_1_5
n550_3_1_1_1,n550_3_1_1_1_5
n551_3_1_1_1,n551_3_1_1_1_5
n552_3_1_1_1,n552_3_1_1_1_5
n553_3_1_1_1,n553_3_1_1_1_5
n554_3_1_1_1,n554_3_1_1_1_5
n555_3_1_1_1,n555_3_1_1_1_6
n556_3_1_1_1,n556_3_1_1_1_5
n557_3_1_1_1,n557_3_1_1_1_5
n558_3_1_1_1,n558_3_1_1_1_5
n559_3_1_1_1,n559_3_1_1_1_5
n561_3_1_1_1,n561_3_1_1_1_5
n562_3_1_1_1,n562_3_1_1_1_5
n563_3_1_1_1,n563_3_1_1_1_5
n564_3_1_1_1,n564_3_1_1_1_6
n565_3_1_1_1,n565_3_1_1_1_5
n567_3_1_1_1,n567_3_1_1_1_5
n568_3_1_1_1,n568_3_1_1_1_5
n569_3_1_1_1,n569_3_1_1_1_6
n570_3_1_1_1,n570_3_1_1_1_5
n571_3_1_1_1,n571_3_1_1_1_5
n572_3_1_1_1,n572_3_1_1_1_5
n573_3_1_1_1,n573_3_1_1_1_5
n574_3_1_1_1,n574_3_1_1_1_5
n575_3_1_1_1,n575_3_1_1_1_6
n576_3_1_1_1,n576_3_1_1_1_5
n577_3_1_1_1,n577_3_1_1_1_5
n579_3_1_1_1,n579_3_1_1_1_5
n580_3_1_1_1,n580_3_1_1_1_5
n581_3_1_1_1,n581_3_1_1_1_5
n582_3_1_1_1,n582_3_1_1_1_5
n583_3_1_1_1,n583_3_1_1_1_5
n584_3_1_1_1,n584_3_1_1_1_5
n585_3_1_1_1,n585_3_1_1_1_5
n586_3_1_1_1,n586_3_1_1_1_5
n587_3_1_1_1,n587_3_1_1_1_5
n589_3_1_1_1,n589_3_1_1_1_5
n590_3_1_1_1,n590_3_1_1_1_5
n591_3_1_1_1,n591_3_1_1_1_5
n592_3_1_1_1,n592_3_1_1_1_5
n593_3_1_1_1,n593_3_1_1_1_5
n594_3_1_1_1,n594_3_1_1_1_6
n595_3_1_1_1,n595_3_1_1_1_5
n596_3_1_1_1,n596_3_1_1_1_6
n597_3_1_1_1,n597_3_1_1_1_6
n598_3_1_1_1,n598_3_1_1_1_5
n599_3_1_1_1,n599_3_1_1_1_6
n600_3_1_1_1,n600_3_1_1_1_5
n601_3_1_1_1,n601_3_1_1_1_5
n602_3_1_1_1,n602_3_1_1_1_5
n603_3_1_1_1,n603_3_1_1_1_5
n604_3_1_1_1,n604_3_1_1_1_6
n605_3_1_1_1,n605_3_1_1_1_5
n606_3_1_1_1,n606_3_1_1_1_5
n607_3_1_1_1,n607_3_1_1_1_5
n609_3_1_1_1,n609_3_1_1_1_5
n610_3_1_1_1,n610_3_1_1_1_5
n611_3_1_1_1,n611_3_1_1_1_5
n612_3_1_1_1,n612_3_1_1_1_5
n613_3_1_1_1,n613_3_1_1_1_5
n615_3_1_1_1,n615_3_1_1_1_5
n616_3_1_1_1,n616_3_1_1_1_6
n617_3_1_1_1,n617_3_1_1_1_5
n619_3_1_1_1,n619_3_1_1_1_5
n620_3_1_1_1,n620_3_1_1_1_5
n621_3_1_1_1,n621_3_1_1_1_5
n622_3_1_1_1,n622_3_1_1_1_5
n623_3_1_1_1,n623_3_1_1_1_6
n624_3_1_1_1,n624_3_1_1_1_5
n625_3_1_1_1,n625_3_1_1_1_5
n626_3_1_1_1,n626_3_1_1_1_5
n627_3_1_1_1,n627_3_1_1_1_5
n628_3_1_1_1,n628_3_1_1_1_5
n629_3_1_1_1,n629_3_1_1_1_5
n630_3_1_1_1,n630_3_1_1_1_5
n631_3_1_1_1,n631_3_1_1_1_5
n632_3_1_1_1,n632_3_1_1_1_5
n633_3_1_1_1,n633_3_1_1_1_5
n634_3_1_1_1,n634_3_1_1_1_5
n635_3_1_1_1,n635_3_1_1_1_5
n636_3_1_1_1,n636_3_1_1_1_5
n637_3_1_1_1,n637_3_1_1_1_5
n638_3_1_1_1,n638_3_1_1_1_5
n639_3_1_1_1,n639_3_1_1_1_5
n640_3_1_1_1,n640_3_1_1_1_5
n641_3_1_1_1,n641_3_1_1_1_5
n642_3_1_1_1,n642_3_1_1_1_5
n643_3_1_1_1,n643_3_1_1_1_6
n644_3_1_1_1,n644_3_1_1_1_5
n645_3_1_1_1,n645_3_1_1_1_5
n646_3_1_1_1,n646_3_1_1_1_5
n647_3_1_1_1,n647_3_1_1_1_5
n648_3_1_1_1,n648_3_1_1_1_5
n649_3_1_1_1,n649_3_1_1_1_5
n650_3_1_1_1,n650_3_1_1_1_5
n651_3_1_1_1,n651_3_1_1_1_5
n652_3_1_1_1,n652_3_1_1_1_5
n653_3_1_1_1,n653_3_1_1_1_5
n654_3_1_1_1,n654_3_1_1_1_5
n655_3_1_1_1,n655_3_1_1_1_6
n656_3_1_1_1,n656_3_1_1_1_5
n657_3_1_1_1,n657_3_1_1_1_5
n658_3_1_1_1,n658_3_1_1_1_5
n659_3_1_1_1,n659_3_1_1_1_5
n660_3_1_1_1,n660_3_1_1_1_5
n661_3_1_1_1,n661_3_1_1_1_5
n662_3_1_1_1,n662_3_1_1_1_5
n663_3_1_1_1,n663_3_1_1_1_6
n664_3_1_1_1,n664_3_1_1_1_5
n665_3_1_1_1,n665_3_1_1_1_5
n666_3_1_1_1,n666_3_1_1_1_5
n667_3_1_1_1,n667_3_1_1_1_5
n668_3_1_1_1,n668_3_1_1_1_5
n669_3_1_1_1,n669_3_1_1_1_5
n670_3_1_1_1,n670_3_1_1_1_5
n671_3_1_1_1,n671_3_1_1_1_5
n672_3_1_1_1,n672_3_1_1_1_5
n673_3_1_1_1,n673_3_1_1_1_5
n674_3_1_1_1,n674_3_1_1_1_6
n675_3_1_1_1,n675_3_1_1_1_5
n676_3_1_1_1,n676_3_1_1_1_5
n677_3_1_1_1,n677_3_1_1_1_5
n678_3_1_1_1,n678_3_1_1_1_5
n679_3_1_1_1,n679_3_1_1_1_5
n680_3_1_1_1,n680_3_1_1_1_5
n681_3_1_1_1,n681_3_1_1_1_5
n682_3_1_1_1,n682_3_1_1_1_5
n683_3_1_1_1,n683_3_1_1_1_5
n684_3_1_1_1,n684_3_1_1_1_5
n685_3_1_1_1,n685_3_1_1_1_5
n686_3_1_1_1,n686_3_1_1_1_5
n687_3_1_1_1,n687_3_1_1_1_5
n688_3_1_1_1,n688_3_1_1_1_5
n689_3_1_1_1,n689_3_1_1_1_5
n690_3_1_1_1,n690_3_1_1_1_6
n691_3_1_1_1,n691_3_1_1_1_5
n692_3_1_1_1,n692_3_1_1_1_6
n693_3_1_1_1,n693_3_1_1_1_5
n694_3_1_1_1,n694_3_1_1_1_5
n696_3_1_1_1,n696_3_1_1_1_5
n697_3_1_1_1,n697_3_1_1_1_5
n698_3_1_1_1,n698_3_1_1_1_5
n699_3_1_1_1,n699_3_1_1_1_5
n700_3_1_1_1,n700_3_1_1_1_6
n701_3_1_1_1,n701_3_1_1_1_5
n702_3_1_1_1,n702_3_1_1_1_5
n703_3_1_1_1,n703_3_1_1_1_5
n704_3_1_1_1,n704_3_1_1_1_6
n705_3_1_1_1,n705_3_1_1_1_5
n706_3_1_1_1,n706_3_1_1_1_5
n707_3_1_1_1,n707_3_1_1_1_5
n708_3_1_1_1,n708_3_1_1_1_5
n709_3_1_1_1,n709_3_1_1_1_5
n710_3_1_1_1,n710_3_1_1_1_5
n711_3_1_1_1,n711_3_1_1_1_5
n712_3_1_1_1,n712_3_1_1_1_5
n713_3_1_1_1,n713_3_1_1_1_5
n714_3_1_1_1,n714_3_1_1_1_5
n715_3_1_1_1,n715_3_1_1_1_5
n716_3_1_1_1,n716_3_1_1_1_5
n717_3_1_1_1,n717_3_1_1_1_5
n718_3_1_1_1,n718_3_1_1_1_5
n719_3_1_1_1,n719_3_1_1_1_5
n720_3_1_1_1,n720_3_1_1_1_5
n721_3_1_1_1,n721_3_1_1_1_5
n722_3_1_1_1,n722_3_1_1_1_5
n723_3_1_1_1,n723_3_1_1_1_5
n724_3_1_1_1,n724_3_1_1_1_5
n725_3_1_1_1,n725_3_1_1_1_5
n726_3_1_1_1,n726_3_1_1_1_5
n727_3_1_1_1,n727_3_1_1_1_5
n728_3_1_1_1,n728_3_1_1_1_5
n729_3_1_1_1,n729_3_1_1_1_5
n730_3_1_1_1,n730_3_1_1_1_5
n731_3_1_1_1,n731_3_1_1_1_5
n732_3_1_1_1,n732_3_1_1_1_5
n733_3_1_1_1,n733_3_1_1_1_5
n734_3_1_1_1,n734_3_1_1_1_5
n735_3_1_1_1,n735_3_1_1_1_5
n736_3_1_1_1,n736_3_1_1_1_5
n737_3_1_1_1,n737_3_1_1_1_5
n738_3_1_1_1,n738_3_1_1_1_5
n739_3_1_1_1,n739_3_1_1_1_5
n740_3_1_1_1,n740_3_1_1_1_5
n741_3_1_1_1,n741_3_1_1_1_5
n742_3_1_1_1,n742_3_1_1_1_5
n743_3_1_1_1,n743_3_1_1_1_5
n744_3_1_1_1,n744_3_1_1_1_5
n745_3_1_1_1,n745_3_1_1_1_5
n746_3_1_1_1,n746_3_1_1_1_5
n747_3_1_1_1,n747_3_1_1_1_5
n748_3_1_1_1,n748_3_1_1_1_5
n749_3_1_1_1,n749_3_1_1_1_5
n750_3_1_1_1,n750_3_1_1_1_5
n751_3_1_1_1,n751_3_1_1_1_5
n752_3_1_1_1,n752_3_1_1_1_5
n754_3_1_1_1,n754_3_1_1_1_5
n755_3_1_1_1,n755_3_1_1_1_5
n756_3_1_1_1,n756_3_1_1_1_5
n758_3_1_1_1,n758_3_1_1_1_5
n759_3_1_1_1,n759_3_1_1_1_5
n760_3_1_1_1,n760_3_1_1_1_6
n761_3_1_1_1,n761_3_1_1_1_5
n762_3_1_1_1,n762_3_1_1_1_6
n763_3_1_1_1,n763_3_1_1_1_5
n764_3_1_1_1,n764_3_1_1_1_5
n765_3_1_1_1,n765_3_1_1_1_5
n766_3_1_1_1,n766_3_1_1_1_5
n767_3_1_1_1,n767_3_1_1_1_5
n768_3_1_1_1,n768_3_1_1_1_5
n769_3_1_1_1,n769_3_1_1_1_5
n771_3_1_1_1,n771_3_1_1_1_5
n773_3_1_1_1,n773_3_1_1_1_5
n774_3_1_1_1,n774_3_1_1_1_5
n775_3_1_1_1,n775_3_1_1_1_5
n776_3_1_1_1,n776_3_1_1_1_5
n777_3_1_1_1,n777_3_1_1_1_5
n778_3_1_1_1,n778_3_1_1_1_5
n779_3_1_1_1,n779_3_1_1_1_5
n780_3_1_1_1,n780_3_1_1_1_5
n781_3_1_1_1,n781_3_1_1_1_5
n782_3_1_1_1,n782_3_1_1_1_5
n783_3_1_1_1,n783_3_1_1_1_5
n784_3_1_1_1,n784_3_1_1_1_5
n785_3_1_1_1,n785_3_1_1_1_5
n786_3_1_1_1,n786_3_1_1_1_5
n787_3_1_1_1,n787_3_1_1_1_5
n788_3_1_1_1,n788_3_1_1_1_5
n789_3_1_1_1,n789_3_1_1_1_5
n790_3_1_1_1,n790_3_1_1_1_5
n791_3_1_1_1,n791_3_1_1_1_5
n792_3_1_1_1,n792_3_1_1_1_5
n793_3_1_1_1,n793_3_1_1_1_5
n794_3_1_1_1,n794_3_1_1_1_5
n795_3_1_1_1,n795_3_1_1_1_5
n796_3_1_1_1,n796_3_1_1_1_5
n797_3_1_1_1,n797_3_1_1_1_5
n798_3_1_1_1,n798_3_1_1_1_5
n799_3_1_1_1,n799_3_1_1_1_5
n800_3_1_1_1,n800_3_1_1_1_6
n801_3_1_1_1,n801_3_1_1_1_5
n802_3_1_1_1,n802_3_1_1_1_5
n803_3_1_1_1,n803_3_1_1_1_6
n804_3_1_1_1,n804_3_1_1_1_5
n805_3_1_1_1,n805_3_1_1_1_5
n806_3_1_1_1,n806_3_1_1_1_6
n807_3_1_1_1,n807_3_1_1_1_5
n808_3_1_1_1,n808_3_1_1_1_5
n809_3_1_1_1,n809_3_1_1_1_5
n810_3_1_1_1,n810_3_1_1_1_5
n811_3_1_1_1,n811_3_1_1_1_5
n812_3_1_1_1,n812_3_1_1_1_5
n813_3_1_1_1,n813_3_1_1_1_5
n814_3_1_1_1,n814_3_1_1_1_5
n815_3_1_1_1,n815_3_1_1_1_5
n816_3_1_1_1,n816_3_1_1_1_5
n817_3_1_1_1,n817_3_1_1_1_5
n818_3_1_1_1,n818_3_1_1_1_5
n819_3_1_1_1,n819_3_1_1_1_5
n820_3_1_1_1,n820_3_1_1_1_5
n821_3_1_1_1,n821_3_1_1_1_6
n822_3_1_1_1,n822_3_1_1_1_5
n823_3_1_1_1,n823_3_1_1_1_5
n824_3_1_1_1,n824_3_1_1_1_6
n825_3_1_1_1,n825_3_1_1_1_5
n826_3_1_1_1,n826_3_1_1_1_6
n828_3_1_1_1,n828_3_1_1_1_5
n829_3_1_1_1,n829_3_1_1_1_5
n830_3_1_1_1,n830_3_1_1_1_5
n831_3_1_1_1,n831_3_1_1_1_6
n832_3_1_1_1,n832_3_1_1_1_5
n833_3_1_1_1,n833_3_1_1_1_5
n834_3_1_1_1,n834_3_1_1_1_5
n835_3_1_1_1,n835_3_1_1_1_5
n836_3_1_1_1,n836_3_1_1_1_5
n837_3_1_1_1,n837_3_1_1_1_5
n838_3_1_1_1,n838_3_1_1_1_5
n839_3_1_1_1,n839_3_1_1_1_5
n840_3_1_1_1,n840_3_1_1_1_5
n842_3_1_1_1,n842_3_1_1_1_6
n843_3_1_1_1,n843_3_1_1_1_5
n845_3_1_1_1,n845_3_1_1_1_5
n846_3_1_1_1,n846_3_1_1_1_5
n847_3_1_1_1,n847_3_1_1_1_5
n848_3_1_1_1,n848_3_1_1_1_5
n849_3_1_1_1,n849_3_1_1_1_5
n850_3_1_1_1,n850_3_1_1_1_5
n851_3_1_1_1,n851_3_1_1_1_5
n852_3_1_1_1,n852_3_1_1_1_5
n853_3_1_1_1,n853_3_1_1_1_5
n854_3_1_1_1,n854_3_1_1_1_5
n855_3_1_1_1,n855_3_1_1_1_5
n856_3_1_1_1,n856_3_1_1_1_5
n857_3_1_1_1,n857_3_1_1_1_6
n858_3_1_1_1,n858_3_1_1_1_6
n859_3_1_1_1,n859_3_1_1_1_5
n861_3_1_1_1,n861_3_1_1_1_5
n862_3_1_1_1,n862_3_1_1_1_5
n863_3_1_1_1,n863_3_1_1_1_5
n864_3_1_1_1,n864_3_1_1_1_5
n865_3_1_1_1,n865_3_1_1_1_5
n866_3_1_1_1,n866_3_1_1_1_5
n867_3_1_1_1,n867_3_1_1_1_5
n868_3_1_1_1,n868_3_1_1_1_5
n869_3_1_1_1,n869_3_1_1_1_5
n870_3_1_1_1,n870_3_1_1_1_5
n871_3_1_1_1,n871_3_1_1_1_5
n872_3_1_1_1,n872_3_1_1_1_5
n873_3_1_1_1,n873_3_1_1_1_5
n874_3_1_1_1,n874_3_1_1_1_5
n875_3_1_1_1,n875_3_1_1_1_5
n876_3_1_1_1,n876_3_1_1_1_5
n877_3_1_1_1,n877_3_1_1_1_6
n878_3_1_1_1,n878_3_1_1_1_5
n879_3_1_1_1,n879_3_1_1_1_6
n880_3_1_1_1,n880_3_1_1_1_5
n881_3_1_1_1,n881_3_1_1_1_5
n882_3_1_1_1,n882_3_1_1_1_5
n883_3_1_1_1,n883_3_1_1_1_6
n884_3_1_1_1,n884_3_1_1_1_5
n885_3_1_1_1,n885_3_1_1_1_5
n886_3_1_1_1,n886_3_1_1_1_5
n887_3_1_1_1,n887_3_1_1_1_5
n888_3_1_1_1,n888_3_1_1_1_5
n889_3_1_1_1,n889_3_1_1_1_5
n892_3_1_1_1,n892_3_1_1_1_5
n894_3_1_1_1,n894_3_1_1_1_6
n895_3_1_1_1,n895_3_1_1_1_6
n896_3_1_1_1,n896_3_1_1_1_5
n897_3_1_1_1,n897_3_1_1_1_5
n899_3_1_1_1,n899_3_1_1_1_5
n900_3_1_1_1,n900_3_1_1_1_5
n901_3_1_1_1,n901_3_1_1_1_5
n902_3_1_1_1,n902_3_1_1_1_5
n903_3_1_1_1,n903_3_1_1_1_5
n904_3_1_1_1,n904_3_1_1_1_5
n906_3_1_1_1,n906_3_1_1_1_5
n907_3_1_1_1,n907_3_1_1_1_5
n908_3_1_1_1,n908_3_1_1_1_5
n909_3_1_1_1,n909_3_1_1_1_6
n910_3_1_1_1,n910_3_1_1_1_5
n911_3_1_1_1,n911_3_1_1_1_5
n912_3_1_1_1,n912_3_1_1_1_6
n914_3_1_1_1,n914_3_1_1_1_5
n915_3_1_1_1,n915_3_1_1_1_5
n916_3_1_1_1,n916_3_1_1_1_5
n917_3_1_1_1,n917_3_1_1_1_5
n918_3_1_1_1,n918_3_1_1_1_5
n919_3_1_1_1,n919_3_1_1_1_5
n920_3_1_1_1,n920_3_1_1_1_5
n921_3_1_1_1,n921_3_1_1_1_5
n922_3_1_1_1,n922_3_1_1_1_6
n923_3_1_1_1,n923_3_1_1_1_5
n924_3_1_1_1,n924_3_1_1_1_5
n925_3_1_1_1,n925_3_1_1_1_5
n926_3_1_1_1,n926_3_1_1_1_5
n927_3_1_1_1,n927_3_1_1_1_5
n928_3_1_1_1,n928_3_1_1_1_5
n930_3_1_1_1,n930_3_1_1_1_6
n931_3_1_1_1,n931_3_1_1_1_5
n932_3_1_1_1,n932_3_1_1_1_5
n933_3_1_1_1,n933_3_1_1_1_5
n934_3_1_1_1,n934_3_1_1_1_5
n935_3_1_1_1,n935_3_1_1_1_6
n936_3_1_1_1,n936_3_1_1_1_5
n937_3_1_1_1,n937_3_1_1_1_5
n939_3_1_1_1,n939_3_1_1_1_5
n941_3_1_1_1,n941_3_1_1_1_5
n942_3_1_1_1,n942_3_1_1_1_5
n943_3_1_1_1,n943_3_1_1_1_5
n944_3_1_1_1,n944_3_1_1_1_5
n945_3_1_1_1,n945_3_1_1_1_6
n946_3_1_1_1,n946_3_1_1_1_5
n947_3_1_1_1,n947_3_1_1_1_5
n948_3_1_1_1,n948_3_1_1_1_5
n949_3_1_1_1,n949_3_1_1_1_6
n950_3_1_1_1,n950_3_1_1_1_5
n951_3_1_1_1,n951_3_1_1_1_5
n952_3_1_1_1,n952_3_1_1_1_5
n954_3_1_1_1,n954_3_1_1_1_5
n956_3_1_1_1,n956_3_1_1_1_6
n957_3_1_1_1,n957_3_1_1_1_5
n958_3_1_1_1,n958_3_1_1_1_6
n959_3_1_1_1,n959_3_1_1_1_5
n960_3_1_1_1,n960_3_1_1_1_5
n961_3_1_1_1,n961_3_1_1_1_6
n962_3_1_1_1,n962_3_1_1_1_5
n963_3_1_1_1,n963_3_1_1_1_5
n964_3_1_1_1,n964_3_1_1_1_5
n965_3_1_1_1,n965_3_1_1_1_6
n966_3_1_1_1,n966_3_1_1_1_5
n967_3_1_1_1,n967_3_1_1_1_5
n968_3_1_1_1,n968_3_1_1_1_5
n969_3_1_1_1,n969_3_1_1_1_5
n970_3_1_1_1,n970_3_1_1_1_5
n971_3_1_1_1,n971_3_1_1_1_5
n972_3_1_1_1,n972_3_1_1_1_5
n973_3_1_1_1,n973_3_1_1_1_5
n974_3_1_1_1,n974_3_1_1_1_5
n975_3_1_1_1,n975_3_1_1_1_5
n976_3_1_1_1,n976_3_1_1_1_5
n977_3_1_1_1,n977_3_1_1_1_5
n978_3_1_1_1,n978_3_1_1_1_5
n979_3_1_1_1,n979_3_1_1_1_5
n980_3_1_1_1,n980_3_1_1_1_5
n981_3_1_1_1,n981_3_1_1_1_5
n982_3_1_1_1,n982_3_1_1_1_5
n983_3_1_1_1,n983_3_1_1_1_5
n984_3_1_1_1,n984_3_1_1_1_5
n985_3_1_1_1,n985_3_1_1_1_5
n987_3_1_1_1,n987_3_1_1_1_5
n988_3_1_1_1,n988_3_1_1_1_5
n989_3_1_1_1,n989_3_1_1_1_5
n990_3_1_1_1,n990_3_1_1_1_5
n991_3_1_1_1,n991_3_1_1_1_5
n992_3_1_1_1,n992_3_1_1_1_5
n993_3_1_1_1,n993_3_1_1_1_5
n995_3_1_1_1,n995_3_1_1_1_5
n996_3_1_1_1,n996_3_1_1_1_5
n997_3_1_1_1,n997_3_1_1_1_5
n998_3_1_1_1,n998_3_1_1_1_6
n999_3_1_1_1,n999_3_1_1_1_5
n1000_3_1_1_1,n1000_3_1_1_1_5
n1001_3_1_1_1,n1001_3_1_1_1_5
n1002_3_1_1_1,n1002_3_1_1_1_5
n1003_3_1_1_1,n1003_3_1_1_1_5
n1004_3_1_1_1,n1004_3_1_1_1_5
n1005_3_1_1_1,n1005_3_1_1_1_5
n1006_3_1_1_1,n1006_3_1_1_1_5
n1007_3_1_1_1,n1007_3_1_1_1_5
n1008_3_1_1_1,n1008_3_1_1_1_6
n1009_3_1_1_1,n1009_3_1_1_1_5
n1010_3_1_1_1,n1010_3_1_1_1_5
n1011_3_1_1_1,n1011_3_1_1_1_5
n1012_3_1_1_1,n1012_3_1_1_1_5
n1013_3_1_1_1,n1013_3_1_1_1_5
n1014_3_1_1_1,n1014_3_1_1_1_5
n1015_3_1_1_1,n1015_3_1_1_1_5
n1016_3_1_1_1,n1016_3_1_1_1_6
n1017_3_1_1_1,n1017_3_1_1_1_5
n1018_3_1_1_1,n1018_3_1_1_1_5
n1019_3_1_1_1,n1019_3_1_1_1_6
n1020_3_1_1_1,n1020_3_1_1_1_5
n1021_3_1_1_1,n1021_3_1_1_1_5
n1022_3_1_1_1,n1022_3_1_1_1_5
n1023_3_1_1_1,n1023_3_1_1_1_5
n1024_3_1_1_1,n1024_3_1_1_1_5
n1025_3_1_1_1,n1025_3_1_1_1_5
n1026_3_1_1_1,n1026_3_1_1_1_5
n1027_3_1_1_1,n1027_3_1_1_1_5
n1029_3_1_1_1,n1029_3_1_1_1_5
n1030_3_1_1_1,n1030_3_1_1_1_5
n1031_3_1_1_1,n1031_3_1_1_1_5
n1032_3_1_1_1,n1032_3_1_1_1_5
n1033_3_1_1_1,n1033_3_1_1_1_5
n1034_3_1_1_1,n1034_3_1_1_1_5
n1035_3_1_1_1,n1035_3_1_1_1_6
n1036_3_1_1_1,n1036_3_1_1_1_5
n1037_3_1_1_1,n1037_3_1_1_1_5
n1038_3_1_1_1,n1038_3_1_1_1_5
n1039_3_1_1_1,n1039_3_1_1_1_5
n1040_3_1_1_1,n1040_3_1_1_1_5
n1041_3_1_1_1,n1041_3_1_1_1_6
n1042_3_1_1_1,n1042_3_1_1_1_5
n1043_3_1_1_1,n1043_3_1_1_1_5
n1044_3_1_1_1,n1044_3_1_1_1_5
n1045_3_1_1_1,n1045_3_1_1_1_5
n1046_3_1_1_1,n1046_3_1_1_1_5
n1047_3_1_1_1,n1047_3_1_1_1_5
n1048_3_1_1_1,n1048_3_1_1_1_5
n1049_3_1_1_1,n1049_3_1_1_1_5
n1050_3_1_1_1,n1050_3_1_1_1_5
n1051_3_1_1_1,n1051_3_1_1_1_5
n1052_3_1_1_1,n1052_3_1_1_1_5
n1053_3_1_1_1,n1053_3_1_1_1_5
n1054_3_1_1_1,n1054_3_1_1_1_5
n1055_3_1_1_1,n1055_3_1_1_1_5
n1056_3_1_1_1,n1056_3_1_1_1_5
n1057_3_1_1_1,n1057_3_1_1_1_5
n1058_3_1_1_1,n1058_3_1_1_1_5
n1059_3_1_1_1,n1059_3_1_1_1_5
n1060_3_1_1_1,n1060_3_1_1_1_5
n1061_3_1_1_1,n1061_3_1_1_1_5
n1062_3_1_1_1,n1062_3_1_1_1_5
n1064_3_1_1_1,n1064_3_1_1_1_5
n1065_3_1_1_1,n1065_3_1_1_1_5
n1066_3_1_1_1,n1066_3_1_1_1_5
n1067_3_1_1_1,n1067_3_1_1_1_5
n1068_3_1_1_1,n1068_3_1_1_1_5
n1069_3_1_1_1,n1069_3_1_1_1_5
n1070_3_1_1_1,n1070_3_1_1_1_5
n1071_3_1_1_1,n1071_3_1_1_1_5
n1072_3_1_1_1,n1072_3_1_1_1_5
n1073_3_1_1_1,n1073_3_1_1_1_5
n1074_3_1_1_1,n1074_3_1_1_1_5
n1075_3_1_1_1,n1075_3_1_1_1_5
n1076_3_1_1_1,n1076_3_1_1_1_5
n1077_3_1_1_1,n1077_3_1_1_1_5
n1078_3_1_1_1,n1078_3_1_1_1_5
n1079_3_1_1_1,n1079_3_1_1_1_5
n1080_3_1_1_1,n1080_3_1_1_1_5
n1081_3_1_1_1,n1081_3_1_1_1_6
n1082_3_1_1_1,n1082_3_1_1_1_5
n1083_3_1_1_1,n1083_3_1_1_1_5
n1084_3_1_1_1,n1084_3_1_1_1_5
n1085_3_1_1_1,n1085_3_1_1_1_5
n1086_3_1_1_1,n1086_3_1_1_1_5
n1087_3_1_1_1,n1087_3_1_1_1_5
n1088_3_1_1_1,n1088_3_1_1_1_5
n1089_3_1_1_1,n1089_3_1_1_1_5
n1090_3_1_1_1,n1090_3_1_1_1_5
n1091_3_1_1_1,n1091_3_1_1_1_5
n1092_3_1_1_1,n1092_3_1_1_1_5
n1093_3_1_1_1,n1093_3_1_1_1_5
n1094_3_1_1_1,n1094_3_1_1_1_5
n1095_3_1_1_1,n1095_3_1_1_1_5
n1096_3_1_1_1,n1096_3_1_1_1_5
n1097_3_1_1_1,n1097_3_1_1_1_5
n1098_3_1_1_1,n1098_3_1_1_1_6
n1099_3_1_1_1,n1099_3_1_1_1_5
n1100_3_1_1_1,n1100_3_1_1_1_5
n1101_3_1_1_1,n1101_3_1_1_1_5
n1102_3_1_1_1,n1102_3_1_1_1_5
n1103_3_1_1_1,n1103_3_1_1_1_5
n1104_3_1_1_1,n1104_3_1_1_1_5
n1105_3_1_1_1,n1105_3_1_1_1_5
n1106_3_1_1_1,n1106_3_1_1_1_5
n1107_3_1_1_1,n1107_3_1_1_1_5
n1108_3_1_1_1,n1108_3_1_1_1_5
n1109_3_1_1_1,n1109_3_1_1_1_6
n1110_3_1_1_1,n1110_3_1_1_1_5
n1111_3_1_1_1,n1111_3_1_1_1_5
n1112_3_1_1_1,n1112_3_1_1_1_5
n1113_3_1_1_1,n1113_3_1_1_1_5
n1114_3_1_1_1,n1114_3_1_1_1_5
n1115_3_1_1_1,n1115_3_1_1_1_5
n1116_3_1_1_1,n1116_3_1_1_1_5
n1117_3_1_1_1,n1117_3_1_1_1_5
n1118_3_1_1_1,n1118_3_1_1_1_5
n1119_3_1_1_1,n1119_3_1_1_1_5
n1120_3_1_1_1,n1120_3_1_1_1_5
n1121_3_1_1_1,n1121_3_1_1_1_5
n1122_3_1_1_1,n1122_3_1_1_1_5
n1123_3_1_1_1,n1123_3_1_1_1_5
n1124_3_1_1_1,n1124_3_1_1_1_5
n1125_3_1_1_1,n1125_3_1_1_1_5
n1126_3_1_1_1,n1126_3_1_1_1_5
n1127_3_1_1_1,n1127_3_1_1_1_6
n1128_3_1_1_1,n1128_3_1_1_1_5
n1130_3_1_1_1,n1130_3_1_1_1_5
n1131_3_1_1_1,n1131_3_1_1_1_5
n1132_3_1_1_1,n1132_3_1_1_1_5
n1133_3_1_1_1,n1133_3_1_1_1_5
n1134_3_1_1_1,n1134_3_1_1_1_5
n1136_3_1_1_1,n1136_3_1_1_1_5
n1137_3_1_1_1,n1137_3_1_1_1_5
n1138_3_1_1_1,n1138_3_1_1_1_5
n1139_3_1_1_1,n1139_3_1_1_1_5
n1140_3_1_1_1,n1140_3_1_1_1_5
n1141_3_1_1_1,n1141_3_1_1_1_5
n1142_3_1_1_1,n1142_3_1_1_1_5
n1144_3_1_1_1,n1144_3_1_1_1_6
n1145_3_1_1_1,n1145_3_1_1_1_5
n1146_3_1_1_1,n1146_3_1_1_1_5
n1147_3_1_1_1,n1147_3_1_1_1_5
n1148_3_1_1_1,n1148_3_1_1_1_5
n1149_3_1_1_1,n1149_3_1_1_1_5
n1150_3_1_1_1,n1150_3_1_1_1_5
n1151_3_1_1_1,n1151_3_1_1_1_5
n1152_3_1_1_1,n1152_3_1_1_1_5
n1153_3_1_1_1,n1153_3_1_1_1_6
n1154_3_1_1_1,n1154_3_1_1_1_5
n1155_3_1_1_1,n1155_3_1_1_1_5
n1156_3_1_1_1,n1156_3_1_1_1_5
n1157_3_1_1_1,n1157_3_1_1_1_5
n1158_3_1_1_1,n1158_3_1_1_1_5
n1159_3_1_1_1,n1159_3_1_1_1_5
n1160_3_1_1_1,n1160_3_1_1_1_5
n1161_3_1_1_1,n1161_3_1_1_1_5
n1162_3_1_1_1,n1162_3_1_1_1_5
n1163_3_1_1_1,n1163_3_1_1_1_5
n1164_3_1_1_1,n1164_3_1_1_1_5
n1165_3_1_1_1,n1165_3_1_1_1_5
n1166_3_1_1_1,n1166_3_1_1_1_5
n1167_3_1_1_1,n1167_3_1_1_1_5
n1168_3_1_1_1,n1168_3_1_1_1_5
n1169_3_1_1_1,n1169_3_1_1_1_5
n1172_3_1_1_1,n1172_3_1_1_1_5
n1173_3_1_1_1,n1173_3_1_1_1_5
n1174_3_1_1_1,n1174_3_1_1_1_5
n1175_3_1_1_1,n1175_3_1_1_1_5
n1176_3_1_1_1,n1176_3_1_1_1_5
n1177_3_1_1_1,n1177_3_1_1_1_5
n1178_3_1_1_1,n1178_3_1_1_1_5
n1179_3_1_1_1,n1179_3_1_1_1_5
n1180_3_1_1_1,n1180_3_1_1_1_5
n1181_3_1_1_1,n1181_3_1_1_1_5
n1182_3_1_1_1,n1182_3_1_1_1_6
n1183_3_1_1_1,n1183_3_1_1_1_5
n1184_3_1_1_1,n1184_3_1_1_1_5
n1185_3_1_1_1,n1185_3_1_1_1_5
n1186_3_1_1_1,n1186_3_1_1_1_5
n1187_3_1_1_1,n1187_3_1_1_1_5
n1188_3_1_1_1,n1188_3_1_1_1_5
n1189_3_1_1_1,n1189_3_1_1_1_5
n1190_3_1_1_1,n1190_3_1_1_1_5
n1191_3_1_1_1,n1191_3_1_1_1_6
n1192_3_1_1_1,n1192_3_1_1_1_5
n1193_3_1_1_1,n1193_3_1_1_1_5
n1194_3_1_1_1,n1194_3_1_1_1_5
n1195_3_1_1_1,n1195_3_1_1_1_5
n1196_3_1_1_1,n1196_3_1_1_1_5
n1197_3_1_1_1,n1197_3_1_1_1_5
n1198_3_1_1_1,n1198_3_1_1_1_5
n1199_3_1_1_1,n1199_3_1_1_1_5
n1200_3_1_1_1,n1200_3_1_1_1_5
n1201_3_1_1_1,n1201_3_1_1_1_5
n1202_3_1_1_1,n1202_3_1_1_1_5
n1203_3_1_1_1,n1203_3_1_1_1_6
n1204_3_1_1_1,n1204_3_1_1_1_6
n1205_3_1_1_1,n1205_3_1_1_1_5
n1206_3_1_1_1,n1206_3_1_1_1_5
n1207_3_1_1_1,n1207_3_1_1_1_5
n1208_3_1_1_1,n1208_3_1_1_1_5
n1210_3_1_1_1,n1210_3_1_1_1_5
n1211_3_1_1_1,n1211_3_1_1_1_6
n1212_3_1_1_1,n1212_3_1_1_1_5
n1213_3_1_1_1,n1213_3_1_1_1_5
n1214_3_1_1_1,n1214_3_1_1_1_5
n1215_3_1_1_1,n1215_3_1_1_1_5
n1216_3_1_1_1,n1216_3_1_1_1_5
n1217_3_1_1_1,n1217_3_1_1_1_5
n1218_3_1_1_1,n1218_3_1_1_1_5
n1219_3_1_1_1,n1219_3_1_1_1_5
n1220_3_1_1_1,n1220_3_1_1_1_5
n1221_3_1_1_1,n1221_3_1_1_1_5
n1222_3_1_1_1,n1222_3_1_1_1_5
n1223_3_1_1_1,n1223_3_1_1_1_5
n1224_3_1_1_1,n1224_3_1_1_1_5
n1225_3_1_1_1,n1225_3_1_1_1_5
n1227_3_1_1_1,n1227_3_1_1_1_5
n1228_3_1_1_1,n1228_3_1_1_1_5
n1229_3_1_1_1,n1229_3_1_1_1_5
n1230_3_1_1_1,n1230_3_1_1_1_5
n1231_3_1_1_1,n1231_3_1_1_1_5
n1232_3_1_1_1,n1232_3_1_1_1_5
n1233_3_1_1_1,n1233_3_1_1_1_5
n1234_3_1_1_1,n1234_3_1_1_1_5
n1236_3_1_1_1,n1236_3_1_1_1_5
n1237_3_1_1_1,n1237_3_1_1_1_5
n1238_3_1_1_1,n1238_3_1_1_1_5
n1239_3_1_1_1,n1239_3_1_1_1_6
n1240_3_1_1_1,n1240_3_1_1_1_5
n1242_3_1_1_1,n1242_3_1_1_1_5
n1243_3_1_1_1,n1243_3_1_1_1_5
n1244_3_1_1_1,n1244_3_1_1_1_5
n1245_3_1_1_1,n1245_3_1_1_1_5
n1246_3_1_1_1,n1246_3_1_1_1_5
n1247_3_1_1_1,n1247_3_1_1_1_5
n1248_3_1_1_1,n1248_3_1_1_1_5
n1249_3_1_1_1,n1249_3_1_1_1_5
n1250_3_1_1_1,n1250_3_1_1_1_5
n1251_3_1_1_1,n1251_3_1_1_1_5
n1253_3_1_1_1,n1253_3_1_1_1_5
n1254_3_1_1_1,n1254_3_1_1_1_6
n1255_3_1_1_1,n1255_3_1_1_1_5
n1256_3_1_1_1,n1256_3_1_1_1_5
n1257_3_1_1_1,n1257_3_1_1_1_5
n1258_3_1_1_1,n1258_3_1_1_1_5
n1259_3_1_1_1,n1259_3_1_1_1_5
n1260_3_1_1_1,n1260_3_1_1_1_5
n1262_3_1_1_1,n1262_3_1_1_1_5
n1263_3_1_1_1,n1263_3_1_1_1_5
n1264_3_1_1_1,n1264_3_1_1_1_6
n1265_3_1_1_1,n1265_3_1_1_1_5
n1266_3_1_1_1,n1266_3_1_1_1_6
n1267_3_1_1_1,n1267_3_1_1_1_5
n1269_3_1_1_1,n1269_3_1_1_1_6
n1270_3_1_1_1,n1270_3_1_1_1_5
n1271_3_1_1_1,n1271_3_1_1_1_5
n1272_3_1_1_1,n1272_3_1_1_1_5
n1273_3_1_1_1,n1273_3_1_1_1_6
n1274_3_1_1_1,n1274_3_1_1_1_5
n1275_3_1_1_1,n1275_3_1_1_1_5
n1276_3_1_1_1,n1276_3_1_1_1_5
n1277_3_1_1_1,n1277_3_1_1_1_5
n1278_3_1_1_1,n1278_3_1_1_1_5
n1280_3_1_1_1,n1280_3_1_1_1_6
n1281_3_1_1_1,n1281_3_1_1_1_5
n1282_3_1_1_1,n1282_3_1_1_1_5
n1283_3_1_1_1,n1283_3_1_1_1_5
n1284_3_1_1_1,n1284_3_1_1_1_5
n1285_3_1_1_1,n1285_3_1_1_1_5
n1286_3_1_1_1,n1286_3_1_1_1_5
n1287_3_1_1_1,n1287_3_1_1_1_5
n1288_3_1_1_1,n1288_3_1_1_1_5
n1289_3_1_1_1,n1289_3_1_1_1_5
n1290_3_1_1_1,n1290_3_1_1_1_5
n1291_3_1_1_1,n1291_3_1_1_1_5
n1292_3_1_1_1,n1292_3_1_1_1_5
n1293_3_1_1_1,n1293_3_1_1_1_5
n1294_3_1_1_1,n1294_3_1_1_1_5
n1295_3_1_1_1,n1295_3_1_1_1_5
n1297_3_1_1_1,n1297_3_1_1_1_5
n1298_3_1_1_1,n1298_3_1_1_1_6
n1299_3_1_1_1,n1299_3_1_1_1_5
n1300_3_1_1_1,n1300_3_1_1_1_5
n1301_3_1_1_1,n1301_3_1_1_1_6
n1302_3_1_1_1,n1302_3_1_1_1_5
n1303_3_1_1_1,n1303_3_1_1_1_5
n1304_3_1_1_1,n1304_3_1_1_1_6
n1305_3_1_1_1,n1305_3_1_1_1_5
n1306_3_1_1_1,n1306_3_1_1_1_5
n1307_3_1_1_1,n1307_3_1_1_1_5
n1309_3_1_1_1,n1309_3_1_1_1_5
n1310_3_1_1_1,n1310_3_1_1_1_5
n1311_3_1_1_1,n1311_3_1_1_1_5
n1312_3_1_1_1,n1312_3_1_1_1_5
n1313_3_1_1_1,n1313_3_1_1_1_5
n1314_3_1_1_1,n1314_3_1_1_1_5
n1315_3_1_1_1,n1315_3_1_1_1_5
n1316_3_1_1_1,n1316_3_1_1_1_5
n1317_3_1_1_1,n1317_3_1_1_1_5
n1318_3_1_1_1,n1318_3_1_1_1_5
n1319_3_1_1_1,n1319_3_1_1_1_6
n1320_3_1_1_1,n1320_3_1_1_1_5
n1321_3_1_1_1,n1321_3_1_1_1_5
n1322_3_1_1_1,n1322_3_1_1_1_5
n1324_3_1_1_1,n1324_3_1_1_1_5
n1325_3_1_1_1,n1325_3_1_1_1_5
n1326_3_1_1_1,n1326_3_1_1_1_5
n1327_3_1_1_1,n1327_3_1_1_1_6
n1328_3_1_1_1,n1328_3_1_1_1_5
n1329_3_1_1_1,n1329_3_1_1_1_5
n1330_3_1_1_1,n1330_3_1_1_1_5
n1331_3_1_1_1,n1331_3_1_1_1_6
n1332_3_1_1_1,n1332_3_1_1_1_5
n1334_3_1_1_1,n1334_3_1_1_1_5
n1335_3_1_1_1,n1335_3_1_1_1_5
n1336_3_1_1_1,n1336_3_1_1_1_5
n1337_3_1_1_1,n1337_3_1_1_1_5
n1338_3_1_1_1,n1338_3_1_1_1_5
n1339_3_1_1_1,n1339_3_1_1_1_5
n1340_3_1_1_1,n1340_3_1_1_1_5
n1341_3_1_1_1,n1341_3_1_1_1_5
n1342_3_1_1_1,n1342_3_1_1_1_6
n1343_3_1_1_1,n1343_3_1_1_1_5
n1344_3_1_1_1,n1344_3_1_1_1_6
n1345_3_1_1_1,n1345_3_1_1_1_6
n1346_3_1_1_1,n1346_3_1_1_1_5
n1347_3_1_1_1,n1347_3_1_1_1_5
n1348_3_1_1_1,n1348_3_1_1_1_6
n1349_3_1_1_1,n1349_3_1_1_1_5
n1350_3_1_1_1,n1350_3_1_1_1_5
n1351_3_1_1_1,n1351_3_1_1_1_5
n1352_3_1_1_1,n1352_3_1_1_1_5
n1353_3_1_1_1,n1353_3_1_1_1_5
n1354_3_1_1_1,n1354_3_1_1_1_5
n1355_3_1_1_1,n1355_3_1_1_1_5
n1356_3_1_1_1,n1356_3_1_1_1_5
n1357_3_1_1_1,n1357_3_1_1_1_5
n1358_3_1_1_1,n1358_3_1_1_1_6
n1359_3_1_1_1,n1359_3_1_1_1_5
n1360_3_1_1_1,n1360_3_1_1_1_5
n1361_3_1_1_1,n1361_3_1_1_1_5
n1362_3_1_1_1,n1362_3_1_1_1_5
n1363_3_1_1_1,n1363_3_1_1_1_5
n1364_3_1_1_1,n1364_3_1_1_1_5
n1365_3_1_1_1,n1365_3_1_1_1_5
n1366_3_1_1_1,n1366_3_1_1_1_5
n1368_3_1_1_1,n1368_3_1_1_1_5
n1369_3_1_1_1,n1369_3_1_1_1_5
n1370_3_1_1_1,n1370_3_1_1_1_5
n1371_3_1_1_1,n1371_3_1_1_1_5
n1372_3_1_1_1,n1372_3_1_1_1_5
n1373_3_1_1_1,n1373_3_1_1_1_5
n1374_3_1_1_1,n1374_3_1_1_1_6
n1375_3_1_1_1,n1375_3_1_1_1_5
n1376_3_1_1_1,n1376_3_1_1_1_5
n1377_3_1_1_1,n1377_3_1_1_1_5
n1378_3_1_1_1,n1378_3_1_1_1_5
n1379_3_1_1_1,n1379_3_1_1_1_5
n1380_3_1_1_1,n1380_3_1_1_1_5
n1381_3_1_1_1,n1381_3_1_1_1_5
n1382_3_1_1_1,n1382_3_1_1_1_5
n1383_3_1_1_1,n1383_3_1_1_1_5
n1384_3_1_1_1,n1384_3_1_1_1_5
n1385_3_1_1_1,n1385_3_1_1_1_5
n1386_3_1_1_1,n1386_3_1_1_1_6
n1387_3_1_1_1,n1387_3_1_1_1_5
n1388_3_1_1_1,n1388_3_1_1_1_5
n1389_3_1_1_1,n1389_3_1_1_1_5
n1390_3_1_1_1,n1390_3_1_1_1_5
n1391_3_1_1_1,n1391_3_1_1_1_5
n1392_3_1_1_1,n1392_3_1_1_1_5
n1393_3_1_1_1,n1393_3_1_1_1_5
n1394_3_1_1_1,n1394_3_1_1_1_5
n1395_3_1_1_1,n1395_3_1_1_1_5
n1396_3_1_1_1,n1396_3_1_1_1_5
n1397_3_1_1_1,n1397_3_1_1_1_5
n1398_3_1_1_1,n1398_3_1_1_1_5
n1399_3_1_1_1,n1399_3_1_1_1_5
n1401_3_1_1_1,n1401_3_1_1_1_5
n1402_3_1_1_1,n1402_3_1_1_1_5
n1403_3_1_1_1,n1403_3_1_1_1_5
n1404_3_1_1_1,n1404_3_1_1_1_5
n1405_3_1_1_1,n1405_3_1_1_1_5
n1406_3_1_1_1,n1406_3_1_1_1_6
n1407_3_1_1_1,n1407_3_1_1_1_5
n1408_3_1_1_1,n1408_3_1_1_1_5
n1409_3_1_1_1,n1409_3_1_1_1_5
n1410_3_1_1_1,n1410_3_1_1_1_5
n1411_3_1_1_1,n1411_3_1_1_1_5
n1412_3_1_1_1,n1412_3_1_1_1_5
n1413_3_1_1_1,n1413_3_1_1_1_5
n1414_3_1_1_1,n1414_3_1_1_1_5
n1417_3_1_1_1,n1417_3_1_1_1_5
n1418_3_1_1_1,n1418_3_1_1_1_5
n1419_3_1_1_1,n1419_3_1_1_1_5
n1420_3_1_1_1,n1420_3_1_1_1_5
n1422_3_1_1_1,n1422_3_1_1_1_5
n1423_3_1_1_1,n1423_3_1_1_1_5
n1424_3_1_1_1,n1424_3_1_1_1_5
n1425_3_1_1_1,n1425_3_1_1_1_5
n1426_3_1_1_1,n1426_3_1_1_1_5
n1427_3_1_1_1,n1427_3_1_1_1_5
n1428_3_1_1_1,n1428_3_1_1_1_5
n1429_3_1_1_1,n1429_3_1_1_1_5
n1430_3_1_1_1,n1430_3_1_1_1_5
n1431_3_1_1_1,n1431_3_1_1_1_5
n1432_3_1_1_1,n1432_3_1_1_1_6
n1433_3_1_1_1,n1433_3_1_1_1_5
n1434_3_1_1_1,n1434_3_1_1_1_5
n1435_3_1_1_1,n1435_3_1_1_1_5
n1436_3_1_1_1,n1436_3_1_1_1_6
n1437_3_1_1_1,n1437_3_1_1_1_5
n1438_3_1_1_1,n1438_3_1_1_1_5
n1439_3_1_1_1,n1439_3_1_1_1_6
n1441_3_1_1_1,n1441_3_1_1_1_5
n1442_3_1_1_1,n1442_3_1_1_1_5
n1443_3_1_1_1,n1443_3_1_1_1_5
n1445_3_1_1_1,n1445_3_1_1_1_6
n1446_3_1_1_1,n1446_3_1_1_1_5
n1447_3_1_1_1,n1447_3_1_1_1_5
n1448_3_1_1_1,n1448_3_1_1_1_6
n1449_3_1_1_1,n1449_3_1_1_1_5
n1450_3_1_1_1,n1450_3_1_1_1_5
n1451_3_1_1_1,n1451_3_1_1_1_5
n1452_3_1_1_1,n1452_3_1_1_1_5
n1453_3_1_1_1,n1453_3_1_1_1_5
n1454_3_1_1_1,n1454_3_1_1_1_5
n1455_3_1_1_1,n1455_3_1_1_1_5
n1456_3_1_1_1,n1456_3_1_1_1_5
n1457_3_1_1_1,n1457_3_1_1_1_5
n1458_3_1_1_1,n1458_3_1_1_1_5
n1459_3_1_1_1,n1459_3_1_1_1_5
n1460_3_1_1_1,n1460_3_1_1_1_6
n1461_3_1_1_1,n1461_3_1_1_1_5
n1462_3_1_1_1,n1462_3_1_1_1_5
n1463_3_1_1_1,n1463_3_1_1_1_6
n1464_3_1_1_1,n1464_3_1_1_1_5
n1465_3_1_1_1,n1465_3_1_1_1_6
n1466_3_1_1_1,n1466_3_1_1_1_6
n1467_3_1_1_1,n1467_3_1_1_1_6
n1469_3_1_1_1,n1469_3_1_1_1_5
n1470_3_1_1_1,n1470_3_1_1_1_6
n1471_3_1_1_1,n1471_3_1_1_1_5
n1472_3_1_1_1,n1472_3_1_1_1_5
n1473_3_1_1_1,n1473_3_1_1_1_5
n1474_3_1_1_1,n1474_3_1_1_1_5
n1475_3_1_1_1,n1475_3_1_1_1_5
n1476_3_1_1_1,n1476_3_1_1_1_5
n1477_3_1_1_1,n1477_3_1_1_1_5
n1478_3_1_1_1,n1478_3_1_1_1_5
n1479_3_1_1_1,n1479_3_1_1_1_5
n1480_3_1_1_1,n1480_3_1_1_1_5
n1481_3_1_1_1,n1481_3_1_1_1_5
n1482_3_1_1_1,n1482_3_1_1_1_6
n1483_3_1_1_1,n1483_3_1_1_1_5
n1484_3_1_1_1,n1484_3_1_1_1_5
n1485_3_1_1_1,n1485_3_1_1_1_5
n1486_3_1_1_1,n1486_3_1_1_1_5
n1488_3_1_1_1,n1488_3_1_1_1_6
n1489_3_1_1_1,n1489_3_1_1_1_5
n1490_3_1_1_1,n1490_3_1_1_1_5
n1492_3_1_1_1,n1492_3_1_1_1_5
n1493_3_1_1_1,n1493_3_1_1_1_5
n1495_3_1_1_1,n1495_3_1_1_1_6
n1496_3_1_1_1,n1496_3_1_1_1_5
n1498_3_1_1_1,n1498_3_1_1_1_5
n1499_3_1_1_1,n1499_3_1_1_1_5
n1500_3_1_1_1,n1500_3_1_1_1_5
n1501_3_1_1_1,n1501_3_1_1_1_5
n1502_3_1_1_1,n1502_3_1_1_1_5
n1503_3_1_1_1,n1503_3_1_1_1_5
n1504_3_1_1_1,n1504_3_1_1_1_5
n1505_3_1_1_1,n1505_3_1_1_1_5
n1506_3_1_1_1,n1506_3_1_1_1_5
n1507_3_1_1_1,n1507_3_1_1_1_5
n1509_3_1_1_1,n1509_3_1_1_1_5
n1510_3_1_1_1,n1510_3_1_1_1_5
n1511_3_1_1_1,n1511_3_1_1_1_5
n1512_3_1_1_1,n1512_3_1_1_1_5
n1513_3_1_1_1,n1513_3_1_1_1_5
n1514_3_1_1_1,n1514_3_1_1_1_5
n1515_3_1_1_1,n1515_3_1_1_1_6
n1516_3_1_1_1,n1516_3_1_1_1_5
n1517_3_1_1_1,n1517_3_1_1_1_5
n1518_3_1_1_1,n1518_3_1_1_1_5
n1519_3_1_1_1,n1519_3_1_1_1_5
n1520_3_1_1_1,n1520_3_1_1_1_5
n1521_3_1_1_1,n1521_3_1_1_1_5
n1522_3_1_1_1,n1522_3_1_1_1_5
n1523_3_1_1_1,n1523_3_1_1_1_5
n1524_3_1_1_1,n1524_3_1_1_1_5
n1525_3_1_1_1,n1525_3_1_1_1_5
n1526_3_1_1_1,n1526_3_1_1_1_5
n1527_3_1_1_1,n1527_3_1_1_1_5
n1528_3_1_1_1,n1528_3_1_1_1_5
n1529_3_1_1_1,n1529_3_1_1_1_5
n1530_3_1_1_1,n1530_3_1_1_1_6
n1531_3_1_1_1,n1531_3_1_1_1_5
n1532_3_1_1_1,n1532_3_1_1_1_5
n1533_3_1_1_1,n1533_3_1_1_1_5
n1534_3_1_1_1,n1534_3_1_1_1_5
n1535_3_1_1_1,n1535_3_1_1_1_5
n1536_3_1_1_1,n1536_3_1_1_1_5
n1537_3_1_1_1,n1537_3_1_1_1_5
n1538_3_1_1_1,n1538_3_1_1_1_5
n1539_3_1_1_1,n1539_3_1_1_1_5
n1541_3_1_1_1,n1541_3_1_1_1_5
n1542_3_1_1_1,n1542_3_1_1_1_6
n1543_3_1_1_1,n1543_3_1_1_1_5
n1544_3_1_1_1,n1544_3_1_1_1_5
n1545_3_1_1_1,n1545_3_1_1_1_5
n1546_3_1_1_1,n1546_3_1_1_1_5
n1547_3_1_1_1,n1547_3_1_1_1_5
n1548_3_1_1_1,n1548_3_1_1_1_5
n1549_3_1_1_1,n1549_3_1_1_1_5
n1550_3_1_1_1,n1550_3_1_1_1_5
n1551_3_1_1_1,n1551_3_1_1_1_5
n1552_3_1_1_1,n1552_3_1_1_1_5
n1553_3_1_1_1,n1553_3_1_1_1_5
n1554_3_1_1_1,n1554_3_1_1_1_5
n1555_3_1_1_1,n1555_3_1_1_1_5
n1556_3_1_1_1,n1556_3_1_1_1_5
n1557_3_1_1_1,n1557_3_1_1_1_5
n1558_3_1_1_1,n1558_3_1_1_1_5
n1560_3_1_1_1,n1560_3_1_1_1_5
n1561_3_1_1_1,n1561_3_1_1_1_5
n1562_3_1_1_1,n1562_3_1_1_1_5
n1563_3_1_1_1,n1563_3_1_1_1_5
n1564_3_1_1_1,n1564_3_1_1_1_5
n1565_3_1_1_1,n1565_3_1_1_1_5
n1566_3_1_1_1,n1566_3_1_1_1_5
n1567_3_1_1_1,n1567_3_1_1_1_6
n1568_3_1_1_1,n1568_3_1_1_1_5
n1569_3_1_1_1,n1569_3_1_1_1_5
n1570_3_1_1_1,n1570_3_1_1_1_5
n1571_3_1_1_1,n1571_3_1_1_1_5
n1572_3_1_1_1,n1572_3_1_1_1_5
n1573_3_1_1_1,n1573_3_1_1_1_5
n1575_3_1_1_1,n1575_3_1_1_1_5
n1576_3_1_1_1,n1576_3_1_1_1_5
n1577_3_1_1_1,n1577_3_1_1_1_5
n1578_3_1_1_1,n1578_3_1_1_1_5
n1579_3_1_1_1,n1579_3_1_1_1_5
n1580_3_1_1_1,n1580_3_1_1_1_5
n1581_3_1_1_1,n1581_3_1_1_1_5
n1582_3_1_1_1,n1582_3_1_1_1_5
n1583_3_1_1_1,n1583_3_1_1_1_5
n1584_3_1_1_1,n1584_3_1_1_1_5
n1585_3_1_1_1,n1585_3_1_1_1_5
n1586_3_1_1_1,n1586_3_1_1_1_5
n1587_3_1_1_1,n1587_3_1_1_1_6
n1588_3_1_1_1,n1588_3_1_1_1_5
n1589_3_1_1_1,n1589_3_1_1_1_5
n1590_3_1_1_1,n1590_3_1_1_1_5
n1591_3_1_1_1,n1591_3_1_1_1_5
n1592_3_1_1_1,n1592_3_1_1_1_5
n1593_3_1_1_1,n1593_3_1_1_1_5
n1594_3_1_1_1,n1594_3_1_1_1_5
n1595_3_1_1_1,n1595_3_1_1_1_5
n1596_3_1_1_1,n1596_3_1_1_1_5
n1597_3_1_1_1,n1597_3_1_1_1_5
n1598_3_1_1_1,n1598_3_1_1_1_6
n1599_3_1_1_1,n1599_3_1_1_1_5
n1600_3_1_1_1,n1600_3_1_1_1_5
n1601_3_1_1_1,n1601_3_1_1_1_5
n1602_3_1_1_1,n1602_3_1_1_1_5
n1603_3_1_1_1,n1603_3_1_1_1_5
n1604_3_1_1_1,n1604_3_1_1_1_5
n1605_3_1_1_1,n1605_3_1_1_1_5
n1606_3_1_1_1,n1606_3_1_1_1_5
n1607_3_1_1_1,n1607_3_1_1_1_5
n1608_3_1_1_1,n1608_3_1_1_1_5
n1609_3_1_1_1,n1609_3_1_1_1_5
n1610_3_1_1_1,n1610_3_1_1_1_5
n1611_3_1_1_1,n1611_3_1_1_1_5
n1612_3_1_1_1,n1612_3_1_1_1_6
n1613_3_1_1_1,n1613_3_1_1_1_5
n1614_3_1_1_1,n1614_3_1_1_1_5
n1615_3_1_1_1,n1615_3_1_1_1_5
n1617_3_1_1_1,n1617_3_1_1_1_5
n1618_3_1_1_1,n1618_3_1_1_1_5
n1619_3_1_1_1,n1619_3_1_1_1_5
n1620_3_1_1_1,n1620_3_1_1_1_5
n1621_3_1_1_1,n1621_3_1_1_1_5
n1622_3_1_1_1,n1622_3_1_1_1_5
n1623_3_1_1_1,n1623_3_1_1_1_5
n1624_3_1_1_1,n1624_3_1_1_1_5
n1625_3_1_1_1,n1625_3_1_1_1_5
n1626_3_1_1_1,n1626_3_1_1_1_5
n1627_3_1_1_1,n1627_3_1_1_1_5
n1628_3_1_1_1,n1628_3_1_1_1_5
n1629_3_1_1_1,n1629_3_1_1_1_5
n1630_3_1_1_1,n1630_3_1_1_1_6
n1631_3_1_1_1,n1631_3_1_1_1_5
n1633_3_1_1_1,n1633_3_1_1_1_6
n1634_3_1_1_1,n1634_3_1_1_1_5
n1635_3_1_1_1,n1635_3_1_1_1_5
n1636_3_1_1_1,n1636_3_1_1_1_5
n1637_3_1_1_1,n1637_3_1_1_1_5
n1638_3_1_1_1,n1638_3_1_1_1_5
n1639_3_1_1_1,n1639_3_1_1_1_5
n1640_3_1_1_1,n1640_3_1_1_1_5
n1641_3_1_1_1,n1641_3_1_1_1_5
n1642_3_1_1_1,n1642_3_1_1_1_6
n1643_3_1_1_1,n1643_3_1_1_1_5
n1644_3_1_1_1,n1644_3_1_1_1_5
n1645_3_1_1_1,n1645_3_1_1_1_5
n1646_3_1_1_1,n1646_3_1_1_1_5
n1647_3_1_1_1,n1647_3_1_1_1_5
n1648_3_1_1_1,n1648_3_1_1_1_5
n1649_3_1_1_1,n1649_3_1_1_1_5
n1650_3_1_1_1,n1650_3_1_1_1_5
n1651_3_1_1_1,n1651_3_1_1_1_6
n1652_3_1_1_1,n1652_3_1_1_1_5
n1653_3_1_1_1,n1653_3_1_1_1_6
n1654_3_1_1_1,n1654_3_1_1_1_5
n1655_3_1_1_1,n1655_3_1_1_1_5
n1656_3_1_1_1,n1656_3_1_1_1_5
n1657_3_1_1_1,n1657_3_1_1_1_5
n1658_3_1_1_1,n1658_3_1_1_1_5
n1659_3_1_1_1,n1659_3_1_1_1_5
n1660_3_1_1_1,n1660_3_1_1_1_5
n1661_3_1_1_1,n1661_3_1_1_1_5
n1662_3_1_1_1,n1662_3_1_1_1_6
n1663_3_1_1_1,n1663_3_1_1_1_5
n1664_3_1_1_1,n1664_3_1_1_1_5
n1665_3_1_1_1,n1665_3_1_1_1_6
n1666_3_1_1_1,n1666_3_1_1_1_6
n1667_3_1_1_1,n1667_3_1_1_1_5
n1668_3_1_1_1,n1668_3_1_1_1_5
n1669_3_1_1_1,n1669_3_1_1_1_5
n1670_3_1_1_1,n1670_3_1_1_1_5
n1672_3_1_1_1,n1672_3_1_1_1_5
n1673_3_1_1_1,n1673_3_1_1_1_6
n1674_3_1_1_1,n1674_3_1_1_1_5
n1675_3_1_1_1,n1675_3_1_1_1_5
n1676_3_1_1_1,n1676_3_1_1_1_5
n1677_3_1_1_1,n1677_3_1_1_1_5
n1678_3_1_1_1,n1678_3_1_1_1_5
n1679_3_1_1_1,n1679_3_1_1_1_5
n1680_3_1_1_1,n1680_3_1_1_1_5
n1681_3_1_1_1,n1681_3_1_1_1_5
n1682_3_1_1_1,n1682_3_1_1_1_5
n1683_3_1_1_1,n1683_3_1_1_1_5
n1684_3_1_1_1,n1684_3_1_1_1_6
n1685_3_1_1_1,n1685_3_1_1_1_5
n1686_3_1_1_1,n1686_3_1_1_1_5
n1687_3_1_1_1,n1687_3_1_1_1_5
n1689_3_1_1_1,n1689_3_1_1_1_5
n1690_3_1_1_1,n1690_3_1_1_1_5
n1691_3_1_1_1,n1691_3_1_1_1_5
n1692_3_1_1_1,n1692_3_1_1_1_5
n1694_3_1_1_1,n1694_3_1_1_1_5
n1695_3_1_1_1,n1695_3_1_1_1_5
n1696_3_1_1_1,n1696_3_1_1_1_5
n1697_3_1_1_1,n1697_3_1_1_1_5
n1698_3_1_1_1,n1698_3_1_1_1_5
n1699_3_1_1_1,n1699_3_1_1_1_5
n1700_3_1_1_1,n1700_3_1_1_1_5
n1701_3_1_1_1,n1701_3_1_1_1_5
n1702_3_1_1_1,n1702_3_1_1_1_5
n1703_3_1_1_1,n1703_3_1_1_1_5
n1704_3_1_1_1,n1704_3_1_1_1_5
n1705_3_1_1_1,n1705_3_1_1_1_5
n1706_3_1_1_1,n1706_3_1_1_1_5
n1707_3_1_1_1,n1707_3_1_1_1_5
n1708_3_1_1_1,n1708_3_1_1_1_6
n1709_3_1_1_1,n1709_3_1_1_1_5
n1710_3_1_1_1,n1710_3_1_1_1_5
n1712_3_1_1_1,n1712_3_1_1_1_5
n1713_3_1_1_1,n1713_3_1_1_1_5
n1714_3_1_1_1,n1714_3_1_1_1_5
n1715_3_1_1_1,n1715_3_1_1_1_5
n1716_3_1_1_1,n1716_3_1_1_1_5
n1717_3_1_1_1,n1717_3_1_1_1_5
n1718_3_1_1_1,n1718_3_1_1_1_6
n1719_3_1_1_1,n1719_3_1_1_1_5
n1720_3_1_1_1,n1720_3_1_1_1_5
n1721_3_1_1_1,n1721_3_1_1_1_5
n1722_3_1_1_1,n1722_3_1_1_1_5
n1723_3_1_1_1,n1723_3_1_1_1_5
n1724_3_1_1_1,n1724_3_1_1_1_5
n1725_3_1_1_1,n1725_3_1_1_1_5
n1726_3_1_1_1,n1726_3_1_1_1_5
n1727_3_1_1_1,n1727_3_1_1_1_5
n1728_3_1_1_1,n1728_3_1_1_1_5
n1730_3_1_1_1,n1730_3_1_1_1_6
n1732_3_1_1_1,n1732_3_1_1_1_5
n1733_3_1_1_1,n1733_3_1_1_1_5
n1734_3_1_1_1,n1734_3_1_1_1_5
n1735_3_1_1_1,n1735_3_1_1_1_5
n1736_3_1_1_1,n1736_3_1_1_1_5
n1737_3_1_1_1,n1737_3_1_1_1_5
n1738_3_1_1_1,n1738_3_1_1_1_5
n1739_3_1_1_1,n1739_3_1_1_1_5
n1740_3_1_1_1,n1740_3_1_1_1_5
n1741_3_1_1_1,n1741_3_1_1_1_5
n1742_3_1_1_1,n1742_3_1_1_1_5
n1743_3_1_1_1,n1743_3_1_1_1_5
n1744_3_1_1_1,n1744_3_1_1_1_5
n1745_3_1_1_1,n1745_3_1_1_1_6
n1746_3_1_1_1,n1746_3_1_1_1_5
n1747_3_1_1_1,n1747_3_1_1_1_6
n1748_3_1_1_1,n1748_3_1_1_1_5
n1749_3_1_1_1,n1749_3_1_1_1_5
n1750_3_1_1_1,n1750_3_1_1_1_5
n1751_3_1_1_1,n1751_3_1_1_1_5
n1752_3_1_1_1,n1752_3_1_1_1_5
n1753_3_1_1_1,n1753_3_1_1_1_5
n1754_3_1_1_1,n1754_3_1_1_1_6
n1755_3_1_1_1,n1755_3_1_1_1_5
n1757_3_1_1_1,n1757_3_1_1_1_5
n1758_3_1_1_1,n1758_3_1_1_1_5
n1759_3_1_1_1,n1759_3_1_1_1_5
n1760_3_1_1_1,n1760_3_1_1_1_5
n1761_3_1_1_1,n1761_3_1_1_1_5
n1762_3_1_1_1,n1762_3_1_1_1_5
n1763_3_1_1_1,n1763_3_1_1_1_5
n1764_3_1_1_1,n1764_3_1_1_1_5
n1765_3_1_1_1,n1765_3_1_1_1_6
n1767_3_1_1_1,n1767_3_1_1_1_6
n1768_3_1_1_1,n1768_3_1_1_1_5
n1769_3_1_1_1,n1769_3_1_1_1_6
n1770_3_1_1_1,n1770_3_1_1_1_5
n1771_3_1_1_1,n1771_3_1_1_1_5
n1772_3_1_1_1,n1772_3_1_1_1_5
n1773_3_1_1_1,n1773_3_1_1_1_5
n1774_3_1_1_1,n1774_3_1_1_1_5
n1775_3_1_1_1,n1775_3_1_1_1_5
n1776_3_1_1_1,n1776_3_1_1_1_5
n1777_3_1_1_1,n1777_3_1_1_1_5
n1778_3_1_1_1,n1778_3_1_1_1_5
n1779_3_1_1_1,n1779_3_1_1_1_5
n1780_3_1_1_1,n1780_3_1_1_1_5
n1782_3_1_1_1,n1782_3_1_1_1_5
n1783_3_1_1_1,n1783_3_1_1_1_5
n1784_3_1_1_1,n1784_3_1_1_1_5
n1786_3_1_1_1,n1786_3_1_1_1_5
n1787_3_1_1_1,n1787_3_1_1_1_5
n1788_3_1_1_1,n1788_3_1_1_1_6
n1789_3_1_1_1,n1789_3_1_1_1_5
n1790_3_1_1_1,n1790_3_1_1_1_5
n1791_3_1_1_1,n1791_3_1_1_1_5
n1792_3_1_1_1,n1792_3_1_1_1_5
n1793_3_1_1_1,n1793_3_1_1_1_5
n1794_3_1_1_1,n1794_3_1_1_1_5
n1795_3_1_1_1,n1795_3_1_1_1_5
n1796_3_1_1_1,n1796_3_1_1_1_5
n1797_3_1_1_1,n1797_3_1_1_1_5
n1798_3_1_1_1,n1798_3_1_1_1_6
n1799_3_1_1_1,n1799_3_1_1_1_5
n1800_3_1_1_1,n1800_3_1_1_1_5
n1801_3_1_1_1,n1801_3_1_1_1_6
n1802_3_1_1_1,n1802_3_1_1_1_5
n1804_3_1_1_1,n1804_3_1_1_1_5
n1805_3_1_1_1,n1805_3_1_1_1_5
n1806_3_1_1_1,n1806_3_1_1_1_6
n1807_3_1_1_1,n1807_3_1_1_1_5
n1808_3_1_1_1,n1808_3_1_1_1_5
n1809_3_1_1_1,n1809_3_1_1_1_5
n1810_3_1_1_1,n1810_3_1_1_1_5
n1811_3_1_1_1,n1811_3_1_1_1_5
n1812_3_1_1_1,n1812_3_1_1_1_5
n1813_3_1_1_1,n1813_3_1_1_1_5
n1814_3_1_1_1,n1814_3_1_1_1_6
n1815_3_1_1_1,n1815_3_1_1_1_6
n1816_3_1_1_1,n1816_3_1_1_1_6
n1817_3_1_1_1,n1817_3_1_1_1_5
n1818_3_1_1_1,n1818_3_1_1_1_5
n1819_3_1_1_1,n1819_3_1_1_1_5
n1820_3_1_1_1,n1820_3_1_1_1_5
n1821_3_1_1_1,n1821_3_1_1_1_5
n1822_3_1_1_1,n1822_3_1_1_1_5
n1824_3_1_1_1,n1824_3_1_1_1_5
n1825_3_1_1_1,n1825_3_1_1_1_5
n1826_3_1_1_1,n1826_3_1_1_1_5
n1827_3_1_1_1,n1827_3_1_1_1_5
n1828_3_1_1_1,n1828_3_1_1_1_5
n1829_3_1_1_1,n1829_3_1_1_1_5
n1830_3_1_1_1,n1830_3_1_1_1_5
n1831_3_1_1_1,n1831_3_1_1_1_5
n1832_3_1_1_1,n1832_3_1_1_1_5
n1833_3_1_1_1,n1833_3_1_1_1_5
n1834_3_1_1_1,n1834_3_1_1_1_5
n1835_3_1_1_1,n1835_3_1_1_1_5
n1836_3_1_1_1,n1836_3_1_1_1_5
n1837_3_1_1_1,n1837_3_1_1_1_5
n1838_3_1_1_1,n1838_3_1_1_1_5
n1839_3_1_1_1,n1839_3_1_1_1_5
n1840_3_1_1_1,n1840_3_1_1_1_6
n1841_3_1_1_1,n1841_3_1_1_1_5
n1842_3_1_1_1,n1842_3_1_1_1_5
n1843_3_1_1_1,n1843_3_1_1_1_5
n1844_3_1_1_1,n1844_3_1_1_1_5
n1845_3_1_1_1,n1845_3_1_1_1_5
n1846_3_1_1_1,n1846_3_1_1_1_5
n1847_3_1_1_1,n1847_3_1_1_1_5
n1848_3_1_1_1,n1848_3_1_1_1_5
n1849_3_1_1_1,n1849_3_1_1_1_5
n1850_3_1_1_1,n1850_3_1_1_1_5
n1851_3_1_1_1,n1851_3_1_1_1_5
n1852_3_1_1_1,n1852_3_1_1_1_6
n1853_3_1_1_1,n1853_3_1_1_1_5
n1854_3_1_1_1,n1854_3_1_1_1_5
n1855_3_1_1_1,n1855_3_1_1_1_5
n1856_3_1_1_1,n1856_3_1_1_1_5
n1857_3_1_1_1,n1857_3_1_1_1_5
n1858_3_1_1_1,n1858_3_1_1_1_5
n1859_3_1_1_1,n1859_3_1_1_1_5
n1860_3_1_1_1,n1860_3_1_1_1_5
n1861_3_1_1_1,n1861_3_1_1_1_5
n1862_3_1_1_1,n1862_3_1_1_1_5
n1863_3_1_1_1,n1863_3_1_1_1_5
n1864_3_1_1_1,n1864_3_1_1_1_5
n1865_3_1_1_1,n1865_3_1_1_1_5
n1866_3_1_1_1,n1866_3_1_1_1_5
n1867_3_1_1_1,n1867_3_1_1_1_6
n1868_3_1_1_1,n1868_3_1_1_1_5
n1869_3_1_1_1,n1869_3_1_1_1_5
n1870_3_1_1_1,n1870_3_1_1_1_5
n1871_3_1_1_1,n1871_3_1_1_1_5
n1872_3_1_1_1,n1872_3_1_1_1_6
n1874_3_1_1_1,n1874_3_1_1_1_5
n1875_3_1_1_1,n1875_3_1_1_1_5
n1876_3_1_1_1,n1876_3_1_1_1_6
n1877_3_1_1_1,n1877_3_1_1_1_5
n1878_3_1_1_1,n1878_3_1_1_1_6
n1879_3_1_1_1,n1879_3_1_1_1_5
n1880_3_1_1_1,n1880_3_1_1_1_6
n1881_3_1_1_1,n1881_3_1_1_1_5
n1882_3_1_1_1,n1882_3_1_1_1_5
n1883_3_1_1_1,n1883_3_1_1_1_5
n1884_3_1_1_1,n1884_3_1_1_1_5
n1885_3_1_1_1,n1885_3_1_1_1_5
n1886_3_1_1_1,n1886_3_1_1_1_5
n1887_3_1_1_1,n1887_3_1_1_1_5
n1888_3_1_1_1,n1888_3_1_1_1_5
n1890_3_1_1_1,n1890_3_1_1_1_6
n1892_3_1_1_1,n1892_3_1_1_1_5
n1893_3_1_1_1,n1893_3_1_1_1_5
n1894_3_1_1_1,n1894_3_1_1_1_5
n1895_3_1_1_1,n1895_3_1_1_1_5
n1896_3_1_1_1,n1896_3_1_1_1_5
n1898_3_1_1_1,n1898_3_1_1_1_5
n1899_3_1_1_1,n1899_3_1_1_1_5
n1900_3_1_1_1,n1900_3_1_1_1_5
n1901_3_1_1_1,n1901_3_1_1_1_5
n1902_3_1_1_1,n1902_3_1_1_1_5
n1903_3_1_1_1,n1903_3_1_1_1_5
n1904_3_1_1_1,n1904_3_1_1_1_5
n1905_3_1_1_1,n1905_3_1_1_1_5
n1906_3_1_1_1,n1906_3_1_1_1_5
n1907_3_1_1_1,n1907_3_1_1_1_6
n1909_3_1_1_1,n1909_3_1_1_1_5
n1910_3_1_1_1,n1910_3_1_1_1_5
n1912_3_1_1_1,n1912_3_1_1_1_5
n1913_3_1_1_1,n1913_3_1_1_1_5
n1914_3_1_1_1,n1914_3_1_1_1_5
n1915_3_1_1_1,n1915_3_1_1_1_5
n1916_3_1_1_1,n1916_3_1_1_1_6
n1917_3_1_1_1,n1917_3_1_1_1_5
n1918_3_1_1_1,n1918_3_1_1_1_5
n1919_3_1_1_1,n1919_3_1_1_1_5
n1920_3_1_1_1,n1920_3_1_1_1_5
n1921_3_1_1_1,n1921_3_1_1_1_5
n1922_3_1_1_1,n1922_3_1_1_1_5
n1923_3_1_1_1,n1923_3_1_1_1_5
n1924_3_1_1_1,n1924_3_1_1_1_5
n1926_3_1_1_1,n1926_3_1_1_1_6
n1927_3_1_1_1,n1927_3_1_1_1_5
n1928_3_1_1_1,n1928_3_1_1_1_6
n1929_3_1_1_1,n1929_3_1_1_1_5
n1930_3_1_1_1,n1930_3_1_1_1_5
n1931_3_1_1_1,n1931_3_1_1_1_5
n1932_3_1_1_1,n1932_3_1_1_1_5
n1933_3_1_1_1,n1933_3_1_1_1_5
n1934_3_1_1_1,n1934_3_1_1_1_5
n1936_3_1_1_1,n1936_3_1_1_1_5
n1937_3_1_1_1,n1937_3_1_1_1_5
n1938_3_1_1_1,n1938_3_1_1_1_5
n1939_3_1_1_1,n1939_3_1_1_1_5
n1940_3_1_1_1,n1940_3_1_1_1_5
n1941_3_1_1_1,n1941_3_1_1_1_5
n1942_3_1_1_1,n1942_3_1_1_1_5
n1943_3_1_1_1,n1943_3_1_1_1_5
n1944_3_1_1_1,n1944_3_1_1_1_5
n1945_3_1_1_1,n1945_3_1_1_1_5
n1946_3_1_1_1,n1946_3_1_1_1_5
n1947_3_1_1_1,n1947_3_1_1_1_5
n1948_3_1_1_1,n1948_3_1_1_1_5
n1949_3_1_1_1,n1949_3_1_1_1_5
n1950_3_1_1_1,n1950_3_1_1_1_6
n1951_3_1_1_1,n1951_3_1_1_1_5
n1952_3_1_1_1,n1952_3_1_1_1_5
n1953_3_1_1_1,n1953_3_1_1_1_5
n1954_3_1_1_1,n1954_3_1_1_1_5
n1955_3_1_1_1,n1955_3_1_1_1_5
n1956_3_1_1_1,n1956_3_1_1_1_5
n1957_3_1_1_1,n1957_3_1_1_1_5
n1958_3_1_1_1,n1958_3_1_1_1_5
n1960_3_1_1_1,n1960_3_1_1_1_5
n1961_3_1_1_1,n1961_3_1_1_1_5
n1962_3_1_1_1,n1962_3_1_1_1_5
n1963_3_1_1_1,n1963_3_1_1_1_5
n1964_3_1_1_1,n1964_3_1_1_1_5
n1965_3_1_1_1,n1965_3_1_1_1_5
n1966_3_1_1_1,n1966_3_1_1_1_5
n1968_3_1_1_1,n1968_3_1_1_1_5
n1969_3_1_1_1,n1969_3_1_1_1_5
n1970_3_1_1_1,n1970_3_1_1_1_5
n1972_3_1_1_1,n1972_3_1_1_1_5
n1973_3_1_1_1,n1973_3_1_1_1_6
n1975_3_1_1_1,n1975_3_1_1_1_6
n1976_3_1_1_1,n1976_3_1_1_1_5
n1977_3_1_1_1,n1977_3_1_1_1_6
n1978_3_1_1_1,n1978_3_1_1_1_5
n1979_3_1_1_1,n1979_3_1_1_1_5
n1980_3_1_1_1,n1980_3_1_1_1_5
n1981_3_1_1_1,n1981_3_1_1_1_5
n1982_3_1_1_1,n1982_3_1_1_1_5
n1983_3_1_1_1,n1983_3_1_1_1_5
n1984_3_1_1_1,n1984_3_1_1_1_5
n1985_3_1_1_1,n1985_3_1_1_1_5
n1986_3_1_1_1,n1986_3_1_1_1_5
n1987_3_1_1_1,n1987_3_1_1_1_5
n1988_3_1_1_1,n1988_3_1_1_1_5
n1989_3_1_1_1,n1989_3_1_1_1_5
n1990_3_1_1_1,n1990_3_1_1_1_5
n1991_3_1_1_1,n1991_3_1_1_1_5
n1992_3_1_1_1,n1992_3_1_1_1_5
n1993_3_1_1_1,n1993_3_1_1_1_5
n1994_3_1_1_1,n1994_3_1_1_1_5
n1995_3_1_1_1,n1995_3_1_1_1_5
n1996_3_1_1_1,n1996_3_1_1_1_5
n1997_3_1_1_1,n1997_3_1_1_1_5
n1998_3_1_1_1,n1998_3_1_1_1_5
n1999_3_1_1_1,n1999_3_1_1_1_5
n2000_3_1_1_1,n2000_3_1_1_1_5
n2001_3_1_1_1,n2001_3_1_1_1_5
n2002_3_1_1_1,n2002_3_1_1_1_5
n2003_3_1_1_1,n2003_3_1_1_1_5
n2004_3_1_1_1,n2004_3_1_1_1_6
n2005_3_1_1_1,n2005_3_1_1_1_6
n2006_3_1_1_1,n2006_3_1_1_1_5
n2007_3_1_1_1,n2007_3_1_1_1_5
n2008_3_1_1_1,n2008_3_1_1_1_5
n2009_3_1_1_1,n2009_3_1_1_1_5
n2010_3_1_1_1,n2010_3_1_1_1_5
n2011_3_1_1_1,n2011_3_1_1_1_5
n2012_3_1_1_1,n2012_3_1_1_1_5
n2013_3_1_1_1,n2013_3_1_1_1_6
n2014_3_1_1_1,n2014_3_1_1_1_5
n2015_3_1_1_1,n2015_3_1_1_1_6
n2016_3_1_1_1,n2016_3_1_1_1_5
n2017_3_1_1_1,n2017_3_1_1_1_5
n2018_3_1_1_1,n2018_3_1_1_1_5
n2019_3_1_1_1,n2019_3_1_1_1_5
n2020_3_1_1_1,n2020_3_1_1_1_5
n2021_3_1_1_1,n2021_3_1_1_1_5
n2022_3_1_1_1,n2022_3_1_1_1_5
n2023_3_1_1_1,n2023_3_1_1_1_5
n2024_3_1_1_1,n2024_3_1_1_1_5
n2025_3_1_1_1,n2025_3_1_1_1_5
n2026_3_1_1_1,n2026_3_1_1_1_5
n2027_3_1_1_1,n2027_3_1_1_1_5
n2028_3_1_1_1,n2028_3_1_1_1_5
n2029_3_1_1_1,n2029_3_1_1_1_5
n2030_3_1_1_1,n2030_3_1_1_1_5
n2031_3_1_1_1,n2031_3_1_1_1_5
n2032_3_1_1_1,n2032_3_1_1_1_5
n2033_3_1_1_1,n2033_3_1_1_1_5
n2034_3_1_1_1,n2034_3_1_1_1_5
n2035_3_1_1_1,n2035_3_1_1_1_5
n2036_3_1_1_1,n2036_3_1_1_1_5
n2037_3_1_1_1,n2037_3_1_1_1_5
n2038_3_1_1_1,n2038_3_1_1_1_5
n2039_3_1_1_1,n2039_3_1_1_1_5
n2040_3_1_1_1,n2040_3_1_1_1_5
n2041_3_1_1_1,n2041_3_1_1_1_5
n2042_3_1_1_1,n2042_3_1_1_1_5
n2043_3_1_1_1,n2043_3_1_1_1_6
n2044_3_1_1_1,n2044_3_1_1_1_6
n2045_3_1_1_1,n2045_3_1_1_1_5
n2046_3_1_1_1,n2046_3_1_1_1_5
n2047_3_1_1_1,n2047_3_1_1_1_5
n2048_3_1_1_1,n2048_3_1_1_1_5
n2049_3_1_1_1,n2049_3_1_1_1_5
n2050_3_1_1_1,n2050_3_1_1_1_5
n2051_3_1_1_1,n2051_3_1_1_1_5
n2052_3_1_1_1,n2052_3_1_1_1_5
n2053_3_1_1_1,n2053_3_1_1_1_6
n2054_3_1_1_1,n2054_3_1_1_1_6
n2055_3_1_1_1,n2055_3_1_1_1_5
n2056_3_1_1_1,n2056_3_1_1_1_5
n2057_3_1_1_1,n2057_3_1_1_1_5
n2058_3_1_1_1,n2058_3_1_1_1_6
n2059_3_1_1_1,n2059_3_1_1_1_5
n2060_3_1_1_1,n2060_3_1_1_1_5
n2061_3_1_1_1,n2061_3_1_1_1_5
n2062_3_1_1_1,n2062_3_1_1_1_5
n2063_3_1_1_1,n2063_3_1_1_1_5
n2064_3_1_1_1,n2064_3_1_1_1_5
n2065_3_1_1_1,n2065_3_1_1_1_5
n2066_3_1_1_1,n2066_3_1_1_1_5
n2067_3_1_1_1,n2067_3_1_1_1_5
n2068_3_1_1_1,n2068_3_1_1_1_5
n2069_3_1_1_1,n2069_3_1_1_1_5
n2070_3_1_1_1,n2070_3_1_1_1_5
n2071_3_1_1_1,n2071_3_1_1_1_5
n2072_3_1_1_1,n2072_3_1_1_1_5
n2073_3_1_1_1,n2073_3_1_1_1_5
n2074_3_1_1_1,n2074_3_1_1_1_5
n2075_3_1_1_1,n2075_3_1_1_1_5
n2076_3_1_1_1,n2076_3_1_1_1_5
n2077_3_1_1_1,n2077_3_1_1_1_5
n2078_3_1_1_1,n2078_3_1_1_1_5
n2080_3_1_1_1,n2080_3_1_1_1_5
n2081_3_1_1_1,n2081_3_1_1_1_5
n2082_3_1_1_1,n2082_3_1_1_1_5
n2083_3_1_1_1,n2083_3_1_1_1_6
n2084_3_1_1_1,n2084_3_1_1_1_5
n2085_3_1_1_1,n2085_3_1_1_1_5
n2086_3_1_1_1,n2086_3_1_1_1_5
n2087_3_1_1_1,n2087_3_1_1_1_5
n2088_3_1_1_1,n2088_3_1_1_1_5
n2089_3_1_1_1,n2089_3_1_1_1_5
n2090_3_1_1_1,n2090_3_1_1_1_5
n2091_3_1_1_1,n2091_3_1_1_1_5
n2092_3_1_1_1,n2092_3_1_1_1_5
n2093_3_1_1_1,n2093_3_1_1_1_5
n2094_3_1_1_1,n2094_3_1_1_1_5
n2095_3_1_1_1,n2095_3_1_1_1_5
n2096_3_1_1_1,n2096_3_1_1_1_5
n2097_3_1_1_1,n2097_3_1_1_1_5
n2098_3_1_1_1,n2098_3_1_1_1_5
n2099_3_1_1_1,n2099_3_1_1_1_5
n2100_3_1_1_1,n2100_3_1_1_1_5
n2101_3_1_1_1,n2101_3_1_1_1_5
n2102_3_1_1_1,n2102_3_1_1_1_5
n2104_3_1_1_1,n2104_3_1_1_1_5
n2105_3_1_1_1,n2105_3_1_1_1_6
n2106_3_1_1_1,n2106_3_1_1_1_5
n2107_3_1_1_1,n2107_3_1_1_1_5
n2108_3_1_1_1,n2108_3_1_1_1_5
n2109_3_1_1_1,n2109_3_1_1_1_5
n2110_3_1_1_1,n2110_3_1_1_1_5
n2111_3_1_1_1,n2111_3_1_1_1_5
n2112_3_1_1_1,n2112_3_1_1_1_5
n2113_3_1_1_1,n2113_3_1_1_1_5
n2114_3_1_1_1,n2114_3_1_1_1_5
n2115_3_1_1_1,n2115_3_1_1_1_5
n2116_3_1_1_1,n2116_3_1_1_1_5
n2117_3_1_1_1,n2117_3_1_1_1_5
n2118_3_1_1_1,n2118_3_1_1_1_5
n2120_3_1_1_1,n2120_3_1_1_1_6
n2121_3_1_1_1,n2121_3_1_1_1_5
n2122_3_1_1_1,n2122_3_1_1_1_5
n2123_3_1_1_1,n2123_3_1_1_1_5
n2124_3_1_1_1,n2124_3_1_1_1_5
n2125_3_1_1_1,n2125_3_1_1_1_5
n2126_3_1_1_1,n2126_3_1_1_1_5
n2127_3_1_1_1,n2127_3_1_1_1_5
n2128_3_1_1_1,n2128_3_1_1_1_5
n2129_3_1_1_1,n2129_3_1_1_1_5
n2131_3_1_1_1,n2131_3_1_1_1_6
n2132_3_1_1_1,n2132_3_1_1_1_5
n2133_3_1_1_1,n2133_3_1_1_1_5
n2134_3_1_1_1,n2134_3_1_1_1_5
n2135_3_1_1_1,n2135_3_1_1_1_5
n2136_3_1_1_1,n2136_3_1_1_1_5
n2137_3_1_1_1,n2137_3_1_1_1_5
n2138_3_1_1_1,n2138_3_1_1_1_5
n2139_3_1_1_1,n2139_3_1_1_1_5
n2140_3_1_1_1,n2140_3_1_1_1_6
n2141_3_1_1_1,n2141_3_1_1_1_5
n2142_3_1_1_1,n2142_3_1_1_1_5
n2143_3_1_1_1,n2143_3_1_1_1_5
n2144_3_1_1_1,n2144_3_1_1_1_5
n2145_3_1_1_1,n2145_3_1_1_1_5
n2146_3_1_1_1,n2146_3_1_1_1_5
n2147_3_1_1_1,n2147_3_1_1_1_5
n2148_3_1_1_1,n2148_3_1_1_1_5
n2149_3_1_1_1,n2149_3_1_1_1_5
n2150_3_1_1_1,n2150_3_1_1_1_5
n2151_3_1_1_1,n2151_3_1_1_1_6
n2152_3_1_1_1,n2152_3_1_1_1_6
n2153_3_1_1_1,n2153_3_1_1_1_5
n2154_3_1_1_1,n2154_3_1_1_1_5
n2155_3_1_1_1,n2155_3_1_1_1_5
n2156_3_1_1_1,n2156_3_1_1_1_5
n2157_3_1_1_1,n2157_3_1_1_1_5
n2158_3_1_1_1,n2158_3_1_1_1_5
n2159_3_1_1_1,n2159_3_1_1_1_5
n2160_3_1_1_1,n2160_3_1_1_1_5
n2161_3_1_1_1,n2161_3_1_1_1_5
n2162_3_1_1_1,n2162_3_1_1_1_5
n2163_3_1_1_1,n2163_3_1_1_1_5
n2164_3_1_1_1,n2164_3_1_1_1_5
n2165_3_1_1_1,n2165_3_1_1_1_5
n2166_3_1_1_1,n2166_3_1_1_1_5
n2167_3_1_1_1,n2167_3_1_1_1_5
n2168_3_1_1_1,n2168_3_1_1_1_5
n2169_3_1_1_1,n2169_3_1_1_1_5
n2170_3_1_1_1,n2170_3_1_1_1_5
n2171_3_1_1_1,n2171_3_1_1_1_5
n2172_3_1_1_1,n2172_3_1_1_1_5
n2173_3_1_1_1,n2173_3_1_1_1_5
n2175_3_1_1_1,n2175_3_1_1_1_5
