n4926_3_1_1,n4926_3_1_1_13
n4927_3_1_1,n4927_3_1_1_11
n4928_3_1_1,n4928_3_1_1_6
n4931_3_1_1,n4931_3_1_1_7
n4933_3_1_1,n4933_3_1_1_4
n4934_3_1_1,n4934_3_1_1_15
n4935_3_1_1,n4935_3_1_1_7
n4936_3_1_1,n4936_3_1_1_12
n4937_3_1_1,n4937_3_1_1_4
n4939_3_1_1,n4939_3_1_1_8
n4941_3_1_1,n4941_3_1_1_14
n4942_3_1_1,n4942_3_1_1_15
n4943_3_1_1,n4943_3_1_1_7
n4944_3_1_1,n4944_3_1_1_12
n4946_3_1_1,n4946_3_1_1_8
n4948_3_1_1,n4948_3_1_1_19
n4949_3_1_1,n4949_3_1_1_7
n4950_3_1_1,n4950_3_1_1_13
n4951_3_1_1,n4951_3_1_1_8
n4952_3_1_1,n4952_3_1_1_6
n4953_3_1_1,n4953_3_1_1_6
n4955_3_1_1,n4955_3_1_1_5
n4957_3_1_1,n4957_3_1_1_6
n4962_3_1_1,n4962_3_1_1_9
n4966_3_1_1,n4966_3_1_1_6
n4967_3_1_1,n4967_3_1_1_18
n4968_3_1_1,n4968_3_1_1_29
n4970_3_1_1,n4970_3_1_1_8
n4974_3_1_1,n4974_3_1_1_6
n4976_3_1_1,n4976_3_1_1_11
n4978_3_1_1,n4978_3_1_1_5
n4982_3_1_1,n4982_3_1_1_8
n4984_3_1_1,n4984_3_1_1_9
n4985_3_1_1,n4985_3_1_1_8
n4986_3_1_1,n4986_3_1_1_4
n4987_3_1_1,n4987_3_1_1_6
n4988_3_1_1,n4988_3_1_1_6
n4989_3_1_1,n4989_3_1_1_6
n4991_3_1_1,n4991_3_1_1_6
n4995_3_1_1,n4995_3_1_1_21
n4996_3_1_1,n4996_3_1_1_27
n4997_3_1_1,n4997_3_1_1_8
n4998_3_1_1,n4998_3_1_1_12
n4999_3_1_1,n4999_3_1_1_27
n5000_3_1_1,n5000_3_1_1_5
n5003_3_1_1,n5003_3_1_1_5
n5007_3_1_1,n5007_3_1_1_7
n5008_3_1_1,n5008_3_1_1_6
n5011_3_1_1,n5011_3_1_1_5
n5016_3_1_1,n5016_3_1_1_12
n5018_3_1_1,n5018_3_1_1_4
n5019_3_1_1,n5019_3_1_1_13
n5023_3_1_1,n5023_3_1_1_5
n5024_3_1_1,n5024_3_1_1_20
n5025_3_1_1,n5025_3_1_1_26
n5026_3_1_1,n5026_3_1_1_13
n5029_3_1_1,n5029_3_1_1_5
n5032_3_1_1,n5032_3_1_1_7
n5034_3_1_1,n5034_3_1_1_10
n5036_3_1_1,n5036_3_1_1_6
n5039_3_1_1,n5039_3_1_1_28
n5041_3_1_1,n5041_3_1_1_17
n5042_3_1_1,n5042_3_1_1_10
n5043_3_1_1,n5043_3_1_1_7
n5044_3_1_1,n5044_3_1_1_12
n5047_3_1_1,n5047_3_1_1_7
n5051_3_1_1,n5051_3_1_1_10
n5054_3_1_1,n5054_3_1_1_6
n5055_3_1_1,n5055_3_1_1_22
n5062_3_1_1,n5062_3_1_1_7
n5063_3_1_1,n5063_3_1_1_9
n5064_3_1_1,n5064_3_1_1_7
n5065_3_1_1,n5065_3_1_1_25
n5066_3_1_1,n5066_3_1_1_5
n5072_3_1_1,n5072_3_1_1_10
n5075_3_1_1,n5075_3_1_1_9
n5076_3_1_1,n5076_3_1_1_6
n5079_3_1_1,n5079_3_1_1_8
n5082_3_1_1,n5082_3_1_1_12
n5084_3_1_1,n5084_3_1_1_7
n5085_3_1_1,n5085_3_1_1_4
n5087_3_1_1,n5087_3_1_1_7
n5090_3_1_1,n5090_3_1_1_9
n5091_3_1_1,n5091_3_1_1_17
n5093_3_1_1,n5093_3_1_1_8
n5094_3_1_1,n5094_3_1_1_6
n5096_3_1_1,n5096_3_1_1_7
n5098_3_1_1,n5098_3_1_1_6
n5100_3_1_1,n5100_3_1_1_8
n5102_3_1_1,n5102_3_1_1_12
n5103_3_1_1,n5103_3_1_1_12
n5104_3_1_1,n5104_3_1_1_4
n5105_3_1_1,n5105_3_1_1_18
n5108_3_1_1,n5108_3_1_1_11
n5112_3_1_1,n5112_3_1_1_10
n5118_3_1_1,n5118_3_1_1_15
n5119_3_1_1,n5119_3_1_1_5
n5123_3_1_1,n5123_3_1_1_7
n5124_3_1_1,n5124_3_1_1_8
n5125_3_1_1,n5125_3_1_1_5
n5126_3_1_1,n5126_3_1_1_9
n5127_3_1_1,n5127_3_1_1_5
n5130_3_1_1,n5130_3_1_1_8
n5134_3_1_1,n5134_3_1_1_13
n5135_3_1_1,n5135_3_1_1_10
n5136_3_1_1,n5136_3_1_1_18
n5137_3_1_1,n5137_3_1_1_13
n5138_3_1_1,n5138_3_1_1_6
n5139_3_1_1,n5139_3_1_1_6
n5141_3_1_1,n5141_3_1_1_18
n5143_3_1_1,n5143_3_1_1_9
n5145_3_1_1,n5145_3_1_1_8
n5148_3_1_1,n5148_3_1_1_5
n5149_3_1_1,n5149_3_1_1_16
n5150_3_1_1,n5150_3_1_1_9
n5151_3_1_1,n5151_3_1_1_6
n5152_3_1_1,n5152_3_1_1_13
n5155_3_1_1,n5155_3_1_1_7
n5160_3_1_1,n5160_3_1_1_24
n5161_3_1_1,n5161_3_1_1_11
n5162_3_1_1,n5162_3_1_1_15
n5164_3_1_1,n5164_3_1_1_9
n5165_3_1_1,n5165_3_1_1_8
n5166_3_1_1,n5166_3_1_1_13
n5167_3_1_1,n5167_3_1_1_12
n5172_3_1_1,n5172_3_1_1_6
n5174_3_1_1,n5174_3_1_1_10
n5175_3_1_1,n5175_3_1_1_6
n5176_3_1_1,n5176_3_1_1_6
n5177_3_1_1,n5177_3_1_1_7
n5178_3_1_1,n5178_3_1_1_9
n5179_3_1_1,n5179_3_1_1_8
n5180_3_1_1,n5180_3_1_1_10
n5183_3_1_1,n5183_3_1_1_8
n5186_3_1_1,n5186_3_1_1_11
n5187_3_1_1,n5187_3_1_1_5
n5188_3_1_1,n5188_3_1_1_11
n5190_3_1_1,n5190_3_1_1_5
n5191_3_1_1,n5191_3_1_1_28
n5192_3_1_1,n5192_3_1_1_12
n5193_3_1_1,n5193_3_1_1_20
n5195_3_1_1,n5195_3_1_1_13
n5197_3_1_1,n5197_3_1_1_7
n5198_3_1_1,n5198_3_1_1_11
n5199_3_1_1,n5199_3_1_1_5
n5203_3_1_1,n5203_3_1_1_5
n5204_3_1_1,n5204_3_1_1_11
n5207_3_1_1,n5207_3_1_1_7
n5211_3_1_1,n5211_3_1_1_7
n5212_3_1_1,n5212_3_1_1_8
n5216_3_1_1,n5216_3_1_1_9
n5222_3_1_1,n5222_3_1_1_16
n5224_3_1_1,n5224_3_1_1_26
n5226_3_1_1,n5226_3_1_1_11
n5227_3_1_1,n5227_3_1_1_5
n5228_3_1_1,n5228_3_1_1_10
n5232_3_1_1,n5232_3_1_1_14
n5235_3_1_1,n5235_3_1_1_10
n5238_3_1_1,n5238_3_1_1_9
n5240_3_1_1,n5240_3_1_1_10
n5242_3_1_1,n5242_3_1_1_21
n5246_3_1_1,n5246_3_1_1_8
n5248_3_1_1,n5248_3_1_1_6
n5249_3_1_1,n5249_3_1_1_4
n5250_3_1_1,n5250_3_1_1_4
n5251_3_1_1,n5251_3_1_1_5
n5255_3_1_1,n5255_3_1_1_4
n5256_3_1_1,n5256_3_1_1_7
n5257_3_1_1,n5257_3_1_1_11
n5258_3_1_1,n5258_3_1_1_10
n5259_3_1_1,n5259_3_1_1_6
n5262_3_1_1,n5262_3_1_1_17
n5264_3_1_1,n5264_3_1_1_13
n5265_3_1_1,n5265_3_1_1_7
n5267_3_1_1,n5267_3_1_1_7
n5269_3_1_1,n5269_3_1_1_6
n5272_3_1_1,n5272_3_1_1_11
n5273_3_1_1,n5273_3_1_1_10
n5280_3_1_1,n5280_3_1_1_9
n5282_3_1_1,n5282_3_1_1_10
n5283_3_1_1,n5283_3_1_1_8
n5286_3_1_1,n5286_3_1_1_20
n5288_3_1_1,n5288_3_1_1_6
n5289_3_1_1,n5289_3_1_1_7
n5291_3_1_1,n5291_3_1_1_5
n5293_3_1_1,n5293_3_1_1_7
n5295_3_1_1,n5295_3_1_1_5
n5297_3_1_1,n5297_3_1_1_12
n5298_3_1_1,n5298_3_1_1_9
n5299_3_1_1,n5299_3_1_1_7
n5303_3_1_1,n5303_3_1_1_6
n5304_3_1_1,n5304_3_1_1_16
n5305_3_1_1,n5305_3_1_1_13
n5306_3_1_1,n5306_3_1_1_6
n5310_3_1_1,n5310_3_1_1_10
n5312_3_1_1,n5312_3_1_1_8
n5313_3_1_1,n5313_3_1_1_6
n5315_3_1_1,n5315_3_1_1_12
n5317_3_1_1,n5317_3_1_1_7
n5318_3_1_1,n5318_3_1_1_11
n5320_3_1_1,n5320_3_1_1_5
n5329_3_1_1,n5329_3_1_1_8
n5331_3_1_1,n5331_3_1_1_6
n5332_3_1_1,n5332_3_1_1_14
n5335_3_1_1,n5335_3_1_1_6
n5336_3_1_1,n5336_3_1_1_11
n5338_3_1_1,n5338_3_1_1_13
n5339_3_1_1,n5339_3_1_1_5
n5340_3_1_1,n5340_3_1_1_8
n5344_3_1_1,n5344_3_1_1_7
n5345_3_1_1,n5345_3_1_1_7
n5347_3_1_1,n5347_3_1_1_9
n5348_3_1_1,n5348_3_1_1_10
n5349_3_1_1,n5349_3_1_1_16
n5350_3_1_1,n5350_3_1_1_5
n5352_3_1_1,n5352_3_1_1_7
n5353_3_1_1,n5353_3_1_1_11
n5354_3_1_1,n5354_3_1_1_12
n5355_3_1_1,n5355_3_1_1_23
n5358_3_1_1,n5358_3_1_1_12
n5360_3_1_1,n5360_3_1_1_16
n5362_3_1_1,n5362_3_1_1_12
n5366_3_1_1,n5366_3_1_1_4
n5369_3_1_1,n5369_3_1_1_39
n5370_3_1_1,n5370_3_1_1_9
n5371_3_1_1,n5371_3_1_1_4
n5374_3_1_1,n5374_3_1_1_9
n5378_3_1_1,n5378_3_1_1_8
n5380_3_1_1,n5380_3_1_1_8
n5382_3_1_1,n5382_3_1_1_4
n5388_3_1_1,n5388_3_1_1_12
n5389_3_1_1,n5389_3_1_1_6
n5392_3_1_1,n5392_3_1_1_10
n5395_3_1_1,n5395_3_1_1_5
n5396_3_1_1,n5396_3_1_1_8
n5402_3_1_1,n5402_3_1_1_15
n5403_3_1_1,n5403_3_1_1_7
n5406_3_1_1,n5406_3_1_1_9
n5410_3_1_1,n5410_3_1_1_8
n5413_3_1_1,n5413_3_1_1_10
n5418_3_1_1,n5418_3_1_1_6
n5420_3_1_1,n5420_3_1_1_15
n5422_3_1_1,n5422_3_1_1_10
n5423_3_1_1,n5423_3_1_1_6
n5426_3_1_1,n5426_3_1_1_9
n5427_3_1_1,n5427_3_1_1_13
n5428_3_1_1,n5428_3_1_1_5
n5429_3_1_1,n5429_3_1_1_12
n5430_3_1_1,n5430_3_1_1_8
n5432_3_1_1,n5432_3_1_1_14
n5433_3_1_1,n5433_3_1_1_7
n5434_3_1_1,n5434_3_1_1_12
n5438_3_1_1,n5438_3_1_1_10
n5443_3_1_1,n5443_3_1_1_4
n5445_3_1_1,n5445_3_1_1_18
n5446_3_1_1,n5446_3_1_1_6
n5448_3_1_1,n5448_3_1_1_4
n5449_3_1_1,n5449_3_1_1_6
n5452_3_1_1,n5452_3_1_1_6
n5454_3_1_1,n5454_3_1_1_6
n5456_3_1_1,n5456_3_1_1_7
n5458_3_1_1,n5458_3_1_1_15
n5459_3_1_1,n5459_3_1_1_6
n5460_3_1_1,n5460_3_1_1_5
n5461_3_1_1,n5461_3_1_1_5
n5462_3_1_1,n5462_3_1_1_7
n5464_3_1_1,n5464_3_1_1_17
n5465_3_1_1,n5465_3_1_1_4
n5470_3_1_1,n5470_3_1_1_7
n5479_3_1_1,n5479_3_1_1_4
n5491_3_1_1,n5491_3_1_1_5
n5492_3_1_1,n5492_3_1_1_13
n5493_3_1_1,n5493_3_1_1_16
n5494_3_1_1,n5494_3_1_1_9
n5499_3_1_1,n5499_3_1_1_8
n5503_3_1_1,n5503_3_1_1_9
n5504_3_1_1,n5504_3_1_1_6
n5505_3_1_1,n5505_3_1_1_5
n5507_3_1_1,n5507_3_1_1_14
n5511_3_1_1,n5511_3_1_1_13
n5512_3_1_1,n5512_3_1_1_19
n5514_3_1_1,n5514_3_1_1_13
n5515_3_1_1,n5515_3_1_1_6
n5519_3_1_1,n5519_3_1_1_9
n5521_3_1_1,n5521_3_1_1_11
n5522_3_1_1,n5522_3_1_1_10
n5523_3_1_1,n5523_3_1_1_6
n5528_3_1_1,n5528_3_1_1_5
n5529_3_1_1,n5529_3_1_1_6
n5530_3_1_1,n5530_3_1_1_4
n5532_3_1_1,n5532_3_1_1_8
n5533_3_1_1,n5533_3_1_1_7
n5535_3_1_1,n5535_3_1_1_13
n5536_3_1_1,n5536_3_1_1_23
n5537_3_1_1,n5537_3_1_1_9
n5538_3_1_1,n5538_3_1_1_5
n5540_3_1_1,n5540_3_1_1_7
n5543_3_1_1,n5543_3_1_1_6
n5544_3_1_1,n5544_3_1_1_6
n5545_3_1_1,n5545_3_1_1_16
n5546_3_1_1,n5546_3_1_1_10
n5547_3_1_1,n5547_3_1_1_11
n5551_3_1_1,n5551_3_1_1_10
n5553_3_1_1,n5553_3_1_1_9
n5556_3_1_1,n5556_3_1_1_8
n5557_3_1_1,n5557_3_1_1_11
n5558_3_1_1,n5558_3_1_1_7
n5560_3_1_1,n5560_3_1_1_7
n5567_3_1_1,n5567_3_1_1_4
n5568_3_1_1,n5568_3_1_1_8
n5570_3_1_1,n5570_3_1_1_6
n5573_3_1_1,n5573_3_1_1_5
n5575_3_1_1,n5575_3_1_1_18
n5576_3_1_1,n5576_3_1_1_10
n5580_3_1_1,n5580_3_1_1_10
n5586_3_1_1,n5586_3_1_1_6
n5587_3_1_1,n5587_3_1_1_11
n5588_3_1_1,n5588_3_1_1_6
n5591_3_1_1,n5591_3_1_1_9
n5593_3_1_1,n5593_3_1_1_9
n5595_3_1_1,n5595_3_1_1_8
n5596_3_1_1,n5596_3_1_1_5
n5597_3_1_1,n5597_3_1_1_8
n5599_3_1_1,n5599_3_1_1_8
n5600_3_1_1,n5600_3_1_1_7
n5606_3_1_1,n5606_3_1_1_12
n5609_3_1_1,n5609_3_1_1_16
n5610_3_1_1,n5610_3_1_1_7
n5611_3_1_1,n5611_3_1_1_11
n5614_3_1_1,n5614_3_1_1_8
n5616_3_1_1,n5616_3_1_1_5
n5619_3_1_1,n5619_3_1_1_11
n5620_3_1_1,n5620_3_1_1_5
n5623_3_1_1,n5623_3_1_1_17
n5624_3_1_1,n5624_3_1_1_5
n5626_3_1_1,n5626_3_1_1_6
n5627_3_1_1,n5627_3_1_1_19
n5628_3_1_1,n5628_3_1_1_7
n5629_3_1_1,n5629_3_1_1_14
n5631_3_1_1,n5631_3_1_1_8
n5633_3_1_1,n5633_3_1_1_13
n5637_3_1_1,n5637_3_1_1_6
n5638_3_1_1,n5638_3_1_1_5
n5642_3_1_1,n5642_3_1_1_11
n5644_3_1_1,n5644_3_1_1_5
n5646_3_1_1,n5646_3_1_1_10
n5647_3_1_1,n5647_3_1_1_12
n5648_3_1_1,n5648_3_1_1_7
n5650_3_1_1,n5650_3_1_1_9
n5653_3_1_1,n5653_3_1_1_13
n5656_3_1_1,n5656_3_1_1_10
n5657_3_1_1,n5657_3_1_1_9
n5660_3_1_1,n5660_3_1_1_4
n5661_3_1_1,n5661_3_1_1_6
n5665_3_1_1,n5665_3_1_1_9
n5666_3_1_1,n5666_3_1_1_9
n5668_3_1_1,n5668_3_1_1_13
n5671_3_1_1,n5671_3_1_1_5
n5673_3_1_1,n5673_3_1_1_9
n5676_3_1_1,n5676_3_1_1_6
n5678_3_1_1,n5678_3_1_1_7
n5681_3_1_1,n5681_3_1_1_9
n5683_3_1_1,n5683_3_1_1_11
n5684_3_1_1,n5684_3_1_1_8
n5686_3_1_1,n5686_3_1_1_12
n5692_3_1_1,n5692_3_1_1_9
n5693_3_1_1,n5693_3_1_1_24
n5695_3_1_1,n5695_3_1_1_5
n5696_3_1_1,n5696_3_1_1_5
n5698_3_1_1,n5698_3_1_1_36
n5699_3_1_1,n5699_3_1_1_7
n5700_3_1_1,n5700_3_1_1_7
n5701_3_1_1,n5701_3_1_1_10
n5704_3_1_1,n5704_3_1_1_8
n5705_3_1_1,n5705_3_1_1_5
n5707_3_1_1,n5707_3_1_1_14
n5708_3_1_1,n5708_3_1_1_13
n5712_3_1_1,n5712_3_1_1_7
n5713_3_1_1,n5713_3_1_1_4
n5714_3_1_1,n5714_3_1_1_17
n5715_3_1_1,n5715_3_1_1_16
n5717_3_1_1,n5717_3_1_1_6
n5720_3_1_1,n5720_3_1_1_6
n5721_3_1_1,n5721_3_1_1_7
n5722_3_1_1,n5722_3_1_1_5
n5723_3_1_1,n5723_3_1_1_8
n5725_3_1_1,n5725_3_1_1_6
n5726_3_1_1,n5726_3_1_1_8
n5728_3_1_1,n5728_3_1_1_5
n5729_3_1_1,n5729_3_1_1_19
n5731_3_1_1,n5731_3_1_1_5
n5733_3_1_1,n5733_3_1_1_16
n5736_3_1_1,n5736_3_1_1_6
n5737_3_1_1,n5737_3_1_1_6
n5738_3_1_1,n5738_3_1_1_8
n5740_3_1_1,n5740_3_1_1_9
n5741_3_1_1,n5741_3_1_1_10
n5743_3_1_1,n5743_3_1_1_18
n5751_3_1_1,n5751_3_1_1_7
n5752_3_1_1,n5752_3_1_1_21
n5753_3_1_1,n5753_3_1_1_29
n5754_3_1_1,n5754_3_1_1_5
n5755_3_1_1,n5755_3_1_1_14
n5756_3_1_1,n5756_3_1_1_4
n5762_3_1_1,n5762_3_1_1_6
n5764_3_1_1,n5764_3_1_1_8
n5765_3_1_1,n5765_3_1_1_14
n5767_3_1_1,n5767_3_1_1_5
n5769_3_1_1,n5769_3_1_1_8
n5771_3_1_1,n5771_3_1_1_4
n5773_3_1_1,n5773_3_1_1_7
n5779_3_1_1,n5779_3_1_1_6
n5786_3_1_1,n5786_3_1_1_5
n5787_3_1_1,n5787_3_1_1_6
n5788_3_1_1,n5788_3_1_1_16
n5790_3_1_1,n5790_3_1_1_13
n5791_3_1_1,n5791_3_1_1_6
n5794_3_1_1,n5794_3_1_1_9
n5796_3_1_1,n5796_3_1_1_5
n5797_3_1_1,n5797_3_1_1_10
n5803_3_1_1,n5803_3_1_1_23
n5809_3_1_1,n5809_3_1_1_10
n5812_3_1_1,n5812_3_1_1_15
n5813_3_1_1,n5813_3_1_1_7
n5815_3_1_1,n5815_3_1_1_8
n5819_3_1_1,n5819_3_1_1_10
n5820_3_1_1,n5820_3_1_1_15
n5822_3_1_1,n5822_3_1_1_7
n5824_3_1_1,n5824_3_1_1_7
n5828_3_1_1,n5828_3_1_1_6
n5831_3_1_1,n5831_3_1_1_8
n5834_3_1_1,n5834_3_1_1_7
n5841_3_1_1,n5841_3_1_1_11
n5842_3_1_1,n5842_3_1_1_5
n5844_3_1_1,n5844_3_1_1_16
n5845_3_1_1,n5845_3_1_1_5
n5846_3_1_1,n5846_3_1_1_11
n5847_3_1_1,n5847_3_1_1_10
n5849_3_1_1,n5849_3_1_1_6
n5850_3_1_1,n5850_3_1_1_13
n5851_3_1_1,n5851_3_1_1_18
n5852_3_1_1,n5852_3_1_1_6
n5854_3_1_1,n5854_3_1_1_15
n5855_3_1_1,n5855_3_1_1_5
n5858_3_1_1,n5858_3_1_1_9
n5861_3_1_1,n5861_3_1_1_14
n5863_3_1_1,n5863_3_1_1_4
n5864_3_1_1,n5864_3_1_1_9
n5866_3_1_1,n5866_3_1_1_13
n5867_3_1_1,n5867_3_1_1_4
n5868_3_1_1,n5868_3_1_1_6
n5871_3_1_1,n5871_3_1_1_13
n5872_3_1_1,n5872_3_1_1_9
n5874_3_1_1,n5874_3_1_1_4
n5875_3_1_1,n5875_3_1_1_8
n5876_3_1_1,n5876_3_1_1_6
n5882_3_1_1,n5882_3_1_1_19
n5884_3_1_1,n5884_3_1_1_11
n5885_3_1_1,n5885_3_1_1_5
n5887_3_1_1,n5887_3_1_1_15
n5890_3_1_1,n5890_3_1_1_5
n5896_3_1_1,n5896_3_1_1_7
n5900_3_1_1,n5900_3_1_1_18
n5901_3_1_1,n5901_3_1_1_5
n5906_3_1_1,n5906_3_1_1_5
n5908_3_1_1,n5908_3_1_1_8
n5910_3_1_1,n5910_3_1_1_9
n5911_3_1_1,n5911_3_1_1_7
n5917_3_1_1,n5917_3_1_1_13
n5918_3_1_1,n5918_3_1_1_9
n5919_3_1_1,n5919_3_1_1_8
n5921_3_1_1,n5921_3_1_1_9
n5923_3_1_1,n5923_3_1_1_7
n5927_3_1_1,n5927_3_1_1_7
n5928_3_1_1,n5928_3_1_1_7
n5929_3_1_1,n5929_3_1_1_5
n5933_3_1_1,n5933_3_1_1_5
n5938_3_1_1,n5938_3_1_1_6
n5939_3_1_1,n5939_3_1_1_14
n5940_3_1_1,n5940_3_1_1_7
n5941_3_1_1,n5941_3_1_1_13
n5944_3_1_1,n5944_3_1_1_6
n5945_3_1_1,n5945_3_1_1_7
n5947_3_1_1,n5947_3_1_1_8
n5950_3_1_1,n5950_3_1_1_6
n5951_3_1_1,n5951_3_1_1_9
n5954_3_1_1,n5954_3_1_1_14
n5955_3_1_1,n5955_3_1_1_7
n5956_3_1_1,n5956_3_1_1_6
n5957_3_1_1,n5957_3_1_1_11
n5958_3_1_1,n5958_3_1_1_6
n5959_3_1_1,n5959_3_1_1_10
n5961_3_1_1,n5961_3_1_1_8
n5962_3_1_1,n5962_3_1_1_16
n5963_3_1_1,n5963_3_1_1_6
n5965_3_1_1,n5965_3_1_1_15
n5966_3_1_1,n5966_3_1_1_10
n5969_3_1_1,n5969_3_1_1_11
n5972_3_1_1,n5972_3_1_1_34
n5973_3_1_1,n5973_3_1_1_4
n5974_3_1_1,n5974_3_1_1_17
n5978_3_1_1,n5978_3_1_1_16
n5980_3_1_1,n5980_3_1_1_14
n5981_3_1_1,n5981_3_1_1_13
n5985_3_1_1,n5985_3_1_1_4
n5989_3_1_1,n5989_3_1_1_7
n5991_3_1_1,n5991_3_1_1_8
n5992_3_1_1,n5992_3_1_1_17
n5993_3_1_1,n5993_3_1_1_11
n5996_3_1_1,n5996_3_1_1_24
n6000_3_1_1,n6000_3_1_1_13
n6001_3_1_1,n6001_3_1_1_10
n6004_3_1_1,n6004_3_1_1_10
n6006_3_1_1,n6006_3_1_1_19
n6007_3_1_1,n6007_3_1_1_17
n6008_3_1_1,n6008_3_1_1_15
n6009_3_1_1,n6009_3_1_1_5
n6013_3_1_1,n6013_3_1_1_7
n6016_3_1_1,n6016_3_1_1_5
n6017_3_1_1,n6017_3_1_1_5
n6018_3_1_1,n6018_3_1_1_5
n6020_3_1_1,n6020_3_1_1_12
n6022_3_1_1,n6022_3_1_1_14
n6035_3_1_1,n6035_3_1_1_5
n6040_3_1_1,n6040_3_1_1_4
n6042_3_1_1,n6042_3_1_1_7
n6043_3_1_1,n6043_3_1_1_6
n6051_3_1_1,n6051_3_1_1_4
n6054_3_1_1,n6054_3_1_1_12
n6055_3_1_1,n6055_3_1_1_25
n6056_3_1_1,n6056_3_1_1_5
n6058_3_1_1,n6058_3_1_1_10
n6060_3_1_1,n6060_3_1_1_5
n6061_3_1_1,n6061_3_1_1_4
n6062_3_1_1,n6062_3_1_1_6
n6063_3_1_1,n6063_3_1_1_7
n6065_3_1_1,n6065_3_1_1_8
n6066_3_1_1,n6066_3_1_1_5
n6070_3_1_1,n6070_3_1_1_7
n6072_3_1_1,n6072_3_1_1_14
n6074_3_1_1,n6074_3_1_1_6
n6076_3_1_1,n6076_3_1_1_5
n6078_3_1_1,n6078_3_1_1_6
n6079_3_1_1,n6079_3_1_1_9
n6080_3_1_1,n6080_3_1_1_12
n6081_3_1_1,n6081_3_1_1_4
n6083_3_1_1,n6083_3_1_1_10
n6084_3_1_1,n6084_3_1_1_4
n6085_3_1_1,n6085_3_1_1_7
n6088_3_1_1,n6088_3_1_1_7
n6091_3_1_1,n6091_3_1_1_6
n6093_3_1_1,n6093_3_1_1_8
n6094_3_1_1,n6094_3_1_1_15
n6096_3_1_1,n6096_3_1_1_15
n6098_3_1_1,n6098_3_1_1_16
n6106_3_1_1,n6106_3_1_1_10
n6107_3_1_1,n6107_3_1_1_22
n6108_3_1_1,n6108_3_1_1_9
n6111_3_1_1,n6111_3_1_1_8
n6112_3_1_1,n6112_3_1_1_8
n6115_3_1_1,n6115_3_1_1_10
n6118_3_1_1,n6118_3_1_1_8
n6120_3_1_1,n6120_3_1_1_9
