n6127_3_1,n6127_3_1_1
n6129_3_1,n6129_3_1_1
n6133_3_1,n6133_3_1_1
n6163_3_1,n6163_3_1_1
n6173_3_1,n6173_3_1_1
n6177_3_1,n6177_3_1_1
n6179_3_1,n6179_3_1_1
n6184_3_1,n6184_3_1_1
n6188_3_1,n6188_3_1_1
n6189_3_1,n6189_3_1_1
n6191_3_1,n6191_3_1_1
n6206_3_1,n6206_3_1_1
n6208_3_1,n6208_3_1_1
n6216_3_1,n6216_3_1_1
n6218_3_1,n6218_3_1_1
n6219_3_1,n6219_3_1_1
n6224_3_1,n6224_3_1_1
n6226_3_1,n6226_3_1_1
n6230_3_1,n6230_3_1_1
n6231_3_1,n6231_3_1_1
n6232_3_1,n6232_3_1_1
n6234_3_1,n6234_3_1_1
n6235_3_1,n6235_3_1_1
n6244_3_1,n6244_3_1_1
n6250_3_1,n6250_3_1_1
n6257_3_1,n6257_3_1_1
n6263_3_1,n6263_3_1_1
n6265_3_1,n6265_3_1_1
n6270_3_1,n6270_3_1_1
n6277_3_1,n6277_3_1_1
n6278_3_1,n6278_3_1_1
n6279_3_1,n6279_3_1_1
n6283_3_1,n6283_3_1_1
n6286_3_1,n6286_3_1_1
n6290_3_1,n6290_3_1_1
n6293_3_1,n6293_3_1_1
n6299_3_1,n6299_3_1_1
n6300_3_1,n6300_3_1_1
n6303_3_1,n6303_3_1_1
n6313_3_1,n6313_3_1_1
n6319_3_1,n6319_3_1_1
n6332_3_1,n6332_3_1_1
n6333_3_1,n6333_3_1_1
n6335_3_1,n6335_3_1_1
n6339_3_1,n6339_3_1_1
n6341_3_1,n6341_3_1_1
n6343_3_1,n6343_3_1_1
n6344_3_1,n6344_3_1_1
n6347_3_1,n6347_3_1_1
n6349_3_1,n6349_3_1_1
n6353_3_1,n6353_3_1_1
n6356_3_1,n6356_3_1_1
n6357_3_1,n6357_3_1_1
n6360_3_1,n6360_3_1_1
n6364_3_1,n6364_3_1_1
n6366_3_1,n6366_3_1_1
n6371_3_1,n6371_3_1_1
n6376_3_1,n6376_3_1_1
n6380_3_1,n6380_3_1_1
n6396_3_1,n6396_3_1_1
n6407_3_1,n6407_3_1_1
n6410_3_1,n6410_3_1_1
n6411_3_1,n6411_3_1_1
n6413_3_1,n6413_3_1_1
n6423_3_1,n6423_3_1_1
n6428_3_1,n6428_3_1_1
n6429_3_1,n6429_3_1_1
n6434_3_1,n6434_3_1_1
n6435_3_1,n6435_3_1_1
n6437_3_1,n6437_3_1_1
n6438_3_1,n6438_3_1_1
n6440_3_1,n6440_3_1_1
n6442_3_1,n6442_3_1_1
n6457_3_1,n6457_3_1_1
n6460_3_1,n6460_3_1_1
n6469_3_1,n6469_3_1_1
n6473_3_1,n6473_3_1_1
n6487_3_1,n6487_3_1_1
n6497_3_1,n6497_3_1_1
n6511_3_1,n6511_3_1_1
n6512_3_1,n6512_3_1_1
n6520_3_1,n6520_3_1_1
n6529_3_1,n6529_3_1_1
n6534_3_1,n6534_3_1_1
n6538_3_1,n6538_3_1_1
n6557_3_1,n6557_3_1_1
n6558_3_1,n6558_3_1_1
n6561_3_1,n6561_3_1_1
n6564_3_1,n6564_3_1_1
n6567_3_1,n6567_3_1_1
n6568_3_1,n6568_3_1_1
n6570_3_1,n6570_3_1_1
n6585_3_1,n6585_3_1_1
n6590_3_1,n6590_3_1_1
n6593_3_1,n6593_3_1_1
n6595_3_1,n6595_3_1_1
n6600_3_1,n6600_3_1_1
n6606_3_1,n6606_3_1_1
n6607_3_1,n6607_3_1_1
n6609_3_1,n6609_3_1_1
n6617_3_1,n6617_3_1_1
n6622_3_1,n6622_3_1_1
n6631_3_1,n6631_3_1_1
n6632_3_1,n6632_3_1_1
n6634_3_1,n6634_3_1_1
n6635_3_1,n6635_3_1_1
n6638_3_1,n6638_3_1_1
n6639_3_1,n6639_3_1_1
n6643_3_1,n6643_3_1_1
n6644_3_1,n6644_3_1_1
n6646_3_1,n6646_3_1_1
n6649_3_1,n6649_3_1_1
n6662_3_1,n6662_3_1_1
n6666_3_1,n6666_3_1_1
n6671_3_1,n6671_3_1_1
n6677_3_1,n6677_3_1_1
n6679_3_1,n6679_3_1_1
n6684_3_1,n6684_3_1_1
n6688_3_1,n6688_3_1_1
n6692_3_1,n6692_3_1_1
n6703_3_1,n6703_3_1_1
n6707_3_1,n6707_3_1_1
n6709_3_1,n6709_3_1_1
n6712_3_1,n6712_3_1_1
n6713_3_1,n6713_3_1_1
n6727_3_1,n6727_3_1_1
n6729_3_1,n6729_3_1_1
n6732_3_1,n6732_3_1_1
n6733_3_1,n6733_3_1_1
n6735_3_1,n6735_3_1_1
n6736_3_1,n6736_3_1_1
n6739_3_1,n6739_3_1_1
n6744_3_1,n6744_3_1_1
n6746_3_1,n6746_3_1_1
n6748_3_1,n6748_3_1_1
n6749_3_1,n6749_3_1_1
n6753_3_1,n6753_3_1_1
n6762_3_1,n6762_3_1_1
n6764_3_1,n6764_3_1_1
n6766_3_1,n6766_3_1_1
n6768_3_1,n6768_3_1_1
n6771_3_1,n6771_3_1_1
n6782_3_1,n6782_3_1_1
n6792_3_1,n6792_3_1_1
n6805_3_1,n6805_3_1_1
n6813_3_1,n6813_3_1_1
n6817_3_1,n6817_3_1_1
n6818_3_1,n6818_3_1_1
n6829_3_1,n6829_3_1_1
n6834_3_1,n6834_3_1_1
n6838_3_1,n6838_3_1_1
n6843_3_1,n6843_3_1_1
n6853_3_1,n6853_3_1_1
n6856_3_1,n6856_3_1_1
n6857_3_1,n6857_3_1_1
n6858_3_1,n6858_3_1_1
n6865_3_1,n6865_3_1_1
n6867_3_1,n6867_3_1_1
n6871_3_1,n6871_3_1_1
n6878_3_1,n6878_3_1_1
n6879_3_1,n6879_3_1_1
n6882_3_1,n6882_3_1_1
n6885_3_1,n6885_3_1_1
n6896_3_1,n6896_3_1_1
n6898_3_1,n6898_3_1_1
n6899_3_1,n6899_3_1_1
n6903_3_1,n6903_3_1_1
n6906_3_1,n6906_3_1_1
n6910_3_1,n6910_3_1_1
n6912_3_1,n6912_3_1_1
n6915_3_1,n6915_3_1_1
n6920_3_1,n6920_3_1_1
n6932_3_1,n6932_3_1_1
n6933_3_1,n6933_3_1_1
n6945_3_1,n6945_3_1_1
n6946_3_1,n6946_3_1_1
n6950_3_1,n6950_3_1_1
n6953_3_1,n6953_3_1_1
n6954_3_1,n6954_3_1_1
n6965_3_1,n6965_3_1_1
n6967_3_1,n6967_3_1_1
n6976_3_1,n6976_3_1_1
n6981_3_1,n6981_3_1_1
n6986_3_1,n6986_3_1_1
n6991_3_1,n6991_3_1_1
n6994_3_1,n6994_3_1_1
n6995_3_1,n6995_3_1_1
n6996_3_1,n6996_3_1_1
n7001_3_1,n7001_3_1_1
n7004_3_1,n7004_3_1_1
n7005_3_1,n7005_3_1_1
n7008_3_1,n7008_3_1_1
n7011_3_1,n7011_3_1_1
n7015_3_1,n7015_3_1_1
n7018_3_1,n7018_3_1_1
n7020_3_1,n7020_3_1_1
n7027_3_1,n7027_3_1_1
n7028_3_1,n7028_3_1_1
n7035_3_1,n7035_3_1_1
n7036_3_1,n7036_3_1_1
n7042_3_1,n7042_3_1_1
n7049_3_1,n7049_3_1_1
n7053_3_1,n7053_3_1_1
n7057_3_1,n7057_3_1_1
n7060_3_1,n7060_3_1_1
n7063_3_1,n7063_3_1_1
n7064_3_1,n7064_3_1_1
n7065_3_1,n7065_3_1_1
n7069_3_1,n7069_3_1_1
n7071_3_1,n7071_3_1_1
n7074_3_1,n7074_3_1_1
n7076_3_1,n7076_3_1_1
n7081_3_1,n7081_3_1_1
n7089_3_1,n7089_3_1_1
n7092_3_1,n7092_3_1_1
n7093_3_1,n7093_3_1_1
n7095_3_1,n7095_3_1_1
n7096_3_1,n7096_3_1_1
