n6155_3,n6155_3_1
n6165_3,n6165_3_1
n6182_3,n6182_3_1
n6192_3,n6192_3_1
n6200_3,n6200_3_1
n6217_3,n6217_3_1
n6224_3,n6224_3_1
n6232_3,n6232_3_1
n6236_3,n6236_3_1
n6247_3,n6247_3_1
n6272_3,n6272_3_1
n6273_3,n6273_3_1
n6282_3,n6282_3_1
n6293_3,n6293_3_1
n6295_3,n6295_3_1
n6323_3,n6323_3_1
n6337_3,n6337_3_1
n6355_3,n6355_3_1
n6357_3,n6357_3_1
n6358_3,n6358_3_1
n6362_3,n6362_3_1
n6363_3,n6363_3_1
n6374_3,n6374_3_1
n6394_3,n6394_3_1
n6405_3,n6405_3_1
n6412_3,n6412_3_1
n6414_3,n6414_3_1
n6424_3,n6424_3_1
n6428_3,n6428_3_1
n6451_3,n6451_3_1
n6469_3,n6469_3_1
n6482_3,n6482_3_1
n6486_3,n6486_3_1
n6500_3,n6500_3_1
n6505_3,n6505_3_1
n6506_3,n6506_3_1
n6512_3,n6512_3_1
n6516_3,n6516_3_1
n6544_3,n6544_3_1
n6562_3,n6562_3_1
n6563_3,n6563_3_1
n6565_3,n6565_3_1
n6571_3,n6571_3_1
n6595_3,n6595_3_1
n6629_3,n6629_3_1
n6633_3,n6633_3_1
n6647_3,n6647_3_1
n6678_3,n6678_3_1
n6690_3,n6690_3_1
n6692_3,n6692_3_1
n6695_3,n6695_3_1
n6696_3,n6696_3_1
n6702_3,n6702_3_1
n6723_3,n6723_3_1
n6734_3,n6734_3_1
n6743_3,n6743_3_1
n6747_3,n6747_3_1
n6754_3,n6754_3_1
n6765_3,n6765_3_1
n6803_3,n6803_3_1
n6809_3,n6809_3_1
n6813_3,n6813_3_1
n6829_3,n6829_3_1
n6831_3,n6831_3_1
n6836_3,n6836_3_1
n6840_3,n6840_3_1
n6853_3,n6853_3_1
n6854_3,n6854_3_1
n6856_3,n6856_3_1
n6857_3,n6857_3_1
n6863_3,n6863_3_1
n6888_3,n6888_3_1
n6895_3,n6895_3_1
n6900_3,n6900_3_1
n6906_3,n6906_3_1
n6937_3,n6937_3_1
n6941_3,n6941_3_1
n6943_3,n6943_3_1
n6989_3,n6989_3_1
n7017_3,n7017_3_1
n7018_3,n7018_3_1
n7029_3,n7029_3_1
n7045_3,n7045_3_1
n7046_3,n7046_3_1
n7051_3,n7051_3_1
n7057_3,n7057_3_1
n7066_3,n7066_3_1
n7074_3,n7074_3_1
n7093_3,n7093_3_1
n7095_3,n7095_3_1
