n6131_3,n6131_3_1
n6134_3,n6134_3_1
n6143_3,n6143_3_1
n6146_3,n6146_3_1
n6156_3,n6156_3_1
n6157_3,n6157_3_1
n6159_3,n6159_3_1
n6168_3,n6168_3_1
n6173_3,n6173_3_1
n6197_3,n6197_3_1
n6204_3,n6204_3_1
n6213_3,n6213_3_1
n6249_3,n6249_3_1
n6261_3,n6261_3_1
n6269_3,n6269_3_1
n6284_3,n6284_3_1
n6300_3,n6300_3_1
n6310_3,n6310_3_1
n6327_3,n6327_3_1
n6329_3,n6329_3_1
n6330_3,n6330_3_1
n6347_3,n6347_3_1
n6371_3,n6371_3_1
n6377_3,n6377_3_1
n6381_3,n6381_3_1
n6396_3,n6396_3_1
n6400_3,n6400_3_1
n6408_3,n6408_3_1
n6418_3,n6418_3_1
n6436_3,n6436_3_1
n6443_3,n6443_3_1
n6445_3,n6445_3_1
n6446_3,n6446_3_1
n6452_3,n6452_3_1
n6455_3,n6455_3_1
n6458_3,n6458_3_1
n6466_3,n6466_3_1
n6478_3,n6478_3_1
n6490_3,n6490_3_1
n6492_3,n6492_3_1
n6495_3,n6495_3_1
n6509_3,n6509_3_1
n6529_3,n6529_3_1
n6536_3,n6536_3_1
n6537_3,n6537_3_1
n6546_3,n6546_3_1
n6547_3,n6547_3_1
n6557_3,n6557_3_1
n6564_3,n6564_3_1
n6572_3,n6572_3_1
n6591_3,n6591_3_1
n6609_3,n6609_3_1
n6614_3,n6614_3_1
n6617_3,n6617_3_1
n6622_3,n6622_3_1
n6639_3,n6639_3_1
n6650_3,n6650_3_1
n6672_3,n6672_3_1
n6675_3,n6675_3_1
n6682_3,n6682_3_1
n6687_3,n6687_3_1
n6700_3,n6700_3_1
n6720_3,n6720_3_1
n6725_3,n6725_3_1
n6763_3,n6763_3_1
n6772_3,n6772_3_1
n6774_3,n6774_3_1
n6787_3,n6787_3_1
n6790_3,n6790_3_1
n6796_3,n6796_3_1
n6812_3,n6812_3_1
n6850_3,n6850_3_1
n6864_3,n6864_3_1
n6871_3,n6871_3_1
n6885_3,n6885_3_1
n6892_3,n6892_3_1
n6896_3,n6896_3_1
n6908_3,n6908_3_1
n6909_3,n6909_3_1
n6918_3,n6918_3_1
n6946_3,n6946_3_1
n6947_3,n6947_3_1
n6951_3,n6951_3_1
n6957_3,n6957_3_1
n6958_3,n6958_3_1
n6960_3,n6960_3_1
n6969_3,n6969_3_1
n6973_3,n6973_3_1
n6975_3,n6975_3_1
n6990_3,n6990_3_1
n6992_3,n6992_3_1
n7002_3,n7002_3_1
n7004_3,n7004_3_1
n7007_3,n7007_3_1
n7015_3,n7015_3_1
n7020_3,n7020_3_1
n7048_3,n7048_3_1
n7049_3,n7049_3_1
n7059_3,n7059_3_1
n7063_3,n7063_3_1
n7069_3,n7069_3_1
n7079_3,n7079_3_1
n7082_3,n7082_3_1
n7090_3,n7090_3_1
n7091_3,n7091_3_1
n7094_3,n7094_3_1
