n2376__1_3_1_1,n2376__1_3_1_1_4
n2379__1_3_1_1,n2379__1_3_1_1_4
n2383__1_3_1_1,n2383__1_3_1_1_4
n2385__1_3_1_1,n2385__1_3_1_1_4
n2386__1_3_1_1,n2386__1_3_1_1_4
n2389__1_3_1_1,n2389__1_3_1_1_4
n2390__1_3_1_1,n2390__1_3_1_1_4
n2394__1_3_1_1,n2394__1_3_1_1_5
n2395__1_3_1_1,n2395__1_3_1_1_4
n2397__1_3_1_1,n2397__1_3_1_1_5
n2398__1_3_1_1,n2398__1_3_1_1_5
n2399__1_3_1_1,n2399__1_3_1_1_5
n2400__1_3_1_1,n2400__1_3_1_1_4
n2401__1_3_1_1,n2401__1_3_1_1_4
n2402__1_3_1_1,n2402__1_3_1_1_5
n2404__1_3_1_1,n2404__1_3_1_1_5
n2405__1_3_1_1,n2405__1_3_1_1_4
n2406__1_3_1_1,n2406__1_3_1_1_5
n2408__1_3_1_1,n2408__1_3_1_1_5
n2409__1_3_1_1,n2409__1_3_1_1_4
n2413__1_3_1_1,n2413__1_3_1_1_4
n2414__1_3_1_1,n2414__1_3_1_1_5
n2415__1_3_1_1,n2415__1_3_1_1_5
n2417__1_3_1_1,n2417__1_3_1_1_5
n2418__1_3_1_1,n2418__1_3_1_1_4
n2420__1_3_1_1,n2420__1_3_1_1_5
n2422__1_3_1_1,n2422__1_3_1_1_5
n2424__1_3_1_1,n2424__1_3_1_1_5
n2426__1_3_1_1,n2426__1_3_1_1_5
n2427__1_3_1_1,n2427__1_3_1_1_4
n2429__1_3_1_1,n2429__1_3_1_1_4
n2430__1_3_1_1,n2430__1_3_1_1_5
n2431__1_3_1_1,n2431__1_3_1_1_5
n2432__1_3_1_1,n2432__1_3_1_1_5
n2433__1_3_1_1,n2433__1_3_1_1_5
n2435__1_3_1_1,n2435__1_3_1_1_4
n2436__1_3_1_1,n2436__1_3_1_1_4
n2437__1_3_1_1,n2437__1_3_1_1_5
n2438__1_3_1_1,n2438__1_3_1_1_4
n2439__1_3_1_1,n2439__1_3_1_1_5
n2440__1_3_1_1,n2440__1_3_1_1_4
n2442__1_3_1_1,n2442__1_3_1_1_5
n2443__1_3_1_1,n2443__1_3_1_1_4
n2445__1_3_1_1,n2445__1_3_1_1_5
n2448__1_3_1_1,n2448__1_3_1_1_5
n2449__1_3_1_1,n2449__1_3_1_1_4
n2450__1_3_1_1,n2450__1_3_1_1_5
n2451__1_3_1_1,n2451__1_3_1_1_5
n2453__1_3_1_1,n2453__1_3_1_1_5
n2456__1_3_1_1,n2456__1_3_1_1_4
n2458__1_3_1_1,n2458__1_3_1_1_4
n2459__1_3_1_1,n2459__1_3_1_1_4
n2460__1_3_1_1,n2460__1_3_1_1_4
n2463__1_3_1_1,n2463__1_3_1_1_5
n2465__1_3_1_1,n2465__1_3_1_1_5
n2466__1_3_1_1,n2466__1_3_1_1_5
n2468__1_3_1_1,n2468__1_3_1_1_5
n2469__1_3_1_1,n2469__1_3_1_1_5
n2471__1_3_1_1,n2471__1_3_1_1_4
n2473__1_3_1_1,n2473__1_3_1_1_4
n2478__1_3_1_1,n2478__1_3_1_1_5
n2481__1_3_1_1,n2481__1_3_1_1_5
n2483__1_3_1_1,n2483__1_3_1_1_4
n2484__1_3_1_1,n2484__1_3_1_1_4
n2485__1_3_1_1,n2485__1_3_1_1_5
n2486__1_3_1_1,n2486__1_3_1_1_5
n2487__1_3_1_1,n2487__1_3_1_1_5
n2489__1_3_1_1,n2489__1_3_1_1_5
n2490__1_3_1_1,n2490__1_3_1_1_4
n2491__1_3_1_1,n2491__1_3_1_1_4
n2493__1_3_1_1,n2493__1_3_1_1_5
n2501__1_3_1_1,n2501__1_3_1_1_4
n2502__1_3_1_1,n2502__1_3_1_1_5
n2503__1_3_1_1,n2503__1_3_1_1_5
n2504__1_3_1_1,n2504__1_3_1_1_5
n2505__1_3_1_1,n2505__1_3_1_1_5
n2508__1_3_1_1,n2508__1_3_1_1_4
n2509__1_3_1_1,n2509__1_3_1_1_4
n2511__1_3_1_1,n2511__1_3_1_1_5
n2517__1_3_1_1,n2517__1_3_1_1_5
n2518__1_3_1_1,n2518__1_3_1_1_5
n2519__1_3_1_1,n2519__1_3_1_1_5
n2520__1_3_1_1,n2520__1_3_1_1_5
n2525__1_3_1_1,n2525__1_3_1_1_5
n2526__1_3_1_1,n2526__1_3_1_1_4
n2532__1_3_1_1,n2532__1_3_1_1_5
n2537__1_3_1_1,n2537__1_3_1_1_5
n2539__1_3_1_1,n2539__1_3_1_1_5
n2541__1_3_1_1,n2541__1_3_1_1_4
n2542__1_3_1_1,n2542__1_3_1_1_5
n2547__1_3_1_1,n2547__1_3_1_1_5
n2552__1_3_1_1,n2552__1_3_1_1_4
n2555__1_3_1_1,n2555__1_3_1_1_5
n2556__1_3_1_1,n2556__1_3_1_1_4
n2557__1_3_1_1,n2557__1_3_1_1_4
n2560__1_3_1_1,n2560__1_3_1_1_4
n2562__1_3_1_1,n2562__1_3_1_1_5
n2564__1_3_1_1,n2564__1_3_1_1_4
n2565__1_3_1_1,n2565__1_3_1_1_5
n2568__1_3_1_1,n2568__1_3_1_1_4
n2570__1_3_1_1,n2570__1_3_1_1_5
n2571__1_3_1_1,n2571__1_3_1_1_5
n2572__1_3_1_1,n2572__1_3_1_1_5
n2573__1_3_1_1,n2573__1_3_1_1_5
n2575__1_3_1_1,n2575__1_3_1_1_4
n2580__1_3_1_1,n2580__1_3_1_1_4
n2581__1_3_1_1,n2581__1_3_1_1_5
n2587__1_3_1_1,n2587__1_3_1_1_5
n2588__1_3_1_1,n2588__1_3_1_1_4
n2592__1_3_1_1,n2592__1_3_1_1_5
n2594__1_3_1_1,n2594__1_3_1_1_5
n2595__1_3_1_1,n2595__1_3_1_1_5
n2597__1_3_1_1,n2597__1_3_1_1_5
n2599__1_3_1_1,n2599__1_3_1_1_5
n2600__1_3_1_1,n2600__1_3_1_1_5
n2601__1_3_1_1,n2601__1_3_1_1_4
n2607__1_3_1_1,n2607__1_3_1_1_5
n2608__1_3_1_1,n2608__1_3_1_1_5
n2609__1_3_1_1,n2609__1_3_1_1_4
n2610__1_3_1_1,n2610__1_3_1_1_5
n2611__1_3_1_1,n2611__1_3_1_1_4
n2613__1_3_1_1,n2613__1_3_1_1_4
n2617__1_3_1_1,n2617__1_3_1_1_4
n2618__1_3_1_1,n2618__1_3_1_1_4
n2621__1_3_1_1,n2621__1_3_1_1_4
n2625__1_3_1_1,n2625__1_3_1_1_5
n2629__1_3_1_1,n2629__1_3_1_1_5
n2631__1_3_1_1,n2631__1_3_1_1_4
n2632__1_3_1_1,n2632__1_3_1_1_5
n2634__1_3_1_1,n2634__1_3_1_1_5
n2635__1_3_1_1,n2635__1_3_1_1_5
n2639__1_3_1_1,n2639__1_3_1_1_4
n2643__1_3_1_1,n2643__1_3_1_1_4
n2645__1_3_1_1,n2645__1_3_1_1_5
n2647__1_3_1_1,n2647__1_3_1_1_5
n2649__1_3_1_1,n2649__1_3_1_1_4
n2655__1_3_1_1,n2655__1_3_1_1_4
n2656__1_3_1_1,n2656__1_3_1_1_5
n2658__1_3_1_1,n2658__1_3_1_1_4
n2668__1_3_1_1,n2668__1_3_1_1_5
n2670__1_3_1_1,n2670__1_3_1_1_5
n2674__1_3_1_1,n2674__1_3_1_1_4
n2676__1_3_1_1,n2676__1_3_1_1_5
n2677__1_3_1_1,n2677__1_3_1_1_5
n2679__1_3_1_1,n2679__1_3_1_1_4
n2680__1_3_1_1,n2680__1_3_1_1_5
n2683__1_3_1_1,n2683__1_3_1_1_5
n2684__1_3_1_1,n2684__1_3_1_1_4
n2687__1_3_1_1,n2687__1_3_1_1_5
n2689__1_3_1_1,n2689__1_3_1_1_5
n2690__1_3_1_1,n2690__1_3_1_1_5
n2693__1_3_1_1,n2693__1_3_1_1_5
n2694__1_3_1_1,n2694__1_3_1_1_5
n2695__1_3_1_1,n2695__1_3_1_1_5
n2698__1_3_1_1,n2698__1_3_1_1_5
n2699__1_3_1_1,n2699__1_3_1_1_4
n2701__1_3_1_1,n2701__1_3_1_1_5
n2702__1_3_1_1,n2702__1_3_1_1_5
n2703__1_3_1_1,n2703__1_3_1_1_4
n2707__1_3_1_1,n2707__1_3_1_1_5
n2712__1_3_1_1,n2712__1_3_1_1_4
n2713__1_3_1_1,n2713__1_3_1_1_4
n2716__1_3_1_1,n2716__1_3_1_1_4
n2717__1_3_1_1,n2717__1_3_1_1_5
n2718__1_3_1_1,n2718__1_3_1_1_5
n2721__1_3_1_1,n2721__1_3_1_1_5
n2722__1_3_1_1,n2722__1_3_1_1_5
n2723__1_3_1_1,n2723__1_3_1_1_5
n2725__1_3_1_1,n2725__1_3_1_1_4
n2732__1_3_1_1,n2732__1_3_1_1_4
n2733__1_3_1_1,n2733__1_3_1_1_4
n2735__1_3_1_1,n2735__1_3_1_1_4
n2736__1_3_1_1,n2736__1_3_1_1_4
n2737__1_3_1_1,n2737__1_3_1_1_4
n2738__1_3_1_1,n2738__1_3_1_1_5
n2739__1_3_1_1,n2739__1_3_1_1_4
n2741__1_3_1_1,n2741__1_3_1_1_4
n2742__1_3_1_1,n2742__1_3_1_1_5
n2743__1_3_1_1,n2743__1_3_1_1_4
n2744__1_3_1_1,n2744__1_3_1_1_4
n2745__1_3_1_1,n2745__1_3_1_1_5
n2746__1_3_1_1,n2746__1_3_1_1_5
n2752__1_3_1_1,n2752__1_3_1_1_4
n2753__1_3_1_1,n2753__1_3_1_1_4
n2756__1_3_1_1,n2756__1_3_1_1_5
n2757__1_3_1_1,n2757__1_3_1_1_4
n2758__1_3_1_1,n2758__1_3_1_1_4
n2759__1_3_1_1,n2759__1_3_1_1_5
n2762__1_3_1_1,n2762__1_3_1_1_4
n2764__1_3_1_1,n2764__1_3_1_1_5
n2765__1_3_1_1,n2765__1_3_1_1_4
n2766__1_3_1_1,n2766__1_3_1_1_4
n2769__1_3_1_1,n2769__1_3_1_1_5
n2770__1_3_1_1,n2770__1_3_1_1_4
n2771__1_3_1_1,n2771__1_3_1_1_5
n2772__1_3_1_1,n2772__1_3_1_1_5
n2774__1_3_1_1,n2774__1_3_1_1_5
n2775__1_3_1_1,n2775__1_3_1_1_5
n2777__1_3_1_1,n2777__1_3_1_1_5
n2779__1_3_1_1,n2779__1_3_1_1_5
n2780__1_3_1_1,n2780__1_3_1_1_5
n2781__1_3_1_1,n2781__1_3_1_1_5
n2782__1_3_1_1,n2782__1_3_1_1_5
n2785__1_3_1_1,n2785__1_3_1_1_4
n2787__1_3_1_1,n2787__1_3_1_1_4
n2789__1_3_1_1,n2789__1_3_1_1_5
n2790__1_3_1_1,n2790__1_3_1_1_4
n2792__1_3_1_1,n2792__1_3_1_1_4
n2793__1_3_1_1,n2793__1_3_1_1_4
n2796__1_3_1_1,n2796__1_3_1_1_5
n2797__1_3_1_1,n2797__1_3_1_1_4
n2802__1_3_1_1,n2802__1_3_1_1_5
n2803__1_3_1_1,n2803__1_3_1_1_4
n2804__1_3_1_1,n2804__1_3_1_1_5
n2806__1_3_1_1,n2806__1_3_1_1_5
n2807__1_3_1_1,n2807__1_3_1_1_4
n2808__1_3_1_1,n2808__1_3_1_1_5
n2809__1_3_1_1,n2809__1_3_1_1_5
n2811__1_3_1_1,n2811__1_3_1_1_4
n2812__1_3_1_1,n2812__1_3_1_1_4
n2815__1_3_1_1,n2815__1_3_1_1_4
n2816__1_3_1_1,n2816__1_3_1_1_5
n2819__1_3_1_1,n2819__1_3_1_1_5
n2820__1_3_1_1,n2820__1_3_1_1_5
n2824__1_3_1_1,n2824__1_3_1_1_5
n2825__1_3_1_1,n2825__1_3_1_1_5
n2827__1_3_1_1,n2827__1_3_1_1_4
n2830__1_3_1_1,n2830__1_3_1_1_5
n2831__1_3_1_1,n2831__1_3_1_1_5
n2832__1_3_1_1,n2832__1_3_1_1_4
n2834__1_3_1_1,n2834__1_3_1_1_5
n2837__1_3_1_1,n2837__1_3_1_1_4
n2838__1_3_1_1,n2838__1_3_1_1_5
n2839__1_3_1_1,n2839__1_3_1_1_4
n2840__1_3_1_1,n2840__1_3_1_1_5
n2841__1_3_1_1,n2841__1_3_1_1_4
n2842__1_3_1_1,n2842__1_3_1_1_5
n2845__1_3_1_1,n2845__1_3_1_1_4
n2846__1_3_1_1,n2846__1_3_1_1_4
n2855__1_3_1_1,n2855__1_3_1_1_4
n2857__1_3_1_1,n2857__1_3_1_1_4
n2858__1_3_1_1,n2858__1_3_1_1_4
n2860__1_3_1_1,n2860__1_3_1_1_5
n2863__1_3_1_1,n2863__1_3_1_1_5
n2867__1_3_1_1,n2867__1_3_1_1_5
n2868__1_3_1_1,n2868__1_3_1_1_5
n2869__1_3_1_1,n2869__1_3_1_1_5
n2873__1_3_1_1,n2873__1_3_1_1_4
n2875__1_3_1_1,n2875__1_3_1_1_5
n2876__1_3_1_1,n2876__1_3_1_1_4
n2877__1_3_1_1,n2877__1_3_1_1_4
n2880__1_3_1_1,n2880__1_3_1_1_5
n2883__1_3_1_1,n2883__1_3_1_1_4
n2884__1_3_1_1,n2884__1_3_1_1_5
n2886__1_3_1_1,n2886__1_3_1_1_5
n2888__1_3_1_1,n2888__1_3_1_1_4
n2890__1_3_1_1,n2890__1_3_1_1_4
n2891__1_3_1_1,n2891__1_3_1_1_4
n2893__1_3_1_1,n2893__1_3_1_1_5
n2895__1_3_1_1,n2895__1_3_1_1_4
n2896__1_3_1_1,n2896__1_3_1_1_4
n2897__1_3_1_1,n2897__1_3_1_1_4
n2900__1_3_1_1,n2900__1_3_1_1_4
n2901__1_3_1_1,n2901__1_3_1_1_5
n2902__1_3_1_1,n2902__1_3_1_1_5
n2903__1_3_1_1,n2903__1_3_1_1_4
n2904__1_3_1_1,n2904__1_3_1_1_5
n2905__1_3_1_1,n2905__1_3_1_1_4
n2906__1_3_1_1,n2906__1_3_1_1_4
n2909__1_3_1_1,n2909__1_3_1_1_5
n2910__1_3_1_1,n2910__1_3_1_1_5
n2911__1_3_1_1,n2911__1_3_1_1_4
n2914__1_3_1_1,n2914__1_3_1_1_4
n2916__1_3_1_1,n2916__1_3_1_1_5
n2923__1_3_1_1,n2923__1_3_1_1_4
n2924__1_3_1_1,n2924__1_3_1_1_4
n2925__1_3_1_1,n2925__1_3_1_1_4
n2928__1_3_1_1,n2928__1_3_1_1_5
n2930__1_3_1_1,n2930__1_3_1_1_5
n2933__1_3_1_1,n2933__1_3_1_1_4
n2934__1_3_1_1,n2934__1_3_1_1_5
n2935__1_3_1_1,n2935__1_3_1_1_4
n2936__1_3_1_1,n2936__1_3_1_1_4
n2937__1_3_1_1,n2937__1_3_1_1_5
n2938__1_3_1_1,n2938__1_3_1_1_4
n2940__1_3_1_1,n2940__1_3_1_1_4
n2942__1_3_1_1,n2942__1_3_1_1_5
n2943__1_3_1_1,n2943__1_3_1_1_4
n2946__1_3_1_1,n2946__1_3_1_1_5
n2947__1_3_1_1,n2947__1_3_1_1_5
n2948__1_3_1_1,n2948__1_3_1_1_4
n2954__1_3_1_1,n2954__1_3_1_1_5
n2955__1_3_1_1,n2955__1_3_1_1_4
n2956__1_3_1_1,n2956__1_3_1_1_4
n2957__1_3_1_1,n2957__1_3_1_1_4
n2958__1_3_1_1,n2958__1_3_1_1_4
n2961__1_3_1_1,n2961__1_3_1_1_4
n2962__1_3_1_1,n2962__1_3_1_1_5
n2963__1_3_1_1,n2963__1_3_1_1_5
n2964__1_3_1_1,n2964__1_3_1_1_5
n2966__1_3_1_1,n2966__1_3_1_1_4
n2968__1_3_1_1,n2968__1_3_1_1_4
n2972__1_3_1_1,n2972__1_3_1_1_5
n2974__1_3_1_1,n2974__1_3_1_1_4
n2976__1_3_1_1,n2976__1_3_1_1_4
n2980__1_3_1_1,n2980__1_3_1_1_4
n2982__1_3_1_1,n2982__1_3_1_1_5
n2983__1_3_1_1,n2983__1_3_1_1_5
n2986__1_3_1_1,n2986__1_3_1_1_4
n2987__1_3_1_1,n2987__1_3_1_1_5
n2988__1_3_1_1,n2988__1_3_1_1_4
n2990__1_3_1_1,n2990__1_3_1_1_5
n2991__1_3_1_1,n2991__1_3_1_1_5
n2992__1_3_1_1,n2992__1_3_1_1_5
n2994__1_3_1_1,n2994__1_3_1_1_4
n2997__1_3_1_1,n2997__1_3_1_1_4
n2998__1_3_1_1,n2998__1_3_1_1_4
n3002__1_3_1_1,n3002__1_3_1_1_5
n3003__1_3_1_1,n3003__1_3_1_1_4
n3005__1_3_1_1,n3005__1_3_1_1_5
n3009__1_3_1_1,n3009__1_3_1_1_5
n3011__1_3_1_1,n3011__1_3_1_1_4
n3012__1_3_1_1,n3012__1_3_1_1_5
n3014__1_3_1_1,n3014__1_3_1_1_4
n3019__1_3_1_1,n3019__1_3_1_1_4
n3020__1_3_1_1,n3020__1_3_1_1_5
n3021__1_3_1_1,n3021__1_3_1_1_4
n3023__1_3_1_1,n3023__1_3_1_1_4
n3025__1_3_1_1,n3025__1_3_1_1_5
n3026__1_3_1_1,n3026__1_3_1_1_4
n3028__1_3_1_1,n3028__1_3_1_1_5
n3029__1_3_1_1,n3029__1_3_1_1_5
n3030__1_3_1_1,n3030__1_3_1_1_4
n3032__1_3_1_1,n3032__1_3_1_1_5
n3034__1_3_1_1,n3034__1_3_1_1_5
n3035__1_3_1_1,n3035__1_3_1_1_4
n3038__1_3_1_1,n3038__1_3_1_1_4
n3047__1_3_1_1,n3047__1_3_1_1_4
n3049__1_3_1_1,n3049__1_3_1_1_4
n3050__1_3_1_1,n3050__1_3_1_1_5
n3051__1_3_1_1,n3051__1_3_1_1_5
n3052__1_3_1_1,n3052__1_3_1_1_5
n3053__1_3_1_1,n3053__1_3_1_1_5
n3054__1_3_1_1,n3054__1_3_1_1_5
n3055__1_3_1_1,n3055__1_3_1_1_4
n3057__1_3_1_1,n3057__1_3_1_1_4
n3059__1_3_1_1,n3059__1_3_1_1_4
n3064__1_3_1_1,n3064__1_3_1_1_4
n3065__1_3_1_1,n3065__1_3_1_1_4
n3066__1_3_1_1,n3066__1_3_1_1_4
n3067__1_3_1_1,n3067__1_3_1_1_5
n3069__1_3_1_1,n3069__1_3_1_1_4
n3070__1_3_1_1,n3070__1_3_1_1_4
n3071__1_3_1_1,n3071__1_3_1_1_4
n3072__1_3_1_1,n3072__1_3_1_1_5
n3074__1_3_1_1,n3074__1_3_1_1_5
n3079__1_3_1_1,n3079__1_3_1_1_4
n3081__1_3_1_1,n3081__1_3_1_1_4
n3082__1_3_1_1,n3082__1_3_1_1_4
n3085__1_3_1_1,n3085__1_3_1_1_5
n3086__1_3_1_1,n3086__1_3_1_1_4
n3087__1_3_1_1,n3087__1_3_1_1_4
n3088__1_3_1_1,n3088__1_3_1_1_4
n3089__1_3_1_1,n3089__1_3_1_1_4
n3092__1_3_1_1,n3092__1_3_1_1_5
n3094__1_3_1_1,n3094__1_3_1_1_4
n3099__1_3_1_1,n3099__1_3_1_1_4
n3100__1_3_1_1,n3100__1_3_1_1_5
n3101__1_3_1_1,n3101__1_3_1_1_4
n3103__1_3_1_1,n3103__1_3_1_1_5
n3106__1_3_1_1,n3106__1_3_1_1_4
n3108__1_3_1_1,n3108__1_3_1_1_5
n3113__1_3_1_1,n3113__1_3_1_1_5
n3114__1_3_1_1,n3114__1_3_1_1_4
n3115__1_3_1_1,n3115__1_3_1_1_4
n3116__1_3_1_1,n3116__1_3_1_1_5
n3123__1_3_1_1,n3123__1_3_1_1_4
n3130__1_3_1_1,n3130__1_3_1_1_4
n3134__1_3_1_1,n3134__1_3_1_1_4
n3135__1_3_1_1,n3135__1_3_1_1_5
n3136__1_3_1_1,n3136__1_3_1_1_4
n3140__1_3_1_1,n3140__1_3_1_1_4
n3141__1_3_1_1,n3141__1_3_1_1_4
n3145__1_3_1_1,n3145__1_3_1_1_5
n3147__1_3_1_1,n3147__1_3_1_1_5
n3149__1_3_1_1,n3149__1_3_1_1_4
n3150__1_3_1_1,n3150__1_3_1_1_5
n3151__1_3_1_1,n3151__1_3_1_1_4
n3155__1_3_1_1,n3155__1_3_1_1_4
n3157__1_3_1_1,n3157__1_3_1_1_4
n3158__1_3_1_1,n3158__1_3_1_1_5
n3159__1_3_1_1,n3159__1_3_1_1_5
n3161__1_3_1_1,n3161__1_3_1_1_4
n3162__1_3_1_1,n3162__1_3_1_1_4
n3164__1_3_1_1,n3164__1_3_1_1_5
n3165__1_3_1_1,n3165__1_3_1_1_5
n3166__1_3_1_1,n3166__1_3_1_1_4
n3169__1_3_1_1,n3169__1_3_1_1_5
n3172__1_3_1_1,n3172__1_3_1_1_4
n3173__1_3_1_1,n3173__1_3_1_1_4
n3176__1_3_1_1,n3176__1_3_1_1_4
n3178__1_3_1_1,n3178__1_3_1_1_4
n3180__1_3_1_1,n3180__1_3_1_1_4
n3181__1_3_1_1,n3181__1_3_1_1_5
n3182__1_3_1_1,n3182__1_3_1_1_5
n3184__1_3_1_1,n3184__1_3_1_1_5
n3187__1_3_1_1,n3187__1_3_1_1_5
n3188__1_3_1_1,n3188__1_3_1_1_4
n3192__1_3_1_1,n3192__1_3_1_1_5
n3193__1_3_1_1,n3193__1_3_1_1_5
n3194__1_3_1_1,n3194__1_3_1_1_5
n3195__1_3_1_1,n3195__1_3_1_1_5
n3196__1_3_1_1,n3196__1_3_1_1_5
n3200__1_3_1_1,n3200__1_3_1_1_5
n3203__1_3_1_1,n3203__1_3_1_1_4
n3204__1_3_1_1,n3204__1_3_1_1_5
n3205__1_3_1_1,n3205__1_3_1_1_4
n3207__1_3_1_1,n3207__1_3_1_1_5
n3208__1_3_1_1,n3208__1_3_1_1_4
n3210__1_3_1_1,n3210__1_3_1_1_5
n3212__1_3_1_1,n3212__1_3_1_1_5
n3217__1_3_1_1,n3217__1_3_1_1_5
n3219__1_3_1_1,n3219__1_3_1_1_5
n3223__1_3_1_1,n3223__1_3_1_1_4
n3224__1_3_1_1,n3224__1_3_1_1_5
n3226__1_3_1_1,n3226__1_3_1_1_4
n3227__1_3_1_1,n3227__1_3_1_1_4
n3229__1_3_1_1,n3229__1_3_1_1_4
n3230__1_3_1_1,n3230__1_3_1_1_4
n3231__1_3_1_1,n3231__1_3_1_1_4
n3232__1_3_1_1,n3232__1_3_1_1_4
n3238__1_3_1_1,n3238__1_3_1_1_4
n3239__1_3_1_1,n3239__1_3_1_1_4
n3240__1_3_1_1,n3240__1_3_1_1_5
n3241__1_3_1_1,n3241__1_3_1_1_4
n3242__1_3_1_1,n3242__1_3_1_1_5
n3243__1_3_1_1,n3243__1_3_1_1_5
n3245__1_3_1_1,n3245__1_3_1_1_5
n3247__1_3_1_1,n3247__1_3_1_1_4
n3248__1_3_1_1,n3248__1_3_1_1_4
n3249__1_3_1_1,n3249__1_3_1_1_5
n3252__1_3_1_1,n3252__1_3_1_1_5
n3253__1_3_1_1,n3253__1_3_1_1_4
n3254__1_3_1_1,n3254__1_3_1_1_5
n3255__1_3_1_1,n3255__1_3_1_1_5
n3256__1_3_1_1,n3256__1_3_1_1_5
n3258__1_3_1_1,n3258__1_3_1_1_5
n3260__1_3_1_1,n3260__1_3_1_1_4
n3261__1_3_1_1,n3261__1_3_1_1_5
n3263__1_3_1_1,n3263__1_3_1_1_4
n3269__1_3_1_1,n3269__1_3_1_1_4
n3272__1_3_1_1,n3272__1_3_1_1_4
n3273__1_3_1_1,n3273__1_3_1_1_5
n3275__1_3_1_1,n3275__1_3_1_1_5
n3281__1_3_1_1,n3281__1_3_1_1_5
n3287__1_3_1_1,n3287__1_3_1_1_5
n3288__1_3_1_1,n3288__1_3_1_1_5
n3289__1_3_1_1,n3289__1_3_1_1_4
n3290__1_3_1_1,n3290__1_3_1_1_5
n3291__1_3_1_1,n3291__1_3_1_1_5
n3293__1_3_1_1,n3293__1_3_1_1_5
n3296__1_3_1_1,n3296__1_3_1_1_5
n3297__1_3_1_1,n3297__1_3_1_1_5
n3298__1_3_1_1,n3298__1_3_1_1_5
n3301__1_3_1_1,n3301__1_3_1_1_5
n3303__1_3_1_1,n3303__1_3_1_1_5
n3304__1_3_1_1,n3304__1_3_1_1_5
n3306__1_3_1_1,n3306__1_3_1_1_4
n3307__1_3_1_1,n3307__1_3_1_1_5
n3309__1_3_1_1,n3309__1_3_1_1_4
n3310__1_3_1_1,n3310__1_3_1_1_4
n3311__1_3_1_1,n3311__1_3_1_1_5
n3314__1_3_1_1,n3314__1_3_1_1_5
n3315__1_3_1_1,n3315__1_3_1_1_5
n3317__1_3_1_1,n3317__1_3_1_1_4
n3318__1_3_1_1,n3318__1_3_1_1_4
n3321__1_3_1_1,n3321__1_3_1_1_4
n3322__1_3_1_1,n3322__1_3_1_1_4
n3325__1_3_1_1,n3325__1_3_1_1_5
n3326__1_3_1_1,n3326__1_3_1_1_4
n3327__1_3_1_1,n3327__1_3_1_1_5
n3337__1_3_1_1,n3337__1_3_1_1_5
n3338__1_3_1_1,n3338__1_3_1_1_5
n3339__1_3_1_1,n3339__1_3_1_1_5
n3341__1_3_1_1,n3341__1_3_1_1_5
n3342__1_3_1_1,n3342__1_3_1_1_4
n3343__1_3_1_1,n3343__1_3_1_1_5
n3345__1_3_1_1,n3345__1_3_1_1_4
n3350__1_3_1_1,n3350__1_3_1_1_5
n3353__1_3_1_1,n3353__1_3_1_1_5
n3354__1_3_1_1,n3354__1_3_1_1_4
n3355__1_3_1_1,n3355__1_3_1_1_5
n3358__1_3_1_1,n3358__1_3_1_1_5
n3360__1_3_1_1,n3360__1_3_1_1_5
n3361__1_3_1_1,n3361__1_3_1_1_4
n3363__1_3_1_1,n3363__1_3_1_1_5
n3364__1_3_1_1,n3364__1_3_1_1_5
n3367__1_3_1_1,n3367__1_3_1_1_5
n3370__1_3_1_1,n3370__1_3_1_1_5
n3372__1_3_1_1,n3372__1_3_1_1_4
n3374__1_3_1_1,n3374__1_3_1_1_4
n3375__1_3_1_1,n3375__1_3_1_1_4
n3377__1_3_1_1,n3377__1_3_1_1_4
n3380__1_3_1_1,n3380__1_3_1_1_4
n3381__1_3_1_1,n3381__1_3_1_1_5
n3382__1_3_1_1,n3382__1_3_1_1_5
n3383__1_3_1_1,n3383__1_3_1_1_4
n3385__1_3_1_1,n3385__1_3_1_1_4
n3386__1_3_1_1,n3386__1_3_1_1_4
n3387__1_3_1_1,n3387__1_3_1_1_4
n3389__1_3_1_1,n3389__1_3_1_1_4
n3390__1_3_1_1,n3390__1_3_1_1_5
n3391__1_3_1_1,n3391__1_3_1_1_5
n3392__1_3_1_1,n3392__1_3_1_1_4
n3393__1_3_1_1,n3393__1_3_1_1_5
n3395__1_3_1_1,n3395__1_3_1_1_5
n3397__1_3_1_1,n3397__1_3_1_1_4
n3398__1_3_1_1,n3398__1_3_1_1_5
n3399__1_3_1_1,n3399__1_3_1_1_5
n3401__1_3_1_1,n3401__1_3_1_1_5
n3403__1_3_1_1,n3403__1_3_1_1_4
n3404__1_3_1_1,n3404__1_3_1_1_5
n3405__1_3_1_1,n3405__1_3_1_1_5
n3407__1_3_1_1,n3407__1_3_1_1_5
n3408__1_3_1_1,n3408__1_3_1_1_4
n3409__1_3_1_1,n3409__1_3_1_1_4
n3412__1_3_1_1,n3412__1_3_1_1_4
n3413__1_3_1_1,n3413__1_3_1_1_5
n3414__1_3_1_1,n3414__1_3_1_1_4
n3415__1_3_1_1,n3415__1_3_1_1_5
n3419__1_3_1_1,n3419__1_3_1_1_4
n3420__1_3_1_1,n3420__1_3_1_1_5
n3421__1_3_1_1,n3421__1_3_1_1_5
n3423__1_3_1_1,n3423__1_3_1_1_4
n3424__1_3_1_1,n3424__1_3_1_1_5
n3426__1_3_1_1,n3426__1_3_1_1_4
n3427__1_3_1_1,n3427__1_3_1_1_5
n3428__1_3_1_1,n3428__1_3_1_1_5
n3429__1_3_1_1,n3429__1_3_1_1_4
n3434__1_3_1_1,n3434__1_3_1_1_5
n3437__1_3_1_1,n3437__1_3_1_1_4
n3440__1_3_1_1,n3440__1_3_1_1_5
n3441__1_3_1_1,n3441__1_3_1_1_4
n3442__1_3_1_1,n3442__1_3_1_1_5
n3444__1_3_1_1,n3444__1_3_1_1_4
n3450__1_3_1_1,n3450__1_3_1_1_5
n3451__1_3_1_1,n3451__1_3_1_1_4
n3452__1_3_1_1,n3452__1_3_1_1_5
n3456__1_3_1_1,n3456__1_3_1_1_5
n3457__1_3_1_1,n3457__1_3_1_1_4
n3458__1_3_1_1,n3458__1_3_1_1_5
n3459__1_3_1_1,n3459__1_3_1_1_5
n3461__1_3_1_1,n3461__1_3_1_1_5
n3462__1_3_1_1,n3462__1_3_1_1_4
n3464__1_3_1_1,n3464__1_3_1_1_4
n3468__1_3_1_1,n3468__1_3_1_1_4
n3470__1_3_1_1,n3470__1_3_1_1_4
n3471__1_3_1_1,n3471__1_3_1_1_4
n3473__1_3_1_1,n3473__1_3_1_1_4
n3474__1_3_1_1,n3474__1_3_1_1_5
n3475__1_3_1_1,n3475__1_3_1_1_5
n3476__1_3_1_1,n3476__1_3_1_1_4
n3480__1_3_1_1,n3480__1_3_1_1_5
n3484__1_3_1_1,n3484__1_3_1_1_5
n3485__1_3_1_1,n3485__1_3_1_1_5
n3490__1_3_1_1,n3490__1_3_1_1_4
n3492__1_3_1_1,n3492__1_3_1_1_5
n3493__1_3_1_1,n3493__1_3_1_1_4
n3495__1_3_1_1,n3495__1_3_1_1_4
n3496__1_3_1_1,n3496__1_3_1_1_4
n3498__1_3_1_1,n3498__1_3_1_1_4
n3499__1_3_1_1,n3499__1_3_1_1_5
n3500__1_3_1_1,n3500__1_3_1_1_5
n3501__1_3_1_1,n3501__1_3_1_1_4
n3502__1_3_1_1,n3502__1_3_1_1_5
n3508__1_3_1_1,n3508__1_3_1_1_4
n3510__1_3_1_1,n3510__1_3_1_1_4
n3511__1_3_1_1,n3511__1_3_1_1_4
n3514__1_3_1_1,n3514__1_3_1_1_5
n3518__1_3_1_1,n3518__1_3_1_1_5
n3521__1_3_1_1,n3521__1_3_1_1_5
n3523__1_3_1_1,n3523__1_3_1_1_4
n3525__1_3_1_1,n3525__1_3_1_1_4
n3528__1_3_1_1,n3528__1_3_1_1_5
n3529__1_3_1_1,n3529__1_3_1_1_4
n3530__1_3_1_1,n3530__1_3_1_1_4
n3531__1_3_1_1,n3531__1_3_1_1_4
n3533__1_3_1_1,n3533__1_3_1_1_4
n3536__1_3_1_1,n3536__1_3_1_1_5
n3537__1_3_1_1,n3537__1_3_1_1_5
n3538__1_3_1_1,n3538__1_3_1_1_4
n3539__1_3_1_1,n3539__1_3_1_1_5
n3546__1_3_1_1,n3546__1_3_1_1_5
n3547__1_3_1_1,n3547__1_3_1_1_4
n3549__1_3_1_1,n3549__1_3_1_1_4
n3553__1_3_1_1,n3553__1_3_1_1_5
n3554__1_3_1_1,n3554__1_3_1_1_4
n3555__1_3_1_1,n3555__1_3_1_1_4
n3557__1_3_1_1,n3557__1_3_1_1_5
n3558__1_3_1_1,n3558__1_3_1_1_5
n3560__1_3_1_1,n3560__1_3_1_1_5
n3561__1_3_1_1,n3561__1_3_1_1_4
n3564__1_3_1_1,n3564__1_3_1_1_5
n3567__1_3_1_1,n3567__1_3_1_1_5
n3570__1_3_1_1,n3570__1_3_1_1_4
n3571__1_3_1_1,n3571__1_3_1_1_5
n3573__1_3_1_1,n3573__1_3_1_1_5
n3574__1_3_1_1,n3574__1_3_1_1_4
n3577__1_3_1_1,n3577__1_3_1_1_5
n3582__1_3_1_1,n3582__1_3_1_1_5
n3583__1_3_1_1,n3583__1_3_1_1_5
n3585__1_3_1_1,n3585__1_3_1_1_4
n3589__1_3_1_1,n3589__1_3_1_1_4
n3593__1_3_1_1,n3593__1_3_1_1_4
n3595__1_3_1_1,n3595__1_3_1_1_4
n3596__1_3_1_1,n3596__1_3_1_1_5
n3598__1_3_1_1,n3598__1_3_1_1_4
n3599__1_3_1_1,n3599__1_3_1_1_4
n3604__1_3_1_1,n3604__1_3_1_1_4
n3606__1_3_1_1,n3606__1_3_1_1_5
n3610__1_3_1_1,n3610__1_3_1_1_5
n3613__1_3_1_1,n3613__1_3_1_1_5
n3614__1_3_1_1,n3614__1_3_1_1_5
n3615__1_3_1_1,n3615__1_3_1_1_4
n3619__1_3_1_1,n3619__1_3_1_1_4
n3621__1_3_1_1,n3621__1_3_1_1_5
n3622__1_3_1_1,n3622__1_3_1_1_4
n3623__1_3_1_1,n3623__1_3_1_1_5
n3624__1_3_1_1,n3624__1_3_1_1_4
n3628__1_3_1_1,n3628__1_3_1_1_4
n3629__1_3_1_1,n3629__1_3_1_1_4
n3632__1_3_1_1,n3632__1_3_1_1_5
n3633__1_3_1_1,n3633__1_3_1_1_4
n3636__1_3_1_1,n3636__1_3_1_1_4
n3637__1_3_1_1,n3637__1_3_1_1_4
n3642__1_3_1_1,n3642__1_3_1_1_5
n3648__1_3_1_1,n3648__1_3_1_1_5
n3650__1_3_1_1,n3650__1_3_1_1_5
n3652__1_3_1_1,n3652__1_3_1_1_5
n3653__1_3_1_1,n3653__1_3_1_1_5
n3655__1_3_1_1,n3655__1_3_1_1_4
n3656__1_3_1_1,n3656__1_3_1_1_4
n3663__1_3_1_1,n3663__1_3_1_1_4
n3665__1_3_1_1,n3665__1_3_1_1_5
n3669__1_3_1_1,n3669__1_3_1_1_4
n3674__1_3_1_1,n3674__1_3_1_1_5
n3675__1_3_1_1,n3675__1_3_1_1_4
n3679__1_3_1_1,n3679__1_3_1_1_4
n3682__1_3_1_1,n3682__1_3_1_1_5
n3683__1_3_1_1,n3683__1_3_1_1_5
n3685__1_3_1_1,n3685__1_3_1_1_5
n3688__1_3_1_1,n3688__1_3_1_1_5
n3690__1_3_1_1,n3690__1_3_1_1_4
n3691__1_3_1_1,n3691__1_3_1_1_4
n3697__1_3_1_1,n3697__1_3_1_1_5
n3698__1_3_1_1,n3698__1_3_1_1_5
n3699__1_3_1_1,n3699__1_3_1_1_5
n3700__1_3_1_1,n3700__1_3_1_1_4
n3703__1_3_1_1,n3703__1_3_1_1_5
n3705__1_3_1_1,n3705__1_3_1_1_4
n3706__1_3_1_1,n3706__1_3_1_1_4
n3712__1_3_1_1,n3712__1_3_1_1_4
n3713__1_3_1_1,n3713__1_3_1_1_5
n3715__1_3_1_1,n3715__1_3_1_1_5
n3717__1_3_1_1,n3717__1_3_1_1_5
n3718__1_3_1_1,n3718__1_3_1_1_5
n3719__1_3_1_1,n3719__1_3_1_1_5
n3720__1_3_1_1,n3720__1_3_1_1_4
n3722__1_3_1_1,n3722__1_3_1_1_5
n3724__1_3_1_1,n3724__1_3_1_1_4
n3729__1_3_1_1,n3729__1_3_1_1_5
n3732__1_3_1_1,n3732__1_3_1_1_4
n3734__1_3_1_1,n3734__1_3_1_1_4
n3735__1_3_1_1,n3735__1_3_1_1_4
n3737__1_3_1_1,n3737__1_3_1_1_5
n3738__1_3_1_1,n3738__1_3_1_1_5
n3739__1_3_1_1,n3739__1_3_1_1_5
n3741__1_3_1_1,n3741__1_3_1_1_4
n3742__1_3_1_1,n3742__1_3_1_1_5
n3743__1_3_1_1,n3743__1_3_1_1_5
n3744__1_3_1_1,n3744__1_3_1_1_4
n3745__1_3_1_1,n3745__1_3_1_1_5
n3746__1_3_1_1,n3746__1_3_1_1_5
n3747__1_3_1_1,n3747__1_3_1_1_5
n3748__1_3_1_1,n3748__1_3_1_1_5
n3749__1_3_1_1,n3749__1_3_1_1_4
n3753__1_3_1_1,n3753__1_3_1_1_4
n3754__1_3_1_1,n3754__1_3_1_1_4
n3755__1_3_1_1,n3755__1_3_1_1_4
n3759__1_3_1_1,n3759__1_3_1_1_5
n3761__1_3_1_1,n3761__1_3_1_1_4
n3765__1_3_1_1,n3765__1_3_1_1_5
n3766__1_3_1_1,n3766__1_3_1_1_4
n3768__1_3_1_1,n3768__1_3_1_1_4
n3769__1_3_1_1,n3769__1_3_1_1_5
n3770__1_3_1_1,n3770__1_3_1_1_5
n3771__1_3_1_1,n3771__1_3_1_1_4
n3777__1_3_1_1,n3777__1_3_1_1_4
n3780__1_3_1_1,n3780__1_3_1_1_5
n3781__1_3_1_1,n3781__1_3_1_1_4
n3782__1_3_1_1,n3782__1_3_1_1_5
n3783__1_3_1_1,n3783__1_3_1_1_4
n3784__1_3_1_1,n3784__1_3_1_1_4
n3786__1_3_1_1,n3786__1_3_1_1_5
n3787__1_3_1_1,n3787__1_3_1_1_4
n3788__1_3_1_1,n3788__1_3_1_1_5
n3790__1_3_1_1,n3790__1_3_1_1_4
n3796__1_3_1_1,n3796__1_3_1_1_5
n3797__1_3_1_1,n3797__1_3_1_1_5
n3798__1_3_1_1,n3798__1_3_1_1_4
n3800__1_3_1_1,n3800__1_3_1_1_5
n3805__1_3_1_1,n3805__1_3_1_1_5
n3806__1_3_1_1,n3806__1_3_1_1_4
n3807__1_3_1_1,n3807__1_3_1_1_5
n3808__1_3_1_1,n3808__1_3_1_1_4
n3812__1_3_1_1,n3812__1_3_1_1_4
n3817__1_3_1_1,n3817__1_3_1_1_5
n3818__1_3_1_1,n3818__1_3_1_1_5
n3820__1_3_1_1,n3820__1_3_1_1_4
n3824__1_3_1_1,n3824__1_3_1_1_4
n3829__1_3_1_1,n3829__1_3_1_1_5
n3831__1_3_1_1,n3831__1_3_1_1_5
n3834__1_3_1_1,n3834__1_3_1_1_4
n3835__1_3_1_1,n3835__1_3_1_1_4
n3836__1_3_1_1,n3836__1_3_1_1_5
n3838__1_3_1_1,n3838__1_3_1_1_4
n3847__1_3_1_1,n3847__1_3_1_1_5
n3848__1_3_1_1,n3848__1_3_1_1_5
n3849__1_3_1_1,n3849__1_3_1_1_5
n3850__1_3_1_1,n3850__1_3_1_1_4
n3852__1_3_1_1,n3852__1_3_1_1_4
n3853__1_3_1_1,n3853__1_3_1_1_4
n3855__1_3_1_1,n3855__1_3_1_1_5
n3858__1_3_1_1,n3858__1_3_1_1_4
n3859__1_3_1_1,n3859__1_3_1_1_5
n3862__1_3_1_1,n3862__1_3_1_1_4
n3863__1_3_1_1,n3863__1_3_1_1_4
n3866__1_3_1_1,n3866__1_3_1_1_5
n3869__1_3_1_1,n3869__1_3_1_1_4
n3871__1_3_1_1,n3871__1_3_1_1_4
n3873__1_3_1_1,n3873__1_3_1_1_5
n3874__1_3_1_1,n3874__1_3_1_1_5
n3876__1_3_1_1,n3876__1_3_1_1_5
n3878__1_3_1_1,n3878__1_3_1_1_5
n3879__1_3_1_1,n3879__1_3_1_1_5
n3881__1_3_1_1,n3881__1_3_1_1_5
n3883__1_3_1_1,n3883__1_3_1_1_5
n3884__1_3_1_1,n3884__1_3_1_1_5
n3885__1_3_1_1,n3885__1_3_1_1_4
n3888__1_3_1_1,n3888__1_3_1_1_4
n3889__1_3_1_1,n3889__1_3_1_1_4
n3892__1_3_1_1,n3892__1_3_1_1_5
n3895__1_3_1_1,n3895__1_3_1_1_5
n3897__1_3_1_1,n3897__1_3_1_1_4
n3898__1_3_1_1,n3898__1_3_1_1_4
n3905__1_3_1_1,n3905__1_3_1_1_5
n3908__1_3_1_1,n3908__1_3_1_1_5
n3910__1_3_1_1,n3910__1_3_1_1_5
n3913__1_3_1_1,n3913__1_3_1_1_5
n3914__1_3_1_1,n3914__1_3_1_1_5
n3916__1_3_1_1,n3916__1_3_1_1_5
n3918__1_3_1_1,n3918__1_3_1_1_5
n3919__1_3_1_1,n3919__1_3_1_1_5
n3922__1_3_1_1,n3922__1_3_1_1_4
n3925__1_3_1_1,n3925__1_3_1_1_4
n3926__1_3_1_1,n3926__1_3_1_1_4
n3929__1_3_1_1,n3929__1_3_1_1_4
n3931__1_3_1_1,n3931__1_3_1_1_4
n3932__1_3_1_1,n3932__1_3_1_1_5
n3933__1_3_1_1,n3933__1_3_1_1_4
n3936__1_3_1_1,n3936__1_3_1_1_4
n3939__1_3_1_1,n3939__1_3_1_1_4
n3940__1_3_1_1,n3940__1_3_1_1_5
n3942__1_3_1_1,n3942__1_3_1_1_4
n3944__1_3_1_1,n3944__1_3_1_1_5
n3947__1_3_1_1,n3947__1_3_1_1_4
n3949__1_3_1_1,n3949__1_3_1_1_4
n3951__1_3_1_1,n3951__1_3_1_1_5
n3958__1_3_1_1,n3958__1_3_1_1_5
n3959__1_3_1_1,n3959__1_3_1_1_5
n3960__1_3_1_1,n3960__1_3_1_1_4
n3961__1_3_1_1,n3961__1_3_1_1_5
n3963__1_3_1_1,n3963__1_3_1_1_5
n3966__1_3_1_1,n3966__1_3_1_1_5
n3967__1_3_1_1,n3967__1_3_1_1_5
n3968__1_3_1_1,n3968__1_3_1_1_4
n3970__1_3_1_1,n3970__1_3_1_1_5
n3971__1_3_1_1,n3971__1_3_1_1_5
n3972__1_3_1_1,n3972__1_3_1_1_5
n3973__1_3_1_1,n3973__1_3_1_1_4
n3977__1_3_1_1,n3977__1_3_1_1_4
n3982__1_3_1_1,n3982__1_3_1_1_5
n3984__1_3_1_1,n3984__1_3_1_1_5
n3985__1_3_1_1,n3985__1_3_1_1_5
n3986__1_3_1_1,n3986__1_3_1_1_5
n3988__1_3_1_1,n3988__1_3_1_1_4
n3989__1_3_1_1,n3989__1_3_1_1_4
n3992__1_3_1_1,n3992__1_3_1_1_5
n3993__1_3_1_1,n3993__1_3_1_1_4
n3995__1_3_1_1,n3995__1_3_1_1_4
n3996__1_3_1_1,n3996__1_3_1_1_5
n3997__1_3_1_1,n3997__1_3_1_1_4
n3998__1_3_1_1,n3998__1_3_1_1_5
n4000__1_3_1_1,n4000__1_3_1_1_4
n4002__1_3_1_1,n4002__1_3_1_1_4
n4003__1_3_1_1,n4003__1_3_1_1_4
n4005__1_3_1_1,n4005__1_3_1_1_4
n4008__1_3_1_1,n4008__1_3_1_1_4
n4009__1_3_1_1,n4009__1_3_1_1_5
n4011__1_3_1_1,n4011__1_3_1_1_4
n4012__1_3_1_1,n4012__1_3_1_1_4
n4013__1_3_1_1,n4013__1_3_1_1_5
n4015__1_3_1_1,n4015__1_3_1_1_5
n4017__1_3_1_1,n4017__1_3_1_1_4
n4018__1_3_1_1,n4018__1_3_1_1_5
n4019__1_3_1_1,n4019__1_3_1_1_4
n4020__1_3_1_1,n4020__1_3_1_1_5
n4021__1_3_1_1,n4021__1_3_1_1_4
n4022__1_3_1_1,n4022__1_3_1_1_5
n4024__1_3_1_1,n4024__1_3_1_1_5
n4025__1_3_1_1,n4025__1_3_1_1_5
n4026__1_3_1_1,n4026__1_3_1_1_5
n4028__1_3_1_1,n4028__1_3_1_1_5
n4030__1_3_1_1,n4030__1_3_1_1_5
n4031__1_3_1_1,n4031__1_3_1_1_4
n4032__1_3_1_1,n4032__1_3_1_1_5
n4033__1_3_1_1,n4033__1_3_1_1_4
n4035__1_3_1_1,n4035__1_3_1_1_5
n4036__1_3_1_1,n4036__1_3_1_1_5
n4037__1_3_1_1,n4037__1_3_1_1_4
n4038__1_3_1_1,n4038__1_3_1_1_5
n4040__1_3_1_1,n4040__1_3_1_1_5
n4046__1_3_1_1,n4046__1_3_1_1_4
n4047__1_3_1_1,n4047__1_3_1_1_5
n4050__1_3_1_1,n4050__1_3_1_1_4
n4056__1_3_1_1,n4056__1_3_1_1_4
n4057__1_3_1_1,n4057__1_3_1_1_5
n4061__1_3_1_1,n4061__1_3_1_1_5
n4063__1_3_1_1,n4063__1_3_1_1_4
n4068__1_3_1_1,n4068__1_3_1_1_5
n4071__1_3_1_1,n4071__1_3_1_1_4
n4075__1_3_1_1,n4075__1_3_1_1_5
n4076__1_3_1_1,n4076__1_3_1_1_5
n4077__1_3_1_1,n4077__1_3_1_1_4
n4078__1_3_1_1,n4078__1_3_1_1_5
n4079__1_3_1_1,n4079__1_3_1_1_4
n4082__1_3_1_1,n4082__1_3_1_1_5
n4083__1_3_1_1,n4083__1_3_1_1_4
n4084__1_3_1_1,n4084__1_3_1_1_4
n4087__1_3_1_1,n4087__1_3_1_1_5
n4088__1_3_1_1,n4088__1_3_1_1_4
n4089__1_3_1_1,n4089__1_3_1_1_5
n4090__1_3_1_1,n4090__1_3_1_1_5
n4091__1_3_1_1,n4091__1_3_1_1_5
n4092__1_3_1_1,n4092__1_3_1_1_4
n4095__1_3_1_1,n4095__1_3_1_1_5
n4096__1_3_1_1,n4096__1_3_1_1_5
n4101__1_3_1_1,n4101__1_3_1_1_4
n4104__1_3_1_1,n4104__1_3_1_1_4
n4107__1_3_1_1,n4107__1_3_1_1_4
n4108__1_3_1_1,n4108__1_3_1_1_5
n4112__1_3_1_1,n4112__1_3_1_1_4
n4113__1_3_1_1,n4113__1_3_1_1_5
n4115__1_3_1_1,n4115__1_3_1_1_5
n4117__1_3_1_1,n4117__1_3_1_1_5
n4118__1_3_1_1,n4118__1_3_1_1_5
n4121__1_3_1_1,n4121__1_3_1_1_5
n4122__1_3_1_1,n4122__1_3_1_1_4
n4123__1_3_1_1,n4123__1_3_1_1_5
n4125__1_3_1_1,n4125__1_3_1_1_5
n4128__1_3_1_1,n4128__1_3_1_1_5
n4131__1_3_1_1,n4131__1_3_1_1_5
n4134__1_3_1_1,n4134__1_3_1_1_5
n4135__1_3_1_1,n4135__1_3_1_1_4
n4136__1_3_1_1,n4136__1_3_1_1_5
n4137__1_3_1_1,n4137__1_3_1_1_5
n4138__1_3_1_1,n4138__1_3_1_1_4
n4139__1_3_1_1,n4139__1_3_1_1_4
n4140__1_3_1_1,n4140__1_3_1_1_5
n4141__1_3_1_1,n4141__1_3_1_1_4
n4142__1_3_1_1,n4142__1_3_1_1_5
n4143__1_3_1_1,n4143__1_3_1_1_5
n4145__1_3_1_1,n4145__1_3_1_1_5
n4146__1_3_1_1,n4146__1_3_1_1_5
n4147__1_3_1_1,n4147__1_3_1_1_4
n4149__1_3_1_1,n4149__1_3_1_1_4
n4150__1_3_1_1,n4150__1_3_1_1_4
n4152__1_3_1_1,n4152__1_3_1_1_4
n4156__1_3_1_1,n4156__1_3_1_1_5
n4157__1_3_1_1,n4157__1_3_1_1_4
n4158__1_3_1_1,n4158__1_3_1_1_4
n4159__1_3_1_1,n4159__1_3_1_1_4
n4160__1_3_1_1,n4160__1_3_1_1_5
n4161__1_3_1_1,n4161__1_3_1_1_4
n4165__1_3_1_1,n4165__1_3_1_1_5
n4166__1_3_1_1,n4166__1_3_1_1_4
n4170__1_3_1_1,n4170__1_3_1_1_5
n4178__1_3_1_1,n4178__1_3_1_1_4
n4182__1_3_1_1,n4182__1_3_1_1_5
n4186__1_3_1_1,n4186__1_3_1_1_5
n4188__1_3_1_1,n4188__1_3_1_1_4
n4190__1_3_1_1,n4190__1_3_1_1_5
n4191__1_3_1_1,n4191__1_3_1_1_5
n4192__1_3_1_1,n4192__1_3_1_1_4
n4197__1_3_1_1,n4197__1_3_1_1_4
n4198__1_3_1_1,n4198__1_3_1_1_4
n4200__1_3_1_1,n4200__1_3_1_1_5
n4202__1_3_1_1,n4202__1_3_1_1_4
n4204__1_3_1_1,n4204__1_3_1_1_4
n4206__1_3_1_1,n4206__1_3_1_1_5
n4207__1_3_1_1,n4207__1_3_1_1_5
n4208__1_3_1_1,n4208__1_3_1_1_5
n4209__1_3_1_1,n4209__1_3_1_1_4
n4210__1_3_1_1,n4210__1_3_1_1_4
n4211__1_3_1_1,n4211__1_3_1_1_5
n4212__1_3_1_1,n4212__1_3_1_1_5
n4213__1_3_1_1,n4213__1_3_1_1_4
n4218__1_3_1_1,n4218__1_3_1_1_4
n4219__1_3_1_1,n4219__1_3_1_1_4
n4220__1_3_1_1,n4220__1_3_1_1_5
n4222__1_3_1_1,n4222__1_3_1_1_4
n4225__1_3_1_1,n4225__1_3_1_1_5
n4228__1_3_1_1,n4228__1_3_1_1_4
n4231__1_3_1_1,n4231__1_3_1_1_5
n4232__1_3_1_1,n4232__1_3_1_1_4
n4233__1_3_1_1,n4233__1_3_1_1_4
n4238__1_3_1_1,n4238__1_3_1_1_4
n4240__1_3_1_1,n4240__1_3_1_1_5
n4241__1_3_1_1,n4241__1_3_1_1_4
n4242__1_3_1_1,n4242__1_3_1_1_4
n4243__1_3_1_1,n4243__1_3_1_1_5
n4245__1_3_1_1,n4245__1_3_1_1_5
n4246__1_3_1_1,n4246__1_3_1_1_4
n4249__1_3_1_1,n4249__1_3_1_1_4
n4251__1_3_1_1,n4251__1_3_1_1_5
n4252__1_3_1_1,n4252__1_3_1_1_4
n4258__1_3_1_1,n4258__1_3_1_1_4
n4259__1_3_1_1,n4259__1_3_1_1_4
n4261__1_3_1_1,n4261__1_3_1_1_5
n4262__1_3_1_1,n4262__1_3_1_1_4
n4264__1_3_1_1,n4264__1_3_1_1_5
n4266__1_3_1_1,n4266__1_3_1_1_4
n4267__1_3_1_1,n4267__1_3_1_1_5
n4268__1_3_1_1,n4268__1_3_1_1_4
n4269__1_3_1_1,n4269__1_3_1_1_4
n4270__1_3_1_1,n4270__1_3_1_1_4
n4271__1_3_1_1,n4271__1_3_1_1_5
n4272__1_3_1_1,n4272__1_3_1_1_4
n4273__1_3_1_1,n4273__1_3_1_1_5
n4276__1_3_1_1,n4276__1_3_1_1_4
n4277__1_3_1_1,n4277__1_3_1_1_5
n4278__1_3_1_1,n4278__1_3_1_1_4
n4281__1_3_1_1,n4281__1_3_1_1_5
n4282__1_3_1_1,n4282__1_3_1_1_4
n4283__1_3_1_1,n4283__1_3_1_1_4
n4286__1_3_1_1,n4286__1_3_1_1_4
n4287__1_3_1_1,n4287__1_3_1_1_4
n4295__1_3_1_1,n4295__1_3_1_1_5
n4296__1_3_1_1,n4296__1_3_1_1_4
n4297__1_3_1_1,n4297__1_3_1_1_4
n4298__1_3_1_1,n4298__1_3_1_1_5
n4300__1_3_1_1,n4300__1_3_1_1_4
n4302__1_3_1_1,n4302__1_3_1_1_5
n4303__1_3_1_1,n4303__1_3_1_1_4
n4304__1_3_1_1,n4304__1_3_1_1_4
n4306__1_3_1_1,n4306__1_3_1_1_5
n4309__1_3_1_1,n4309__1_3_1_1_5
n4311__1_3_1_1,n4311__1_3_1_1_5
n4312__1_3_1_1,n4312__1_3_1_1_4
n4313__1_3_1_1,n4313__1_3_1_1_5
n4314__1_3_1_1,n4314__1_3_1_1_5
n4315__1_3_1_1,n4315__1_3_1_1_4
n4317__1_3_1_1,n4317__1_3_1_1_4
n4318__1_3_1_1,n4318__1_3_1_1_5
n4319__1_3_1_1,n4319__1_3_1_1_4
n4320__1_3_1_1,n4320__1_3_1_1_4
n4321__1_3_1_1,n4321__1_3_1_1_5
n4323__1_3_1_1,n4323__1_3_1_1_5
n4327__1_3_1_1,n4327__1_3_1_1_5
n4328__1_3_1_1,n4328__1_3_1_1_5
n4329__1_3_1_1,n4329__1_3_1_1_4
n4331__1_3_1_1,n4331__1_3_1_1_4
n4335__1_3_1_1,n4335__1_3_1_1_4
n4336__1_3_1_1,n4336__1_3_1_1_5
n4340__1_3_1_1,n4340__1_3_1_1_5
n4341__1_3_1_1,n4341__1_3_1_1_5
n4342__1_3_1_1,n4342__1_3_1_1_4
n4343__1_3_1_1,n4343__1_3_1_1_5
n4344__1_3_1_1,n4344__1_3_1_1_5
n4346__1_3_1_1,n4346__1_3_1_1_5
n4347__1_3_1_1,n4347__1_3_1_1_4
n4348__1_3_1_1,n4348__1_3_1_1_5
n4350__1_3_1_1,n4350__1_3_1_1_4
n4353__1_3_1_1,n4353__1_3_1_1_4
n4354__1_3_1_1,n4354__1_3_1_1_4
n4358__1_3_1_1,n4358__1_3_1_1_4
n4360__1_3_1_1,n4360__1_3_1_1_5
n4362__1_3_1_1,n4362__1_3_1_1_5
n4367__1_3_1_1,n4367__1_3_1_1_4
n4370__1_3_1_1,n4370__1_3_1_1_5
n4371__1_3_1_1,n4371__1_3_1_1_5
n4373__1_3_1_1,n4373__1_3_1_1_4
n4374__1_3_1_1,n4374__1_3_1_1_4
n4377__1_3_1_1,n4377__1_3_1_1_4
n4379__1_3_1_1,n4379__1_3_1_1_4
n4383__1_3_1_1,n4383__1_3_1_1_4
n4386__1_3_1_1,n4386__1_3_1_1_5
n4387__1_3_1_1,n4387__1_3_1_1_5
n4388__1_3_1_1,n4388__1_3_1_1_5
n4390__1_3_1_1,n4390__1_3_1_1_5
n4391__1_3_1_1,n4391__1_3_1_1_5
n4392__1_3_1_1,n4392__1_3_1_1_4
n4393__1_3_1_1,n4393__1_3_1_1_4
n4395__1_3_1_1,n4395__1_3_1_1_5
n4397__1_3_1_1,n4397__1_3_1_1_4
n4398__1_3_1_1,n4398__1_3_1_1_4
n4400__1_3_1_1,n4400__1_3_1_1_5
n4401__1_3_1_1,n4401__1_3_1_1_4
n4402__1_3_1_1,n4402__1_3_1_1_5
n4404__1_3_1_1,n4404__1_3_1_1_5
n4405__1_3_1_1,n4405__1_3_1_1_5
n4407__1_3_1_1,n4407__1_3_1_1_5
n4409__1_3_1_1,n4409__1_3_1_1_4
n4411__1_3_1_1,n4411__1_3_1_1_4
n4413__1_3_1_1,n4413__1_3_1_1_4
n4414__1_3_1_1,n4414__1_3_1_1_5
n4415__1_3_1_1,n4415__1_3_1_1_4
n4417__1_3_1_1,n4417__1_3_1_1_5
n4421__1_3_1_1,n4421__1_3_1_1_4
n4422__1_3_1_1,n4422__1_3_1_1_4
n4429__1_3_1_1,n4429__1_3_1_1_5
n4430__1_3_1_1,n4430__1_3_1_1_4
n4432__1_3_1_1,n4432__1_3_1_1_4
n4433__1_3_1_1,n4433__1_3_1_1_5
n4435__1_3_1_1,n4435__1_3_1_1_4
n4438__1_3_1_1,n4438__1_3_1_1_4
n4440__1_3_1_1,n4440__1_3_1_1_5
n4441__1_3_1_1,n4441__1_3_1_1_4
n4442__1_3_1_1,n4442__1_3_1_1_5
n4443__1_3_1_1,n4443__1_3_1_1_4
n4444__1_3_1_1,n4444__1_3_1_1_4
n4445__1_3_1_1,n4445__1_3_1_1_5
n4447__1_3_1_1,n4447__1_3_1_1_4
n4453__1_3_1_1,n4453__1_3_1_1_5
n4454__1_3_1_1,n4454__1_3_1_1_4
n4456__1_3_1_1,n4456__1_3_1_1_5
n4457__1_3_1_1,n4457__1_3_1_1_5
n4458__1_3_1_1,n4458__1_3_1_1_4
n4459__1_3_1_1,n4459__1_3_1_1_5
n4460__1_3_1_1,n4460__1_3_1_1_5
n4461__1_3_1_1,n4461__1_3_1_1_5
n4463__1_3_1_1,n4463__1_3_1_1_4
n4464__1_3_1_1,n4464__1_3_1_1_5
n4466__1_3_1_1,n4466__1_3_1_1_5
n4467__1_3_1_1,n4467__1_3_1_1_5
n4468__1_3_1_1,n4468__1_3_1_1_5
n4470__1_3_1_1,n4470__1_3_1_1_4
n4473__1_3_1_1,n4473__1_3_1_1_4
n4475__1_3_1_1,n4475__1_3_1_1_4
n4476__1_3_1_1,n4476__1_3_1_1_5
n4478__1_3_1_1,n4478__1_3_1_1_5
n4485__1_3_1_1,n4485__1_3_1_1_5
n4490__1_3_1_1,n4490__1_3_1_1_4
n4491__1_3_1_1,n4491__1_3_1_1_5
n4494__1_3_1_1,n4494__1_3_1_1_5
n4495__1_3_1_1,n4495__1_3_1_1_4
n4496__1_3_1_1,n4496__1_3_1_1_5
n4500__1_3_1_1,n4500__1_3_1_1_4
n4503__1_3_1_1,n4503__1_3_1_1_4
n4507__1_3_1_1,n4507__1_3_1_1_4
n4513__1_3_1_1,n4513__1_3_1_1_5
n4516__1_3_1_1,n4516__1_3_1_1_4
n4518__1_3_1_1,n4518__1_3_1_1_5
n4522__1_3_1_1,n4522__1_3_1_1_5
n4525__1_3_1_1,n4525__1_3_1_1_5
n4526__1_3_1_1,n4526__1_3_1_1_4
n4527__1_3_1_1,n4527__1_3_1_1_5
n4531__1_3_1_1,n4531__1_3_1_1_4
n4535__1_3_1_1,n4535__1_3_1_1_5
n4536__1_3_1_1,n4536__1_3_1_1_4
n4544__1_3_1_1,n4544__1_3_1_1_4
n4545__1_3_1_1,n4545__1_3_1_1_4
n4546__1_3_1_1,n4546__1_3_1_1_4
n4549__1_3_1_1,n4549__1_3_1_1_5
n4551__1_3_1_1,n4551__1_3_1_1_4
n4560__1_3_1_1,n4560__1_3_1_1_4
n4561__1_3_1_1,n4561__1_3_1_1_4
n4562__1_3_1_1,n4562__1_3_1_1_4
n4563__1_3_1_1,n4563__1_3_1_1_5
n4565__1_3_1_1,n4565__1_3_1_1_4
n4568__1_3_1_1,n4568__1_3_1_1_5
n4569__1_3_1_1,n4569__1_3_1_1_5
n4573__1_3_1_1,n4573__1_3_1_1_5
n4575__1_3_1_1,n4575__1_3_1_1_5
n4576__1_3_1_1,n4576__1_3_1_1_4
n4580__1_3_1_1,n4580__1_3_1_1_5
n4581__1_3_1_1,n4581__1_3_1_1_4
n4588__1_3_1_1,n4588__1_3_1_1_5
n4589__1_3_1_1,n4589__1_3_1_1_5
n4591__1_3_1_1,n4591__1_3_1_1_5
n4592__1_3_1_1,n4592__1_3_1_1_4
n4594__1_3_1_1,n4594__1_3_1_1_4
n4595__1_3_1_1,n4595__1_3_1_1_5
n4596__1_3_1_1,n4596__1_3_1_1_4
n4599__1_3_1_1,n4599__1_3_1_1_5
n4603__1_3_1_1,n4603__1_3_1_1_5
n4605__1_3_1_1,n4605__1_3_1_1_5
n4606__1_3_1_1,n4606__1_3_1_1_4
n4607__1_3_1_1,n4607__1_3_1_1_5
n4608__1_3_1_1,n4608__1_3_1_1_5
n4611__1_3_1_1,n4611__1_3_1_1_4
n4612__1_3_1_1,n4612__1_3_1_1_4
n4613__1_3_1_1,n4613__1_3_1_1_5
n4614__1_3_1_1,n4614__1_3_1_1_4
n4615__1_3_1_1,n4615__1_3_1_1_4
n4617__1_3_1_1,n4617__1_3_1_1_4
n4620__1_3_1_1,n4620__1_3_1_1_5
n4624__1_3_1_1,n4624__1_3_1_1_5
n4625__1_3_1_1,n4625__1_3_1_1_5
n4627__1_3_1_1,n4627__1_3_1_1_5
n4633__1_3_1_1,n4633__1_3_1_1_4
n4634__1_3_1_1,n4634__1_3_1_1_4
n4637__1_3_1_1,n4637__1_3_1_1_5
n4641__1_3_1_1,n4641__1_3_1_1_4
n4642__1_3_1_1,n4642__1_3_1_1_5
n4648__1_3_1_1,n4648__1_3_1_1_5
n4649__1_3_1_1,n4649__1_3_1_1_5
n4653__1_3_1_1,n4653__1_3_1_1_4
n4654__1_3_1_1,n4654__1_3_1_1_4
n4658__1_3_1_1,n4658__1_3_1_1_4
n4659__1_3_1_1,n4659__1_3_1_1_5
n4660__1_3_1_1,n4660__1_3_1_1_4
n4663__1_3_1_1,n4663__1_3_1_1_4
n4664__1_3_1_1,n4664__1_3_1_1_4
n4665__1_3_1_1,n4665__1_3_1_1_4
n4668__1_3_1_1,n4668__1_3_1_1_4
n4670__1_3_1_1,n4670__1_3_1_1_4
n4674__1_3_1_1,n4674__1_3_1_1_4
n4675__1_3_1_1,n4675__1_3_1_1_4
n4676__1_3_1_1,n4676__1_3_1_1_4
n4677__1_3_1_1,n4677__1_3_1_1_5
n4678__1_3_1_1,n4678__1_3_1_1_5
n4683__1_3_1_1,n4683__1_3_1_1_4
n4684__1_3_1_1,n4684__1_3_1_1_4
n4686__1_3_1_1,n4686__1_3_1_1_5
n4688__1_3_1_1,n4688__1_3_1_1_5
n4690__1_3_1_1,n4690__1_3_1_1_4
n4691__1_3_1_1,n4691__1_3_1_1_4
n4694__1_3_1_1,n4694__1_3_1_1_5
n4696__1_3_1_1,n4696__1_3_1_1_5
n4698__1_3_1_1,n4698__1_3_1_1_4
n4703__1_3_1_1,n4703__1_3_1_1_5
n4705__1_3_1_1,n4705__1_3_1_1_4
n4706__1_3_1_1,n4706__1_3_1_1_5
n4707__1_3_1_1,n4707__1_3_1_1_4
n4708__1_3_1_1,n4708__1_3_1_1_4
n4710__1_3_1_1,n4710__1_3_1_1_5
n4713__1_3_1_1,n4713__1_3_1_1_5
n4715__1_3_1_1,n4715__1_3_1_1_4
n4717__1_3_1_1,n4717__1_3_1_1_4
n4718__1_3_1_1,n4718__1_3_1_1_4
n4720__1_3_1_1,n4720__1_3_1_1_5
n4721__1_3_1_1,n4721__1_3_1_1_4
n4722__1_3_1_1,n4722__1_3_1_1_5
n4723__1_3_1_1,n4723__1_3_1_1_4
n4724__1_3_1_1,n4724__1_3_1_1_4
n4726__1_3_1_1,n4726__1_3_1_1_5
n4729__1_3_1_1,n4729__1_3_1_1_4
n4731__1_3_1_1,n4731__1_3_1_1_5
n4733__1_3_1_1,n4733__1_3_1_1_4
n4734__1_3_1_1,n4734__1_3_1_1_4
n4735__1_3_1_1,n4735__1_3_1_1_4
n4736__1_3_1_1,n4736__1_3_1_1_5
n4737__1_3_1_1,n4737__1_3_1_1_5
n4738__1_3_1_1,n4738__1_3_1_1_4
n4739__1_3_1_1,n4739__1_3_1_1_5
n4740__1_3_1_1,n4740__1_3_1_1_5
n4745__1_3_1_1,n4745__1_3_1_1_5
n4748__1_3_1_1,n4748__1_3_1_1_4
n4749__1_3_1_1,n4749__1_3_1_1_5
n4750__1_3_1_1,n4750__1_3_1_1_5
n4752__1_3_1_1,n4752__1_3_1_1_5
n4753__1_3_1_1,n4753__1_3_1_1_4
n4756__1_3_1_1,n4756__1_3_1_1_5
n4758__1_3_1_1,n4758__1_3_1_1_5
n4764__1_3_1_1,n4764__1_3_1_1_4
n4769__1_3_1_1,n4769__1_3_1_1_5
n4770__1_3_1_1,n4770__1_3_1_1_5
n4771__1_3_1_1,n4771__1_3_1_1_4
n4774__1_3_1_1,n4774__1_3_1_1_5
n4776__1_3_1_1,n4776__1_3_1_1_5
n4778__1_3_1_1,n4778__1_3_1_1_5
n4779__1_3_1_1,n4779__1_3_1_1_4
n4782__1_3_1_1,n4782__1_3_1_1_5
n4785__1_3_1_1,n4785__1_3_1_1_5
n4786__1_3_1_1,n4786__1_3_1_1_5
n4789__1_3_1_1,n4789__1_3_1_1_5
n4790__1_3_1_1,n4790__1_3_1_1_4
n4792__1_3_1_1,n4792__1_3_1_1_4
n4793__1_3_1_1,n4793__1_3_1_1_4
n4794__1_3_1_1,n4794__1_3_1_1_4
n4796__1_3_1_1,n4796__1_3_1_1_4
n4797__1_3_1_1,n4797__1_3_1_1_4
n4798__1_3_1_1,n4798__1_3_1_1_4
n4800__1_3_1_1,n4800__1_3_1_1_5
n4801__1_3_1_1,n4801__1_3_1_1_5
n4803__1_3_1_1,n4803__1_3_1_1_5
n4804__1_3_1_1,n4804__1_3_1_1_4
n4806__1_3_1_1,n4806__1_3_1_1_5
n4808__1_3_1_1,n4808__1_3_1_1_5
n4809__1_3_1_1,n4809__1_3_1_1_4
n4812__1_3_1_1,n4812__1_3_1_1_5
n4813__1_3_1_1,n4813__1_3_1_1_4
n4816__1_3_1_1,n4816__1_3_1_1_4
n4819__1_3_1_1,n4819__1_3_1_1_4
n4820__1_3_1_1,n4820__1_3_1_1_4
n4821__1_3_1_1,n4821__1_3_1_1_5
n4822__1_3_1_1,n4822__1_3_1_1_5
n4823__1_3_1_1,n4823__1_3_1_1_5
n4826__1_3_1_1,n4826__1_3_1_1_5
n4829__1_3_1_1,n4829__1_3_1_1_5
n4831__1_3_1_1,n4831__1_3_1_1_4
n4832__1_3_1_1,n4832__1_3_1_1_4
n4835__1_3_1_1,n4835__1_3_1_1_4
n4836__1_3_1_1,n4836__1_3_1_1_4
n4839__1_3_1_1,n4839__1_3_1_1_4
n4845__1_3_1_1,n4845__1_3_1_1_5
n4847__1_3_1_1,n4847__1_3_1_1_4
n4849__1_3_1_1,n4849__1_3_1_1_4
n4850__1_3_1_1,n4850__1_3_1_1_5
n4852__1_3_1_1,n4852__1_3_1_1_4
n4854__1_3_1_1,n4854__1_3_1_1_5
n4856__1_3_1_1,n4856__1_3_1_1_5
n4857__1_3_1_1,n4857__1_3_1_1_4
n4861__1_3_1_1,n4861__1_3_1_1_4
n4862__1_3_1_1,n4862__1_3_1_1_5
n4863__1_3_1_1,n4863__1_3_1_1_4
n4867__1_3_1_1,n4867__1_3_1_1_5
n4868__1_3_1_1,n4868__1_3_1_1_5
n4869__1_3_1_1,n4869__1_3_1_1_4
n4870__1_3_1_1,n4870__1_3_1_1_5
n4882__1_3_1_1,n4882__1_3_1_1_4
n4887__1_3_1_1,n4887__1_3_1_1_4
n4892__1_3_1_1,n4892__1_3_1_1_5
n4894__1_3_1_1,n4894__1_3_1_1_4
n4898__1_3_1_1,n4898__1_3_1_1_4
n4903__1_3_1_1,n4903__1_3_1_1_5
n4904__1_3_1_1,n4904__1_3_1_1_4
n4905__1_3_1_1,n4905__1_3_1_1_5
n4906__1_3_1_1,n4906__1_3_1_1_5
n4908__1_3_1_1,n4908__1_3_1_1_5
n4913__1_3_1_1,n4913__1_3_1_1_4
n4917__1_3_1_1,n4917__1_3_1_1_5
n4918__1_3_1_1,n4918__1_3_1_1_5
n4921__1_3_1_1,n4921__1_3_1_1_5
n4923__1_3_1_1,n4923__1_3_1_1_5
