n2380__1_3_1_1_6,n2380__1_3_1_1_6_1
n2382__1_3_1_1_6,n2382__1_3_1_1_6_1
n2383__1_3_1_1_5,n2383__1_3_1_1_5_1
n2384__1_3_1_1_6,n2384__1_3_1_1_6_1
n2387__1_3_1_1_5,n2387__1_3_1_1_5_1
n2388__1_3_1_1_6,n2388__1_3_1_1_6_1
n2389__1_3_1_1_6,n2389__1_3_1_1_6_1
n2391__1_3_1_1_5,n2391__1_3_1_1_5_1
n2399__1_3_1_1_8,n2399__1_3_1_1_8_1
n2400__1_3_1_1_5,n2400__1_3_1_1_5_1
n2401__1_3_1_1_6,n2401__1_3_1_1_6_1
n2403__1_3_1_1_6,n2403__1_3_1_1_6_1
n2404__1_3_1_1_7,n2404__1_3_1_1_7_1
n2405__1_3_1_1_5,n2405__1_3_1_1_5_1
n2406__1_3_1_1_7,n2406__1_3_1_1_7_1
n2409__1_3_1_1_5,n2409__1_3_1_1_5_1
n2410__1_3_1_1_6,n2410__1_3_1_1_6_1
n2411__1_3_1_1_5,n2411__1_3_1_1_5_1
n2413__1_3_1_1_5,n2413__1_3_1_1_5_1
n2415__1_3_1_1_7,n2415__1_3_1_1_7_1
n2419__1_3_1_1_4,n2419__1_3_1_1_4_1
n2421__1_3_1_1_7,n2421__1_3_1_1_7_1
n2423__1_3_1_1_6,n2423__1_3_1_1_6_1
n2424__1_3_1_1_7,n2424__1_3_1_1_7_1
n2425__1_3_1_1_6,n2425__1_3_1_1_6_1
n2427__1_3_1_1_6,n2427__1_3_1_1_6_1
n2428__1_3_1_1_4,n2428__1_3_1_1_4_1
n2429__1_3_1_1_5,n2429__1_3_1_1_5_1
n2431__1_3_1_1_7,n2431__1_3_1_1_7_1
n2433__1_3_1_1_8,n2433__1_3_1_1_8_1
n2435__1_3_1_1_6,n2435__1_3_1_1_6_1
n2436__1_3_1_1_6,n2436__1_3_1_1_6_1
n2437__1_3_1_1_8,n2437__1_3_1_1_8_1
n2438__1_3_1_1_6,n2438__1_3_1_1_6_1
n2440__1_3_1_1_6,n2440__1_3_1_1_6_1
n2441__1_3_1_1_6,n2441__1_3_1_1_6_1
n2443__1_3_1_1_6,n2443__1_3_1_1_6_1
n2444__1_3_1_1_4,n2444__1_3_1_1_4_1
n2446__1_3_1_1_6,n2446__1_3_1_1_6_1
n2448__1_3_1_1_6,n2448__1_3_1_1_6_1
n2449__1_3_1_1_6,n2449__1_3_1_1_6_1
n2450__1_3_1_1_6,n2450__1_3_1_1_6_1
n2454__1_3_1_1_4,n2454__1_3_1_1_4_1
n2456__1_3_1_1_5,n2456__1_3_1_1_5_1
n2458__1_3_1_1_6,n2458__1_3_1_1_6_1
n2460__1_3_1_1_6,n2460__1_3_1_1_6_1
n2462__1_3_1_1_4,n2462__1_3_1_1_4_1
n2463__1_3_1_1_7,n2463__1_3_1_1_7_1
n2466__1_3_1_1_7,n2466__1_3_1_1_7_1
n2467__1_3_1_1_5,n2467__1_3_1_1_5_1
n2468__1_3_1_1_7,n2468__1_3_1_1_7_1
n2471__1_3_1_1_7,n2471__1_3_1_1_7_1
n2477__1_3_1_1_7,n2477__1_3_1_1_7_1
n2478__1_3_1_1_7,n2478__1_3_1_1_7_1
n2479__1_3_1_1_6,n2479__1_3_1_1_6_1
n2480__1_3_1_1_6,n2480__1_3_1_1_6_1
n2481__1_3_1_1_8,n2481__1_3_1_1_8_1
n2482__1_3_1_1_5,n2482__1_3_1_1_5_1
n2484__1_3_1_1_6,n2484__1_3_1_1_6_1
n2485__1_3_1_1_8,n2485__1_3_1_1_8_1
n2486__1_3_1_1_6,n2486__1_3_1_1_6_1
n2487__1_3_1_1_7,n2487__1_3_1_1_7_1
n2491__1_3_1_1_5,n2491__1_3_1_1_5_1
n2492__1_3_1_1_5,n2492__1_3_1_1_5_1
n2494__1_3_1_1_5,n2494__1_3_1_1_5_1
n2495__1_3_1_1_4,n2495__1_3_1_1_4_1
n2497__1_3_1_1_4,n2497__1_3_1_1_4_1
n2498__1_3_1_1_6,n2498__1_3_1_1_6_1
n2500__1_3_1_1_7,n2500__1_3_1_1_7_1
n2503__1_3_1_1_8,n2503__1_3_1_1_8_1
n2504__1_3_1_1_7,n2504__1_3_1_1_7_1
n2505__1_3_1_1_7,n2505__1_3_1_1_7_1
n2506__1_3_1_1_7,n2506__1_3_1_1_7_1
n2508__1_3_1_1_6,n2508__1_3_1_1_6_1
n2510__1_3_1_1_4,n2510__1_3_1_1_4_1
n2512__1_3_1_1_6,n2512__1_3_1_1_6_1
n2519__1_3_1_1_7,n2519__1_3_1_1_7_1
n2523__1_3_1_1_6,n2523__1_3_1_1_6_1
n2524__1_3_1_1_5,n2524__1_3_1_1_5_1
n2526__1_3_1_1_5,n2526__1_3_1_1_5_1
n2528__1_3_1_1_5,n2528__1_3_1_1_5_1
n2532__1_3_1_1_7,n2532__1_3_1_1_7_1
n2535__1_3_1_1_5,n2535__1_3_1_1_5_1
n2536__1_3_1_1_5,n2536__1_3_1_1_5_1
n2537__1_3_1_1_8,n2537__1_3_1_1_8_1
n2542__1_3_1_1_6,n2542__1_3_1_1_6_1
n2545__1_3_1_1_6,n2545__1_3_1_1_6_1
n2546__1_3_1_1_6,n2546__1_3_1_1_6_1
n2548__1_3_1_1_6,n2548__1_3_1_1_6_1
n2549__1_3_1_1_5,n2549__1_3_1_1_5_1
n2550__1_3_1_1_4,n2550__1_3_1_1_4_1
n2552__1_3_1_1_5,n2552__1_3_1_1_5_1
n2553__1_3_1_1_4,n2553__1_3_1_1_4_1
n2556__1_3_1_1_7,n2556__1_3_1_1_7_1
n2557__1_3_1_1_6,n2557__1_3_1_1_6_1
n2560__1_3_1_1_6,n2560__1_3_1_1_6_1
n2562__1_3_1_1_8,n2562__1_3_1_1_8_1
n2563__1_3_1_1_7,n2563__1_3_1_1_7_1
n2566__1_3_1_1_5,n2566__1_3_1_1_5_1
n2569__1_3_1_1_6,n2569__1_3_1_1_6_1
n2571__1_3_1_1_6,n2571__1_3_1_1_6_1
n2574__1_3_1_1_6,n2574__1_3_1_1_6_1
n2575__1_3_1_1_5,n2575__1_3_1_1_5_1
n2579__1_3_1_1_5,n2579__1_3_1_1_5_1
n2582__1_3_1_1_5,n2582__1_3_1_1_5_1
n2583__1_3_1_1_5,n2583__1_3_1_1_5_1
n2586__1_3_1_1_6,n2586__1_3_1_1_6_1
n2589__1_3_1_1_6,n2589__1_3_1_1_6_1
n2591__1_3_1_1_5,n2591__1_3_1_1_5_1
n2593__1_3_1_1_5,n2593__1_3_1_1_5_1
n2595__1_3_1_1_6,n2595__1_3_1_1_6_1
n2597__1_3_1_1_8,n2597__1_3_1_1_8_1
n2600__1_3_1_1_7,n2600__1_3_1_1_7_1
n2601__1_3_1_1_5,n2601__1_3_1_1_5_1
n2602__1_3_1_1_6,n2602__1_3_1_1_6_1
n2603__1_3_1_1_4,n2603__1_3_1_1_4_1
n2604__1_3_1_1_5,n2604__1_3_1_1_5_1
n2606__1_3_1_1_5,n2606__1_3_1_1_5_1
n2608__1_3_1_1_7,n2608__1_3_1_1_7_1
n2611__1_3_1_1_5,n2611__1_3_1_1_5_1
n2612__1_3_1_1_6,n2612__1_3_1_1_6_1
n2613__1_3_1_1_6,n2613__1_3_1_1_6_1
n2616__1_3_1_1_6,n2616__1_3_1_1_6_1
n2619__1_3_1_1_6,n2619__1_3_1_1_6_1
n2621__1_3_1_1_7,n2621__1_3_1_1_7_1
n2626__1_3_1_1_6,n2626__1_3_1_1_6_1
n2627__1_3_1_1_6,n2627__1_3_1_1_6_1
n2629__1_3_1_1_7,n2629__1_3_1_1_7_1
n2632__1_3_1_1_8,n2632__1_3_1_1_8_1
n2633__1_3_1_1_5,n2633__1_3_1_1_5_1
n2640__1_3_1_1_5,n2640__1_3_1_1_5_1
n2641__1_3_1_1_4,n2641__1_3_1_1_4_1
n2644__1_3_1_1_4,n2644__1_3_1_1_4_1
n2645__1_3_1_1_8,n2645__1_3_1_1_8_1
n2647__1_3_1_1_7,n2647__1_3_1_1_7_1
n2649__1_3_1_1_6,n2649__1_3_1_1_6_1
n2653__1_3_1_1_6,n2653__1_3_1_1_6_1
n2657__1_3_1_1_4,n2657__1_3_1_1_4_1
n2661__1_3_1_1_6,n2661__1_3_1_1_6_1
n2666__1_3_1_1_7,n2666__1_3_1_1_7_1
n2669__1_3_1_1_6,n2669__1_3_1_1_6_1
n2672__1_3_1_1_4,n2672__1_3_1_1_4_1
n2674__1_3_1_1_6,n2674__1_3_1_1_6_1
n2676__1_3_1_1_7,n2676__1_3_1_1_7_1
n2678__1_3_1_1_6,n2678__1_3_1_1_6_1
n2681__1_3_1_1_5,n2681__1_3_1_1_5_1
n2682__1_3_1_1_6,n2682__1_3_1_1_6_1
n2684__1_3_1_1_6,n2684__1_3_1_1_6_1
n2686__1_3_1_1_6,n2686__1_3_1_1_6_1
n2687__1_3_1_1_8,n2687__1_3_1_1_8_1
n2688__1_3_1_1_6,n2688__1_3_1_1_6_1
n2690__1_3_1_1_6,n2690__1_3_1_1_6_1
n2692__1_3_1_1_5,n2692__1_3_1_1_5_1
n2693__1_3_1_1_7,n2693__1_3_1_1_7_1
n2694__1_3_1_1_6,n2694__1_3_1_1_6_1
n2695__1_3_1_1_7,n2695__1_3_1_1_7_1
n2696__1_3_1_1_6,n2696__1_3_1_1_6_1
n2698__1_3_1_1_7,n2698__1_3_1_1_7_1
n2701__1_3_1_1_7,n2701__1_3_1_1_7_1
n2703__1_3_1_1_7,n2703__1_3_1_1_7_1
n2704__1_3_1_1_5,n2704__1_3_1_1_5_1
n2705__1_3_1_1_4,n2705__1_3_1_1_4_1
n2709__1_3_1_1_5,n2709__1_3_1_1_5_1
n2710__1_3_1_1_7,n2710__1_3_1_1_7_1
n2711__1_3_1_1_5,n2711__1_3_1_1_5_1
n2714__1_3_1_1_6,n2714__1_3_1_1_6_1
n2715__1_3_1_1_5,n2715__1_3_1_1_5_1
n2717__1_3_1_1_7,n2717__1_3_1_1_7_1
n2718__1_3_1_1_7,n2718__1_3_1_1_7_1
n2719__1_3_1_1_6,n2719__1_3_1_1_6_1
n2724__1_3_1_1_5,n2724__1_3_1_1_5_1
n2726__1_3_1_1_6,n2726__1_3_1_1_6_1
n2727__1_3_1_1_5,n2727__1_3_1_1_5_1
n2730__1_3_1_1_6,n2730__1_3_1_1_6_1
n2732__1_3_1_1_6,n2732__1_3_1_1_6_1
n2733__1_3_1_1_6,n2733__1_3_1_1_6_1
n2734__1_3_1_1_5,n2734__1_3_1_1_5_1
n2740__1_3_1_1_5,n2740__1_3_1_1_5_1
n2742__1_3_1_1_7,n2742__1_3_1_1_7_1
n2743__1_3_1_1_7,n2743__1_3_1_1_7_1
n2745__1_3_1_1_7,n2745__1_3_1_1_7_1
n2750__1_3_1_1_7,n2750__1_3_1_1_7_1
n2751__1_3_1_1_6,n2751__1_3_1_1_6_1
n2752__1_3_1_1_6,n2752__1_3_1_1_6_1
n2753__1_3_1_1_7,n2753__1_3_1_1_7_1
n2755__1_3_1_1_4,n2755__1_3_1_1_4_1
n2760__1_3_1_1_6,n2760__1_3_1_1_6_1
n2763__1_3_1_1_6,n2763__1_3_1_1_6_1
n2764__1_3_1_1_6,n2764__1_3_1_1_6_1
n2765__1_3_1_1_7,n2765__1_3_1_1_7_1
n2766__1_3_1_1_5,n2766__1_3_1_1_5_1
n2769__1_3_1_1_6,n2769__1_3_1_1_6_1
n2774__1_3_1_1_7,n2774__1_3_1_1_7_1
n2776__1_3_1_1_6,n2776__1_3_1_1_6_1
n2778__1_3_1_1_4,n2778__1_3_1_1_4_1
n2779__1_3_1_1_6,n2779__1_3_1_1_6_1
n2780__1_3_1_1_8,n2780__1_3_1_1_8_1
n2781__1_3_1_1_6,n2781__1_3_1_1_6_1
n2782__1_3_1_1_8,n2782__1_3_1_1_8_1
n2785__1_3_1_1_7,n2785__1_3_1_1_7_1
n2786__1_3_1_1_5,n2786__1_3_1_1_5_1
n2787__1_3_1_1_5,n2787__1_3_1_1_5_1
n2789__1_3_1_1_7,n2789__1_3_1_1_7_1
n2792__1_3_1_1_6,n2792__1_3_1_1_6_1
n2793__1_3_1_1_6,n2793__1_3_1_1_6_1
n2796__1_3_1_1_7,n2796__1_3_1_1_7_1
n2797__1_3_1_1_6,n2797__1_3_1_1_6_1
n2798__1_3_1_1_7,n2798__1_3_1_1_7_1
n2799__1_3_1_1_4,n2799__1_3_1_1_4_1
n2800__1_3_1_1_6,n2800__1_3_1_1_6_1
n2801__1_3_1_1_6,n2801__1_3_1_1_6_1
n2804__1_3_1_1_6,n2804__1_3_1_1_6_1
n2805__1_3_1_1_5,n2805__1_3_1_1_5_1
n2806__1_3_1_1_6,n2806__1_3_1_1_6_1
n2807__1_3_1_1_5,n2807__1_3_1_1_5_1
n2810__1_3_1_1_5,n2810__1_3_1_1_5_1
n2811__1_3_1_1_6,n2811__1_3_1_1_6_1
n2813__1_3_1_1_6,n2813__1_3_1_1_6_1
n2816__1_3_1_1_8,n2816__1_3_1_1_8_1
n2818__1_3_1_1_5,n2818__1_3_1_1_5_1
n2819__1_3_1_1_7,n2819__1_3_1_1_7_1
n2820__1_3_1_1_6,n2820__1_3_1_1_6_1
n2824__1_3_1_1_7,n2824__1_3_1_1_7_1
n2825__1_3_1_1_6,n2825__1_3_1_1_6_1
n2826__1_3_1_1_5,n2826__1_3_1_1_5_1
n2828__1_3_1_1_6,n2828__1_3_1_1_6_1
n2829__1_3_1_1_6,n2829__1_3_1_1_6_1
n2830__1_3_1_1_6,n2830__1_3_1_1_6_1
n2831__1_3_1_1_7,n2831__1_3_1_1_7_1
n2834__1_3_1_1_6,n2834__1_3_1_1_6_1
n2836__1_3_1_1_5,n2836__1_3_1_1_5_1
n2838__1_3_1_1_8,n2838__1_3_1_1_8_1
n2844__1_3_1_1_6,n2844__1_3_1_1_6_1
n2846__1_3_1_1_7,n2846__1_3_1_1_7_1
n2847__1_3_1_1_5,n2847__1_3_1_1_5_1
n2848__1_3_1_1_7,n2848__1_3_1_1_7_1
n2849__1_3_1_1_5,n2849__1_3_1_1_5_1
n2850__1_3_1_1_5,n2850__1_3_1_1_5_1
n2851__1_3_1_1_6,n2851__1_3_1_1_6_1
n2853__1_3_1_1_6,n2853__1_3_1_1_6_1
n2855__1_3_1_1_7,n2855__1_3_1_1_7_1
n2857__1_3_1_1_6,n2857__1_3_1_1_6_1
n2858__1_3_1_1_6,n2858__1_3_1_1_6_1
n2860__1_3_1_1_7,n2860__1_3_1_1_7_1
n2861__1_3_1_1_5,n2861__1_3_1_1_5_1
n2862__1_3_1_1_6,n2862__1_3_1_1_6_1
n2865__1_3_1_1_5,n2865__1_3_1_1_5_1
n2868__1_3_1_1_7,n2868__1_3_1_1_7_1
n2869__1_3_1_1_7,n2869__1_3_1_1_7_1
n2870__1_3_1_1_5,n2870__1_3_1_1_5_1
n2874__1_3_1_1_6,n2874__1_3_1_1_6_1
n2875__1_3_1_1_7,n2875__1_3_1_1_7_1
n2876__1_3_1_1_6,n2876__1_3_1_1_6_1
n2877__1_3_1_1_6,n2877__1_3_1_1_6_1
n2878__1_3_1_1_6,n2878__1_3_1_1_6_1
n2880__1_3_1_1_7,n2880__1_3_1_1_7_1
n2882__1_3_1_1_7,n2882__1_3_1_1_7_1
n2883__1_3_1_1_5,n2883__1_3_1_1_5_1
n2884__1_3_1_1_7,n2884__1_3_1_1_7_1
n2885__1_3_1_1_6,n2885__1_3_1_1_6_1
n2887__1_3_1_1_5,n2887__1_3_1_1_5_1
n2888__1_3_1_1_5,n2888__1_3_1_1_5_1
n2889__1_3_1_1_7,n2889__1_3_1_1_7_1
n2890__1_3_1_1_5,n2890__1_3_1_1_5_1
n2891__1_3_1_1_6,n2891__1_3_1_1_6_1
n2894__1_3_1_1_6,n2894__1_3_1_1_6_1
n2895__1_3_1_1_6,n2895__1_3_1_1_6_1
n2898__1_3_1_1_4,n2898__1_3_1_1_4_1
n2900__1_3_1_1_5,n2900__1_3_1_1_5_1
n2902__1_3_1_1_7,n2902__1_3_1_1_7_1
n2903__1_3_1_1_5,n2903__1_3_1_1_5_1
n2904__1_3_1_1_6,n2904__1_3_1_1_6_1
n2906__1_3_1_1_6,n2906__1_3_1_1_6_1
n2910__1_3_1_1_6,n2910__1_3_1_1_6_1
n2913__1_3_1_1_4,n2913__1_3_1_1_4_1
n2914__1_3_1_1_6,n2914__1_3_1_1_6_1
n2915__1_3_1_1_4,n2915__1_3_1_1_4_1
n2918__1_3_1_1_7,n2918__1_3_1_1_7_1
n2921__1_3_1_1_6,n2921__1_3_1_1_6_1
n2922__1_3_1_1_7,n2922__1_3_1_1_7_1
n2924__1_3_1_1_7,n2924__1_3_1_1_7_1
n2925__1_3_1_1_6,n2925__1_3_1_1_6_1
n2926__1_3_1_1_6,n2926__1_3_1_1_6_1
n2932__1_3_1_1_6,n2932__1_3_1_1_6_1
n2934__1_3_1_1_6,n2934__1_3_1_1_6_1
n2937__1_3_1_1_8,n2937__1_3_1_1_8_1
n2938__1_3_1_1_6,n2938__1_3_1_1_6_1
n2941__1_3_1_1_5,n2941__1_3_1_1_5_1
n2944__1_3_1_1_4,n2944__1_3_1_1_4_1
n2945__1_3_1_1_5,n2945__1_3_1_1_5_1
n2951__1_3_1_1_5,n2951__1_3_1_1_5_1
n2953__1_3_1_1_5,n2953__1_3_1_1_5_1
n2954__1_3_1_1_7,n2954__1_3_1_1_7_1
n2957__1_3_1_1_6,n2957__1_3_1_1_6_1
n2958__1_3_1_1_6,n2958__1_3_1_1_6_1
n2959__1_3_1_1_7,n2959__1_3_1_1_7_1
n2961__1_3_1_1_5,n2961__1_3_1_1_5_1
n2963__1_3_1_1_7,n2963__1_3_1_1_7_1
n2964__1_3_1_1_7,n2964__1_3_1_1_7_1
n2966__1_3_1_1_5,n2966__1_3_1_1_5_1
n2969__1_3_1_1_4,n2969__1_3_1_1_4_1
n2970__1_3_1_1_5,n2970__1_3_1_1_5_1
n2971__1_3_1_1_7,n2971__1_3_1_1_7_1
n2977__1_3_1_1_5,n2977__1_3_1_1_5_1
n2979__1_3_1_1_5,n2979__1_3_1_1_5_1
n2981__1_3_1_1_4,n2981__1_3_1_1_4_1
n2983__1_3_1_1_7,n2983__1_3_1_1_7_1
n2986__1_3_1_1_5,n2986__1_3_1_1_5_1
n2987__1_3_1_1_7,n2987__1_3_1_1_7_1
n2988__1_3_1_1_6,n2988__1_3_1_1_6_1
n2989__1_3_1_1_6,n2989__1_3_1_1_6_1
n2990__1_3_1_1_6,n2990__1_3_1_1_6_1
n2992__1_3_1_1_7,n2992__1_3_1_1_7_1
n2993__1_3_1_1_5,n2993__1_3_1_1_5_1
n2994__1_3_1_1_6,n2994__1_3_1_1_6_1
n3000__1_3_1_1_7,n3000__1_3_1_1_7_1
n3002__1_3_1_1_8,n3002__1_3_1_1_8_1
n3003__1_3_1_1_6,n3003__1_3_1_1_6_1
n3004__1_3_1_1_4,n3004__1_3_1_1_4_1
n3005__1_3_1_1_7,n3005__1_3_1_1_7_1
n3006__1_3_1_1_5,n3006__1_3_1_1_5_1
n3008__1_3_1_1_5,n3008__1_3_1_1_5_1
n3009__1_3_1_1_7,n3009__1_3_1_1_7_1
n3011__1_3_1_1_7,n3011__1_3_1_1_7_1
n3012__1_3_1_1_6,n3012__1_3_1_1_6_1
n3014__1_3_1_1_5,n3014__1_3_1_1_5_1
n3015__1_3_1_1_5,n3015__1_3_1_1_5_1
n3016__1_3_1_1_7,n3016__1_3_1_1_7_1
n3017__1_3_1_1_5,n3017__1_3_1_1_5_1
n3019__1_3_1_1_7,n3019__1_3_1_1_7_1
n3022__1_3_1_1_6,n3022__1_3_1_1_6_1
n3023__1_3_1_1_6,n3023__1_3_1_1_6_1
n3024__1_3_1_1_5,n3024__1_3_1_1_5_1
n3027__1_3_1_1_4,n3027__1_3_1_1_4_1
n3031__1_3_1_1_6,n3031__1_3_1_1_6_1
n3032__1_3_1_1_8,n3032__1_3_1_1_8_1
n3035__1_3_1_1_6,n3035__1_3_1_1_6_1
n3037__1_3_1_1_6,n3037__1_3_1_1_6_1
n3040__1_3_1_1_5,n3040__1_3_1_1_5_1
n3041__1_3_1_1_5,n3041__1_3_1_1_5_1
n3044__1_3_1_1_6,n3044__1_3_1_1_6_1
n3047__1_3_1_1_6,n3047__1_3_1_1_6_1
n3049__1_3_1_1_6,n3049__1_3_1_1_6_1
n3050__1_3_1_1_8,n3050__1_3_1_1_8_1
n3053__1_3_1_1_8,n3053__1_3_1_1_8_1
n3055__1_3_1_1_6,n3055__1_3_1_1_6_1
n3056__1_3_1_1_4,n3056__1_3_1_1_4_1
n3058__1_3_1_1_5,n3058__1_3_1_1_5_1
n3060__1_3_1_1_6,n3060__1_3_1_1_6_1
n3061__1_3_1_1_6,n3061__1_3_1_1_6_1
n3064__1_3_1_1_6,n3064__1_3_1_1_6_1
n3066__1_3_1_1_5,n3066__1_3_1_1_5_1
n3067__1_3_1_1_8,n3067__1_3_1_1_8_1
n3072__1_3_1_1_7,n3072__1_3_1_1_7_1
n3074__1_3_1_1_7,n3074__1_3_1_1_7_1
n3075__1_3_1_1_6,n3075__1_3_1_1_6_1
n3077__1_3_1_1_5,n3077__1_3_1_1_5_1
n3079__1_3_1_1_6,n3079__1_3_1_1_6_1
n3082__1_3_1_1_7,n3082__1_3_1_1_7_1
n3083__1_3_1_1_6,n3083__1_3_1_1_6_1
n3084__1_3_1_1_7,n3084__1_3_1_1_7_1
n3085__1_3_1_1_8,n3085__1_3_1_1_8_1
n3087__1_3_1_1_6,n3087__1_3_1_1_6_1
n3089__1_3_1_1_5,n3089__1_3_1_1_5_1
n3090__1_3_1_1_5,n3090__1_3_1_1_5_1
n3092__1_3_1_1_7,n3092__1_3_1_1_7_1
n3093__1_3_1_1_5,n3093__1_3_1_1_5_1
n3094__1_3_1_1_7,n3094__1_3_1_1_7_1
n3097__1_3_1_1_6,n3097__1_3_1_1_6_1
n3100__1_3_1_1_6,n3100__1_3_1_1_6_1
n3101__1_3_1_1_5,n3101__1_3_1_1_5_1
n3102__1_3_1_1_6,n3102__1_3_1_1_6_1
n3103__1_3_1_1_6,n3103__1_3_1_1_6_1
n3104__1_3_1_1_5,n3104__1_3_1_1_5_1
n3105__1_3_1_1_6,n3105__1_3_1_1_6_1
n3107__1_3_1_1_5,n3107__1_3_1_1_5_1
n3109__1_3_1_1_6,n3109__1_3_1_1_6_1
n3111__1_3_1_1_7,n3111__1_3_1_1_7_1
n3116__1_3_1_1_7,n3116__1_3_1_1_7_1
n3123__1_3_1_1_5,n3123__1_3_1_1_5_1
n3124__1_3_1_1_5,n3124__1_3_1_1_5_1
n3126__1_3_1_1_5,n3126__1_3_1_1_5_1
n3128__1_3_1_1_6,n3128__1_3_1_1_6_1
n3129__1_3_1_1_4,n3129__1_3_1_1_4_1
n3131__1_3_1_1_5,n3131__1_3_1_1_5_1
n3132__1_3_1_1_6,n3132__1_3_1_1_6_1
n3134__1_3_1_1_6,n3134__1_3_1_1_6_1
n3135__1_3_1_1_7,n3135__1_3_1_1_7_1
n3141__1_3_1_1_7,n3141__1_3_1_1_7_1
n3142__1_3_1_1_5,n3142__1_3_1_1_5_1
n3145__1_3_1_1_8,n3145__1_3_1_1_8_1
n3148__1_3_1_1_7,n3148__1_3_1_1_7_1
n3150__1_3_1_1_6,n3150__1_3_1_1_6_1
n3151__1_3_1_1_5,n3151__1_3_1_1_5_1
n3153__1_3_1_1_5,n3153__1_3_1_1_5_1
n3156__1_3_1_1_4,n3156__1_3_1_1_4_1
n3157__1_3_1_1_6,n3157__1_3_1_1_6_1
n3158__1_3_1_1_8,n3158__1_3_1_1_8_1
n3160__1_3_1_1_6,n3160__1_3_1_1_6_1
n3163__1_3_1_1_5,n3163__1_3_1_1_5_1
n3168__1_3_1_1_5,n3168__1_3_1_1_5_1
n3169__1_3_1_1_6,n3169__1_3_1_1_6_1
n3176__1_3_1_1_7,n3176__1_3_1_1_7_1
n3177__1_3_1_1_5,n3177__1_3_1_1_5_1
n3178__1_3_1_1_6,n3178__1_3_1_1_6_1
n3181__1_3_1_1_7,n3181__1_3_1_1_7_1
n3182__1_3_1_1_7,n3182__1_3_1_1_7_1
n3185__1_3_1_1_5,n3185__1_3_1_1_5_1
n3186__1_3_1_1_4,n3186__1_3_1_1_4_1
n3187__1_3_1_1_6,n3187__1_3_1_1_6_1
n3189__1_3_1_1_4,n3189__1_3_1_1_4_1
n3191__1_3_1_1_6,n3191__1_3_1_1_6_1
n3192__1_3_1_1_7,n3192__1_3_1_1_7_1
n3194__1_3_1_1_6,n3194__1_3_1_1_6_1
n3195__1_3_1_1_6,n3195__1_3_1_1_6_1
n3201__1_3_1_1_4,n3201__1_3_1_1_4_1
n3202__1_3_1_1_6,n3202__1_3_1_1_6_1
n3212__1_3_1_1_7,n3212__1_3_1_1_7_1
n3214__1_3_1_1_6,n3214__1_3_1_1_6_1
n3215__1_3_1_1_7,n3215__1_3_1_1_7_1
n3217__1_3_1_1_7,n3217__1_3_1_1_7_1
n3220__1_3_1_1_5,n3220__1_3_1_1_5_1
n3222__1_3_1_1_6,n3222__1_3_1_1_6_1
n3223__1_3_1_1_6,n3223__1_3_1_1_6_1
n3225__1_3_1_1_6,n3225__1_3_1_1_6_1
n3226__1_3_1_1_5,n3226__1_3_1_1_5_1
n3227__1_3_1_1_5,n3227__1_3_1_1_5_1
n3230__1_3_1_1_6,n3230__1_3_1_1_6_1
n3231__1_3_1_1_7,n3231__1_3_1_1_7_1
n3233__1_3_1_1_6,n3233__1_3_1_1_6_1
n3234__1_3_1_1_6,n3234__1_3_1_1_6_1
n3235__1_3_1_1_4,n3235__1_3_1_1_4_1
n3236__1_3_1_1_6,n3236__1_3_1_1_6_1
n3238__1_3_1_1_6,n3238__1_3_1_1_6_1
n3239__1_3_1_1_5,n3239__1_3_1_1_5_1
n3241__1_3_1_1_6,n3241__1_3_1_1_6_1
n3242__1_3_1_1_7,n3242__1_3_1_1_7_1
n3245__1_3_1_1_7,n3245__1_3_1_1_7_1
n3246__1_3_1_1_5,n3246__1_3_1_1_5_1
n3247__1_3_1_1_6,n3247__1_3_1_1_6_1
n3248__1_3_1_1_6,n3248__1_3_1_1_6_1
n3252__1_3_1_1_7,n3252__1_3_1_1_7_1
n3253__1_3_1_1_6,n3253__1_3_1_1_6_1
n3256__1_3_1_1_7,n3256__1_3_1_1_7_1
n3257__1_3_1_1_5,n3257__1_3_1_1_5_1
n3258__1_3_1_1_8,n3258__1_3_1_1_8_1
n3260__1_3_1_1_6,n3260__1_3_1_1_6_1
n3261__1_3_1_1_7,n3261__1_3_1_1_7_1
n3265__1_3_1_1_7,n3265__1_3_1_1_7_1
n3266__1_3_1_1_5,n3266__1_3_1_1_5_1
n3269__1_3_1_1_6,n3269__1_3_1_1_6_1
n3270__1_3_1_1_7,n3270__1_3_1_1_7_1
n3271__1_3_1_1_6,n3271__1_3_1_1_6_1
n3272__1_3_1_1_7,n3272__1_3_1_1_7_1
n3275__1_3_1_1_7,n3275__1_3_1_1_7_1
n3278__1_3_1_1_5,n3278__1_3_1_1_5_1
n3283__1_3_1_1_7,n3283__1_3_1_1_7_1
n3285__1_3_1_1_5,n3285__1_3_1_1_5_1
n3286__1_3_1_1_5,n3286__1_3_1_1_5_1
n3288__1_3_1_1_6,n3288__1_3_1_1_6_1
n3289__1_3_1_1_6,n3289__1_3_1_1_6_1
n3290__1_3_1_1_8,n3290__1_3_1_1_8_1
n3292__1_3_1_1_7,n3292__1_3_1_1_7_1
n3293__1_3_1_1_8,n3293__1_3_1_1_8_1
n3294__1_3_1_1_6,n3294__1_3_1_1_6_1
n3295__1_3_1_1_5,n3295__1_3_1_1_5_1
n3297__1_3_1_1_7,n3297__1_3_1_1_7_1
n3300__1_3_1_1_5,n3300__1_3_1_1_5_1
n3303__1_3_1_1_8,n3303__1_3_1_1_8_1
n3305__1_3_1_1_4,n3305__1_3_1_1_4_1
n3307__1_3_1_1_7,n3307__1_3_1_1_7_1
n3309__1_3_1_1_7,n3309__1_3_1_1_7_1
n3312__1_3_1_1_5,n3312__1_3_1_1_5_1
n3313__1_3_1_1_5,n3313__1_3_1_1_5_1
n3318__1_3_1_1_5,n3318__1_3_1_1_5_1
n3321__1_3_1_1_7,n3321__1_3_1_1_7_1
n3322__1_3_1_1_7,n3322__1_3_1_1_7_1
n3323__1_3_1_1_5,n3323__1_3_1_1_5_1
n3325__1_3_1_1_8,n3325__1_3_1_1_8_1
n3329__1_3_1_1_5,n3329__1_3_1_1_5_1
n3330__1_3_1_1_5,n3330__1_3_1_1_5_1
n3331__1_3_1_1_7,n3331__1_3_1_1_7_1
n3332__1_3_1_1_6,n3332__1_3_1_1_6_1
n3335__1_3_1_1_5,n3335__1_3_1_1_5_1
n3337__1_3_1_1_8,n3337__1_3_1_1_8_1
n3338__1_3_1_1_7,n3338__1_3_1_1_7_1
n3339__1_3_1_1_8,n3339__1_3_1_1_8_1
n3340__1_3_1_1_5,n3340__1_3_1_1_5_1
n3341__1_3_1_1_7,n3341__1_3_1_1_7_1
n3342__1_3_1_1_7,n3342__1_3_1_1_7_1
n3347__1_3_1_1_5,n3347__1_3_1_1_5_1
n3348__1_3_1_1_5,n3348__1_3_1_1_5_1
n3349__1_3_1_1_5,n3349__1_3_1_1_5_1
n3352__1_3_1_1_4,n3352__1_3_1_1_4_1
n3354__1_3_1_1_6,n3354__1_3_1_1_6_1
n3360__1_3_1_1_6,n3360__1_3_1_1_6_1
n3361__1_3_1_1_6,n3361__1_3_1_1_6_1
n3362__1_3_1_1_6,n3362__1_3_1_1_6_1
n3364__1_3_1_1_7,n3364__1_3_1_1_7_1
n3366__1_3_1_1_4,n3366__1_3_1_1_4_1
n3368__1_3_1_1_5,n3368__1_3_1_1_5_1
n3369__1_3_1_1_4,n3369__1_3_1_1_4_1
n3370__1_3_1_1_7,n3370__1_3_1_1_7_1
n3372__1_3_1_1_6,n3372__1_3_1_1_6_1
n3374__1_3_1_1_6,n3374__1_3_1_1_6_1
n3375__1_3_1_1_6,n3375__1_3_1_1_6_1
n3376__1_3_1_1_4,n3376__1_3_1_1_4_1
n3378__1_3_1_1_5,n3378__1_3_1_1_5_1
n3381__1_3_1_1_8,n3381__1_3_1_1_8_1
n3384__1_3_1_1_4,n3384__1_3_1_1_4_1
n3385__1_3_1_1_5,n3385__1_3_1_1_5_1
n3390__1_3_1_1_8,n3390__1_3_1_1_8_1
n3391__1_3_1_1_6,n3391__1_3_1_1_6_1
n3395__1_3_1_1_6,n3395__1_3_1_1_6_1
n3396__1_3_1_1_5,n3396__1_3_1_1_5_1
n3397__1_3_1_1_6,n3397__1_3_1_1_6_1
n3398__1_3_1_1_6,n3398__1_3_1_1_6_1
n3399__1_3_1_1_7,n3399__1_3_1_1_7_1
n3400__1_3_1_1_5,n3400__1_3_1_1_5_1
n3401__1_3_1_1_7,n3401__1_3_1_1_7_1
n3402__1_3_1_1_6,n3402__1_3_1_1_6_1
n3405__1_3_1_1_7,n3405__1_3_1_1_7_1
n3406__1_3_1_1_6,n3406__1_3_1_1_6_1
n3410__1_3_1_1_6,n3410__1_3_1_1_6_1
n3411__1_3_1_1_7,n3411__1_3_1_1_7_1
n3412__1_3_1_1_7,n3412__1_3_1_1_7_1
n3413__1_3_1_1_8,n3413__1_3_1_1_8_1
n3414__1_3_1_1_7,n3414__1_3_1_1_7_1
n3416__1_3_1_1_5,n3416__1_3_1_1_5_1
n3418__1_3_1_1_6,n3418__1_3_1_1_6_1
n3419__1_3_1_1_6,n3419__1_3_1_1_6_1
n3421__1_3_1_1_7,n3421__1_3_1_1_7_1
n3422__1_3_1_1_5,n3422__1_3_1_1_5_1
n3426__1_3_1_1_6,n3426__1_3_1_1_6_1
n3427__1_3_1_1_7,n3427__1_3_1_1_7_1
n3436__1_3_1_1_6,n3436__1_3_1_1_6_1
n3438__1_3_1_1_6,n3438__1_3_1_1_6_1
n3439__1_3_1_1_4,n3439__1_3_1_1_4_1
n3443__1_3_1_1_4,n3443__1_3_1_1_4_1
n3448__1_3_1_1_5,n3448__1_3_1_1_5_1
n3451__1_3_1_1_7,n3451__1_3_1_1_7_1
n3452__1_3_1_1_7,n3452__1_3_1_1_7_1
n3457__1_3_1_1_6,n3457__1_3_1_1_6_1
n3459__1_3_1_1_6,n3459__1_3_1_1_6_1
n3460__1_3_1_1_5,n3460__1_3_1_1_5_1
n3463__1_3_1_1_4,n3463__1_3_1_1_4_1
n3464__1_3_1_1_6,n3464__1_3_1_1_6_1
n3465__1_3_1_1_6,n3465__1_3_1_1_6_1
n3469__1_3_1_1_7,n3469__1_3_1_1_7_1
n3470__1_3_1_1_7,n3470__1_3_1_1_7_1
n3471__1_3_1_1_6,n3471__1_3_1_1_6_1
n3473__1_3_1_1_6,n3473__1_3_1_1_6_1
n3474__1_3_1_1_7,n3474__1_3_1_1_7_1
n3475__1_3_1_1_6,n3475__1_3_1_1_6_1
n3477__1_3_1_1_4,n3477__1_3_1_1_4_1
n3480__1_3_1_1_8,n3480__1_3_1_1_8_1
n3483__1_3_1_1_5,n3483__1_3_1_1_5_1
n3485__1_3_1_1_7,n3485__1_3_1_1_7_1
n3486__1_3_1_1_5,n3486__1_3_1_1_5_1
n3488__1_3_1_1_5,n3488__1_3_1_1_5_1
n3489__1_3_1_1_4,n3489__1_3_1_1_4_1
n3494__1_3_1_1_6,n3494__1_3_1_1_6_1
n3497__1_3_1_1_5,n3497__1_3_1_1_5_1
n3501__1_3_1_1_5,n3501__1_3_1_1_5_1
n3502__1_3_1_1_8,n3502__1_3_1_1_8_1
n3503__1_3_1_1_6,n3503__1_3_1_1_6_1
n3504__1_3_1_1_5,n3504__1_3_1_1_5_1
n3506__1_3_1_1_4,n3506__1_3_1_1_4_1
n3508__1_3_1_1_6,n3508__1_3_1_1_6_1
n3509__1_3_1_1_6,n3509__1_3_1_1_6_1
n3510__1_3_1_1_6,n3510__1_3_1_1_6_1
n3511__1_3_1_1_5,n3511__1_3_1_1_5_1
n3514__1_3_1_1_7,n3514__1_3_1_1_7_1
n3519__1_3_1_1_6,n3519__1_3_1_1_6_1
n3520__1_3_1_1_6,n3520__1_3_1_1_6_1
n3521__1_3_1_1_8,n3521__1_3_1_1_8_1
n3527__1_3_1_1_6,n3527__1_3_1_1_6_1
n3529__1_3_1_1_6,n3529__1_3_1_1_6_1
n3531__1_3_1_1_5,n3531__1_3_1_1_5_1
n3534__1_3_1_1_6,n3534__1_3_1_1_6_1
n3537__1_3_1_1_7,n3537__1_3_1_1_7_1
n3539__1_3_1_1_7,n3539__1_3_1_1_7_1
n3543__1_3_1_1_6,n3543__1_3_1_1_6_1
n3546__1_3_1_1_7,n3546__1_3_1_1_7_1
n3547__1_3_1_1_6,n3547__1_3_1_1_6_1
n3548__1_3_1_1_5,n3548__1_3_1_1_5_1
n3552__1_3_1_1_6,n3552__1_3_1_1_6_1
n3554__1_3_1_1_5,n3554__1_3_1_1_5_1
n3555__1_3_1_1_7,n3555__1_3_1_1_7_1
n3560__1_3_1_1_7,n3560__1_3_1_1_7_1
n3561__1_3_1_1_6,n3561__1_3_1_1_6_1
n3562__1_3_1_1_6,n3562__1_3_1_1_6_1
n3564__1_3_1_1_6,n3564__1_3_1_1_6_1
n3567__1_3_1_1_7,n3567__1_3_1_1_7_1
n3568__1_3_1_1_6,n3568__1_3_1_1_6_1
n3569__1_3_1_1_6,n3569__1_3_1_1_6_1
n3570__1_3_1_1_5,n3570__1_3_1_1_5_1
n3572__1_3_1_1_7,n3572__1_3_1_1_7_1
n3573__1_3_1_1_8,n3573__1_3_1_1_8_1
n3574__1_3_1_1_5,n3574__1_3_1_1_5_1
n3578__1_3_1_1_6,n3578__1_3_1_1_6_1
n3581__1_3_1_1_5,n3581__1_3_1_1_5_1
n3582__1_3_1_1_7,n3582__1_3_1_1_7_1
n3583__1_3_1_1_7,n3583__1_3_1_1_7_1
n3586__1_3_1_1_6,n3586__1_3_1_1_6_1
n3590__1_3_1_1_6,n3590__1_3_1_1_6_1
n3592__1_3_1_1_5,n3592__1_3_1_1_5_1
n3595__1_3_1_1_5,n3595__1_3_1_1_5_1
n3596__1_3_1_1_8,n3596__1_3_1_1_8_1
n3597__1_3_1_1_5,n3597__1_3_1_1_5_1
n3599__1_3_1_1_6,n3599__1_3_1_1_6_1
n3603__1_3_1_1_6,n3603__1_3_1_1_6_1
n3604__1_3_1_1_5,n3604__1_3_1_1_5_1
n3610__1_3_1_1_7,n3610__1_3_1_1_7_1
n3611__1_3_1_1_5,n3611__1_3_1_1_5_1
n3612__1_3_1_1_5,n3612__1_3_1_1_5_1
n3615__1_3_1_1_6,n3615__1_3_1_1_6_1
n3619__1_3_1_1_6,n3619__1_3_1_1_6_1
n3620__1_3_1_1_6,n3620__1_3_1_1_6_1
n3622__1_3_1_1_5,n3622__1_3_1_1_5_1
n3623__1_3_1_1_6,n3623__1_3_1_1_6_1
n3625__1_3_1_1_5,n3625__1_3_1_1_5_1
n3626__1_3_1_1_6,n3626__1_3_1_1_6_1
n3630__1_3_1_1_7,n3630__1_3_1_1_7_1
n3631__1_3_1_1_5,n3631__1_3_1_1_5_1
n3632__1_3_1_1_8,n3632__1_3_1_1_8_1
n3633__1_3_1_1_6,n3633__1_3_1_1_6_1
n3635__1_3_1_1_5,n3635__1_3_1_1_5_1
n3636__1_3_1_1_6,n3636__1_3_1_1_6_1
n3637__1_3_1_1_7,n3637__1_3_1_1_7_1
n3638__1_3_1_1_5,n3638__1_3_1_1_5_1
n3639__1_3_1_1_5,n3639__1_3_1_1_5_1
n3640__1_3_1_1_6,n3640__1_3_1_1_6_1
n3641__1_3_1_1_5,n3641__1_3_1_1_5_1
n3643__1_3_1_1_6,n3643__1_3_1_1_6_1
n3644__1_3_1_1_6,n3644__1_3_1_1_6_1
n3645__1_3_1_1_5,n3645__1_3_1_1_5_1
n3646__1_3_1_1_5,n3646__1_3_1_1_5_1
n3648__1_3_1_1_7,n3648__1_3_1_1_7_1
n3650__1_3_1_1_7,n3650__1_3_1_1_7_1
n3651__1_3_1_1_7,n3651__1_3_1_1_7_1
n3653__1_3_1_1_6,n3653__1_3_1_1_6_1
n3655__1_3_1_1_5,n3655__1_3_1_1_5_1
n3656__1_3_1_1_7,n3656__1_3_1_1_7_1
n3657__1_3_1_1_6,n3657__1_3_1_1_6_1
n3663__1_3_1_1_5,n3663__1_3_1_1_5_1
n3665__1_3_1_1_8,n3665__1_3_1_1_8_1
n3667__1_3_1_1_6,n3667__1_3_1_1_6_1
n3668__1_3_1_1_7,n3668__1_3_1_1_7_1
n3671__1_3_1_1_7,n3671__1_3_1_1_7_1
n3674__1_3_1_1_6,n3674__1_3_1_1_6_1
n3676__1_3_1_1_6,n3676__1_3_1_1_6_1
n3678__1_3_1_1_5,n3678__1_3_1_1_5_1
n3680__1_3_1_1_5,n3680__1_3_1_1_5_1
n3681__1_3_1_1_7,n3681__1_3_1_1_7_1
n3682__1_3_1_1_7,n3682__1_3_1_1_7_1
n3684__1_3_1_1_5,n3684__1_3_1_1_5_1
n3685__1_3_1_1_7,n3685__1_3_1_1_7_1
n3687__1_3_1_1_5,n3687__1_3_1_1_5_1
n3690__1_3_1_1_6,n3690__1_3_1_1_6_1
n3692__1_3_1_1_5,n3692__1_3_1_1_5_1
n3693__1_3_1_1_6,n3693__1_3_1_1_6_1
n3694__1_3_1_1_6,n3694__1_3_1_1_6_1
n3696__1_3_1_1_5,n3696__1_3_1_1_5_1
n3697__1_3_1_1_6,n3697__1_3_1_1_6_1
n3698__1_3_1_1_8,n3698__1_3_1_1_8_1
n3699__1_3_1_1_6,n3699__1_3_1_1_6_1
n3700__1_3_1_1_7,n3700__1_3_1_1_7_1
n3702__1_3_1_1_7,n3702__1_3_1_1_7_1
n3707__1_3_1_1_5,n3707__1_3_1_1_5_1
n3713__1_3_1_1_8,n3713__1_3_1_1_8_1
n3717__1_3_1_1_7,n3717__1_3_1_1_7_1
n3719__1_3_1_1_8,n3719__1_3_1_1_8_1
n3720__1_3_1_1_6,n3720__1_3_1_1_6_1
n3728__1_3_1_1_7,n3728__1_3_1_1_7_1
n3729__1_3_1_1_7,n3729__1_3_1_1_7_1
n3732__1_3_1_1_6,n3732__1_3_1_1_6_1
n3733__1_3_1_1_4,n3733__1_3_1_1_4_1
n3735__1_3_1_1_6,n3735__1_3_1_1_6_1
n3739__1_3_1_1_8,n3739__1_3_1_1_8_1
n3741__1_3_1_1_6,n3741__1_3_1_1_6_1
n3742__1_3_1_1_8,n3742__1_3_1_1_8_1
n3743__1_3_1_1_7,n3743__1_3_1_1_7_1
n3745__1_3_1_1_7,n3745__1_3_1_1_7_1
n3748__1_3_1_1_7,n3748__1_3_1_1_7_1
n3752__1_3_1_1_6,n3752__1_3_1_1_6_1
n3759__1_3_1_1_7,n3759__1_3_1_1_7_1
n3765__1_3_1_1_6,n3765__1_3_1_1_6_1
n3768__1_3_1_1_6,n3768__1_3_1_1_6_1
n3769__1_3_1_1_7,n3769__1_3_1_1_7_1
n3770__1_3_1_1_8,n3770__1_3_1_1_8_1
n3772__1_3_1_1_5,n3772__1_3_1_1_5_1
n3773__1_3_1_1_5,n3773__1_3_1_1_5_1
n3774__1_3_1_1_7,n3774__1_3_1_1_7_1
n3776__1_3_1_1_6,n3776__1_3_1_1_6_1
n3779__1_3_1_1_6,n3779__1_3_1_1_6_1
n3786__1_3_1_1_7,n3786__1_3_1_1_7_1
n3791__1_3_1_1_5,n3791__1_3_1_1_5_1
n3792__1_3_1_1_4,n3792__1_3_1_1_4_1
n3793__1_3_1_1_5,n3793__1_3_1_1_5_1
n3795__1_3_1_1_6,n3795__1_3_1_1_6_1
n3797__1_3_1_1_7,n3797__1_3_1_1_7_1
n3799__1_3_1_1_7,n3799__1_3_1_1_7_1
n3800__1_3_1_1_7,n3800__1_3_1_1_7_1
n3801__1_3_1_1_5,n3801__1_3_1_1_5_1
n3802__1_3_1_1_5,n3802__1_3_1_1_5_1
n3803__1_3_1_1_6,n3803__1_3_1_1_6_1
n3804__1_3_1_1_6,n3804__1_3_1_1_6_1
n3806__1_3_1_1_7,n3806__1_3_1_1_7_1
n3809__1_3_1_1_6,n3809__1_3_1_1_6_1
n3810__1_3_1_1_6,n3810__1_3_1_1_6_1
n3814__1_3_1_1_6,n3814__1_3_1_1_6_1
n3816__1_3_1_1_6,n3816__1_3_1_1_6_1
n3825__1_3_1_1_7,n3825__1_3_1_1_7_1
n3828__1_3_1_1_7,n3828__1_3_1_1_7_1
n3829__1_3_1_1_8,n3829__1_3_1_1_8_1
n3833__1_3_1_1_5,n3833__1_3_1_1_5_1
n3834__1_3_1_1_6,n3834__1_3_1_1_6_1
n3836__1_3_1_1_7,n3836__1_3_1_1_7_1
n3839__1_3_1_1_5,n3839__1_3_1_1_5_1
n3840__1_3_1_1_6,n3840__1_3_1_1_6_1
n3843__1_3_1_1_5,n3843__1_3_1_1_5_1
n3846__1_3_1_1_6,n3846__1_3_1_1_6_1
n3847__1_3_1_1_7,n3847__1_3_1_1_7_1
n3849__1_3_1_1_7,n3849__1_3_1_1_7_1
n3851__1_3_1_1_5,n3851__1_3_1_1_5_1
n3854__1_3_1_1_5,n3854__1_3_1_1_5_1
n3856__1_3_1_1_6,n3856__1_3_1_1_6_1
n3858__1_3_1_1_6,n3858__1_3_1_1_6_1
n3859__1_3_1_1_7,n3859__1_3_1_1_7_1
n3861__1_3_1_1_5,n3861__1_3_1_1_5_1
n3864__1_3_1_1_4,n3864__1_3_1_1_4_1
n3865__1_3_1_1_6,n3865__1_3_1_1_6_1
n3868__1_3_1_1_6,n3868__1_3_1_1_6_1
n3869__1_3_1_1_7,n3869__1_3_1_1_7_1
n3872__1_3_1_1_4,n3872__1_3_1_1_4_1
n3873__1_3_1_1_7,n3873__1_3_1_1_7_1
n3874__1_3_1_1_7,n3874__1_3_1_1_7_1
n3878__1_3_1_1_7,n3878__1_3_1_1_7_1
n3879__1_3_1_1_8,n3879__1_3_1_1_8_1
n3880__1_3_1_1_5,n3880__1_3_1_1_5_1
n3881__1_3_1_1_7,n3881__1_3_1_1_7_1
n3882__1_3_1_1_6,n3882__1_3_1_1_6_1
n3885__1_3_1_1_6,n3885__1_3_1_1_6_1
n3886__1_3_1_1_6,n3886__1_3_1_1_6_1
n3887__1_3_1_1_5,n3887__1_3_1_1_5_1
n3888__1_3_1_1_7,n3888__1_3_1_1_7_1
n3890__1_3_1_1_7,n3890__1_3_1_1_7_1
n3892__1_3_1_1_8,n3892__1_3_1_1_8_1
n3893__1_3_1_1_4,n3893__1_3_1_1_4_1
n3896__1_3_1_1_4,n3896__1_3_1_1_4_1
n3900__1_3_1_1_5,n3900__1_3_1_1_5_1
n3901__1_3_1_1_6,n3901__1_3_1_1_6_1
n3904__1_3_1_1_5,n3904__1_3_1_1_5_1
n3906__1_3_1_1_5,n3906__1_3_1_1_5_1
n3908__1_3_1_1_6,n3908__1_3_1_1_6_1
n3909__1_3_1_1_7,n3909__1_3_1_1_7_1
n3911__1_3_1_1_4,n3911__1_3_1_1_4_1
n3912__1_3_1_1_5,n3912__1_3_1_1_5_1
n3913__1_3_1_1_8,n3913__1_3_1_1_8_1
n3914__1_3_1_1_8,n3914__1_3_1_1_8_1
n3915__1_3_1_1_5,n3915__1_3_1_1_5_1
n3918__1_3_1_1_8,n3918__1_3_1_1_8_1
n3920__1_3_1_1_5,n3920__1_3_1_1_5_1
n3924__1_3_1_1_5,n3924__1_3_1_1_5_1
n3925__1_3_1_1_5,n3925__1_3_1_1_5_1
n3926__1_3_1_1_6,n3926__1_3_1_1_6_1
n3930__1_3_1_1_6,n3930__1_3_1_1_6_1
n3932__1_3_1_1_8,n3932__1_3_1_1_8_1
n3933__1_3_1_1_7,n3933__1_3_1_1_7_1
n3935__1_3_1_1_4,n3935__1_3_1_1_4_1
n3938__1_3_1_1_5,n3938__1_3_1_1_5_1
n3939__1_3_1_1_6,n3939__1_3_1_1_6_1
n3941__1_3_1_1_4,n3941__1_3_1_1_4_1
n3943__1_3_1_1_5,n3943__1_3_1_1_5_1
n3945__1_3_1_1_5,n3945__1_3_1_1_5_1
n3946__1_3_1_1_5,n3946__1_3_1_1_5_1
n3948__1_3_1_1_4,n3948__1_3_1_1_4_1
n3951__1_3_1_1_8,n3951__1_3_1_1_8_1
n3952__1_3_1_1_7,n3952__1_3_1_1_7_1
n3953__1_3_1_1_7,n3953__1_3_1_1_7_1
n3955__1_3_1_1_6,n3955__1_3_1_1_6_1
n3956__1_3_1_1_5,n3956__1_3_1_1_5_1
n3959__1_3_1_1_8,n3959__1_3_1_1_8_1
n3962__1_3_1_1_5,n3962__1_3_1_1_5_1
n3963__1_3_1_1_7,n3963__1_3_1_1_7_1
n3965__1_3_1_1_5,n3965__1_3_1_1_5_1
n3966__1_3_1_1_6,n3966__1_3_1_1_6_1
n3967__1_3_1_1_7,n3967__1_3_1_1_7_1
n3972__1_3_1_1_7,n3972__1_3_1_1_7_1
n3973__1_3_1_1_6,n3973__1_3_1_1_6_1
n3975__1_3_1_1_5,n3975__1_3_1_1_5_1
n3976__1_3_1_1_7,n3976__1_3_1_1_7_1
n3977__1_3_1_1_6,n3977__1_3_1_1_6_1
n3978__1_3_1_1_6,n3978__1_3_1_1_6_1
n3979__1_3_1_1_6,n3979__1_3_1_1_6_1
n3980__1_3_1_1_7,n3980__1_3_1_1_7_1
n3983__1_3_1_1_4,n3983__1_3_1_1_4_1
n3985__1_3_1_1_7,n3985__1_3_1_1_7_1
n3986__1_3_1_1_6,n3986__1_3_1_1_6_1
n3987__1_3_1_1_5,n3987__1_3_1_1_5_1
n3990__1_3_1_1_7,n3990__1_3_1_1_7_1
n3991__1_3_1_1_6,n3991__1_3_1_1_6_1
n3992__1_3_1_1_7,n3992__1_3_1_1_7_1
n3994__1_3_1_1_6,n3994__1_3_1_1_6_1
n3996__1_3_1_1_7,n3996__1_3_1_1_7_1
n3997__1_3_1_1_6,n3997__1_3_1_1_6_1
n3998__1_3_1_1_6,n3998__1_3_1_1_6_1
n3999__1_3_1_1_5,n3999__1_3_1_1_5_1
n4004__1_3_1_1_6,n4004__1_3_1_1_6_1
n4008__1_3_1_1_6,n4008__1_3_1_1_6_1
n4011__1_3_1_1_7,n4011__1_3_1_1_7_1
n4015__1_3_1_1_6,n4015__1_3_1_1_6_1
n4017__1_3_1_1_6,n4017__1_3_1_1_6_1
n4020__1_3_1_1_7,n4020__1_3_1_1_7_1
n4021__1_3_1_1_6,n4021__1_3_1_1_6_1
n4022__1_3_1_1_8,n4022__1_3_1_1_8_1
n4023__1_3_1_1_6,n4023__1_3_1_1_6_1
n4024__1_3_1_1_7,n4024__1_3_1_1_7_1
n4025__1_3_1_1_7,n4025__1_3_1_1_7_1
n4027__1_3_1_1_6,n4027__1_3_1_1_6_1
n4031__1_3_1_1_5,n4031__1_3_1_1_5_1
n4032__1_3_1_1_7,n4032__1_3_1_1_7_1
n4033__1_3_1_1_6,n4033__1_3_1_1_6_1
n4036__1_3_1_1_8,n4036__1_3_1_1_8_1
n4037__1_3_1_1_6,n4037__1_3_1_1_6_1
n4038__1_3_1_1_8,n4038__1_3_1_1_8_1
n4042__1_3_1_1_6,n4042__1_3_1_1_6_1
n4043__1_3_1_1_4,n4043__1_3_1_1_4_1
n4045__1_3_1_1_6,n4045__1_3_1_1_6_1
n4049__1_3_1_1_5,n4049__1_3_1_1_5_1
n4050__1_3_1_1_5,n4050__1_3_1_1_5_1
n4051__1_3_1_1_6,n4051__1_3_1_1_6_1
n4052__1_3_1_1_6,n4052__1_3_1_1_6_1
n4055__1_3_1_1_7,n4055__1_3_1_1_7_1
n4057__1_3_1_1_7,n4057__1_3_1_1_7_1
n4060__1_3_1_1_5,n4060__1_3_1_1_5_1
n4061__1_3_1_1_7,n4061__1_3_1_1_7_1
n4063__1_3_1_1_6,n4063__1_3_1_1_6_1
n4066__1_3_1_1_5,n4066__1_3_1_1_5_1
n4075__1_3_1_1_6,n4075__1_3_1_1_6_1
n4076__1_3_1_1_6,n4076__1_3_1_1_6_1
n4077__1_3_1_1_5,n4077__1_3_1_1_5_1
n4080__1_3_1_1_6,n4080__1_3_1_1_6_1
n4082__1_3_1_1_7,n4082__1_3_1_1_7_1
n4085__1_3_1_1_7,n4085__1_3_1_1_7_1
n4086__1_3_1_1_5,n4086__1_3_1_1_5_1
n4089__1_3_1_1_7,n4089__1_3_1_1_7_1
n4090__1_3_1_1_6,n4090__1_3_1_1_6_1
n4091__1_3_1_1_8,n4091__1_3_1_1_8_1
n4094__1_3_1_1_4,n4094__1_3_1_1_4_1
n4095__1_3_1_1_6,n4095__1_3_1_1_6_1
n4096__1_3_1_1_6,n4096__1_3_1_1_6_1
n4097__1_3_1_1_6,n4097__1_3_1_1_6_1
n4098__1_3_1_1_5,n4098__1_3_1_1_5_1
n4100__1_3_1_1_5,n4100__1_3_1_1_5_1
n4101__1_3_1_1_6,n4101__1_3_1_1_6_1
n4102__1_3_1_1_5,n4102__1_3_1_1_5_1
n4103__1_3_1_1_6,n4103__1_3_1_1_6_1
n4104__1_3_1_1_7,n4104__1_3_1_1_7_1
n4107__1_3_1_1_5,n4107__1_3_1_1_5_1
n4110__1_3_1_1_5,n4110__1_3_1_1_5_1
n4112__1_3_1_1_6,n4112__1_3_1_1_6_1
n4113__1_3_1_1_6,n4113__1_3_1_1_6_1
n4116__1_3_1_1_6,n4116__1_3_1_1_6_1
n4117__1_3_1_1_7,n4117__1_3_1_1_7_1
n4118__1_3_1_1_7,n4118__1_3_1_1_7_1
n4119__1_3_1_1_6,n4119__1_3_1_1_6_1
n4121__1_3_1_1_7,n4121__1_3_1_1_7_1
n4123__1_3_1_1_6,n4123__1_3_1_1_6_1
n4126__1_3_1_1_6,n4126__1_3_1_1_6_1
n4133__1_3_1_1_6,n4133__1_3_1_1_6_1
n4134__1_3_1_1_7,n4134__1_3_1_1_7_1
n4135__1_3_1_1_5,n4135__1_3_1_1_5_1
n4136__1_3_1_1_7,n4136__1_3_1_1_7_1
n4137__1_3_1_1_6,n4137__1_3_1_1_6_1
n4138__1_3_1_1_7,n4138__1_3_1_1_7_1
n4139__1_3_1_1_7,n4139__1_3_1_1_7_1
n4144__1_3_1_1_7,n4144__1_3_1_1_7_1
n4145__1_3_1_1_8,n4145__1_3_1_1_8_1
n4146__1_3_1_1_6,n4146__1_3_1_1_6_1
n4147__1_3_1_1_7,n4147__1_3_1_1_7_1
n4148__1_3_1_1_5,n4148__1_3_1_1_5_1
n4150__1_3_1_1_5,n4150__1_3_1_1_5_1
n4153__1_3_1_1_7,n4153__1_3_1_1_7_1
n4154__1_3_1_1_6,n4154__1_3_1_1_6_1
n4155__1_3_1_1_5,n4155__1_3_1_1_5_1
n4157__1_3_1_1_5,n4157__1_3_1_1_5_1
n4158__1_3_1_1_7,n4158__1_3_1_1_7_1
n4160__1_3_1_1_8,n4160__1_3_1_1_8_1
n4161__1_3_1_1_6,n4161__1_3_1_1_6_1
n4163__1_3_1_1_6,n4163__1_3_1_1_6_1
n4164__1_3_1_1_5,n4164__1_3_1_1_5_1
n4170__1_3_1_1_8,n4170__1_3_1_1_8_1
n4172__1_3_1_1_5,n4172__1_3_1_1_5_1
n4173__1_3_1_1_6,n4173__1_3_1_1_6_1
n4178__1_3_1_1_7,n4178__1_3_1_1_7_1
n4180__1_3_1_1_4,n4180__1_3_1_1_4_1
n4183__1_3_1_1_5,n4183__1_3_1_1_5_1
n4186__1_3_1_1_7,n4186__1_3_1_1_7_1
n4187__1_3_1_1_6,n4187__1_3_1_1_6_1
n4188__1_3_1_1_6,n4188__1_3_1_1_6_1
n4189__1_3_1_1_5,n4189__1_3_1_1_5_1
n4190__1_3_1_1_7,n4190__1_3_1_1_7_1
n4191__1_3_1_1_7,n4191__1_3_1_1_7_1
n4192__1_3_1_1_7,n4192__1_3_1_1_7_1
n4198__1_3_1_1_6,n4198__1_3_1_1_6_1
n4200__1_3_1_1_7,n4200__1_3_1_1_7_1
n4201__1_3_1_1_5,n4201__1_3_1_1_5_1
n4203__1_3_1_1_5,n4203__1_3_1_1_5_1
n4206__1_3_1_1_7,n4206__1_3_1_1_7_1
n4207__1_3_1_1_7,n4207__1_3_1_1_7_1
n4208__1_3_1_1_7,n4208__1_3_1_1_7_1
n4212__1_3_1_1_8,n4212__1_3_1_1_8_1
n4213__1_3_1_1_6,n4213__1_3_1_1_6_1
n4215__1_3_1_1_6,n4215__1_3_1_1_6_1
n4216__1_3_1_1_5,n4216__1_3_1_1_5_1
n4218__1_3_1_1_6,n4218__1_3_1_1_6_1
n4220__1_3_1_1_8,n4220__1_3_1_1_8_1
n4221__1_3_1_1_6,n4221__1_3_1_1_6_1
n4222__1_3_1_1_6,n4222__1_3_1_1_6_1
n4223__1_3_1_1_7,n4223__1_3_1_1_7_1
n4228__1_3_1_1_5,n4228__1_3_1_1_5_1
n4229__1_3_1_1_4,n4229__1_3_1_1_4_1
n4230__1_3_1_1_5,n4230__1_3_1_1_5_1
n4235__1_3_1_1_7,n4235__1_3_1_1_7_1
n4236__1_3_1_1_7,n4236__1_3_1_1_7_1
n4237__1_3_1_1_7,n4237__1_3_1_1_7_1
n4239__1_3_1_1_6,n4239__1_3_1_1_6_1
n4247__1_3_1_1_6,n4247__1_3_1_1_6_1
n4248__1_3_1_1_6,n4248__1_3_1_1_6_1
n4251__1_3_1_1_7,n4251__1_3_1_1_7_1
n4253__1_3_1_1_6,n4253__1_3_1_1_6_1
n4254__1_3_1_1_5,n4254__1_3_1_1_5_1
n4255__1_3_1_1_4,n4255__1_3_1_1_4_1
n4256__1_3_1_1_6,n4256__1_3_1_1_6_1
n4257__1_3_1_1_6,n4257__1_3_1_1_6_1
n4263__1_3_1_1_7,n4263__1_3_1_1_7_1
n4266__1_3_1_1_6,n4266__1_3_1_1_6_1
n4267__1_3_1_1_8,n4267__1_3_1_1_8_1
n4272__1_3_1_1_6,n4272__1_3_1_1_6_1
n4273__1_3_1_1_8,n4273__1_3_1_1_8_1
n4274__1_3_1_1_6,n4274__1_3_1_1_6_1
n4278__1_3_1_1_7,n4278__1_3_1_1_7_1
n4279__1_3_1_1_5,n4279__1_3_1_1_5_1
n4281__1_3_1_1_8,n4281__1_3_1_1_8_1
n4282__1_3_1_1_5,n4282__1_3_1_1_5_1
n4283__1_3_1_1_6,n4283__1_3_1_1_6_1
n4285__1_3_1_1_6,n4285__1_3_1_1_6_1
n4286__1_3_1_1_7,n4286__1_3_1_1_7_1
n4287__1_3_1_1_5,n4287__1_3_1_1_5_1
n4290__1_3_1_1_6,n4290__1_3_1_1_6_1
n4292__1_3_1_1_7,n4292__1_3_1_1_7_1
n4294__1_3_1_1_6,n4294__1_3_1_1_6_1
n4296__1_3_1_1_7,n4296__1_3_1_1_7_1
n4297__1_3_1_1_7,n4297__1_3_1_1_7_1
n4298__1_3_1_1_7,n4298__1_3_1_1_7_1
n4300__1_3_1_1_6,n4300__1_3_1_1_6_1
n4305__1_3_1_1_6,n4305__1_3_1_1_6_1
n4306__1_3_1_1_7,n4306__1_3_1_1_7_1
n4307__1_3_1_1_4,n4307__1_3_1_1_4_1
n4308__1_3_1_1_7,n4308__1_3_1_1_7_1
n4309__1_3_1_1_7,n4309__1_3_1_1_7_1
n4313__1_3_1_1_8,n4313__1_3_1_1_8_1
n4314__1_3_1_1_7,n4314__1_3_1_1_7_1
n4316__1_3_1_1_6,n4316__1_3_1_1_6_1
n4318__1_3_1_1_6,n4318__1_3_1_1_6_1
n4320__1_3_1_1_6,n4320__1_3_1_1_6_1
n4321__1_3_1_1_7,n4321__1_3_1_1_7_1
n4324__1_3_1_1_6,n4324__1_3_1_1_6_1
n4326__1_3_1_1_6,n4326__1_3_1_1_6_1
n4328__1_3_1_1_8,n4328__1_3_1_1_8_1
n4331__1_3_1_1_5,n4331__1_3_1_1_5_1
n4336__1_3_1_1_7,n4336__1_3_1_1_7_1
n4338__1_3_1_1_7,n4338__1_3_1_1_7_1
n4339__1_3_1_1_4,n4339__1_3_1_1_4_1
n4344__1_3_1_1_7,n4344__1_3_1_1_7_1
n4346__1_3_1_1_6,n4346__1_3_1_1_6_1
n4347__1_3_1_1_6,n4347__1_3_1_1_6_1
n4348__1_3_1_1_7,n4348__1_3_1_1_7_1
n4354__1_3_1_1_7,n4354__1_3_1_1_7_1
n4356__1_3_1_1_6,n4356__1_3_1_1_6_1
n4358__1_3_1_1_6,n4358__1_3_1_1_6_1
n4360__1_3_1_1_7,n4360__1_3_1_1_7_1
n4362__1_3_1_1_8,n4362__1_3_1_1_8_1
n4364__1_3_1_1_7,n4364__1_3_1_1_7_1
n4368__1_3_1_1_4,n4368__1_3_1_1_4_1
n4369__1_3_1_1_6,n4369__1_3_1_1_6_1
n4370__1_3_1_1_7,n4370__1_3_1_1_7_1
n4371__1_3_1_1_7,n4371__1_3_1_1_7_1
n4373__1_3_1_1_7,n4373__1_3_1_1_7_1
n4375__1_3_1_1_6,n4375__1_3_1_1_6_1
n4377__1_3_1_1_6,n4377__1_3_1_1_6_1
n4378__1_3_1_1_5,n4378__1_3_1_1_5_1
n4381__1_3_1_1_7,n4381__1_3_1_1_7_1
n4384__1_3_1_1_5,n4384__1_3_1_1_5_1
n4386__1_3_1_1_7,n4386__1_3_1_1_7_1
n4388__1_3_1_1_8,n4388__1_3_1_1_8_1
n4390__1_3_1_1_7,n4390__1_3_1_1_7_1
n4392__1_3_1_1_6,n4392__1_3_1_1_6_1
n4395__1_3_1_1_6,n4395__1_3_1_1_6_1
n4396__1_3_1_1_4,n4396__1_3_1_1_4_1
n4397__1_3_1_1_6,n4397__1_3_1_1_6_1
n4398__1_3_1_1_6,n4398__1_3_1_1_6_1
n4402__1_3_1_1_8,n4402__1_3_1_1_8_1
n4406__1_3_1_1_6,n4406__1_3_1_1_6_1
n4408__1_3_1_1_5,n4408__1_3_1_1_5_1
n4410__1_3_1_1_6,n4410__1_3_1_1_6_1
n4411__1_3_1_1_6,n4411__1_3_1_1_6_1
n4415__1_3_1_1_5,n4415__1_3_1_1_5_1
n4418__1_3_1_1_5,n4418__1_3_1_1_5_1
n4422__1_3_1_1_6,n4422__1_3_1_1_6_1
n4423__1_3_1_1_6,n4423__1_3_1_1_6_1
n4424__1_3_1_1_5,n4424__1_3_1_1_5_1
n4426__1_3_1_1_4,n4426__1_3_1_1_4_1
n4427__1_3_1_1_6,n4427__1_3_1_1_6_1
n4428__1_3_1_1_6,n4428__1_3_1_1_6_1
n4429__1_3_1_1_8,n4429__1_3_1_1_8_1
n4434__1_3_1_1_5,n4434__1_3_1_1_5_1
n4436__1_3_1_1_5,n4436__1_3_1_1_5_1
n4438__1_3_1_1_5,n4438__1_3_1_1_5_1
n4440__1_3_1_1_7,n4440__1_3_1_1_7_1
n4442__1_3_1_1_6,n4442__1_3_1_1_6_1
n4443__1_3_1_1_7,n4443__1_3_1_1_7_1
n4444__1_3_1_1_7,n4444__1_3_1_1_7_1
n4445__1_3_1_1_8,n4445__1_3_1_1_8_1
n4448__1_3_1_1_6,n4448__1_3_1_1_6_1
n4451__1_3_1_1_5,n4451__1_3_1_1_5_1
n4456__1_3_1_1_6,n4456__1_3_1_1_6_1
n4461__1_3_1_1_7,n4461__1_3_1_1_7_1
n4462__1_3_1_1_6,n4462__1_3_1_1_6_1
n4464__1_3_1_1_7,n4464__1_3_1_1_7_1
n4465__1_3_1_1_5,n4465__1_3_1_1_5_1
n4466__1_3_1_1_6,n4466__1_3_1_1_6_1
n4467__1_3_1_1_8,n4467__1_3_1_1_8_1
n4468__1_3_1_1_7,n4468__1_3_1_1_7_1
n4470__1_3_1_1_6,n4470__1_3_1_1_6_1
n4474__1_3_1_1_6,n4474__1_3_1_1_6_1
n4475__1_3_1_1_5,n4475__1_3_1_1_5_1
n4476__1_3_1_1_6,n4476__1_3_1_1_6_1
n4481__1_3_1_1_5,n4481__1_3_1_1_5_1
n4482__1_3_1_1_5,n4482__1_3_1_1_5_1
n4485__1_3_1_1_6,n4485__1_3_1_1_6_1
n4486__1_3_1_1_5,n4486__1_3_1_1_5_1
n4488__1_3_1_1_4,n4488__1_3_1_1_4_1
n4489__1_3_1_1_5,n4489__1_3_1_1_5_1
n4491__1_3_1_1_6,n4491__1_3_1_1_6_1
n4494__1_3_1_1_7,n4494__1_3_1_1_7_1
n4497__1_3_1_1_4,n4497__1_3_1_1_4_1
n4501__1_3_1_1_6,n4501__1_3_1_1_6_1
n4502__1_3_1_1_7,n4502__1_3_1_1_7_1
n4503__1_3_1_1_6,n4503__1_3_1_1_6_1
n4504__1_3_1_1_5,n4504__1_3_1_1_5_1
n4510__1_3_1_1_6,n4510__1_3_1_1_6_1
n4513__1_3_1_1_7,n4513__1_3_1_1_7_1
n4515__1_3_1_1_6,n4515__1_3_1_1_6_1
n4516__1_3_1_1_5,n4516__1_3_1_1_5_1
n4517__1_3_1_1_6,n4517__1_3_1_1_6_1
n4518__1_3_1_1_7,n4518__1_3_1_1_7_1
n4520__1_3_1_1_5,n4520__1_3_1_1_5_1
n4522__1_3_1_1_6,n4522__1_3_1_1_6_1
n4523__1_3_1_1_7,n4523__1_3_1_1_7_1
n4524__1_3_1_1_5,n4524__1_3_1_1_5_1
n4527__1_3_1_1_7,n4527__1_3_1_1_7_1
n4528__1_3_1_1_5,n4528__1_3_1_1_5_1
n4529__1_3_1_1_5,n4529__1_3_1_1_5_1
n4531__1_3_1_1_6,n4531__1_3_1_1_6_1
n4532__1_3_1_1_4,n4532__1_3_1_1_4_1
n4533__1_3_1_1_4,n4533__1_3_1_1_4_1
n4534__1_3_1_1_6,n4534__1_3_1_1_6_1
n4537__1_3_1_1_6,n4537__1_3_1_1_6_1
n4540__1_3_1_1_5,n4540__1_3_1_1_5_1
n4541__1_3_1_1_4,n4541__1_3_1_1_4_1
n4543__1_3_1_1_4,n4543__1_3_1_1_4_1
n4545__1_3_1_1_5,n4545__1_3_1_1_5_1
n4547__1_3_1_1_6,n4547__1_3_1_1_6_1
n4549__1_3_1_1_7,n4549__1_3_1_1_7_1
n4554__1_3_1_1_5,n4554__1_3_1_1_5_1
n4555__1_3_1_1_5,n4555__1_3_1_1_5_1
n4556__1_3_1_1_5,n4556__1_3_1_1_5_1
n4560__1_3_1_1_6,n4560__1_3_1_1_6_1
n4562__1_3_1_1_5,n4562__1_3_1_1_5_1
n4564__1_3_1_1_5,n4564__1_3_1_1_5_1
n4565__1_3_1_1_6,n4565__1_3_1_1_6_1
n4567__1_3_1_1_5,n4567__1_3_1_1_5_1
n4568__1_3_1_1_6,n4568__1_3_1_1_6_1
n4570__1_3_1_1_6,n4570__1_3_1_1_6_1
n4573__1_3_1_1_7,n4573__1_3_1_1_7_1
n4574__1_3_1_1_5,n4574__1_3_1_1_5_1
n4578__1_3_1_1_4,n4578__1_3_1_1_4_1
n4580__1_3_1_1_6,n4580__1_3_1_1_6_1
n4582__1_3_1_1_6,n4582__1_3_1_1_6_1
n4583__1_3_1_1_7,n4583__1_3_1_1_7_1
n4586__1_3_1_1_6,n4586__1_3_1_1_6_1
n4588__1_3_1_1_7,n4588__1_3_1_1_7_1
n4589__1_3_1_1_6,n4589__1_3_1_1_6_1
n4590__1_3_1_1_5,n4590__1_3_1_1_5_1
n4593__1_3_1_1_5,n4593__1_3_1_1_5_1
n4594__1_3_1_1_7,n4594__1_3_1_1_7_1
n4595__1_3_1_1_6,n4595__1_3_1_1_6_1
n4597__1_3_1_1_4,n4597__1_3_1_1_4_1
n4602__1_3_1_1_6,n4602__1_3_1_1_6_1
n4605__1_3_1_1_7,n4605__1_3_1_1_7_1
n4611__1_3_1_1_5,n4611__1_3_1_1_5_1
n4615__1_3_1_1_7,n4615__1_3_1_1_7_1
n4622__1_3_1_1_6,n4622__1_3_1_1_6_1
n4623__1_3_1_1_5,n4623__1_3_1_1_5_1
n4624__1_3_1_1_7,n4624__1_3_1_1_7_1
n4626__1_3_1_1_4,n4626__1_3_1_1_4_1
n4627__1_3_1_1_7,n4627__1_3_1_1_7_1
n4629__1_3_1_1_6,n4629__1_3_1_1_6_1
n4630__1_3_1_1_6,n4630__1_3_1_1_6_1
n4631__1_3_1_1_4,n4631__1_3_1_1_4_1
n4633__1_3_1_1_6,n4633__1_3_1_1_6_1
n4635__1_3_1_1_4,n4635__1_3_1_1_4_1
n4637__1_3_1_1_7,n4637__1_3_1_1_7_1
n4641__1_3_1_1_6,n4641__1_3_1_1_6_1
n4643__1_3_1_1_7,n4643__1_3_1_1_7_1
n4645__1_3_1_1_5,n4645__1_3_1_1_5_1
n4646__1_3_1_1_5,n4646__1_3_1_1_5_1
n4647__1_3_1_1_5,n4647__1_3_1_1_5_1
n4649__1_3_1_1_6,n4649__1_3_1_1_6_1
n4654__1_3_1_1_6,n4654__1_3_1_1_6_1
n4656__1_3_1_1_4,n4656__1_3_1_1_4_1
n4660__1_3_1_1_6,n4660__1_3_1_1_6_1
n4661__1_3_1_1_6,n4661__1_3_1_1_6_1
n4664__1_3_1_1_6,n4664__1_3_1_1_6_1
n4669__1_3_1_1_5,n4669__1_3_1_1_5_1
n4671__1_3_1_1_4,n4671__1_3_1_1_4_1
n4672__1_3_1_1_6,n4672__1_3_1_1_6_1
n4673__1_3_1_1_6,n4673__1_3_1_1_6_1
n4675__1_3_1_1_5,n4675__1_3_1_1_5_1
n4676__1_3_1_1_5,n4676__1_3_1_1_5_1
n4679__1_3_1_1_5,n4679__1_3_1_1_5_1
n4682__1_3_1_1_5,n4682__1_3_1_1_5_1
n4684__1_3_1_1_7,n4684__1_3_1_1_7_1
n4685__1_3_1_1_5,n4685__1_3_1_1_5_1
n4686__1_3_1_1_7,n4686__1_3_1_1_7_1
n4687__1_3_1_1_5,n4687__1_3_1_1_5_1
n4688__1_3_1_1_7,n4688__1_3_1_1_7_1
n4691__1_3_1_1_6,n4691__1_3_1_1_6_1
n4693__1_3_1_1_6,n4693__1_3_1_1_6_1
n4695__1_3_1_1_6,n4695__1_3_1_1_6_1
n4697__1_3_1_1_7,n4697__1_3_1_1_7_1
n4699__1_3_1_1_5,n4699__1_3_1_1_5_1
n4701__1_3_1_1_5,n4701__1_3_1_1_5_1
n4703__1_3_1_1_7,n4703__1_3_1_1_7_1
n4704__1_3_1_1_4,n4704__1_3_1_1_4_1
n4705__1_3_1_1_5,n4705__1_3_1_1_5_1
n4707__1_3_1_1_5,n4707__1_3_1_1_5_1
n4710__1_3_1_1_6,n4710__1_3_1_1_6_1
n4711__1_3_1_1_4,n4711__1_3_1_1_4_1
n4714__1_3_1_1_6,n4714__1_3_1_1_6_1
n4715__1_3_1_1_6,n4715__1_3_1_1_6_1
n4716__1_3_1_1_6,n4716__1_3_1_1_6_1
n4717__1_3_1_1_6,n4717__1_3_1_1_6_1
n4719__1_3_1_1_5,n4719__1_3_1_1_5_1
n4721__1_3_1_1_6,n4721__1_3_1_1_6_1
n4722__1_3_1_1_7,n4722__1_3_1_1_7_1
n4728__1_3_1_1_5,n4728__1_3_1_1_5_1
n4729__1_3_1_1_5,n4729__1_3_1_1_5_1
n4731__1_3_1_1_8,n4731__1_3_1_1_8_1
n4733__1_3_1_1_6,n4733__1_3_1_1_6_1
n4734__1_3_1_1_5,n4734__1_3_1_1_5_1
n4736__1_3_1_1_7,n4736__1_3_1_1_7_1
n4740__1_3_1_1_8,n4740__1_3_1_1_8_1
n4741__1_3_1_1_7,n4741__1_3_1_1_7_1
n4743__1_3_1_1_6,n4743__1_3_1_1_6_1
n4744__1_3_1_1_7,n4744__1_3_1_1_7_1
n4745__1_3_1_1_8,n4745__1_3_1_1_8_1
n4746__1_3_1_1_5,n4746__1_3_1_1_5_1
n4749__1_3_1_1_7,n4749__1_3_1_1_7_1
n4752__1_3_1_1_8,n4752__1_3_1_1_8_1
n4753__1_3_1_1_6,n4753__1_3_1_1_6_1
n4755__1_3_1_1_5,n4755__1_3_1_1_5_1
n4756__1_3_1_1_7,n4756__1_3_1_1_7_1
n4757__1_3_1_1_5,n4757__1_3_1_1_5_1
n4759__1_3_1_1_5,n4759__1_3_1_1_5_1
n4760__1_3_1_1_6,n4760__1_3_1_1_6_1
n4761__1_3_1_1_6,n4761__1_3_1_1_6_1
n4762__1_3_1_1_4,n4762__1_3_1_1_4_1
n4763__1_3_1_1_6,n4763__1_3_1_1_6_1
n4765__1_3_1_1_6,n4765__1_3_1_1_6_1
n4773__1_3_1_1_6,n4773__1_3_1_1_6_1
n4774__1_3_1_1_6,n4774__1_3_1_1_6_1
n4776__1_3_1_1_7,n4776__1_3_1_1_7_1
n4777__1_3_1_1_5,n4777__1_3_1_1_5_1
n4778__1_3_1_1_7,n4778__1_3_1_1_7_1
n4779__1_3_1_1_6,n4779__1_3_1_1_6_1
n4780__1_3_1_1_5,n4780__1_3_1_1_5_1
n4782__1_3_1_1_7,n4782__1_3_1_1_7_1
n4784__1_3_1_1_4,n4784__1_3_1_1_4_1
n4786__1_3_1_1_7,n4786__1_3_1_1_7_1
n4788__1_3_1_1_6,n4788__1_3_1_1_6_1
n4789__1_3_1_1_7,n4789__1_3_1_1_7_1
n4790__1_3_1_1_6,n4790__1_3_1_1_6_1
n4794__1_3_1_1_6,n4794__1_3_1_1_6_1
n4801__1_3_1_1_7,n4801__1_3_1_1_7_1
n4807__1_3_1_1_6,n4807__1_3_1_1_6_1
n4808__1_3_1_1_6,n4808__1_3_1_1_6_1
n4813__1_3_1_1_5,n4813__1_3_1_1_5_1
n4814__1_3_1_1_5,n4814__1_3_1_1_5_1
n4816__1_3_1_1_5,n4816__1_3_1_1_5_1
n4820__1_3_1_1_6,n4820__1_3_1_1_6_1
n4821__1_3_1_1_7,n4821__1_3_1_1_7_1
n4822__1_3_1_1_7,n4822__1_3_1_1_7_1
n4823__1_3_1_1_8,n4823__1_3_1_1_8_1
n4824__1_3_1_1_4,n4824__1_3_1_1_4_1
n4825__1_3_1_1_6,n4825__1_3_1_1_6_1
n4827__1_3_1_1_6,n4827__1_3_1_1_6_1
n4828__1_3_1_1_4,n4828__1_3_1_1_4_1
n4830__1_3_1_1_4,n4830__1_3_1_1_4_1
n4831__1_3_1_1_6,n4831__1_3_1_1_6_1
n4832__1_3_1_1_6,n4832__1_3_1_1_6_1
n4834__1_3_1_1_5,n4834__1_3_1_1_5_1
n4837__1_3_1_1_4,n4837__1_3_1_1_4_1
n4838__1_3_1_1_5,n4838__1_3_1_1_5_1
n4844__1_3_1_1_4,n4844__1_3_1_1_4_1
n4845__1_3_1_1_6,n4845__1_3_1_1_6_1
n4846__1_3_1_1_5,n4846__1_3_1_1_5_1
n4849__1_3_1_1_5,n4849__1_3_1_1_5_1
n4850__1_3_1_1_6,n4850__1_3_1_1_6_1
n4851__1_3_1_1_5,n4851__1_3_1_1_5_1
n4853__1_3_1_1_7,n4853__1_3_1_1_7_1
n4855__1_3_1_1_5,n4855__1_3_1_1_5_1
n4858__1_3_1_1_5,n4858__1_3_1_1_5_1
n4859__1_3_1_1_6,n4859__1_3_1_1_6_1
n4861__1_3_1_1_7,n4861__1_3_1_1_7_1
n4862__1_3_1_1_6,n4862__1_3_1_1_6_1
n4864__1_3_1_1_6,n4864__1_3_1_1_6_1
n4868__1_3_1_1_7,n4868__1_3_1_1_7_1
n4869__1_3_1_1_6,n4869__1_3_1_1_6_1
n4871__1_3_1_1_6,n4871__1_3_1_1_6_1
n4872__1_3_1_1_4,n4872__1_3_1_1_4_1
n4873__1_3_1_1_5,n4873__1_3_1_1_5_1
n4875__1_3_1_1_6,n4875__1_3_1_1_6_1
n4876__1_3_1_1_7,n4876__1_3_1_1_7_1
n4879__1_3_1_1_4,n4879__1_3_1_1_4_1
n4880__1_3_1_1_5,n4880__1_3_1_1_5_1
n4881__1_3_1_1_5,n4881__1_3_1_1_5_1
n4883__1_3_1_1_6,n4883__1_3_1_1_6_1
n4884__1_3_1_1_7,n4884__1_3_1_1_7_1
n4887__1_3_1_1_6,n4887__1_3_1_1_6_1
n4888__1_3_1_1_5,n4888__1_3_1_1_5_1
n4889__1_3_1_1_5,n4889__1_3_1_1_5_1
n4893__1_3_1_1_5,n4893__1_3_1_1_5_1
n4894__1_3_1_1_6,n4894__1_3_1_1_6_1
n4897__1_3_1_1_5,n4897__1_3_1_1_5_1
n4898__1_3_1_1_7,n4898__1_3_1_1_7_1
n4900__1_3_1_1_6,n4900__1_3_1_1_6_1
n4901__1_3_1_1_7,n4901__1_3_1_1_7_1
n4903__1_3_1_1_6,n4903__1_3_1_1_6_1
n4904__1_3_1_1_6,n4904__1_3_1_1_6_1
n4905__1_3_1_1_7,n4905__1_3_1_1_7_1
n4906__1_3_1_1_6,n4906__1_3_1_1_6_1
n4907__1_3_1_1_6,n4907__1_3_1_1_6_1
n4909__1_3_1_1_6,n4909__1_3_1_1_6_1
n4912__1_3_1_1_5,n4912__1_3_1_1_5_1
n4915__1_3_1_1_5,n4915__1_3_1_1_5_1
n4918__1_3_1_1_7,n4918__1_3_1_1_7_1
n4920__1_3_1_1_7,n4920__1_3_1_1_7_1
n4921__1_3_1_1_8,n4921__1_3_1_1_8_1
n4922__1_3_1_1_5,n4922__1_3_1_1_5_1
n4923__1_3_1_1_7,n4923__1_3_1_1_7_1
n4925__1_3_1_1_7,n4925__1_3_1_1_7_1
