n1__1_3_1_1_1_13_1,n1__1_3_1_1_1_13_1_1
n2__1_3_1_1_1_17_1,n2__1_3_1_1_1_17_1_1
n4__1_3_1_1_1_9_1,n4__1_3_1_1_1_9_1_1
n5__1_3_1_1_1_10_1,n5__1_3_1_1_1_10_1_1
n8__1_3_1_1_1_11_1,n8__1_3_1_1_1_11_1_1
n8__1_3_1_1_1_11_2,n8__1_3_1_1_1_11_2_1
n9__1_3_1_1_1_10_1,n9__1_3_1_1_1_10_1_1
n11__1_3_1_1_1_14_1,n11__1_3_1_1_1_14_1_1
n11__1_3_1_1_1_14_2,n11__1_3_1_1_1_14_2_1
n12__1_3_1_1_1_10_1,n12__1_3_1_1_1_10_1_1
n12__1_3_1_1_1_10_2,n12__1_3_1_1_1_10_2_1
n16__1_3_1_1_1_9_1,n16__1_3_1_1_1_9_1_1
n17__1_3_1_1_1_12_1,n17__1_3_1_1_1_12_1_1
n17__1_3_1_1_1_12_2,n17__1_3_1_1_1_12_2_1
n18__1_3_1_1_1_10_1,n18__1_3_1_1_1_10_1_1
n18__1_3_1_1_1_10_2,n18__1_3_1_1_1_10_2_1
n23__1_3_1_1_1_10_1,n23__1_3_1_1_1_10_1_1
n24__1_3_1_1_1_11_1,n24__1_3_1_1_1_11_1_1
n25__1_3_1_1_1_15_1,n25__1_3_1_1_1_15_1_1
n26__1_3_1_1_1_18_1,n26__1_3_1_1_1_18_1_1
n27__1_3_1_1_1_9_1,n27__1_3_1_1_1_9_1_1
n30__1_3_1_1_1_8_1,n30__1_3_1_1_1_8_1_1
n30__1_3_1_1_1_8_2,n30__1_3_1_1_1_8_2_1
n30__1_3_1_1_1_8_3,n30__1_3_1_1_1_8_3_1
n31__1_3_1_1_1_18_1,n31__1_3_1_1_1_18_1_1
n32__1_3_1_1_1_9_1,n32__1_3_1_1_1_9_1_1
n33__1_3_1_1_1_10_1,n33__1_3_1_1_1_10_1_1
n33__1_3_1_1_1_10_2,n33__1_3_1_1_1_10_2_1
n33__1_3_1_1_1_10_3,n33__1_3_1_1_1_10_3_1
n36__1_3_1_1_1_10_1,n36__1_3_1_1_1_10_1_1
n37__1_3_1_1_1_14_1,n37__1_3_1_1_1_14_1_1
n38__1_3_1_1_1_12_1,n38__1_3_1_1_1_12_1_1
n42__1_3_1_1_1_12_1,n42__1_3_1_1_1_12_1_1
n42__1_3_1_1_1_12_2,n42__1_3_1_1_1_12_2_1
n42__1_3_1_1_1_12_3,n42__1_3_1_1_1_12_3_1
n43__1_3_1_1_1_10_1,n43__1_3_1_1_1_10_1_1
n44__1_3_1_1_1_8_1,n44__1_3_1_1_1_8_1_1
n46__1_3_1_1_1_10_1,n46__1_3_1_1_1_10_1_1
n48__1_3_1_1_1_15_1,n48__1_3_1_1_1_15_1_1
n48__1_3_1_1_1_15_2,n48__1_3_1_1_1_15_2_1
n49__1_3_1_1_1_9_1,n49__1_3_1_1_1_9_1_1
n49__1_3_1_1_1_9_2,n49__1_3_1_1_1_9_2_1
n49__1_3_1_1_1_9_3,n49__1_3_1_1_1_9_3_1
n51__1_3_1_1_1_11_1,n51__1_3_1_1_1_11_1_1
n51__1_3_1_1_1_11_2,n51__1_3_1_1_1_11_2_1
n51__1_3_1_1_1_11_3,n51__1_3_1_1_1_11_3_1
n52__1_3_1_1_1_12_1,n52__1_3_1_1_1_12_1_1
n52__1_3_1_1_1_12_2,n52__1_3_1_1_1_12_2_1
n52__1_3_1_1_1_12_3,n52__1_3_1_1_1_12_3_1
n53__1_3_1_1_1_9_1,n53__1_3_1_1_1_9_1_1
n54__1_3_1_1_1_11_1,n54__1_3_1_1_1_11_1_1
n55__1_3_1_1_1_9_1,n55__1_3_1_1_1_9_1_1
n55__1_3_1_1_1_9_2,n55__1_3_1_1_1_9_2_1
n57__1_3_1_1_1_11_1,n57__1_3_1_1_1_11_1_1
n58__1_3_1_1_1_9_1,n58__1_3_1_1_1_9_1_1
n59__1_3_1_1_1_12_1,n59__1_3_1_1_1_12_1_1
n59__1_3_1_1_1_12_2,n59__1_3_1_1_1_12_2_1
n60__1_3_1_1_1_15_1,n60__1_3_1_1_1_15_1_1
n60__1_3_1_1_1_15_2,n60__1_3_1_1_1_15_2_1
n60__1_3_1_1_1_15_3,n60__1_3_1_1_1_15_3_1
n61__1_3_1_1_1_18_1,n61__1_3_1_1_1_18_1_1
n62__1_3_1_1_1_9_1,n62__1_3_1_1_1_9_1_1
n63__1_3_1_1_1_12_1,n63__1_3_1_1_1_12_1_1
n64__1_3_1_1_1_11_1,n64__1_3_1_1_1_11_1_1
n64__1_3_1_1_1_11_2,n64__1_3_1_1_1_11_2_1
n64__1_3_1_1_1_11_3,n64__1_3_1_1_1_11_3_1
n66__1_3_1_1_1_14_1,n66__1_3_1_1_1_14_1_1
n70__1_3_1_1_1_16_1,n70__1_3_1_1_1_16_1_1
n71__1_3_1_1_1_12_1,n71__1_3_1_1_1_12_1_1
n73__1_3_1_1_1_11_1,n73__1_3_1_1_1_11_1_1
n75__1_3_1_1_1_14_1,n75__1_3_1_1_1_14_1_1
n75__1_3_1_1_1_14_2,n75__1_3_1_1_1_14_2_1
n75__1_3_1_1_1_14_3,n75__1_3_1_1_1_14_3_1
n75__1_3_1_1_1_14_4,n75__1_3_1_1_1_14_4_1
n76__1_3_1_1_1_10_1,n76__1_3_1_1_1_10_1_1
n77__1_3_1_1_1_9_1,n77__1_3_1_1_1_9_1_1
n77__1_3_1_1_1_9_2,n77__1_3_1_1_1_9_2_1
n77__1_3_1_1_1_9_3,n77__1_3_1_1_1_9_3_1
n80__1_3_1_1_1_15_1,n80__1_3_1_1_1_15_1_1
n80__1_3_1_1_1_15_2,n80__1_3_1_1_1_15_2_1
n82__1_3_1_1_1_12_1,n82__1_3_1_1_1_12_1_1
n84__1_3_1_1_1_13_1,n84__1_3_1_1_1_13_1_1
n85__1_3_1_1_1_15_1,n85__1_3_1_1_1_15_1_1
n85__1_3_1_1_1_15_2,n85__1_3_1_1_1_15_2_1
n86__1_3_1_1_1_11_1,n86__1_3_1_1_1_11_1_1
n86__1_3_1_1_1_11_2,n86__1_3_1_1_1_11_2_1
n88__1_3_1_1_1_11_1,n88__1_3_1_1_1_11_1_1
n88__1_3_1_1_1_11_2,n88__1_3_1_1_1_11_2_1
n89__1_3_1_1_1_18_1,n89__1_3_1_1_1_18_1_1
n89__1_3_1_1_1_18_2,n89__1_3_1_1_1_18_2_1
n89__1_3_1_1_1_18_3,n89__1_3_1_1_1_18_3_1
n89__1_3_1_1_1_18_4,n89__1_3_1_1_1_18_4_1
n89__1_3_1_1_1_18_5,n89__1_3_1_1_1_18_5_1
n89__1_3_1_1_1_18_6,n89__1_3_1_1_1_18_6_1
n90__1_3_1_1_1_18_1,n90__1_3_1_1_1_18_1_1
n93__1_3_1_1_1_16_1,n93__1_3_1_1_1_16_1_1
n94__1_3_1_1_1_12_1,n94__1_3_1_1_1_12_1_1
n96__1_3_1_1_1_12_1,n96__1_3_1_1_1_12_1_1
n96__1_3_1_1_1_12_2,n96__1_3_1_1_1_12_2_1
n96__1_3_1_1_1_12_3,n96__1_3_1_1_1_12_3_1
n98__1_3_1_1_1_11_1,n98__1_3_1_1_1_11_1_1
n101__1_3_1_1_1_10_1,n101__1_3_1_1_1_10_1_1
n101__1_3_1_1_1_10_2,n101__1_3_1_1_1_10_2_1
n101__1_3_1_1_1_10_3,n101__1_3_1_1_1_10_3_1
n101__1_3_1_1_1_10_4,n101__1_3_1_1_1_10_4_1
n102__1_3_1_1_1_10_1,n102__1_3_1_1_1_10_1_1
n102__1_3_1_1_1_10_2,n102__1_3_1_1_1_10_2_1
n104__1_3_1_1_1_13_1,n104__1_3_1_1_1_13_1_1
n105__1_3_1_1_1_15_1,n105__1_3_1_1_1_15_1_1
n106__1_3_1_1_1_10_1,n106__1_3_1_1_1_10_1_1
n108__1_3_1_1_1_11_1,n108__1_3_1_1_1_11_1_1
n108__1_3_1_1_1_11_2,n108__1_3_1_1_1_11_2_1
n110__1_3_1_1_1_12_1,n110__1_3_1_1_1_12_1_1
n113__1_3_1_1_1_10_1,n113__1_3_1_1_1_10_1_1
n114__1_3_1_1_1_13_1,n114__1_3_1_1_1_13_1_1
n115__1_3_1_1_1_12_1,n115__1_3_1_1_1_12_1_1
n117__1_3_1_1_1_15_1,n117__1_3_1_1_1_15_1_1
n117__1_3_1_1_1_15_2,n117__1_3_1_1_1_15_2_1
n118__1_3_1_1_1_11_1,n118__1_3_1_1_1_11_1_1
n118__1_3_1_1_1_11_2,n118__1_3_1_1_1_11_2_1
n120__1_3_1_1_1_10_1,n120__1_3_1_1_1_10_1_1
n122__1_3_1_1_1_16_1,n122__1_3_1_1_1_16_1_1
n122__1_3_1_1_1_16_2,n122__1_3_1_1_1_16_2_1
n123__1_3_1_1_1_11_1,n123__1_3_1_1_1_11_1_1
n123__1_3_1_1_1_11_2,n123__1_3_1_1_1_11_2_1
n125__1_3_1_1_1_10_1,n125__1_3_1_1_1_10_1_1
n126__1_3_1_1_1_9_1,n126__1_3_1_1_1_9_1_1
n127__1_3_1_1_1_9_1,n127__1_3_1_1_1_9_1_1
n127__1_3_1_1_1_9_2,n127__1_3_1_1_1_9_2_1
n129__1_3_1_1_1_15_1,n129__1_3_1_1_1_15_1_1
n130__1_3_1_1_1_11_1,n130__1_3_1_1_1_11_1_1
n135__1_3_1_1_1_13_1,n135__1_3_1_1_1_13_1_1
n138__1_3_1_1_1_11_1,n138__1_3_1_1_1_11_1_1
n138__1_3_1_1_1_11_2,n138__1_3_1_1_1_11_2_1
n138__1_3_1_1_1_11_3,n138__1_3_1_1_1_11_3_1
n139__1_3_1_1_1_9_1,n139__1_3_1_1_1_9_1_1
n140__1_3_1_1_1_11_1,n140__1_3_1_1_1_11_1_1
n141__1_3_1_1_1_10_1,n141__1_3_1_1_1_10_1_1
n141__1_3_1_1_1_10_2,n141__1_3_1_1_1_10_2_1
n143__1_3_1_1_1_11_1,n143__1_3_1_1_1_11_1_1
n143__1_3_1_1_1_11_2,n143__1_3_1_1_1_11_2_1
n146__1_3_1_1_1_15_1,n146__1_3_1_1_1_15_1_1
n147__1_3_1_1_1_15_1,n147__1_3_1_1_1_15_1_1
n148__1_3_1_1_1_9_1,n148__1_3_1_1_1_9_1_1
n150__1_3_1_1_1_9_1,n150__1_3_1_1_1_9_1_1
n152__1_3_1_1_1_13_1,n152__1_3_1_1_1_13_1_1
n153__1_3_1_1_1_10_1,n153__1_3_1_1_1_10_1_1
n153__1_3_1_1_1_10_2,n153__1_3_1_1_1_10_2_1
n153__1_3_1_1_1_10_3,n153__1_3_1_1_1_10_3_1
n155__1_3_1_1_1_10_1,n155__1_3_1_1_1_10_1_1
n156__1_3_1_1_1_10_1,n156__1_3_1_1_1_10_1_1
n156__1_3_1_1_1_10_2,n156__1_3_1_1_1_10_2_1
n157__1_3_1_1_1_13_1,n157__1_3_1_1_1_13_1_1
n158__1_3_1_1_1_10_1,n158__1_3_1_1_1_10_1_1
n160__1_3_1_1_1_12_1,n160__1_3_1_1_1_12_1_1
n162__1_3_1_1_1_9_1,n162__1_3_1_1_1_9_1_1
n162__1_3_1_1_1_9_2,n162__1_3_1_1_1_9_2_1
n163__1_3_1_1_1_12_1,n163__1_3_1_1_1_12_1_1
n163__1_3_1_1_1_12_2,n163__1_3_1_1_1_12_2_1
n163__1_3_1_1_1_12_3,n163__1_3_1_1_1_12_3_1
n163__1_3_1_1_1_12_4,n163__1_3_1_1_1_12_4_1
n165__1_3_1_1_1_10_1,n165__1_3_1_1_1_10_1_1
n165__1_3_1_1_1_10_2,n165__1_3_1_1_1_10_2_1
n167__1_3_1_1_1_8_1,n167__1_3_1_1_1_8_1_1
n168__1_3_1_1_1_10_1,n168__1_3_1_1_1_10_1_1
n169__1_3_1_1_1_13_1,n169__1_3_1_1_1_13_1_1
n169__1_3_1_1_1_13_2,n169__1_3_1_1_1_13_2_1
n170__1_3_1_1_1_8_1,n170__1_3_1_1_1_8_1_1
n171__1_3_1_1_1_11_1,n171__1_3_1_1_1_11_1_1
n171__1_3_1_1_1_11_2,n171__1_3_1_1_1_11_2_1
n172__1_3_1_1_1_9_1,n172__1_3_1_1_1_9_1_1
n174__1_3_1_1_1_12_1,n174__1_3_1_1_1_12_1_1
n174__1_3_1_1_1_12_2,n174__1_3_1_1_1_12_2_1
n175__1_3_1_1_1_11_1,n175__1_3_1_1_1_11_1_1
n175__1_3_1_1_1_11_2,n175__1_3_1_1_1_11_2_1
n177__1_3_1_1_1_12_1,n177__1_3_1_1_1_12_1_1
n180__1_3_1_1_1_13_1,n180__1_3_1_1_1_13_1_1
n182__1_3_1_1_1_13_1,n182__1_3_1_1_1_13_1_1
n182__1_3_1_1_1_13_2,n182__1_3_1_1_1_13_2_1
n184__1_3_1_1_1_9_1,n184__1_3_1_1_1_9_1_1
n184__1_3_1_1_1_9_2,n184__1_3_1_1_1_9_2_1
n184__1_3_1_1_1_9_3,n184__1_3_1_1_1_9_3_1
n186__1_3_1_1_1_12_1,n186__1_3_1_1_1_12_1_1
n187__1_3_1_1_1_10_1,n187__1_3_1_1_1_10_1_1
n187__1_3_1_1_1_10_2,n187__1_3_1_1_1_10_2_1
n188__1_3_1_1_1_16_1,n188__1_3_1_1_1_16_1_1
n189__1_3_1_1_1_13_1,n189__1_3_1_1_1_13_1_1
n190__1_3_1_1_1_10_1,n190__1_3_1_1_1_10_1_1
n191__1_3_1_1_1_10_1,n191__1_3_1_1_1_10_1_1
n192__1_3_1_1_1_15_1,n192__1_3_1_1_1_15_1_1
n195__1_3_1_1_1_13_1,n195__1_3_1_1_1_13_1_1
n196__1_3_1_1_1_18_1,n196__1_3_1_1_1_18_1_1
n196__1_3_1_1_1_18_2,n196__1_3_1_1_1_18_2_1
n201__1_3_1_1_1_11_1,n201__1_3_1_1_1_11_1_1
n203__1_3_1_1_1_9_1,n203__1_3_1_1_1_9_1_1
n204__1_3_1_1_1_10_1,n204__1_3_1_1_1_10_1_1
n205__1_3_1_1_1_11_1,n205__1_3_1_1_1_11_1_1
n206__1_3_1_1_1_13_1,n206__1_3_1_1_1_13_1_1
n207__1_3_1_1_1_17_1,n207__1_3_1_1_1_17_1_1
n209__1_3_1_1_1_11_1,n209__1_3_1_1_1_11_1_1
n210__1_3_1_1_1_12_1,n210__1_3_1_1_1_12_1_1
n211__1_3_1_1_1_9_1,n211__1_3_1_1_1_9_1_1
n211__1_3_1_1_1_9_2,n211__1_3_1_1_1_9_2_1
n211__1_3_1_1_1_9_3,n211__1_3_1_1_1_9_3_1
n211__1_3_1_1_1_9_4,n211__1_3_1_1_1_9_4_1
n211__1_3_1_1_1_9_5,n211__1_3_1_1_1_9_5_1
n212__1_3_1_1_1_10_1,n212__1_3_1_1_1_10_1_1
n213__1_3_1_1_1_9_1,n213__1_3_1_1_1_9_1_1
n214__1_3_1_1_1_18_1,n214__1_3_1_1_1_18_1_1
n214__1_3_1_1_1_18_2,n214__1_3_1_1_1_18_2_1
n216__1_3_1_1_1_9_1,n216__1_3_1_1_1_9_1_1
n216__1_3_1_1_1_9_2,n216__1_3_1_1_1_9_2_1
n217__1_3_1_1_1_12_1,n217__1_3_1_1_1_12_1_1
n217__1_3_1_1_1_12_2,n217__1_3_1_1_1_12_2_1
n218__1_3_1_1_1_9_1,n218__1_3_1_1_1_9_1_1
n218__1_3_1_1_1_9_2,n218__1_3_1_1_1_9_2_1
n219__1_3_1_1_1_11_1,n219__1_3_1_1_1_11_1_1
n219__1_3_1_1_1_11_2,n219__1_3_1_1_1_11_2_1
n220__1_3_1_1_1_9_1,n220__1_3_1_1_1_9_1_1
n220__1_3_1_1_1_9_2,n220__1_3_1_1_1_9_2_1
n220__1_3_1_1_1_9_3,n220__1_3_1_1_1_9_3_1
n220__1_3_1_1_1_9_4,n220__1_3_1_1_1_9_4_1
n220__1_3_1_1_1_9_5,n220__1_3_1_1_1_9_5_1
n220__1_3_1_1_1_9_6,n220__1_3_1_1_1_9_6_1
n221__1_3_1_1_1_10_1,n221__1_3_1_1_1_10_1_1
n221__1_3_1_1_1_10_2,n221__1_3_1_1_1_10_2_1
n221__1_3_1_1_1_10_3,n221__1_3_1_1_1_10_3_1
n222__1_3_1_1_1_12_1,n222__1_3_1_1_1_12_1_1
n223__1_3_1_1_1_11_1,n223__1_3_1_1_1_11_1_1
n223__1_3_1_1_1_11_2,n223__1_3_1_1_1_11_2_1
n224__1_3_1_1_1_10_1,n224__1_3_1_1_1_10_1_1
n224__1_3_1_1_1_10_2,n224__1_3_1_1_1_10_2_1
n226__1_3_1_1_1_12_1,n226__1_3_1_1_1_12_1_1
n226__1_3_1_1_1_12_2,n226__1_3_1_1_1_12_2_1
n227__1_3_1_1_1_9_1,n227__1_3_1_1_1_9_1_1
n228__1_3_1_1_1_12_1,n228__1_3_1_1_1_12_1_1
n228__1_3_1_1_1_12_2,n228__1_3_1_1_1_12_2_1
n230__1_3_1_1_1_11_1,n230__1_3_1_1_1_11_1_1
n230__1_3_1_1_1_11_2,n230__1_3_1_1_1_11_2_1
n232__1_3_1_1_1_13_1,n232__1_3_1_1_1_13_1_1
n232__1_3_1_1_1_13_2,n232__1_3_1_1_1_13_2_1
n232__1_3_1_1_1_13_3,n232__1_3_1_1_1_13_3_1
n233__1_3_1_1_1_14_1,n233__1_3_1_1_1_14_1_1
n235__1_3_1_1_1_10_1,n235__1_3_1_1_1_10_1_1
n235__1_3_1_1_1_10_2,n235__1_3_1_1_1_10_2_1
n236__1_3_1_1_1_13_1,n236__1_3_1_1_1_13_1_1
n237__1_3_1_1_1_9_1,n237__1_3_1_1_1_9_1_1
n238__1_3_1_1_1_9_1,n238__1_3_1_1_1_9_1_1
n239__1_3_1_1_1_10_1,n239__1_3_1_1_1_10_1_1
n239__1_3_1_1_1_10_2,n239__1_3_1_1_1_10_2_1
n240__1_3_1_1_1_9_1,n240__1_3_1_1_1_9_1_1
n240__1_3_1_1_1_9_2,n240__1_3_1_1_1_9_2_1
n241__1_3_1_1_1_11_1,n241__1_3_1_1_1_11_1_1
n242__1_3_1_1_1_14_1,n242__1_3_1_1_1_14_1_1
n244__1_3_1_1_1_11_1,n244__1_3_1_1_1_11_1_1
n245__1_3_1_1_1_9_1,n245__1_3_1_1_1_9_1_1
n247__1_3_1_1_1_9_1,n247__1_3_1_1_1_9_1_1
n247__1_3_1_1_1_9_2,n247__1_3_1_1_1_9_2_1
n249__1_3_1_1_1_12_1,n249__1_3_1_1_1_12_1_1
n250__1_3_1_1_1_10_1,n250__1_3_1_1_1_10_1_1
n251__1_3_1_1_1_16_1,n251__1_3_1_1_1_16_1_1
n253__1_3_1_1_1_14_1,n253__1_3_1_1_1_14_1_1
n253__1_3_1_1_1_14_2,n253__1_3_1_1_1_14_2_1
n256__1_3_1_1_1_11_1,n256__1_3_1_1_1_11_1_1
n257__1_3_1_1_1_15_1,n257__1_3_1_1_1_15_1_1
n261__1_3_1_1_1_11_1,n261__1_3_1_1_1_11_1_1
n262__1_3_1_1_1_9_1,n262__1_3_1_1_1_9_1_1
n263__1_3_1_1_1_11_1,n263__1_3_1_1_1_11_1_1
n263__1_3_1_1_1_11_2,n263__1_3_1_1_1_11_2_1
n266__1_3_1_1_1_12_1,n266__1_3_1_1_1_12_1_1
n266__1_3_1_1_1_12_2,n266__1_3_1_1_1_12_2_1
n269__1_3_1_1_1_11_1,n269__1_3_1_1_1_11_1_1
n270__1_3_1_1_1_9_1,n270__1_3_1_1_1_9_1_1
n271__1_3_1_1_1_10_1,n271__1_3_1_1_1_10_1_1
n271__1_3_1_1_1_10_2,n271__1_3_1_1_1_10_2_1
n274__1_3_1_1_1_11_1,n274__1_3_1_1_1_11_1_1
n274__1_3_1_1_1_11_2,n274__1_3_1_1_1_11_2_1
n274__1_3_1_1_1_11_3,n274__1_3_1_1_1_11_3_1
n276__1_3_1_1_1_8_1,n276__1_3_1_1_1_8_1_1
n277__1_3_1_1_1_9_1,n277__1_3_1_1_1_9_1_1
n277__1_3_1_1_1_9_2,n277__1_3_1_1_1_9_2_1
n279__1_3_1_1_1_16_1,n279__1_3_1_1_1_16_1_1
n281__1_3_1_1_1_11_1,n281__1_3_1_1_1_11_1_1
n282__1_3_1_1_1_16_1,n282__1_3_1_1_1_16_1_1
n283__1_3_1_1_1_10_1,n283__1_3_1_1_1_10_1_1
n284__1_3_1_1_1_13_1,n284__1_3_1_1_1_13_1_1
n284__1_3_1_1_1_13_2,n284__1_3_1_1_1_13_2_1
n284__1_3_1_1_1_13_3,n284__1_3_1_1_1_13_3_1
n285__1_3_1_1_1_17_1,n285__1_3_1_1_1_17_1_1
n285__1_3_1_1_1_17_2,n285__1_3_1_1_1_17_2_1
n287__1_3_1_1_1_9_1,n287__1_3_1_1_1_9_1_1
n287__1_3_1_1_1_9_2,n287__1_3_1_1_1_9_2_1
n291__1_3_1_1_1_9_1,n291__1_3_1_1_1_9_1_1
n291__1_3_1_1_1_9_2,n291__1_3_1_1_1_9_2_1
n292__1_3_1_1_1_9_1,n292__1_3_1_1_1_9_1_1
n292__1_3_1_1_1_9_2,n292__1_3_1_1_1_9_2_1
n292__1_3_1_1_1_9_3,n292__1_3_1_1_1_9_3_1
n292__1_3_1_1_1_9_4,n292__1_3_1_1_1_9_4_1
n292__1_3_1_1_1_9_5,n292__1_3_1_1_1_9_5_1
n293__1_3_1_1_1_12_1,n293__1_3_1_1_1_12_1_1
n293__1_3_1_1_1_12_2,n293__1_3_1_1_1_12_2_1
n294__1_3_1_1_1_12_1,n294__1_3_1_1_1_12_1_1
n296__1_3_1_1_1_18_1,n296__1_3_1_1_1_18_1_1
n297__1_3_1_1_1_16_1,n297__1_3_1_1_1_16_1_1
n302__1_3_1_1_1_11_1,n302__1_3_1_1_1_11_1_1
n303__1_3_1_1_1_18_1,n303__1_3_1_1_1_18_1_1
n304__1_3_1_1_1_11_1,n304__1_3_1_1_1_11_1_1
n306__1_3_1_1_1_13_1,n306__1_3_1_1_1_13_1_1
n308__1_3_1_1_1_11_1,n308__1_3_1_1_1_11_1_1
n308__1_3_1_1_1_11_2,n308__1_3_1_1_1_11_2_1
n310__1_3_1_1_1_11_1,n310__1_3_1_1_1_11_1_1
n312__1_3_1_1_1_10_1,n312__1_3_1_1_1_10_1_1
n312__1_3_1_1_1_10_2,n312__1_3_1_1_1_10_2_1
n312__1_3_1_1_1_10_3,n312__1_3_1_1_1_10_3_1
n314__1_3_1_1_1_9_1,n314__1_3_1_1_1_9_1_1
n317__1_3_1_1_1_12_1,n317__1_3_1_1_1_12_1_1
n318__1_3_1_1_1_9_1,n318__1_3_1_1_1_9_1_1
n318__1_3_1_1_1_9_2,n318__1_3_1_1_1_9_2_1
n318__1_3_1_1_1_9_3,n318__1_3_1_1_1_9_3_1
n318__1_3_1_1_1_9_4,n318__1_3_1_1_1_9_4_1
n320__1_3_1_1_1_10_1,n320__1_3_1_1_1_10_1_1
n320__1_3_1_1_1_10_2,n320__1_3_1_1_1_10_2_1
n320__1_3_1_1_1_10_3,n320__1_3_1_1_1_10_3_1
n321__1_3_1_1_1_10_1,n321__1_3_1_1_1_10_1_1
n321__1_3_1_1_1_10_2,n321__1_3_1_1_1_10_2_1
n323__1_3_1_1_1_9_1,n323__1_3_1_1_1_9_1_1
n326__1_3_1_1_1_10_1,n326__1_3_1_1_1_10_1_1
n326__1_3_1_1_1_10_2,n326__1_3_1_1_1_10_2_1
n330__1_3_1_1_1_18_1,n330__1_3_1_1_1_18_1_1
n330__1_3_1_1_1_18_2,n330__1_3_1_1_1_18_2_1
n331__1_3_1_1_1_10_1,n331__1_3_1_1_1_10_1_1
n331__1_3_1_1_1_10_2,n331__1_3_1_1_1_10_2_1
n331__1_3_1_1_1_10_3,n331__1_3_1_1_1_10_3_1
n332__1_3_1_1_1_10_1,n332__1_3_1_1_1_10_1_1
n334__1_3_1_1_1_12_1,n334__1_3_1_1_1_12_1_1
n335__1_3_1_1_1_18_1,n335__1_3_1_1_1_18_1_1
n336__1_3_1_1_1_16_1,n336__1_3_1_1_1_16_1_1
n338__1_3_1_1_1_10_1,n338__1_3_1_1_1_10_1_1
n338__1_3_1_1_1_10_2,n338__1_3_1_1_1_10_2_1
n339__1_3_1_1_1_12_1,n339__1_3_1_1_1_12_1_1
n340__1_3_1_1_1_10_1,n340__1_3_1_1_1_10_1_1
n341__1_3_1_1_1_10_1,n341__1_3_1_1_1_10_1_1
n342__1_3_1_1_1_9_1,n342__1_3_1_1_1_9_1_1
n343__1_3_1_1_1_12_1,n343__1_3_1_1_1_12_1_1
n343__1_3_1_1_1_12_2,n343__1_3_1_1_1_12_2_1
n343__1_3_1_1_1_12_3,n343__1_3_1_1_1_12_3_1
n345__1_3_1_1_1_11_1,n345__1_3_1_1_1_11_1_1
n350__1_3_1_1_1_9_1,n350__1_3_1_1_1_9_1_1
n350__1_3_1_1_1_9_2,n350__1_3_1_1_1_9_2_1
n351__1_3_1_1_1_15_1,n351__1_3_1_1_1_15_1_1
n351__1_3_1_1_1_15_2,n351__1_3_1_1_1_15_2_1
n351__1_3_1_1_1_15_3,n351__1_3_1_1_1_15_3_1
n352__1_3_1_1_1_14_1,n352__1_3_1_1_1_14_1_1
n352__1_3_1_1_1_14_2,n352__1_3_1_1_1_14_2_1
n353__1_3_1_1_1_11_1,n353__1_3_1_1_1_11_1_1
n353__1_3_1_1_1_11_2,n353__1_3_1_1_1_11_2_1
n353__1_3_1_1_1_11_3,n353__1_3_1_1_1_11_3_1
n353__1_3_1_1_1_11_4,n353__1_3_1_1_1_11_4_1
n353__1_3_1_1_1_11_5,n353__1_3_1_1_1_11_5_1
n355__1_3_1_1_1_11_1,n355__1_3_1_1_1_11_1_1
n359__1_3_1_1_1_11_1,n359__1_3_1_1_1_11_1_1
n359__1_3_1_1_1_11_2,n359__1_3_1_1_1_11_2_1
n360__1_3_1_1_1_12_1,n360__1_3_1_1_1_12_1_1
n361__1_3_1_1_1_17_1,n361__1_3_1_1_1_17_1_1
n364__1_3_1_1_1_14_1,n364__1_3_1_1_1_14_1_1
n367__1_3_1_1_1_11_1,n367__1_3_1_1_1_11_1_1
n367__1_3_1_1_1_11_2,n367__1_3_1_1_1_11_2_1
n369__1_3_1_1_1_13_1,n369__1_3_1_1_1_13_1_1
n369__1_3_1_1_1_13_2,n369__1_3_1_1_1_13_2_1
n369__1_3_1_1_1_13_3,n369__1_3_1_1_1_13_3_1
n370__1_3_1_1_1_13_1,n370__1_3_1_1_1_13_1_1
n374__1_3_1_1_1_9_1,n374__1_3_1_1_1_9_1_1
n374__1_3_1_1_1_9_2,n374__1_3_1_1_1_9_2_1
n375__1_3_1_1_1_10_1,n375__1_3_1_1_1_10_1_1
n376__1_3_1_1_1_15_1,n376__1_3_1_1_1_15_1_1
n377__1_3_1_1_1_10_1,n377__1_3_1_1_1_10_1_1
n377__1_3_1_1_1_10_2,n377__1_3_1_1_1_10_2_1
n377__1_3_1_1_1_10_3,n377__1_3_1_1_1_10_3_1
n378__1_3_1_1_1_9_1,n378__1_3_1_1_1_9_1_1
n379__1_3_1_1_1_9_1,n379__1_3_1_1_1_9_1_1
n380__1_3_1_1_1_12_1,n380__1_3_1_1_1_12_1_1
n380__1_3_1_1_1_12_2,n380__1_3_1_1_1_12_2_1
n384__1_3_1_1_1_11_1,n384__1_3_1_1_1_11_1_1
n385__1_3_1_1_1_11_1,n385__1_3_1_1_1_11_1_1
n386__1_3_1_1_1_14_1,n386__1_3_1_1_1_14_1_1
n386__1_3_1_1_1_14_2,n386__1_3_1_1_1_14_2_1
n386__1_3_1_1_1_14_3,n386__1_3_1_1_1_14_3_1
n387__1_3_1_1_1_13_1,n387__1_3_1_1_1_13_1_1
n388__1_3_1_1_1_11_1,n388__1_3_1_1_1_11_1_1
n390__1_3_1_1_1_10_1,n390__1_3_1_1_1_10_1_1
n390__1_3_1_1_1_10_2,n390__1_3_1_1_1_10_2_1
n390__1_3_1_1_1_10_3,n390__1_3_1_1_1_10_3_1
n391__1_3_1_1_1_10_1,n391__1_3_1_1_1_10_1_1
n391__1_3_1_1_1_10_2,n391__1_3_1_1_1_10_2_1
n392__1_3_1_1_1_11_1,n392__1_3_1_1_1_11_1_1
n393__1_3_1_1_1_10_1,n393__1_3_1_1_1_10_1_1
n394__1_3_1_1_1_14_1,n394__1_3_1_1_1_14_1_1
n394__1_3_1_1_1_14_2,n394__1_3_1_1_1_14_2_1
n395__1_3_1_1_1_11_1,n395__1_3_1_1_1_11_1_1
n395__1_3_1_1_1_11_2,n395__1_3_1_1_1_11_2_1
n398__1_3_1_1_1_9_1,n398__1_3_1_1_1_9_1_1
n399__1_3_1_1_1_11_1,n399__1_3_1_1_1_11_1_1
n400__1_3_1_1_1_14_1,n400__1_3_1_1_1_14_1_1
n400__1_3_1_1_1_14_2,n400__1_3_1_1_1_14_2_1
n401__1_3_1_1_1_13_1,n401__1_3_1_1_1_13_1_1
n401__1_3_1_1_1_13_2,n401__1_3_1_1_1_13_2_1
n402__1_3_1_1_1_11_1,n402__1_3_1_1_1_11_1_1
n404__1_3_1_1_1_11_1,n404__1_3_1_1_1_11_1_1
n405__1_3_1_1_1_18_1,n405__1_3_1_1_1_18_1_1
n407__1_3_1_1_1_12_1,n407__1_3_1_1_1_12_1_1
n410__1_3_1_1_1_9_1,n410__1_3_1_1_1_9_1_1
n411__1_3_1_1_1_11_1,n411__1_3_1_1_1_11_1_1
n411__1_3_1_1_1_11_2,n411__1_3_1_1_1_11_2_1
n411__1_3_1_1_1_11_3,n411__1_3_1_1_1_11_3_1
n413__1_3_1_1_1_10_1,n413__1_3_1_1_1_10_1_1
n415__1_3_1_1_1_12_1,n415__1_3_1_1_1_12_1_1
n417__1_3_1_1_1_10_1,n417__1_3_1_1_1_10_1_1
n417__1_3_1_1_1_10_2,n417__1_3_1_1_1_10_2_1
n418__1_3_1_1_1_18_1,n418__1_3_1_1_1_18_1_1
n420__1_3_1_1_1_14_1,n420__1_3_1_1_1_14_1_1
n421__1_3_1_1_1_10_1,n421__1_3_1_1_1_10_1_1
n422__1_3_1_1_1_15_1,n422__1_3_1_1_1_15_1_1
n423__1_3_1_1_1_12_1,n423__1_3_1_1_1_12_1_1
n423__1_3_1_1_1_12_2,n423__1_3_1_1_1_12_2_1
n423__1_3_1_1_1_12_3,n423__1_3_1_1_1_12_3_1
n424__1_3_1_1_1_10_1,n424__1_3_1_1_1_10_1_1
n424__1_3_1_1_1_10_2,n424__1_3_1_1_1_10_2_1
n425__1_3_1_1_1_11_1,n425__1_3_1_1_1_11_1_1
n425__1_3_1_1_1_11_2,n425__1_3_1_1_1_11_2_1
n426__1_3_1_1_1_14_1,n426__1_3_1_1_1_14_1_1
n426__1_3_1_1_1_14_2,n426__1_3_1_1_1_14_2_1
n429__1_3_1_1_1_10_1,n429__1_3_1_1_1_10_1_1
n430__1_3_1_1_1_10_1,n430__1_3_1_1_1_10_1_1
n433__1_3_1_1_1_14_1,n433__1_3_1_1_1_14_1_1
n433__1_3_1_1_1_14_2,n433__1_3_1_1_1_14_2_1
n433__1_3_1_1_1_14_3,n433__1_3_1_1_1_14_3_1
n434__1_3_1_1_1_9_1,n434__1_3_1_1_1_9_1_1
n435__1_3_1_1_1_19_1,n435__1_3_1_1_1_19_1_1
n436__1_3_1_1_1_11_1,n436__1_3_1_1_1_11_1_1
n437__1_3_1_1_1_13_1,n437__1_3_1_1_1_13_1_1
n440__1_3_1_1_1_14_1,n440__1_3_1_1_1_14_1_1
n441__1_3_1_1_1_12_1,n441__1_3_1_1_1_12_1_1
n443__1_3_1_1_1_10_1,n443__1_3_1_1_1_10_1_1
n446__1_3_1_1_1_9_1,n446__1_3_1_1_1_9_1_1
n446__1_3_1_1_1_9_2,n446__1_3_1_1_1_9_2_1
n447__1_3_1_1_1_10_1,n447__1_3_1_1_1_10_1_1
n448__1_3_1_1_1_10_1,n448__1_3_1_1_1_10_1_1
n451__1_3_1_1_1_11_1,n451__1_3_1_1_1_11_1_1
n452__1_3_1_1_1_10_1,n452__1_3_1_1_1_10_1_1
n452__1_3_1_1_1_10_2,n452__1_3_1_1_1_10_2_1
n453__1_3_1_1_1_11_1,n453__1_3_1_1_1_11_1_1
n455__1_3_1_1_1_10_1,n455__1_3_1_1_1_10_1_1
n458__1_3_1_1_1_11_1,n458__1_3_1_1_1_11_1_1
n458__1_3_1_1_1_11_2,n458__1_3_1_1_1_11_2_1
n459__1_3_1_1_1_9_1,n459__1_3_1_1_1_9_1_1
n460__1_3_1_1_1_10_1,n460__1_3_1_1_1_10_1_1
n461__1_3_1_1_1_18_1,n461__1_3_1_1_1_18_1_1
n461__1_3_1_1_1_18_2,n461__1_3_1_1_1_18_2_1
n462__1_3_1_1_1_15_1,n462__1_3_1_1_1_15_1_1
n462__1_3_1_1_1_15_2,n462__1_3_1_1_1_15_2_1
n464__1_3_1_1_1_18_1,n464__1_3_1_1_1_18_1_1
n464__1_3_1_1_1_18_2,n464__1_3_1_1_1_18_2_1
n465__1_3_1_1_1_9_1,n465__1_3_1_1_1_9_1_1
n467__1_3_1_1_1_11_1,n467__1_3_1_1_1_11_1_1
n467__1_3_1_1_1_11_2,n467__1_3_1_1_1_11_2_1
n468__1_3_1_1_1_9_1,n468__1_3_1_1_1_9_1_1
n468__1_3_1_1_1_9_2,n468__1_3_1_1_1_9_2_1
n470__1_3_1_1_1_10_1,n470__1_3_1_1_1_10_1_1
n471__1_3_1_1_1_13_1,n471__1_3_1_1_1_13_1_1
n471__1_3_1_1_1_13_2,n471__1_3_1_1_1_13_2_1
n473__1_3_1_1_1_19_1,n473__1_3_1_1_1_19_1_1
n473__1_3_1_1_1_19_2,n473__1_3_1_1_1_19_2_1
n473__1_3_1_1_1_19_3,n473__1_3_1_1_1_19_3_1
n474__1_3_1_1_1_10_1,n474__1_3_1_1_1_10_1_1
n474__1_3_1_1_1_10_2,n474__1_3_1_1_1_10_2_1
n477__1_3_1_1_1_11_1,n477__1_3_1_1_1_11_1_1
n477__1_3_1_1_1_11_2,n477__1_3_1_1_1_11_2_1
n479__1_3_1_1_1_12_1,n479__1_3_1_1_1_12_1_1
n482__1_3_1_1_1_10_1,n482__1_3_1_1_1_10_1_1
n483__1_3_1_1_1_18_1,n483__1_3_1_1_1_18_1_1
n483__1_3_1_1_1_18_2,n483__1_3_1_1_1_18_2_1
n484__1_3_1_1_1_10_1,n484__1_3_1_1_1_10_1_1
n484__1_3_1_1_1_10_2,n484__1_3_1_1_1_10_2_1
n484__1_3_1_1_1_10_3,n484__1_3_1_1_1_10_3_1
n485__1_3_1_1_1_17_1,n485__1_3_1_1_1_17_1_1
n488__1_3_1_1_1_11_1,n488__1_3_1_1_1_11_1_1
n488__1_3_1_1_1_11_2,n488__1_3_1_1_1_11_2_1
n489__1_3_1_1_1_11_1,n489__1_3_1_1_1_11_1_1
n489__1_3_1_1_1_11_2,n489__1_3_1_1_1_11_2_1
n489__1_3_1_1_1_11_3,n489__1_3_1_1_1_11_3_1
n491__1_3_1_1_1_11_1,n491__1_3_1_1_1_11_1_1
n492__1_3_1_1_1_12_1,n492__1_3_1_1_1_12_1_1
n493__1_3_1_1_1_16_1,n493__1_3_1_1_1_16_1_1
n493__1_3_1_1_1_16_2,n493__1_3_1_1_1_16_2_1
n495__1_3_1_1_1_10_1,n495__1_3_1_1_1_10_1_1
n495__1_3_1_1_1_10_2,n495__1_3_1_1_1_10_2_1
n496__1_3_1_1_1_11_1,n496__1_3_1_1_1_11_1_1
n496__1_3_1_1_1_11_2,n496__1_3_1_1_1_11_2_1
n497__1_3_1_1_1_11_1,n497__1_3_1_1_1_11_1_1
n502__1_3_1_1_1_10_1,n502__1_3_1_1_1_10_1_1
n504__1_3_1_1_1_9_1,n504__1_3_1_1_1_9_1_1
n504__1_3_1_1_1_9_2,n504__1_3_1_1_1_9_2_1
n504__1_3_1_1_1_9_3,n504__1_3_1_1_1_9_3_1
n505__1_3_1_1_1_18_1,n505__1_3_1_1_1_18_1_1
n505__1_3_1_1_1_18_2,n505__1_3_1_1_1_18_2_1
n506__1_3_1_1_1_13_1,n506__1_3_1_1_1_13_1_1
n510__1_3_1_1_1_12_1,n510__1_3_1_1_1_12_1_1
n512__1_3_1_1_1_10_1,n512__1_3_1_1_1_10_1_1
n513__1_3_1_1_1_15_1,n513__1_3_1_1_1_15_1_1
n516__1_3_1_1_1_9_1,n516__1_3_1_1_1_9_1_1
n516__1_3_1_1_1_9_2,n516__1_3_1_1_1_9_2_1
n516__1_3_1_1_1_9_3,n516__1_3_1_1_1_9_3_1
n517__1_3_1_1_1_14_1,n517__1_3_1_1_1_14_1_1
n517__1_3_1_1_1_14_2,n517__1_3_1_1_1_14_2_1
n519__1_3_1_1_1_12_1,n519__1_3_1_1_1_12_1_1
n520__1_3_1_1_1_11_1,n520__1_3_1_1_1_11_1_1
n520__1_3_1_1_1_11_2,n520__1_3_1_1_1_11_2_1
n522__1_3_1_1_1_9_1,n522__1_3_1_1_1_9_1_1
n522__1_3_1_1_1_9_2,n522__1_3_1_1_1_9_2_1
n523__1_3_1_1_1_11_1,n523__1_3_1_1_1_11_1_1
n524__1_3_1_1_1_15_1,n524__1_3_1_1_1_15_1_1
n527__1_3_1_1_1_14_1,n527__1_3_1_1_1_14_1_1
n528__1_3_1_1_1_11_1,n528__1_3_1_1_1_11_1_1
n530__1_3_1_1_1_10_1,n530__1_3_1_1_1_10_1_1
n530__1_3_1_1_1_10_2,n530__1_3_1_1_1_10_2_1
n531__1_3_1_1_1_16_1,n531__1_3_1_1_1_16_1_1
n531__1_3_1_1_1_16_2,n531__1_3_1_1_1_16_2_1
n532__1_3_1_1_1_10_1,n532__1_3_1_1_1_10_1_1
n533__1_3_1_1_1_14_1,n533__1_3_1_1_1_14_1_1
n534__1_3_1_1_1_14_1,n534__1_3_1_1_1_14_1_1
n534__1_3_1_1_1_14_2,n534__1_3_1_1_1_14_2_1
n535__1_3_1_1_1_11_1,n535__1_3_1_1_1_11_1_1
n536__1_3_1_1_1_12_1,n536__1_3_1_1_1_12_1_1
n537__1_3_1_1_1_14_1,n537__1_3_1_1_1_14_1_1
n540__1_3_1_1_1_9_1,n540__1_3_1_1_1_9_1_1
n541__1_3_1_1_1_10_1,n541__1_3_1_1_1_10_1_1
n542__1_3_1_1_1_9_1,n542__1_3_1_1_1_9_1_1
n543__1_3_1_1_1_10_1,n543__1_3_1_1_1_10_1_1
n545__1_3_1_1_1_9_1,n545__1_3_1_1_1_9_1_1
n546__1_3_1_1_1_10_1,n546__1_3_1_1_1_10_1_1
n546__1_3_1_1_1_10_2,n546__1_3_1_1_1_10_2_1
n548__1_3_1_1_1_9_1,n548__1_3_1_1_1_9_1_1
n548__1_3_1_1_1_9_2,n548__1_3_1_1_1_9_2_1
n548__1_3_1_1_1_9_3,n548__1_3_1_1_1_9_3_1
n549__1_3_1_1_1_11_1,n549__1_3_1_1_1_11_1_1
n550__1_3_1_1_1_10_1,n550__1_3_1_1_1_10_1_1
n550__1_3_1_1_1_10_2,n550__1_3_1_1_1_10_2_1
n551__1_3_1_1_1_18_1,n551__1_3_1_1_1_18_1_1
n551__1_3_1_1_1_18_2,n551__1_3_1_1_1_18_2_1
n552__1_3_1_1_1_9_1,n552__1_3_1_1_1_9_1_1
n552__1_3_1_1_1_9_2,n552__1_3_1_1_1_9_2_1
n552__1_3_1_1_1_9_3,n552__1_3_1_1_1_9_3_1
n553__1_3_1_1_1_11_1,n553__1_3_1_1_1_11_1_1
n554__1_3_1_1_1_10_1,n554__1_3_1_1_1_10_1_1
n554__1_3_1_1_1_10_2,n554__1_3_1_1_1_10_2_1
n554__1_3_1_1_1_10_3,n554__1_3_1_1_1_10_3_1
n559__1_3_1_1_1_14_1,n559__1_3_1_1_1_14_1_1
n560__1_3_1_1_1_14_1,n560__1_3_1_1_1_14_1_1
n562__1_3_1_1_1_12_1,n562__1_3_1_1_1_12_1_1
n563__1_3_1_1_1_10_1,n563__1_3_1_1_1_10_1_1
n565__1_3_1_1_1_16_1,n565__1_3_1_1_1_16_1_1
n566__1_3_1_1_1_9_1,n566__1_3_1_1_1_9_1_1
n568__1_3_1_1_1_15_1,n568__1_3_1_1_1_15_1_1
n571__1_3_1_1_1_9_1,n571__1_3_1_1_1_9_1_1
n572__1_3_1_1_1_10_1,n572__1_3_1_1_1_10_1_1
n574__1_3_1_1_1_12_1,n574__1_3_1_1_1_12_1_1
n574__1_3_1_1_1_12_2,n574__1_3_1_1_1_12_2_1
n574__1_3_1_1_1_12_3,n574__1_3_1_1_1_12_3_1
n575__1_3_1_1_1_11_1,n575__1_3_1_1_1_11_1_1
n576__1_3_1_1_1_12_1,n576__1_3_1_1_1_12_1_1
n577__1_3_1_1_1_11_1,n577__1_3_1_1_1_11_1_1
n577__1_3_1_1_1_11_2,n577__1_3_1_1_1_11_2_1
n584__1_3_1_1_1_12_1,n584__1_3_1_1_1_12_1_1
n586__1_3_1_1_1_11_1,n586__1_3_1_1_1_11_1_1
n589__1_3_1_1_1_11_1,n589__1_3_1_1_1_11_1_1
n590__1_3_1_1_1_13_1,n590__1_3_1_1_1_13_1_1
n590__1_3_1_1_1_13_2,n590__1_3_1_1_1_13_2_1
n590__1_3_1_1_1_13_3,n590__1_3_1_1_1_13_3_1
n591__1_3_1_1_1_14_1,n591__1_3_1_1_1_14_1_1
n591__1_3_1_1_1_14_2,n591__1_3_1_1_1_14_2_1
n592__1_3_1_1_1_10_1,n592__1_3_1_1_1_10_1_1
n592__1_3_1_1_1_10_2,n592__1_3_1_1_1_10_2_1
n592__1_3_1_1_1_10_3,n592__1_3_1_1_1_10_3_1
n593__1_3_1_1_1_10_1,n593__1_3_1_1_1_10_1_1
n594__1_3_1_1_1_11_1,n594__1_3_1_1_1_11_1_1
n595__1_3_1_1_1_11_1,n595__1_3_1_1_1_11_1_1
n595__1_3_1_1_1_11_2,n595__1_3_1_1_1_11_2_1
n597__1_3_1_1_1_9_1,n597__1_3_1_1_1_9_1_1
n600__1_3_1_1_1_18_1,n600__1_3_1_1_1_18_1_1
n600__1_3_1_1_1_18_2,n600__1_3_1_1_1_18_2_1
n602__1_3_1_1_1_9_1,n602__1_3_1_1_1_9_1_1
n604__1_3_1_1_1_15_1,n604__1_3_1_1_1_15_1_1
n604__1_3_1_1_1_15_2,n604__1_3_1_1_1_15_2_1
n604__1_3_1_1_1_15_3,n604__1_3_1_1_1_15_3_1
n604__1_3_1_1_1_15_4,n604__1_3_1_1_1_15_4_1
n604__1_3_1_1_1_15_5,n604__1_3_1_1_1_15_5_1
n605__1_3_1_1_1_9_1,n605__1_3_1_1_1_9_1_1
n605__1_3_1_1_1_9_2,n605__1_3_1_1_1_9_2_1
n606__1_3_1_1_1_11_1,n606__1_3_1_1_1_11_1_1
n606__1_3_1_1_1_11_2,n606__1_3_1_1_1_11_2_1
n607__1_3_1_1_1_18_1,n607__1_3_1_1_1_18_1_1
n609__1_3_1_1_1_10_1,n609__1_3_1_1_1_10_1_1
n609__1_3_1_1_1_10_2,n609__1_3_1_1_1_10_2_1
n610__1_3_1_1_1_10_1,n610__1_3_1_1_1_10_1_1
n611__1_3_1_1_1_13_1,n611__1_3_1_1_1_13_1_1
n612__1_3_1_1_1_15_1,n612__1_3_1_1_1_15_1_1
n613__1_3_1_1_1_14_1,n613__1_3_1_1_1_14_1_1
n613__1_3_1_1_1_14_2,n613__1_3_1_1_1_14_2_1
n613__1_3_1_1_1_14_3,n613__1_3_1_1_1_14_3_1
n613__1_3_1_1_1_14_4,n613__1_3_1_1_1_14_4_1
n613__1_3_1_1_1_14_5,n613__1_3_1_1_1_14_5_1
n613__1_3_1_1_1_14_6,n613__1_3_1_1_1_14_6_1
n613__1_3_1_1_1_14_7,n613__1_3_1_1_1_14_7_1
n616__1_3_1_1_1_12_1,n616__1_3_1_1_1_12_1_1
n616__1_3_1_1_1_12_2,n616__1_3_1_1_1_12_2_1
n617__1_3_1_1_1_12_1,n617__1_3_1_1_1_12_1_1
n617__1_3_1_1_1_12_2,n617__1_3_1_1_1_12_2_1
n617__1_3_1_1_1_12_3,n617__1_3_1_1_1_12_3_1
n618__1_3_1_1_1_11_1,n618__1_3_1_1_1_11_1_1
n621__1_3_1_1_1_14_1,n621__1_3_1_1_1_14_1_1
n621__1_3_1_1_1_14_2,n621__1_3_1_1_1_14_2_1
n622__1_3_1_1_1_11_1,n622__1_3_1_1_1_11_1_1
n623__1_3_1_1_1_15_1,n623__1_3_1_1_1_15_1_1
n625__1_3_1_1_1_9_1,n625__1_3_1_1_1_9_1_1
n627__1_3_1_1_1_10_1,n627__1_3_1_1_1_10_1_1
n628__1_3_1_1_1_16_1,n628__1_3_1_1_1_16_1_1
n630__1_3_1_1_1_13_1,n630__1_3_1_1_1_13_1_1
n631__1_3_1_1_1_13_1,n631__1_3_1_1_1_13_1_1
n632__1_3_1_1_1_13_1,n632__1_3_1_1_1_13_1_1
n634__1_3_1_1_1_9_1,n634__1_3_1_1_1_9_1_1
n635__1_3_1_1_1_10_1,n635__1_3_1_1_1_10_1_1
n636__1_3_1_1_1_12_1,n636__1_3_1_1_1_12_1_1
n637__1_3_1_1_1_17_1,n637__1_3_1_1_1_17_1_1
n638__1_3_1_1_1_10_1,n638__1_3_1_1_1_10_1_1
n638__1_3_1_1_1_10_2,n638__1_3_1_1_1_10_2_1
n640__1_3_1_1_1_10_1,n640__1_3_1_1_1_10_1_1
n640__1_3_1_1_1_10_2,n640__1_3_1_1_1_10_2_1
n640__1_3_1_1_1_10_3,n640__1_3_1_1_1_10_3_1
n640__1_3_1_1_1_10_4,n640__1_3_1_1_1_10_4_1
n641__1_3_1_1_1_9_1,n641__1_3_1_1_1_9_1_1
n641__1_3_1_1_1_9_2,n641__1_3_1_1_1_9_2_1
n642__1_3_1_1_1_11_1,n642__1_3_1_1_1_11_1_1
n644__1_3_1_1_1_10_1,n644__1_3_1_1_1_10_1_1
n645__1_3_1_1_1_12_1,n645__1_3_1_1_1_12_1_1
n645__1_3_1_1_1_12_2,n645__1_3_1_1_1_12_2_1
n645__1_3_1_1_1_12_3,n645__1_3_1_1_1_12_3_1
n646__1_3_1_1_1_11_1,n646__1_3_1_1_1_11_1_1
n646__1_3_1_1_1_11_2,n646__1_3_1_1_1_11_2_1
n646__1_3_1_1_1_11_3,n646__1_3_1_1_1_11_3_1
n647__1_3_1_1_1_17_1,n647__1_3_1_1_1_17_1_1
n648__1_3_1_1_1_14_1,n648__1_3_1_1_1_14_1_1
n648__1_3_1_1_1_14_2,n648__1_3_1_1_1_14_2_1
n650__1_3_1_1_1_12_1,n650__1_3_1_1_1_12_1_1
n650__1_3_1_1_1_12_2,n650__1_3_1_1_1_12_2_1
n650__1_3_1_1_1_12_3,n650__1_3_1_1_1_12_3_1
n652__1_3_1_1_1_16_1,n652__1_3_1_1_1_16_1_1
n654__1_3_1_1_1_12_1,n654__1_3_1_1_1_12_1_1
n654__1_3_1_1_1_12_2,n654__1_3_1_1_1_12_2_1
n655__1_3_1_1_1_11_1,n655__1_3_1_1_1_11_1_1
n655__1_3_1_1_1_11_2,n655__1_3_1_1_1_11_2_1
n656__1_3_1_1_1_10_1,n656__1_3_1_1_1_10_1_1
n656__1_3_1_1_1_10_2,n656__1_3_1_1_1_10_2_1
n657__1_3_1_1_1_14_1,n657__1_3_1_1_1_14_1_1
n660__1_3_1_1_1_9_1,n660__1_3_1_1_1_9_1_1
n661__1_3_1_1_1_10_1,n661__1_3_1_1_1_10_1_1
n663__1_3_1_1_1_15_1,n663__1_3_1_1_1_15_1_1
n664__1_3_1_1_1_18_1,n664__1_3_1_1_1_18_1_1
n665__1_3_1_1_1_10_1,n665__1_3_1_1_1_10_1_1
n665__1_3_1_1_1_10_2,n665__1_3_1_1_1_10_2_1
n666__1_3_1_1_1_13_1,n666__1_3_1_1_1_13_1_1
n668__1_3_1_1_1_12_1,n668__1_3_1_1_1_12_1_1
n669__1_3_1_1_1_10_1,n669__1_3_1_1_1_10_1_1
n670__1_3_1_1_1_12_1,n670__1_3_1_1_1_12_1_1
n670__1_3_1_1_1_12_2,n670__1_3_1_1_1_12_2_1
n674__1_3_1_1_1_11_1,n674__1_3_1_1_1_11_1_1
n677__1_3_1_1_1_9_1,n677__1_3_1_1_1_9_1_1
n677__1_3_1_1_1_9_2,n677__1_3_1_1_1_9_2_1
n677__1_3_1_1_1_9_3,n677__1_3_1_1_1_9_3_1
n677__1_3_1_1_1_9_4,n677__1_3_1_1_1_9_4_1
n679__1_3_1_1_1_9_1,n679__1_3_1_1_1_9_1_1
n679__1_3_1_1_1_9_2,n679__1_3_1_1_1_9_2_1
n681__1_3_1_1_1_18_1,n681__1_3_1_1_1_18_1_1
n681__1_3_1_1_1_18_2,n681__1_3_1_1_1_18_2_1
n681__1_3_1_1_1_18_3,n681__1_3_1_1_1_18_3_1
n683__1_3_1_1_1_9_1,n683__1_3_1_1_1_9_1_1
n684__1_3_1_1_1_13_1,n684__1_3_1_1_1_13_1_1
n684__1_3_1_1_1_13_2,n684__1_3_1_1_1_13_2_1
n686__1_3_1_1_1_15_1,n686__1_3_1_1_1_15_1_1
n686__1_3_1_1_1_15_2,n686__1_3_1_1_1_15_2_1
n686__1_3_1_1_1_15_3,n686__1_3_1_1_1_15_3_1
n687__1_3_1_1_1_10_1,n687__1_3_1_1_1_10_1_1
n688__1_3_1_1_1_14_1,n688__1_3_1_1_1_14_1_1
n689__1_3_1_1_1_13_1,n689__1_3_1_1_1_13_1_1
n690__1_3_1_1_1_18_1,n690__1_3_1_1_1_18_1_1
n692__1_3_1_1_1_11_1,n692__1_3_1_1_1_11_1_1
n693__1_3_1_1_1_14_1,n693__1_3_1_1_1_14_1_1
n694__1_3_1_1_1_10_1,n694__1_3_1_1_1_10_1_1
n694__1_3_1_1_1_10_2,n694__1_3_1_1_1_10_2_1
n696__1_3_1_1_1_11_1,n696__1_3_1_1_1_11_1_1
n697__1_3_1_1_1_10_1,n697__1_3_1_1_1_10_1_1
n697__1_3_1_1_1_10_2,n697__1_3_1_1_1_10_2_1
n700__1_3_1_1_1_11_1,n700__1_3_1_1_1_11_1_1
n702__1_3_1_1_1_10_1,n702__1_3_1_1_1_10_1_1
n703__1_3_1_1_1_10_1,n703__1_3_1_1_1_10_1_1
n705__1_3_1_1_1_9_1,n705__1_3_1_1_1_9_1_1
n706__1_3_1_1_1_11_1,n706__1_3_1_1_1_11_1_1
n706__1_3_1_1_1_11_2,n706__1_3_1_1_1_11_2_1
n707__1_3_1_1_1_15_1,n707__1_3_1_1_1_15_1_1
n707__1_3_1_1_1_15_2,n707__1_3_1_1_1_15_2_1
n710__1_3_1_1_1_10_1,n710__1_3_1_1_1_10_1_1
n711__1_3_1_1_1_10_1,n711__1_3_1_1_1_10_1_1
n711__1_3_1_1_1_10_2,n711__1_3_1_1_1_10_2_1
n712__1_3_1_1_1_10_1,n712__1_3_1_1_1_10_1_1
n713__1_3_1_1_1_10_1,n713__1_3_1_1_1_10_1_1
n716__1_3_1_1_1_18_1,n716__1_3_1_1_1_18_1_1
n717__1_3_1_1_1_12_1,n717__1_3_1_1_1_12_1_1
n719__1_3_1_1_1_11_1,n719__1_3_1_1_1_11_1_1
n719__1_3_1_1_1_11_2,n719__1_3_1_1_1_11_2_1
n721__1_3_1_1_1_17_1,n721__1_3_1_1_1_17_1_1
n724__1_3_1_1_1_18_1,n724__1_3_1_1_1_18_1_1
n724__1_3_1_1_1_18_2,n724__1_3_1_1_1_18_2_1
n725__1_3_1_1_1_8_1,n725__1_3_1_1_1_8_1_1
n725__1_3_1_1_1_8_2,n725__1_3_1_1_1_8_2_1
n726__1_3_1_1_1_11_1,n726__1_3_1_1_1_11_1_1
n726__1_3_1_1_1_11_2,n726__1_3_1_1_1_11_2_1
n727__1_3_1_1_1_12_1,n727__1_3_1_1_1_12_1_1
n729__1_3_1_1_1_18_1,n729__1_3_1_1_1_18_1_1
n729__1_3_1_1_1_18_2,n729__1_3_1_1_1_18_2_1
n729__1_3_1_1_1_18_3,n729__1_3_1_1_1_18_3_1
n731__1_3_1_1_1_14_1,n731__1_3_1_1_1_14_1_1
n733__1_3_1_1_1_10_1,n733__1_3_1_1_1_10_1_1
n733__1_3_1_1_1_10_2,n733__1_3_1_1_1_10_2_1
n733__1_3_1_1_1_10_3,n733__1_3_1_1_1_10_3_1
n737__1_3_1_1_1_11_1,n737__1_3_1_1_1_11_1_1
n737__1_3_1_1_1_11_2,n737__1_3_1_1_1_11_2_1
n738__1_3_1_1_1_12_1,n738__1_3_1_1_1_12_1_1
n738__1_3_1_1_1_12_2,n738__1_3_1_1_1_12_2_1
n739__1_3_1_1_1_18_1,n739__1_3_1_1_1_18_1_1
n739__1_3_1_1_1_18_2,n739__1_3_1_1_1_18_2_1
n742__1_3_1_1_1_11_1,n742__1_3_1_1_1_11_1_1
n742__1_3_1_1_1_11_2,n742__1_3_1_1_1_11_2_1
n744__1_3_1_1_1_10_1,n744__1_3_1_1_1_10_1_1
n746__1_3_1_1_1_9_1,n746__1_3_1_1_1_9_1_1
n746__1_3_1_1_1_9_2,n746__1_3_1_1_1_9_2_1
n747__1_3_1_1_1_13_1,n747__1_3_1_1_1_13_1_1
n747__1_3_1_1_1_13_2,n747__1_3_1_1_1_13_2_1
n748__1_3_1_1_1_15_1,n748__1_3_1_1_1_15_1_1
n750__1_3_1_1_1_9_1,n750__1_3_1_1_1_9_1_1
n751__1_3_1_1_1_12_1,n751__1_3_1_1_1_12_1_1
n752__1_3_1_1_1_16_1,n752__1_3_1_1_1_16_1_1
n753__1_3_1_1_1_8_1,n753__1_3_1_1_1_8_1_1
n755__1_3_1_1_1_15_1,n755__1_3_1_1_1_15_1_1
n756__1_3_1_1_1_15_1,n756__1_3_1_1_1_15_1_1
n756__1_3_1_1_1_15_2,n756__1_3_1_1_1_15_2_1
n757__1_3_1_1_1_10_1,n757__1_3_1_1_1_10_1_1
n757__1_3_1_1_1_10_2,n757__1_3_1_1_1_10_2_1
n758__1_3_1_1_1_13_1,n758__1_3_1_1_1_13_1_1
n759__1_3_1_1_1_12_1,n759__1_3_1_1_1_12_1_1
n761__1_3_1_1_1_13_1,n761__1_3_1_1_1_13_1_1
n761__1_3_1_1_1_13_2,n761__1_3_1_1_1_13_2_1
n763__1_3_1_1_1_9_1,n763__1_3_1_1_1_9_1_1
n764__1_3_1_1_1_18_1,n764__1_3_1_1_1_18_1_1
n765__1_3_1_1_1_9_1,n765__1_3_1_1_1_9_1_1
n765__1_3_1_1_1_9_2,n765__1_3_1_1_1_9_2_1
n766__1_3_1_1_1_13_1,n766__1_3_1_1_1_13_1_1
n766__1_3_1_1_1_13_2,n766__1_3_1_1_1_13_2_1
n767__1_3_1_1_1_18_1,n767__1_3_1_1_1_18_1_1
n767__1_3_1_1_1_18_2,n767__1_3_1_1_1_18_2_1
n767__1_3_1_1_1_18_3,n767__1_3_1_1_1_18_3_1
n768__1_3_1_1_1_10_1,n768__1_3_1_1_1_10_1_1
n770__1_3_1_1_1_9_1,n770__1_3_1_1_1_9_1_1
n770__1_3_1_1_1_9_2,n770__1_3_1_1_1_9_2_1
n771__1_3_1_1_1_10_1,n771__1_3_1_1_1_10_1_1
n773__1_3_1_1_1_10_1,n773__1_3_1_1_1_10_1_1
n773__1_3_1_1_1_10_2,n773__1_3_1_1_1_10_2_1
n773__1_3_1_1_1_10_3,n773__1_3_1_1_1_10_3_1
n774__1_3_1_1_1_10_1,n774__1_3_1_1_1_10_1_1
n775__1_3_1_1_1_9_1,n775__1_3_1_1_1_9_1_1
n778__1_3_1_1_1_13_1,n778__1_3_1_1_1_13_1_1
n781__1_3_1_1_1_10_1,n781__1_3_1_1_1_10_1_1
n784__1_3_1_1_1_11_1,n784__1_3_1_1_1_11_1_1
n784__1_3_1_1_1_11_2,n784__1_3_1_1_1_11_2_1
n785__1_3_1_1_1_14_1,n785__1_3_1_1_1_14_1_1
n785__1_3_1_1_1_14_2,n785__1_3_1_1_1_14_2_1
n785__1_3_1_1_1_14_3,n785__1_3_1_1_1_14_3_1
n785__1_3_1_1_1_14_4,n785__1_3_1_1_1_14_4_1
n785__1_3_1_1_1_14_5,n785__1_3_1_1_1_14_5_1
n785__1_3_1_1_1_14_6,n785__1_3_1_1_1_14_6_1
n786__1_3_1_1_1_10_1,n786__1_3_1_1_1_10_1_1
n787__1_3_1_1_1_13_1,n787__1_3_1_1_1_13_1_1
n787__1_3_1_1_1_13_2,n787__1_3_1_1_1_13_2_1
n789__1_3_1_1_1_11_1,n789__1_3_1_1_1_11_1_1
n790__1_3_1_1_1_10_1,n790__1_3_1_1_1_10_1_1
n790__1_3_1_1_1_10_2,n790__1_3_1_1_1_10_2_1
n792__1_3_1_1_1_13_1,n792__1_3_1_1_1_13_1_1
n792__1_3_1_1_1_13_2,n792__1_3_1_1_1_13_2_1
n793__1_3_1_1_1_9_1,n793__1_3_1_1_1_9_1_1
n795__1_3_1_1_1_9_1,n795__1_3_1_1_1_9_1_1
n795__1_3_1_1_1_9_2,n795__1_3_1_1_1_9_2_1
n795__1_3_1_1_1_9_3,n795__1_3_1_1_1_9_3_1
n800__1_3_1_1_1_12_1,n800__1_3_1_1_1_12_1_1
n800__1_3_1_1_1_12_2,n800__1_3_1_1_1_12_2_1
n803__1_3_1_1_1_15_1,n803__1_3_1_1_1_15_1_1
n806__1_3_1_1_1_13_1,n806__1_3_1_1_1_13_1_1
n811__1_3_1_1_1_12_1,n811__1_3_1_1_1_12_1_1
n813__1_3_1_1_1_13_1,n813__1_3_1_1_1_13_1_1
n815__1_3_1_1_1_11_1,n815__1_3_1_1_1_11_1_1
n815__1_3_1_1_1_11_2,n815__1_3_1_1_1_11_2_1
n816__1_3_1_1_1_11_1,n816__1_3_1_1_1_11_1_1
n816__1_3_1_1_1_11_2,n816__1_3_1_1_1_11_2_1
n820__1_3_1_1_1_12_1,n820__1_3_1_1_1_12_1_1
n820__1_3_1_1_1_12_2,n820__1_3_1_1_1_12_2_1
n823__1_3_1_1_1_12_1,n823__1_3_1_1_1_12_1_1
n824__1_3_1_1_1_10_1,n824__1_3_1_1_1_10_1_1
n825__1_3_1_1_1_11_1,n825__1_3_1_1_1_11_1_1
n826__1_3_1_1_1_10_1,n826__1_3_1_1_1_10_1_1
n827__1_3_1_1_1_9_1,n827__1_3_1_1_1_9_1_1
n827__1_3_1_1_1_9_2,n827__1_3_1_1_1_9_2_1
n827__1_3_1_1_1_9_3,n827__1_3_1_1_1_9_3_1
n827__1_3_1_1_1_9_4,n827__1_3_1_1_1_9_4_1
n829__1_3_1_1_1_10_1,n829__1_3_1_1_1_10_1_1
n830__1_3_1_1_1_13_1,n830__1_3_1_1_1_13_1_1
n832__1_3_1_1_1_10_1,n832__1_3_1_1_1_10_1_1
n833__1_3_1_1_1_10_1,n833__1_3_1_1_1_10_1_1
n833__1_3_1_1_1_10_2,n833__1_3_1_1_1_10_2_1
n833__1_3_1_1_1_10_3,n833__1_3_1_1_1_10_3_1
n833__1_3_1_1_1_10_4,n833__1_3_1_1_1_10_4_1
n833__1_3_1_1_1_10_5,n833__1_3_1_1_1_10_5_1
n834__1_3_1_1_1_8_1,n834__1_3_1_1_1_8_1_1
n835__1_3_1_1_1_11_1,n835__1_3_1_1_1_11_1_1
n835__1_3_1_1_1_11_2,n835__1_3_1_1_1_11_2_1
n835__1_3_1_1_1_11_3,n835__1_3_1_1_1_11_3_1
n836__1_3_1_1_1_10_1,n836__1_3_1_1_1_10_1_1
n837__1_3_1_1_1_11_1,n837__1_3_1_1_1_11_1_1
n837__1_3_1_1_1_11_2,n837__1_3_1_1_1_11_2_1
n838__1_3_1_1_1_10_1,n838__1_3_1_1_1_10_1_1
n841__1_3_1_1_1_10_1,n841__1_3_1_1_1_10_1_1
n841__1_3_1_1_1_10_2,n841__1_3_1_1_1_10_2_1
n841__1_3_1_1_1_10_3,n841__1_3_1_1_1_10_3_1
n841__1_3_1_1_1_10_4,n841__1_3_1_1_1_10_4_1
n841__1_3_1_1_1_10_5,n841__1_3_1_1_1_10_5_1
n842__1_3_1_1_1_10_1,n842__1_3_1_1_1_10_1_1
n843__1_3_1_1_1_10_1,n843__1_3_1_1_1_10_1_1
n844__1_3_1_1_1_14_1,n844__1_3_1_1_1_14_1_1
n844__1_3_1_1_1_14_2,n844__1_3_1_1_1_14_2_1
n845__1_3_1_1_1_12_1,n845__1_3_1_1_1_12_1_1
n845__1_3_1_1_1_12_2,n845__1_3_1_1_1_12_2_1
n845__1_3_1_1_1_12_3,n845__1_3_1_1_1_12_3_1
n845__1_3_1_1_1_12_4,n845__1_3_1_1_1_12_4_1
n846__1_3_1_1_1_11_1,n846__1_3_1_1_1_11_1_1
n847__1_3_1_1_1_10_1,n847__1_3_1_1_1_10_1_1
n850__1_3_1_1_1_8_1,n850__1_3_1_1_1_8_1_1
n851__1_3_1_1_1_15_1,n851__1_3_1_1_1_15_1_1
n851__1_3_1_1_1_15_2,n851__1_3_1_1_1_15_2_1
n853__1_3_1_1_1_9_1,n853__1_3_1_1_1_9_1_1
n854__1_3_1_1_1_11_1,n854__1_3_1_1_1_11_1_1
n854__1_3_1_1_1_11_2,n854__1_3_1_1_1_11_2_1
n854__1_3_1_1_1_11_3,n854__1_3_1_1_1_11_3_1
n854__1_3_1_1_1_11_4,n854__1_3_1_1_1_11_4_1
n854__1_3_1_1_1_11_5,n854__1_3_1_1_1_11_5_1
n855__1_3_1_1_1_18_1,n855__1_3_1_1_1_18_1_1
n856__1_3_1_1_1_13_1,n856__1_3_1_1_1_13_1_1
n857__1_3_1_1_1_14_1,n857__1_3_1_1_1_14_1_1
n857__1_3_1_1_1_14_2,n857__1_3_1_1_1_14_2_1
n858__1_3_1_1_1_10_1,n858__1_3_1_1_1_10_1_1
n861__1_3_1_1_1_10_1,n861__1_3_1_1_1_10_1_1
n864__1_3_1_1_1_10_1,n864__1_3_1_1_1_10_1_1
n865__1_3_1_1_1_13_1,n865__1_3_1_1_1_13_1_1
n865__1_3_1_1_1_13_2,n865__1_3_1_1_1_13_2_1
n870__1_3_1_1_1_17_1,n870__1_3_1_1_1_17_1_1
n875__1_3_1_1_1_13_1,n875__1_3_1_1_1_13_1_1
n878__1_3_1_1_1_17_1,n878__1_3_1_1_1_17_1_1
n880__1_3_1_1_1_10_1,n880__1_3_1_1_1_10_1_1
n882__1_3_1_1_1_11_1,n882__1_3_1_1_1_11_1_1
n883__1_3_1_1_1_14_1,n883__1_3_1_1_1_14_1_1
n883__1_3_1_1_1_14_2,n883__1_3_1_1_1_14_2_1
n884__1_3_1_1_1_11_1,n884__1_3_1_1_1_11_1_1
n884__1_3_1_1_1_11_2,n884__1_3_1_1_1_11_2_1
n884__1_3_1_1_1_11_3,n884__1_3_1_1_1_11_3_1
n885__1_3_1_1_1_10_1,n885__1_3_1_1_1_10_1_1
n885__1_3_1_1_1_10_2,n885__1_3_1_1_1_10_2_1
n886__1_3_1_1_1_12_1,n886__1_3_1_1_1_12_1_1
n887__1_3_1_1_1_14_1,n887__1_3_1_1_1_14_1_1
n888__1_3_1_1_1_12_1,n888__1_3_1_1_1_12_1_1
n889__1_3_1_1_1_10_1,n889__1_3_1_1_1_10_1_1
n891__1_3_1_1_1_11_1,n891__1_3_1_1_1_11_1_1
n892__1_3_1_1_1_14_1,n892__1_3_1_1_1_14_1_1
n892__1_3_1_1_1_14_2,n892__1_3_1_1_1_14_2_1
n892__1_3_1_1_1_14_3,n892__1_3_1_1_1_14_3_1
n894__1_3_1_1_1_11_1,n894__1_3_1_1_1_11_1_1
n895__1_3_1_1_1_16_1,n895__1_3_1_1_1_16_1_1
n895__1_3_1_1_1_16_2,n895__1_3_1_1_1_16_2_1
n896__1_3_1_1_1_12_1,n896__1_3_1_1_1_12_1_1
n897__1_3_1_1_1_12_1,n897__1_3_1_1_1_12_1_1
n899__1_3_1_1_1_9_1,n899__1_3_1_1_1_9_1_1
n899__1_3_1_1_1_9_2,n899__1_3_1_1_1_9_2_1
n902__1_3_1_1_1_10_1,n902__1_3_1_1_1_10_1_1
n902__1_3_1_1_1_10_2,n902__1_3_1_1_1_10_2_1
n904__1_3_1_1_1_12_1,n904__1_3_1_1_1_12_1_1
n906__1_3_1_1_1_12_1,n906__1_3_1_1_1_12_1_1
n910__1_3_1_1_1_10_1,n910__1_3_1_1_1_10_1_1
n910__1_3_1_1_1_10_2,n910__1_3_1_1_1_10_2_1
n910__1_3_1_1_1_10_3,n910__1_3_1_1_1_10_3_1
n910__1_3_1_1_1_10_4,n910__1_3_1_1_1_10_4_1
n920__1_3_1_1_1_11_1,n920__1_3_1_1_1_11_1_1
n920__1_3_1_1_1_11_2,n920__1_3_1_1_1_11_2_1
n923__1_3_1_1_1_10_1,n923__1_3_1_1_1_10_1_1
n925__1_3_1_1_1_11_1,n925__1_3_1_1_1_11_1_1
n925__1_3_1_1_1_11_2,n925__1_3_1_1_1_11_2_1
n925__1_3_1_1_1_11_3,n925__1_3_1_1_1_11_3_1
n925__1_3_1_1_1_11_4,n925__1_3_1_1_1_11_4_1
n929__1_3_1_1_1_11_1,n929__1_3_1_1_1_11_1_1
n930__1_3_1_1_1_13_1,n930__1_3_1_1_1_13_1_1
n931__1_3_1_1_1_11_1,n931__1_3_1_1_1_11_1_1
n932__1_3_1_1_1_13_1,n932__1_3_1_1_1_13_1_1
n932__1_3_1_1_1_13_2,n932__1_3_1_1_1_13_2_1
n932__1_3_1_1_1_13_3,n932__1_3_1_1_1_13_3_1
n932__1_3_1_1_1_13_4,n932__1_3_1_1_1_13_4_1
n933__1_3_1_1_1_10_1,n933__1_3_1_1_1_10_1_1
n933__1_3_1_1_1_10_2,n933__1_3_1_1_1_10_2_1
n934__1_3_1_1_1_9_1,n934__1_3_1_1_1_9_1_1
n935__1_3_1_1_1_12_1,n935__1_3_1_1_1_12_1_1
n939__1_3_1_1_1_13_1,n939__1_3_1_1_1_13_1_1
n940__1_3_1_1_1_14_1,n940__1_3_1_1_1_14_1_1
n940__1_3_1_1_1_14_2,n940__1_3_1_1_1_14_2_1
n941__1_3_1_1_1_10_1,n941__1_3_1_1_1_10_1_1
n942__1_3_1_1_1_9_1,n942__1_3_1_1_1_9_1_1
n942__1_3_1_1_1_9_2,n942__1_3_1_1_1_9_2_1
n943__1_3_1_1_1_12_1,n943__1_3_1_1_1_12_1_1
n944__1_3_1_1_1_11_1,n944__1_3_1_1_1_11_1_1
n947__1_3_1_1_1_13_1,n947__1_3_1_1_1_13_1_1
n947__1_3_1_1_1_13_2,n947__1_3_1_1_1_13_2_1
n950__1_3_1_1_1_9_1,n950__1_3_1_1_1_9_1_1
n953__1_3_1_1_1_11_1,n953__1_3_1_1_1_11_1_1
n954__1_3_1_1_1_12_1,n954__1_3_1_1_1_12_1_1
n957__1_3_1_1_1_17_1,n957__1_3_1_1_1_17_1_1
n957__1_3_1_1_1_17_2,n957__1_3_1_1_1_17_2_1
n960__1_3_1_1_1_10_1,n960__1_3_1_1_1_10_1_1
n961__1_3_1_1_1_12_1,n961__1_3_1_1_1_12_1_1
n964__1_3_1_1_1_9_1,n964__1_3_1_1_1_9_1_1
n964__1_3_1_1_1_9_2,n964__1_3_1_1_1_9_2_1
n964__1_3_1_1_1_9_3,n964__1_3_1_1_1_9_3_1
n965__1_3_1_1_1_13_1,n965__1_3_1_1_1_13_1_1
n966__1_3_1_1_1_10_1,n966__1_3_1_1_1_10_1_1
n966__1_3_1_1_1_10_2,n966__1_3_1_1_1_10_2_1
n967__1_3_1_1_1_12_1,n967__1_3_1_1_1_12_1_1
n968__1_3_1_1_1_16_1,n968__1_3_1_1_1_16_1_1
n968__1_3_1_1_1_16_2,n968__1_3_1_1_1_16_2_1
n968__1_3_1_1_1_16_3,n968__1_3_1_1_1_16_3_1
n969__1_3_1_1_1_17_1,n969__1_3_1_1_1_17_1_1
n969__1_3_1_1_1_17_2,n969__1_3_1_1_1_17_2_1
n970__1_3_1_1_1_10_1,n970__1_3_1_1_1_10_1_1
n971__1_3_1_1_1_9_1,n971__1_3_1_1_1_9_1_1
n971__1_3_1_1_1_9_2,n971__1_3_1_1_1_9_2_1
n971__1_3_1_1_1_9_3,n971__1_3_1_1_1_9_3_1
n971__1_3_1_1_1_9_4,n971__1_3_1_1_1_9_4_1
n973__1_3_1_1_1_11_1,n973__1_3_1_1_1_11_1_1
n973__1_3_1_1_1_11_2,n973__1_3_1_1_1_11_2_1
n974__1_3_1_1_1_12_1,n974__1_3_1_1_1_12_1_1
n978__1_3_1_1_1_10_1,n978__1_3_1_1_1_10_1_1
n978__1_3_1_1_1_10_2,n978__1_3_1_1_1_10_2_1
n979__1_3_1_1_1_11_1,n979__1_3_1_1_1_11_1_1
n980__1_3_1_1_1_10_1,n980__1_3_1_1_1_10_1_1
n981__1_3_1_1_1_16_1,n981__1_3_1_1_1_16_1_1
n984__1_3_1_1_1_9_1,n984__1_3_1_1_1_9_1_1
n988__1_3_1_1_1_9_1,n988__1_3_1_1_1_9_1_1
n989__1_3_1_1_1_10_1,n989__1_3_1_1_1_10_1_1
n990__1_3_1_1_1_10_1,n990__1_3_1_1_1_10_1_1
n991__1_3_1_1_1_12_1,n991__1_3_1_1_1_12_1_1
n992__1_3_1_1_1_9_1,n992__1_3_1_1_1_9_1_1
n993__1_3_1_1_1_14_1,n993__1_3_1_1_1_14_1_1
n994__1_3_1_1_1_9_1,n994__1_3_1_1_1_9_1_1
n995__1_3_1_1_1_15_1,n995__1_3_1_1_1_15_1_1
n996__1_3_1_1_1_11_1,n996__1_3_1_1_1_11_1_1
n996__1_3_1_1_1_11_2,n996__1_3_1_1_1_11_2_1
n997__1_3_1_1_1_14_1,n997__1_3_1_1_1_14_1_1
n1001__1_3_1_1_1_16_1,n1001__1_3_1_1_1_16_1_1
n1001__1_3_1_1_1_16_2,n1001__1_3_1_1_1_16_2_1
n1001__1_3_1_1_1_16_3,n1001__1_3_1_1_1_16_3_1
n1001__1_3_1_1_1_16_4,n1001__1_3_1_1_1_16_4_1
n1002__1_3_1_1_1_15_1,n1002__1_3_1_1_1_15_1_1
n1002__1_3_1_1_1_15_2,n1002__1_3_1_1_1_15_2_1
n1002__1_3_1_1_1_15_3,n1002__1_3_1_1_1_15_3_1
n1002__1_3_1_1_1_15_4,n1002__1_3_1_1_1_15_4_1
n1003__1_3_1_1_1_12_1,n1003__1_3_1_1_1_12_1_1
n1005__1_3_1_1_1_14_1,n1005__1_3_1_1_1_14_1_1
n1005__1_3_1_1_1_14_2,n1005__1_3_1_1_1_14_2_1
n1006__1_3_1_1_1_10_1,n1006__1_3_1_1_1_10_1_1
n1007__1_3_1_1_1_11_1,n1007__1_3_1_1_1_11_1_1
n1008__1_3_1_1_1_19_1,n1008__1_3_1_1_1_19_1_1
n1009__1_3_1_1_1_11_1,n1009__1_3_1_1_1_11_1_1
n1010__1_3_1_1_1_11_1,n1010__1_3_1_1_1_11_1_1
n1010__1_3_1_1_1_11_2,n1010__1_3_1_1_1_11_2_1
n1011__1_3_1_1_1_9_1,n1011__1_3_1_1_1_9_1_1
n1011__1_3_1_1_1_9_2,n1011__1_3_1_1_1_9_2_1
n1012__1_3_1_1_1_11_1,n1012__1_3_1_1_1_11_1_1
n1012__1_3_1_1_1_11_2,n1012__1_3_1_1_1_11_2_1
n1014__1_3_1_1_1_14_1,n1014__1_3_1_1_1_14_1_1
n1014__1_3_1_1_1_14_2,n1014__1_3_1_1_1_14_2_1
n1015__1_3_1_1_1_10_1,n1015__1_3_1_1_1_10_1_1
n1016__1_3_1_1_1_11_1,n1016__1_3_1_1_1_11_1_1
n1017__1_3_1_1_1_11_1,n1017__1_3_1_1_1_11_1_1
n1017__1_3_1_1_1_11_2,n1017__1_3_1_1_1_11_2_1
n1017__1_3_1_1_1_11_3,n1017__1_3_1_1_1_11_3_1
n1018__1_3_1_1_1_10_1,n1018__1_3_1_1_1_10_1_1
n1018__1_3_1_1_1_10_2,n1018__1_3_1_1_1_10_2_1
n1019__1_3_1_1_1_16_1,n1019__1_3_1_1_1_16_1_1
n1020__1_3_1_1_1_10_1,n1020__1_3_1_1_1_10_1_1
n1022__1_3_1_1_1_13_1,n1022__1_3_1_1_1_13_1_1
n1022__1_3_1_1_1_13_2,n1022__1_3_1_1_1_13_2_1
n1022__1_3_1_1_1_13_3,n1022__1_3_1_1_1_13_3_1
n1022__1_3_1_1_1_13_4,n1022__1_3_1_1_1_13_4_1
n1023__1_3_1_1_1_9_1,n1023__1_3_1_1_1_9_1_1
n1023__1_3_1_1_1_9_2,n1023__1_3_1_1_1_9_2_1
n1023__1_3_1_1_1_9_3,n1023__1_3_1_1_1_9_3_1
n1023__1_3_1_1_1_9_4,n1023__1_3_1_1_1_9_4_1
n1025__1_3_1_1_1_12_1,n1025__1_3_1_1_1_12_1_1
n1030__1_3_1_1_1_9_1,n1030__1_3_1_1_1_9_1_1
n1032__1_3_1_1_1_12_1,n1032__1_3_1_1_1_12_1_1
n1033__1_3_1_1_1_9_1,n1033__1_3_1_1_1_9_1_1
n1036__1_3_1_1_1_11_1,n1036__1_3_1_1_1_11_1_1
n1038__1_3_1_1_1_18_1,n1038__1_3_1_1_1_18_1_1
n1039__1_3_1_1_1_16_1,n1039__1_3_1_1_1_16_1_1
n1041__1_3_1_1_1_9_1,n1041__1_3_1_1_1_9_1_1
n1042__1_3_1_1_1_10_1,n1042__1_3_1_1_1_10_1_1
n1042__1_3_1_1_1_10_2,n1042__1_3_1_1_1_10_2_1
n1043__1_3_1_1_1_11_1,n1043__1_3_1_1_1_11_1_1
n1043__1_3_1_1_1_11_2,n1043__1_3_1_1_1_11_2_1
n1043__1_3_1_1_1_11_3,n1043__1_3_1_1_1_11_3_1
n1044__1_3_1_1_1_10_1,n1044__1_3_1_1_1_10_1_1
n1045__1_3_1_1_1_9_1,n1045__1_3_1_1_1_9_1_1
n1048__1_3_1_1_1_10_1,n1048__1_3_1_1_1_10_1_1
n1048__1_3_1_1_1_10_2,n1048__1_3_1_1_1_10_2_1
n1051__1_3_1_1_1_9_1,n1051__1_3_1_1_1_9_1_1
n1052__1_3_1_1_1_9_1,n1052__1_3_1_1_1_9_1_1
n1053__1_3_1_1_1_12_1,n1053__1_3_1_1_1_12_1_1
n1054__1_3_1_1_1_10_1,n1054__1_3_1_1_1_10_1_1
n1056__1_3_1_1_1_12_1,n1056__1_3_1_1_1_12_1_1
n1056__1_3_1_1_1_12_2,n1056__1_3_1_1_1_12_2_1
n1056__1_3_1_1_1_12_3,n1056__1_3_1_1_1_12_3_1
n1058__1_3_1_1_1_11_1,n1058__1_3_1_1_1_11_1_1
n1059__1_3_1_1_1_10_1,n1059__1_3_1_1_1_10_1_1
n1060__1_3_1_1_1_10_1,n1060__1_3_1_1_1_10_1_1
n1062__1_3_1_1_1_12_1,n1062__1_3_1_1_1_12_1_1
n1062__1_3_1_1_1_12_2,n1062__1_3_1_1_1_12_2_1
n1062__1_3_1_1_1_12_3,n1062__1_3_1_1_1_12_3_1
n1063__1_3_1_1_1_10_1,n1063__1_3_1_1_1_10_1_1
n1063__1_3_1_1_1_10_2,n1063__1_3_1_1_1_10_2_1
n1063__1_3_1_1_1_10_3,n1063__1_3_1_1_1_10_3_1
n1064__1_3_1_1_1_14_1,n1064__1_3_1_1_1_14_1_1
n1065__1_3_1_1_1_12_1,n1065__1_3_1_1_1_12_1_1
n1065__1_3_1_1_1_12_2,n1065__1_3_1_1_1_12_2_1
n1065__1_3_1_1_1_12_3,n1065__1_3_1_1_1_12_3_1
n1066__1_3_1_1_1_12_1,n1066__1_3_1_1_1_12_1_1
n1067__1_3_1_1_1_10_1,n1067__1_3_1_1_1_10_1_1
n1067__1_3_1_1_1_10_2,n1067__1_3_1_1_1_10_2_1
n1069__1_3_1_1_1_11_1,n1069__1_3_1_1_1_11_1_1
n1069__1_3_1_1_1_11_2,n1069__1_3_1_1_1_11_2_1
n1070__1_3_1_1_1_9_1,n1070__1_3_1_1_1_9_1_1
n1071__1_3_1_1_1_10_1,n1071__1_3_1_1_1_10_1_1
n1073__1_3_1_1_1_9_1,n1073__1_3_1_1_1_9_1_1
n1074__1_3_1_1_1_10_1,n1074__1_3_1_1_1_10_1_1
n1074__1_3_1_1_1_10_2,n1074__1_3_1_1_1_10_2_1
n1075__1_3_1_1_1_11_1,n1075__1_3_1_1_1_11_1_1
n1075__1_3_1_1_1_11_2,n1075__1_3_1_1_1_11_2_1
n1076__1_3_1_1_1_18_1,n1076__1_3_1_1_1_18_1_1
n1076__1_3_1_1_1_18_2,n1076__1_3_1_1_1_18_2_1
n1077__1_3_1_1_1_10_1,n1077__1_3_1_1_1_10_1_1
n1078__1_3_1_1_1_10_1,n1078__1_3_1_1_1_10_1_1
n1079__1_3_1_1_1_16_1,n1079__1_3_1_1_1_16_1_1
n1079__1_3_1_1_1_16_2,n1079__1_3_1_1_1_16_2_1
n1079__1_3_1_1_1_16_3,n1079__1_3_1_1_1_16_3_1
n1080__1_3_1_1_1_11_1,n1080__1_3_1_1_1_11_1_1
n1081__1_3_1_1_1_18_1,n1081__1_3_1_1_1_18_1_1
n1082__1_3_1_1_1_9_1,n1082__1_3_1_1_1_9_1_1
n1084__1_3_1_1_1_11_1,n1084__1_3_1_1_1_11_1_1
n1084__1_3_1_1_1_11_2,n1084__1_3_1_1_1_11_2_1
n1084__1_3_1_1_1_11_3,n1084__1_3_1_1_1_11_3_1
n1085__1_3_1_1_1_9_1,n1085__1_3_1_1_1_9_1_1
n1087__1_3_1_1_1_12_1,n1087__1_3_1_1_1_12_1_1
n1087__1_3_1_1_1_12_2,n1087__1_3_1_1_1_12_2_1
n1089__1_3_1_1_1_10_1,n1089__1_3_1_1_1_10_1_1
n1091__1_3_1_1_1_18_1,n1091__1_3_1_1_1_18_1_1
n1091__1_3_1_1_1_18_2,n1091__1_3_1_1_1_18_2_1
n1095__1_3_1_1_1_11_1,n1095__1_3_1_1_1_11_1_1
n1095__1_3_1_1_1_11_2,n1095__1_3_1_1_1_11_2_1
n1096__1_3_1_1_1_16_1,n1096__1_3_1_1_1_16_1_1
n1097__1_3_1_1_1_12_1,n1097__1_3_1_1_1_12_1_1
n1097__1_3_1_1_1_12_2,n1097__1_3_1_1_1_12_2_1
n1097__1_3_1_1_1_12_3,n1097__1_3_1_1_1_12_3_1
n1099__1_3_1_1_1_15_1,n1099__1_3_1_1_1_15_1_1
n1100__1_3_1_1_1_11_1,n1100__1_3_1_1_1_11_1_1
n1101__1_3_1_1_1_12_1,n1101__1_3_1_1_1_12_1_1
n1103__1_3_1_1_1_13_1,n1103__1_3_1_1_1_13_1_1
n1103__1_3_1_1_1_13_2,n1103__1_3_1_1_1_13_2_1
n1103__1_3_1_1_1_13_3,n1103__1_3_1_1_1_13_3_1
n1103__1_3_1_1_1_13_4,n1103__1_3_1_1_1_13_4_1
n1104__1_3_1_1_1_9_1,n1104__1_3_1_1_1_9_1_1
n1106__1_3_1_1_1_9_1,n1106__1_3_1_1_1_9_1_1
n1107__1_3_1_1_1_9_1,n1107__1_3_1_1_1_9_1_1
n1108__1_3_1_1_1_10_1,n1108__1_3_1_1_1_10_1_1
n1111__1_3_1_1_1_11_1,n1111__1_3_1_1_1_11_1_1
n1111__1_3_1_1_1_11_2,n1111__1_3_1_1_1_11_2_1
n1113__1_3_1_1_1_18_1,n1113__1_3_1_1_1_18_1_1
n1113__1_3_1_1_1_18_2,n1113__1_3_1_1_1_18_2_1
n1113__1_3_1_1_1_18_3,n1113__1_3_1_1_1_18_3_1
n1114__1_3_1_1_1_9_1,n1114__1_3_1_1_1_9_1_1
n1114__1_3_1_1_1_9_2,n1114__1_3_1_1_1_9_2_1
n1115__1_3_1_1_1_14_1,n1115__1_3_1_1_1_14_1_1
n1116__1_3_1_1_1_9_1,n1116__1_3_1_1_1_9_1_1
n1119__1_3_1_1_1_17_1,n1119__1_3_1_1_1_17_1_1
n1121__1_3_1_1_1_9_1,n1121__1_3_1_1_1_9_1_1
n1122__1_3_1_1_1_12_1,n1122__1_3_1_1_1_12_1_1
n1125__1_3_1_1_1_9_1,n1125__1_3_1_1_1_9_1_1
n1126__1_3_1_1_1_10_1,n1126__1_3_1_1_1_10_1_1
n1126__1_3_1_1_1_10_2,n1126__1_3_1_1_1_10_2_1
n1127__1_3_1_1_1_16_1,n1127__1_3_1_1_1_16_1_1
n1127__1_3_1_1_1_16_2,n1127__1_3_1_1_1_16_2_1
n1130__1_3_1_1_1_11_1,n1130__1_3_1_1_1_11_1_1
n1131__1_3_1_1_1_9_1,n1131__1_3_1_1_1_9_1_1
n1131__1_3_1_1_1_9_2,n1131__1_3_1_1_1_9_2_1
n1131__1_3_1_1_1_9_3,n1131__1_3_1_1_1_9_3_1
n1131__1_3_1_1_1_9_4,n1131__1_3_1_1_1_9_4_1
n1131__1_3_1_1_1_9_5,n1131__1_3_1_1_1_9_5_1
n1132__1_3_1_1_1_13_1,n1132__1_3_1_1_1_13_1_1
n1133__1_3_1_1_1_9_1,n1133__1_3_1_1_1_9_1_1
n1134__1_3_1_1_1_13_1,n1134__1_3_1_1_1_13_1_1
n1134__1_3_1_1_1_13_2,n1134__1_3_1_1_1_13_2_1
n1135__1_3_1_1_1_10_1,n1135__1_3_1_1_1_10_1_1
n1135__1_3_1_1_1_10_2,n1135__1_3_1_1_1_10_2_1
n1136__1_3_1_1_1_17_1,n1136__1_3_1_1_1_17_1_1
n1139__1_3_1_1_1_13_1,n1139__1_3_1_1_1_13_1_1
n1140__1_3_1_1_1_10_1,n1140__1_3_1_1_1_10_1_1
n1140__1_3_1_1_1_10_2,n1140__1_3_1_1_1_10_2_1
n1141__1_3_1_1_1_11_1,n1141__1_3_1_1_1_11_1_1
n1141__1_3_1_1_1_11_2,n1141__1_3_1_1_1_11_2_1
n1144__1_3_1_1_1_10_1,n1144__1_3_1_1_1_10_1_1
n1144__1_3_1_1_1_10_2,n1144__1_3_1_1_1_10_2_1
n1145__1_3_1_1_1_10_1,n1145__1_3_1_1_1_10_1_1
n1146__1_3_1_1_1_18_1,n1146__1_3_1_1_1_18_1_1
n1146__1_3_1_1_1_18_2,n1146__1_3_1_1_1_18_2_1
n1146__1_3_1_1_1_18_3,n1146__1_3_1_1_1_18_3_1
n1146__1_3_1_1_1_18_4,n1146__1_3_1_1_1_18_4_1
n1147__1_3_1_1_1_13_1,n1147__1_3_1_1_1_13_1_1
n1147__1_3_1_1_1_13_2,n1147__1_3_1_1_1_13_2_1
n1149__1_3_1_1_1_15_1,n1149__1_3_1_1_1_15_1_1
n1149__1_3_1_1_1_15_2,n1149__1_3_1_1_1_15_2_1
n1149__1_3_1_1_1_15_3,n1149__1_3_1_1_1_15_3_1
n1149__1_3_1_1_1_15_4,n1149__1_3_1_1_1_15_4_1
n1150__1_3_1_1_1_12_1,n1150__1_3_1_1_1_12_1_1
n1150__1_3_1_1_1_12_2,n1150__1_3_1_1_1_12_2_1
n1150__1_3_1_1_1_12_3,n1150__1_3_1_1_1_12_3_1
n1150__1_3_1_1_1_12_4,n1150__1_3_1_1_1_12_4_1
n1151__1_3_1_1_1_10_1,n1151__1_3_1_1_1_10_1_1
n1151__1_3_1_1_1_10_2,n1151__1_3_1_1_1_10_2_1
n1152__1_3_1_1_1_11_1,n1152__1_3_1_1_1_11_1_1
n1153__1_3_1_1_1_11_1,n1153__1_3_1_1_1_11_1_1
n1153__1_3_1_1_1_11_2,n1153__1_3_1_1_1_11_2_1
n1156__1_3_1_1_1_9_1,n1156__1_3_1_1_1_9_1_1
n1156__1_3_1_1_1_9_2,n1156__1_3_1_1_1_9_2_1
n1158__1_3_1_1_1_11_1,n1158__1_3_1_1_1_11_1_1
n1158__1_3_1_1_1_11_2,n1158__1_3_1_1_1_11_2_1
n1159__1_3_1_1_1_9_1,n1159__1_3_1_1_1_9_1_1
n1159__1_3_1_1_1_9_2,n1159__1_3_1_1_1_9_2_1
n1160__1_3_1_1_1_12_1,n1160__1_3_1_1_1_12_1_1
n1161__1_3_1_1_1_11_1,n1161__1_3_1_1_1_11_1_1
n1162__1_3_1_1_1_9_1,n1162__1_3_1_1_1_9_1_1
n1162__1_3_1_1_1_9_2,n1162__1_3_1_1_1_9_2_1
n1163__1_3_1_1_1_15_1,n1163__1_3_1_1_1_15_1_1
n1163__1_3_1_1_1_15_2,n1163__1_3_1_1_1_15_2_1
n1164__1_3_1_1_1_10_1,n1164__1_3_1_1_1_10_1_1
n1166__1_3_1_1_1_16_1,n1166__1_3_1_1_1_16_1_1
n1167__1_3_1_1_1_15_1,n1167__1_3_1_1_1_15_1_1
n1168__1_3_1_1_1_9_1,n1168__1_3_1_1_1_9_1_1
n1169__1_3_1_1_1_14_1,n1169__1_3_1_1_1_14_1_1
n1169__1_3_1_1_1_14_2,n1169__1_3_1_1_1_14_2_1
n1169__1_3_1_1_1_14_3,n1169__1_3_1_1_1_14_3_1
n1171__1_3_1_1_1_14_1,n1171__1_3_1_1_1_14_1_1
n1171__1_3_1_1_1_14_2,n1171__1_3_1_1_1_14_2_1
n1172__1_3_1_1_1_14_1,n1172__1_3_1_1_1_14_1_1
n1173__1_3_1_1_1_9_1,n1173__1_3_1_1_1_9_1_1
n1174__1_3_1_1_1_11_1,n1174__1_3_1_1_1_11_1_1
n1175__1_3_1_1_1_11_1,n1175__1_3_1_1_1_11_1_1
n1176__1_3_1_1_1_17_1,n1176__1_3_1_1_1_17_1_1
n1176__1_3_1_1_1_17_2,n1176__1_3_1_1_1_17_2_1
n1177__1_3_1_1_1_11_1,n1177__1_3_1_1_1_11_1_1
n1178__1_3_1_1_1_17_1,n1178__1_3_1_1_1_17_1_1
n1179__1_3_1_1_1_12_1,n1179__1_3_1_1_1_12_1_1
n1180__1_3_1_1_1_9_1,n1180__1_3_1_1_1_9_1_1
n1181__1_3_1_1_1_13_1,n1181__1_3_1_1_1_13_1_1
n1182__1_3_1_1_1_14_1,n1182__1_3_1_1_1_14_1_1
n1182__1_3_1_1_1_14_2,n1182__1_3_1_1_1_14_2_1
n1185__1_3_1_1_1_12_1,n1185__1_3_1_1_1_12_1_1
n1186__1_3_1_1_1_14_1,n1186__1_3_1_1_1_14_1_1
n1188__1_3_1_1_1_12_1,n1188__1_3_1_1_1_12_1_1
n1188__1_3_1_1_1_12_2,n1188__1_3_1_1_1_12_2_1
n1189__1_3_1_1_1_11_1,n1189__1_3_1_1_1_11_1_1
n1191__1_3_1_1_1_10_1,n1191__1_3_1_1_1_10_1_1
n1192__1_3_1_1_1_18_1,n1192__1_3_1_1_1_18_1_1
n1193__1_3_1_1_1_17_1,n1193__1_3_1_1_1_17_1_1
n1193__1_3_1_1_1_17_2,n1193__1_3_1_1_1_17_2_1
n1194__1_3_1_1_1_14_1,n1194__1_3_1_1_1_14_1_1
n1196__1_3_1_1_1_9_1,n1196__1_3_1_1_1_9_1_1
n1196__1_3_1_1_1_9_2,n1196__1_3_1_1_1_9_2_1
n1198__1_3_1_1_1_10_1,n1198__1_3_1_1_1_10_1_1
n1199__1_3_1_1_1_12_1,n1199__1_3_1_1_1_12_1_1
n1199__1_3_1_1_1_12_2,n1199__1_3_1_1_1_12_2_1
n1200__1_3_1_1_1_11_1,n1200__1_3_1_1_1_11_1_1
n1200__1_3_1_1_1_11_2,n1200__1_3_1_1_1_11_2_1
n1201__1_3_1_1_1_12_1,n1201__1_3_1_1_1_12_1_1
n1204__1_3_1_1_1_12_1,n1204__1_3_1_1_1_12_1_1
n1206__1_3_1_1_1_9_1,n1206__1_3_1_1_1_9_1_1
n1206__1_3_1_1_1_9_2,n1206__1_3_1_1_1_9_2_1
n1208__1_3_1_1_1_10_1,n1208__1_3_1_1_1_10_1_1
n1209__1_3_1_1_1_13_1,n1209__1_3_1_1_1_13_1_1
n1209__1_3_1_1_1_13_2,n1209__1_3_1_1_1_13_2_1
n1209__1_3_1_1_1_13_3,n1209__1_3_1_1_1_13_3_1
n1209__1_3_1_1_1_13_4,n1209__1_3_1_1_1_13_4_1
n1209__1_3_1_1_1_13_5,n1209__1_3_1_1_1_13_5_1
n1210__1_3_1_1_1_13_1,n1210__1_3_1_1_1_13_1_1
n1210__1_3_1_1_1_13_2,n1210__1_3_1_1_1_13_2_1
n1210__1_3_1_1_1_13_3,n1210__1_3_1_1_1_13_3_1
n1211__1_3_1_1_1_11_1,n1211__1_3_1_1_1_11_1_1
n1212__1_3_1_1_1_10_1,n1212__1_3_1_1_1_10_1_1
n1212__1_3_1_1_1_10_2,n1212__1_3_1_1_1_10_2_1
n1214__1_3_1_1_1_12_1,n1214__1_3_1_1_1_12_1_1
n1214__1_3_1_1_1_12_2,n1214__1_3_1_1_1_12_2_1
n1214__1_3_1_1_1_12_3,n1214__1_3_1_1_1_12_3_1
n1215__1_3_1_1_1_17_1,n1215__1_3_1_1_1_17_1_1
n1215__1_3_1_1_1_17_2,n1215__1_3_1_1_1_17_2_1
n1216__1_3_1_1_1_9_1,n1216__1_3_1_1_1_9_1_1
n1220__1_3_1_1_1_12_1,n1220__1_3_1_1_1_12_1_1
n1221__1_3_1_1_1_11_1,n1221__1_3_1_1_1_11_1_1
n1223__1_3_1_1_1_11_1,n1223__1_3_1_1_1_11_1_1
n1225__1_3_1_1_1_10_1,n1225__1_3_1_1_1_10_1_1
n1226__1_3_1_1_1_8_1,n1226__1_3_1_1_1_8_1_1
n1229__1_3_1_1_1_10_1,n1229__1_3_1_1_1_10_1_1
n1230__1_3_1_1_1_10_1,n1230__1_3_1_1_1_10_1_1
n1231__1_3_1_1_1_10_1,n1231__1_3_1_1_1_10_1_1
n1232__1_3_1_1_1_13_1,n1232__1_3_1_1_1_13_1_1
n1233__1_3_1_1_1_17_1,n1233__1_3_1_1_1_17_1_1
n1235__1_3_1_1_1_10_1,n1235__1_3_1_1_1_10_1_1
n1237__1_3_1_1_1_9_1,n1237__1_3_1_1_1_9_1_1
n1238__1_3_1_1_1_11_1,n1238__1_3_1_1_1_11_1_1
n1238__1_3_1_1_1_11_2,n1238__1_3_1_1_1_11_2_1
n1240__1_3_1_1_1_9_1,n1240__1_3_1_1_1_9_1_1
n1242__1_3_1_1_1_10_1,n1242__1_3_1_1_1_10_1_1
n1243__1_3_1_1_1_12_1,n1243__1_3_1_1_1_12_1_1
n1244__1_3_1_1_1_9_1,n1244__1_3_1_1_1_9_1_1
n1245__1_3_1_1_1_10_1,n1245__1_3_1_1_1_10_1_1
n1245__1_3_1_1_1_10_2,n1245__1_3_1_1_1_10_2_1
n1245__1_3_1_1_1_10_3,n1245__1_3_1_1_1_10_3_1
n1246__1_3_1_1_1_13_1,n1246__1_3_1_1_1_13_1_1
n1246__1_3_1_1_1_13_2,n1246__1_3_1_1_1_13_2_1
n1247__1_3_1_1_1_9_1,n1247__1_3_1_1_1_9_1_1
n1248__1_3_1_1_1_12_1,n1248__1_3_1_1_1_12_1_1
n1248__1_3_1_1_1_12_2,n1248__1_3_1_1_1_12_2_1
n1248__1_3_1_1_1_12_3,n1248__1_3_1_1_1_12_3_1
n1248__1_3_1_1_1_12_4,n1248__1_3_1_1_1_12_4_1
n1249__1_3_1_1_1_9_1,n1249__1_3_1_1_1_9_1_1
n1249__1_3_1_1_1_9_2,n1249__1_3_1_1_1_9_2_1
n1249__1_3_1_1_1_9_3,n1249__1_3_1_1_1_9_3_1
n1249__1_3_1_1_1_9_4,n1249__1_3_1_1_1_9_4_1
n1249__1_3_1_1_1_9_5,n1249__1_3_1_1_1_9_5_1
n1250__1_3_1_1_1_10_1,n1250__1_3_1_1_1_10_1_1
n1250__1_3_1_1_1_10_2,n1250__1_3_1_1_1_10_2_1
n1251__1_3_1_1_1_15_1,n1251__1_3_1_1_1_15_1_1
n1251__1_3_1_1_1_15_2,n1251__1_3_1_1_1_15_2_1
n1252__1_3_1_1_1_9_1,n1252__1_3_1_1_1_9_1_1
n1252__1_3_1_1_1_9_2,n1252__1_3_1_1_1_9_2_1
n1253__1_3_1_1_1_11_1,n1253__1_3_1_1_1_11_1_1
n1254__1_3_1_1_1_14_1,n1254__1_3_1_1_1_14_1_1
n1256__1_3_1_1_1_13_1,n1256__1_3_1_1_1_13_1_1
n1258__1_3_1_1_1_9_1,n1258__1_3_1_1_1_9_1_1
n1258__1_3_1_1_1_9_2,n1258__1_3_1_1_1_9_2_1
n1258__1_3_1_1_1_9_3,n1258__1_3_1_1_1_9_3_1
n1260__1_3_1_1_1_13_1,n1260__1_3_1_1_1_13_1_1
n1260__1_3_1_1_1_13_2,n1260__1_3_1_1_1_13_2_1
n1261__1_3_1_1_1_10_1,n1261__1_3_1_1_1_10_1_1
n1262__1_3_1_1_1_13_1,n1262__1_3_1_1_1_13_1_1
n1262__1_3_1_1_1_13_2,n1262__1_3_1_1_1_13_2_1
n1262__1_3_1_1_1_13_3,n1262__1_3_1_1_1_13_3_1
n1262__1_3_1_1_1_13_4,n1262__1_3_1_1_1_13_4_1
n1264__1_3_1_1_1_10_1,n1264__1_3_1_1_1_10_1_1
n1269__1_3_1_1_1_19_1,n1269__1_3_1_1_1_19_1_1
n1271__1_3_1_1_1_10_1,n1271__1_3_1_1_1_10_1_1
n1272__1_3_1_1_1_18_1,n1272__1_3_1_1_1_18_1_1
n1273__1_3_1_1_1_16_1,n1273__1_3_1_1_1_16_1_1
n1274__1_3_1_1_1_12_1,n1274__1_3_1_1_1_12_1_1
n1275__1_3_1_1_1_16_1,n1275__1_3_1_1_1_16_1_1
n1275__1_3_1_1_1_16_2,n1275__1_3_1_1_1_16_2_1
n1276__1_3_1_1_1_11_1,n1276__1_3_1_1_1_11_1_1
n1277__1_3_1_1_1_10_1,n1277__1_3_1_1_1_10_1_1
n1277__1_3_1_1_1_10_2,n1277__1_3_1_1_1_10_2_1
n1277__1_3_1_1_1_10_3,n1277__1_3_1_1_1_10_3_1
n1278__1_3_1_1_1_11_1,n1278__1_3_1_1_1_11_1_1
n1278__1_3_1_1_1_11_2,n1278__1_3_1_1_1_11_2_1
n1279__1_3_1_1_1_10_1,n1279__1_3_1_1_1_10_1_1
n1280__1_3_1_1_1_17_1,n1280__1_3_1_1_1_17_1_1
n1281__1_3_1_1_1_8_1,n1281__1_3_1_1_1_8_1_1
n1282__1_3_1_1_1_11_1,n1282__1_3_1_1_1_11_1_1
n1283__1_3_1_1_1_11_1,n1283__1_3_1_1_1_11_1_1
n1283__1_3_1_1_1_11_2,n1283__1_3_1_1_1_11_2_1
n1285__1_3_1_1_1_18_1,n1285__1_3_1_1_1_18_1_1
n1286__1_3_1_1_1_11_1,n1286__1_3_1_1_1_11_1_1
n1288__1_3_1_1_1_9_1,n1288__1_3_1_1_1_9_1_1
n1291__1_3_1_1_1_12_1,n1291__1_3_1_1_1_12_1_1
n1291__1_3_1_1_1_12_2,n1291__1_3_1_1_1_12_2_1
n1291__1_3_1_1_1_12_3,n1291__1_3_1_1_1_12_3_1
n1292__1_3_1_1_1_13_1,n1292__1_3_1_1_1_13_1_1
n1293__1_3_1_1_1_11_1,n1293__1_3_1_1_1_11_1_1
n1294__1_3_1_1_1_9_1,n1294__1_3_1_1_1_9_1_1
n1295__1_3_1_1_1_10_1,n1295__1_3_1_1_1_10_1_1
n1295__1_3_1_1_1_10_2,n1295__1_3_1_1_1_10_2_1
n1295__1_3_1_1_1_10_3,n1295__1_3_1_1_1_10_3_1
n1296__1_3_1_1_1_11_1,n1296__1_3_1_1_1_11_1_1
n1297__1_3_1_1_1_18_1,n1297__1_3_1_1_1_18_1_1
n1300__1_3_1_1_1_10_1,n1300__1_3_1_1_1_10_1_1
n1301__1_3_1_1_1_14_1,n1301__1_3_1_1_1_14_1_1
n1301__1_3_1_1_1_14_2,n1301__1_3_1_1_1_14_2_1
n1302__1_3_1_1_1_16_1,n1302__1_3_1_1_1_16_1_1
n1302__1_3_1_1_1_16_2,n1302__1_3_1_1_1_16_2_1
n1304__1_3_1_1_1_11_1,n1304__1_3_1_1_1_11_1_1
n1305__1_3_1_1_1_10_1,n1305__1_3_1_1_1_10_1_1
n1306__1_3_1_1_1_10_1,n1306__1_3_1_1_1_10_1_1
n1307__1_3_1_1_1_13_1,n1307__1_3_1_1_1_13_1_1
n1309__1_3_1_1_1_9_1,n1309__1_3_1_1_1_9_1_1
n1309__1_3_1_1_1_9_2,n1309__1_3_1_1_1_9_2_1
n1309__1_3_1_1_1_9_3,n1309__1_3_1_1_1_9_3_1
n1309__1_3_1_1_1_9_4,n1309__1_3_1_1_1_9_4_1
n1309__1_3_1_1_1_9_5,n1309__1_3_1_1_1_9_5_1
n1309__1_3_1_1_1_9_6,n1309__1_3_1_1_1_9_6_1
n1310__1_3_1_1_1_10_1,n1310__1_3_1_1_1_10_1_1
n1311__1_3_1_1_1_15_1,n1311__1_3_1_1_1_15_1_1
n1313__1_3_1_1_1_11_1,n1313__1_3_1_1_1_11_1_1
n1313__1_3_1_1_1_11_2,n1313__1_3_1_1_1_11_2_1
n1316__1_3_1_1_1_11_1,n1316__1_3_1_1_1_11_1_1
n1317__1_3_1_1_1_10_1,n1317__1_3_1_1_1_10_1_1
n1317__1_3_1_1_1_10_2,n1317__1_3_1_1_1_10_2_1
n1317__1_3_1_1_1_10_3,n1317__1_3_1_1_1_10_3_1
n1317__1_3_1_1_1_10_4,n1317__1_3_1_1_1_10_4_1
n1319__1_3_1_1_1_19_1,n1319__1_3_1_1_1_19_1_1
n1320__1_3_1_1_1_10_1,n1320__1_3_1_1_1_10_1_1
n1323__1_3_1_1_1_8_1,n1323__1_3_1_1_1_8_1_1
n1323__1_3_1_1_1_8_2,n1323__1_3_1_1_1_8_2_1
n1325__1_3_1_1_1_18_1,n1325__1_3_1_1_1_18_1_1
n1325__1_3_1_1_1_18_2,n1325__1_3_1_1_1_18_2_1
n1327__1_3_1_1_1_10_1,n1327__1_3_1_1_1_10_1_1
n1328__1_3_1_1_1_11_1,n1328__1_3_1_1_1_11_1_1
n1329__1_3_1_1_1_11_1,n1329__1_3_1_1_1_11_1_1
n1329__1_3_1_1_1_11_2,n1329__1_3_1_1_1_11_2_1
n1329__1_3_1_1_1_11_3,n1329__1_3_1_1_1_11_3_1
n1330__1_3_1_1_1_12_1,n1330__1_3_1_1_1_12_1_1
n1330__1_3_1_1_1_12_2,n1330__1_3_1_1_1_12_2_1
n1331__1_3_1_1_1_12_1,n1331__1_3_1_1_1_12_1_1
n1334__1_3_1_1_1_9_1,n1334__1_3_1_1_1_9_1_1
n1334__1_3_1_1_1_9_2,n1334__1_3_1_1_1_9_2_1
n1335__1_3_1_1_1_11_1,n1335__1_3_1_1_1_11_1_1
n1337__1_3_1_1_1_9_1,n1337__1_3_1_1_1_9_1_1
n1340__1_3_1_1_1_9_1,n1340__1_3_1_1_1_9_1_1
n1341__1_3_1_1_1_10_1,n1341__1_3_1_1_1_10_1_1
n1341__1_3_1_1_1_10_2,n1341__1_3_1_1_1_10_2_1
n1345__1_3_1_1_1_11_1,n1345__1_3_1_1_1_11_1_1
n1345__1_3_1_1_1_11_2,n1345__1_3_1_1_1_11_2_1
n1347__1_3_1_1_1_9_1,n1347__1_3_1_1_1_9_1_1
n1353__1_3_1_1_1_11_1,n1353__1_3_1_1_1_11_1_1
n1353__1_3_1_1_1_11_2,n1353__1_3_1_1_1_11_2_1
n1354__1_3_1_1_1_14_1,n1354__1_3_1_1_1_14_1_1
n1354__1_3_1_1_1_14_2,n1354__1_3_1_1_1_14_2_1
n1355__1_3_1_1_1_14_1,n1355__1_3_1_1_1_14_1_1
n1356__1_3_1_1_1_17_1,n1356__1_3_1_1_1_17_1_1
n1356__1_3_1_1_1_17_2,n1356__1_3_1_1_1_17_2_1
n1357__1_3_1_1_1_13_1,n1357__1_3_1_1_1_13_1_1
n1357__1_3_1_1_1_13_2,n1357__1_3_1_1_1_13_2_1
n1358__1_3_1_1_1_15_1,n1358__1_3_1_1_1_15_1_1
n1358__1_3_1_1_1_15_2,n1358__1_3_1_1_1_15_2_1
n1358__1_3_1_1_1_15_3,n1358__1_3_1_1_1_15_3_1
n1358__1_3_1_1_1_15_4,n1358__1_3_1_1_1_15_4_1
n1360__1_3_1_1_1_10_1,n1360__1_3_1_1_1_10_1_1
n1361__1_3_1_1_1_11_1,n1361__1_3_1_1_1_11_1_1
n1361__1_3_1_1_1_11_2,n1361__1_3_1_1_1_11_2_1
n1361__1_3_1_1_1_11_3,n1361__1_3_1_1_1_11_3_1
n1362__1_3_1_1_1_10_1,n1362__1_3_1_1_1_10_1_1
n1362__1_3_1_1_1_10_2,n1362__1_3_1_1_1_10_2_1
n1363__1_3_1_1_1_13_1,n1363__1_3_1_1_1_13_1_1
n1365__1_3_1_1_1_11_1,n1365__1_3_1_1_1_11_1_1
n1366__1_3_1_1_1_9_1,n1366__1_3_1_1_1_9_1_1
n1367__1_3_1_1_1_8_1,n1367__1_3_1_1_1_8_1_1
n1367__1_3_1_1_1_8_2,n1367__1_3_1_1_1_8_2_1
n1367__1_3_1_1_1_8_3,n1367__1_3_1_1_1_8_3_1
n1367__1_3_1_1_1_8_4,n1367__1_3_1_1_1_8_4_1
n1371__1_3_1_1_1_11_1,n1371__1_3_1_1_1_11_1_1
n1372__1_3_1_1_1_9_1,n1372__1_3_1_1_1_9_1_1
n1372__1_3_1_1_1_9_2,n1372__1_3_1_1_1_9_2_1
n1372__1_3_1_1_1_9_3,n1372__1_3_1_1_1_9_3_1
n1373__1_3_1_1_1_9_1,n1373__1_3_1_1_1_9_1_1
n1374__1_3_1_1_1_12_1,n1374__1_3_1_1_1_12_1_1
n1375__1_3_1_1_1_11_1,n1375__1_3_1_1_1_11_1_1
n1376__1_3_1_1_1_12_1,n1376__1_3_1_1_1_12_1_1
n1378__1_3_1_1_1_11_1,n1378__1_3_1_1_1_11_1_1
n1380__1_3_1_1_1_10_1,n1380__1_3_1_1_1_10_1_1
n1382__1_3_1_1_1_12_1,n1382__1_3_1_1_1_12_1_1
n1383__1_3_1_1_1_10_1,n1383__1_3_1_1_1_10_1_1
n1383__1_3_1_1_1_10_2,n1383__1_3_1_1_1_10_2_1
n1384__1_3_1_1_1_10_1,n1384__1_3_1_1_1_10_1_1
n1387__1_3_1_1_1_9_1,n1387__1_3_1_1_1_9_1_1
n1387__1_3_1_1_1_9_2,n1387__1_3_1_1_1_9_2_1
n1387__1_3_1_1_1_9_3,n1387__1_3_1_1_1_9_3_1
n1387__1_3_1_1_1_9_4,n1387__1_3_1_1_1_9_4_1
n1389__1_3_1_1_1_11_1,n1389__1_3_1_1_1_11_1_1
n1390__1_3_1_1_1_16_1,n1390__1_3_1_1_1_16_1_1
n1391__1_3_1_1_1_11_1,n1391__1_3_1_1_1_11_1_1
n1392__1_3_1_1_1_15_1,n1392__1_3_1_1_1_15_1_1
n1393__1_3_1_1_1_12_1,n1393__1_3_1_1_1_12_1_1
n1394__1_3_1_1_1_14_1,n1394__1_3_1_1_1_14_1_1
n1396__1_3_1_1_1_14_1,n1396__1_3_1_1_1_14_1_1
n1396__1_3_1_1_1_14_2,n1396__1_3_1_1_1_14_2_1
n1396__1_3_1_1_1_14_3,n1396__1_3_1_1_1_14_3_1
n1397__1_3_1_1_1_12_1,n1397__1_3_1_1_1_12_1_1
n1397__1_3_1_1_1_12_2,n1397__1_3_1_1_1_12_2_1
n1404__1_3_1_1_1_9_1,n1404__1_3_1_1_1_9_1_1
n1404__1_3_1_1_1_9_2,n1404__1_3_1_1_1_9_2_1
n1405__1_3_1_1_1_11_1,n1405__1_3_1_1_1_11_1_1
n1407__1_3_1_1_1_11_1,n1407__1_3_1_1_1_11_1_1
n1407__1_3_1_1_1_11_2,n1407__1_3_1_1_1_11_2_1
n1407__1_3_1_1_1_11_3,n1407__1_3_1_1_1_11_3_1
n1408__1_3_1_1_1_11_1,n1408__1_3_1_1_1_11_1_1
n1408__1_3_1_1_1_11_2,n1408__1_3_1_1_1_11_2_1
n1409__1_3_1_1_1_10_1,n1409__1_3_1_1_1_10_1_1
n1411__1_3_1_1_1_10_1,n1411__1_3_1_1_1_10_1_1
n1412__1_3_1_1_1_9_1,n1412__1_3_1_1_1_9_1_1
n1414__1_3_1_1_1_10_1,n1414__1_3_1_1_1_10_1_1
n1415__1_3_1_1_1_14_1,n1415__1_3_1_1_1_14_1_1
n1417__1_3_1_1_1_10_1,n1417__1_3_1_1_1_10_1_1
n1419__1_3_1_1_1_9_1,n1419__1_3_1_1_1_9_1_1
n1419__1_3_1_1_1_9_2,n1419__1_3_1_1_1_9_2_1
n1420__1_3_1_1_1_13_1,n1420__1_3_1_1_1_13_1_1
n1421__1_3_1_1_1_9_1,n1421__1_3_1_1_1_9_1_1
n1421__1_3_1_1_1_9_2,n1421__1_3_1_1_1_9_2_1
n1423__1_3_1_1_1_10_1,n1423__1_3_1_1_1_10_1_1
n1425__1_3_1_1_1_14_1,n1425__1_3_1_1_1_14_1_1
n1427__1_3_1_1_1_10_1,n1427__1_3_1_1_1_10_1_1
n1430__1_3_1_1_1_12_1,n1430__1_3_1_1_1_12_1_1
n1430__1_3_1_1_1_12_2,n1430__1_3_1_1_1_12_2_1
n1432__1_3_1_1_1_10_1,n1432__1_3_1_1_1_10_1_1
n1435__1_3_1_1_1_11_1,n1435__1_3_1_1_1_11_1_1
n1435__1_3_1_1_1_11_2,n1435__1_3_1_1_1_11_2_1
n1436__1_3_1_1_1_11_1,n1436__1_3_1_1_1_11_1_1
n1437__1_3_1_1_1_15_1,n1437__1_3_1_1_1_15_1_1
n1438__1_3_1_1_1_13_1,n1438__1_3_1_1_1_13_1_1
n1442__1_3_1_1_1_13_1,n1442__1_3_1_1_1_13_1_1
n1443__1_3_1_1_1_10_1,n1443__1_3_1_1_1_10_1_1
n1444__1_3_1_1_1_10_1,n1444__1_3_1_1_1_10_1_1
n1446__1_3_1_1_1_13_1,n1446__1_3_1_1_1_13_1_1
n1446__1_3_1_1_1_13_2,n1446__1_3_1_1_1_13_2_1
n1446__1_3_1_1_1_13_3,n1446__1_3_1_1_1_13_3_1
n1446__1_3_1_1_1_13_4,n1446__1_3_1_1_1_13_4_1
n1447__1_3_1_1_1_10_1,n1447__1_3_1_1_1_10_1_1
n1447__1_3_1_1_1_10_2,n1447__1_3_1_1_1_10_2_1
n1447__1_3_1_1_1_10_3,n1447__1_3_1_1_1_10_3_1
n1447__1_3_1_1_1_10_4,n1447__1_3_1_1_1_10_4_1
n1447__1_3_1_1_1_10_5,n1447__1_3_1_1_1_10_5_1
n1448__1_3_1_1_1_13_1,n1448__1_3_1_1_1_13_1_1
n1449__1_3_1_1_1_9_1,n1449__1_3_1_1_1_9_1_1
n1452__1_3_1_1_1_9_1,n1452__1_3_1_1_1_9_1_1
n1452__1_3_1_1_1_9_2,n1452__1_3_1_1_1_9_2_1
n1453__1_3_1_1_1_10_1,n1453__1_3_1_1_1_10_1_1
n1455__1_3_1_1_1_11_1,n1455__1_3_1_1_1_11_1_1
n1456__1_3_1_1_1_15_1,n1456__1_3_1_1_1_15_1_1
n1458__1_3_1_1_1_11_1,n1458__1_3_1_1_1_11_1_1
n1460__1_3_1_1_1_12_1,n1460__1_3_1_1_1_12_1_1
n1460__1_3_1_1_1_12_2,n1460__1_3_1_1_1_12_2_1
n1461__1_3_1_1_1_11_1,n1461__1_3_1_1_1_11_1_1
n1462__1_3_1_1_1_13_1,n1462__1_3_1_1_1_13_1_1
n1462__1_3_1_1_1_13_2,n1462__1_3_1_1_1_13_2_1
n1463__1_3_1_1_1_12_1,n1463__1_3_1_1_1_12_1_1
n1464__1_3_1_1_1_10_1,n1464__1_3_1_1_1_10_1_1
n1465__1_3_1_1_1_19_1,n1465__1_3_1_1_1_19_1_1
n1466__1_3_1_1_1_11_1,n1466__1_3_1_1_1_11_1_1
n1470__1_3_1_1_1_11_1,n1470__1_3_1_1_1_11_1_1
n1470__1_3_1_1_1_11_2,n1470__1_3_1_1_1_11_2_1
n1470__1_3_1_1_1_11_3,n1470__1_3_1_1_1_11_3_1
n1471__1_3_1_1_1_11_1,n1471__1_3_1_1_1_11_1_1
n1473__1_3_1_1_1_10_1,n1473__1_3_1_1_1_10_1_1
n1473__1_3_1_1_1_10_2,n1473__1_3_1_1_1_10_2_1
n1475__1_3_1_1_1_10_1,n1475__1_3_1_1_1_10_1_1
n1475__1_3_1_1_1_10_2,n1475__1_3_1_1_1_10_2_1
n1475__1_3_1_1_1_10_3,n1475__1_3_1_1_1_10_3_1
n1476__1_3_1_1_1_10_1,n1476__1_3_1_1_1_10_1_1
n1476__1_3_1_1_1_10_2,n1476__1_3_1_1_1_10_2_1
n1478__1_3_1_1_1_11_1,n1478__1_3_1_1_1_11_1_1
n1478__1_3_1_1_1_11_2,n1478__1_3_1_1_1_11_2_1
n1480__1_3_1_1_1_10_1,n1480__1_3_1_1_1_10_1_1
n1481__1_3_1_1_1_17_1,n1481__1_3_1_1_1_17_1_1
n1482__1_3_1_1_1_13_1,n1482__1_3_1_1_1_13_1_1
n1483__1_3_1_1_1_10_1,n1483__1_3_1_1_1_10_1_1
n1483__1_3_1_1_1_10_2,n1483__1_3_1_1_1_10_2_1
n1483__1_3_1_1_1_10_3,n1483__1_3_1_1_1_10_3_1
n1484__1_3_1_1_1_10_1,n1484__1_3_1_1_1_10_1_1
n1485__1_3_1_1_1_18_1,n1485__1_3_1_1_1_18_1_1
n1485__1_3_1_1_1_18_2,n1485__1_3_1_1_1_18_2_1
n1486__1_3_1_1_1_11_1,n1486__1_3_1_1_1_11_1_1
n1487__1_3_1_1_1_9_1,n1487__1_3_1_1_1_9_1_1
n1489__1_3_1_1_1_10_1,n1489__1_3_1_1_1_10_1_1
n1490__1_3_1_1_1_12_1,n1490__1_3_1_1_1_12_1_1
n1490__1_3_1_1_1_12_2,n1490__1_3_1_1_1_12_2_1
n1491__1_3_1_1_1_14_1,n1491__1_3_1_1_1_14_1_1
n1493__1_3_1_1_1_11_1,n1493__1_3_1_1_1_11_1_1
n1494__1_3_1_1_1_10_1,n1494__1_3_1_1_1_10_1_1
n1495__1_3_1_1_1_13_1,n1495__1_3_1_1_1_13_1_1
n1496__1_3_1_1_1_12_1,n1496__1_3_1_1_1_12_1_1
n1498__1_3_1_1_1_13_1,n1498__1_3_1_1_1_13_1_1
n1499__1_3_1_1_1_18_1,n1499__1_3_1_1_1_18_1_1
n1503__1_3_1_1_1_11_1,n1503__1_3_1_1_1_11_1_1
n1506__1_3_1_1_1_9_1,n1506__1_3_1_1_1_9_1_1
n1506__1_3_1_1_1_9_2,n1506__1_3_1_1_1_9_2_1
n1508__1_3_1_1_1_9_1,n1508__1_3_1_1_1_9_1_1
n1508__1_3_1_1_1_9_2,n1508__1_3_1_1_1_9_2_1
n1509__1_3_1_1_1_9_1,n1509__1_3_1_1_1_9_1_1
n1509__1_3_1_1_1_9_2,n1509__1_3_1_1_1_9_2_1
n1509__1_3_1_1_1_9_3,n1509__1_3_1_1_1_9_3_1
n1510__1_3_1_1_1_11_1,n1510__1_3_1_1_1_11_1_1
n1511__1_3_1_1_1_9_1,n1511__1_3_1_1_1_9_1_1
n1513__1_3_1_1_1_10_1,n1513__1_3_1_1_1_10_1_1
n1514__1_3_1_1_1_11_1,n1514__1_3_1_1_1_11_1_1
n1514__1_3_1_1_1_11_2,n1514__1_3_1_1_1_11_2_1
n1519__1_3_1_1_1_17_1,n1519__1_3_1_1_1_17_1_1
n1520__1_3_1_1_1_15_1,n1520__1_3_1_1_1_15_1_1
n1521__1_3_1_1_1_13_1,n1521__1_3_1_1_1_13_1_1
n1522__1_3_1_1_1_18_1,n1522__1_3_1_1_1_18_1_1
n1523__1_3_1_1_1_14_1,n1523__1_3_1_1_1_14_1_1
n1523__1_3_1_1_1_14_2,n1523__1_3_1_1_1_14_2_1
n1525__1_3_1_1_1_14_1,n1525__1_3_1_1_1_14_1_1
n1525__1_3_1_1_1_14_2,n1525__1_3_1_1_1_14_2_1
n1525__1_3_1_1_1_14_3,n1525__1_3_1_1_1_14_3_1
n1525__1_3_1_1_1_14_4,n1525__1_3_1_1_1_14_4_1
n1527__1_3_1_1_1_10_1,n1527__1_3_1_1_1_10_1_1
n1527__1_3_1_1_1_10_2,n1527__1_3_1_1_1_10_2_1
n1528__1_3_1_1_1_18_1,n1528__1_3_1_1_1_18_1_1
n1529__1_3_1_1_1_12_1,n1529__1_3_1_1_1_12_1_1
n1531__1_3_1_1_1_14_1,n1531__1_3_1_1_1_14_1_1
n1532__1_3_1_1_1_9_1,n1532__1_3_1_1_1_9_1_1
n1532__1_3_1_1_1_9_2,n1532__1_3_1_1_1_9_2_1
n1532__1_3_1_1_1_9_3,n1532__1_3_1_1_1_9_3_1
n1532__1_3_1_1_1_9_4,n1532__1_3_1_1_1_9_4_1
n1533__1_3_1_1_1_14_1,n1533__1_3_1_1_1_14_1_1
n1534__1_3_1_1_1_18_1,n1534__1_3_1_1_1_18_1_1
n1536__1_3_1_1_1_14_1,n1536__1_3_1_1_1_14_1_1
n1537__1_3_1_1_1_9_1,n1537__1_3_1_1_1_9_1_1
n1538__1_3_1_1_1_12_1,n1538__1_3_1_1_1_12_1_1
n1539__1_3_1_1_1_17_1,n1539__1_3_1_1_1_17_1_1
n1539__1_3_1_1_1_17_2,n1539__1_3_1_1_1_17_2_1
n1543__1_3_1_1_1_14_1,n1543__1_3_1_1_1_14_1_1
n1543__1_3_1_1_1_14_2,n1543__1_3_1_1_1_14_2_1
n1544__1_3_1_1_1_15_1,n1544__1_3_1_1_1_15_1_1
n1545__1_3_1_1_1_15_1,n1545__1_3_1_1_1_15_1_1
n1546__1_3_1_1_1_11_1,n1546__1_3_1_1_1_11_1_1
n1548__1_3_1_1_1_9_1,n1548__1_3_1_1_1_9_1_1
n1548__1_3_1_1_1_9_2,n1548__1_3_1_1_1_9_2_1
n1548__1_3_1_1_1_9_3,n1548__1_3_1_1_1_9_3_1
n1551__1_3_1_1_1_11_1,n1551__1_3_1_1_1_11_1_1
n1554__1_3_1_1_1_10_1,n1554__1_3_1_1_1_10_1_1
n1555__1_3_1_1_1_13_1,n1555__1_3_1_1_1_13_1_1
n1555__1_3_1_1_1_13_2,n1555__1_3_1_1_1_13_2_1
n1555__1_3_1_1_1_13_3,n1555__1_3_1_1_1_13_3_1
n1555__1_3_1_1_1_13_4,n1555__1_3_1_1_1_13_4_1
n1557__1_3_1_1_1_10_1,n1557__1_3_1_1_1_10_1_1
n1557__1_3_1_1_1_10_2,n1557__1_3_1_1_1_10_2_1
n1558__1_3_1_1_1_8_1,n1558__1_3_1_1_1_8_1_1
n1559__1_3_1_1_1_10_1,n1559__1_3_1_1_1_10_1_1
n1560__1_3_1_1_1_10_1,n1560__1_3_1_1_1_10_1_1
n1562__1_3_1_1_1_17_1,n1562__1_3_1_1_1_17_1_1
n1562__1_3_1_1_1_17_2,n1562__1_3_1_1_1_17_2_1
n1563__1_3_1_1_1_11_1,n1563__1_3_1_1_1_11_1_1
n1565__1_3_1_1_1_10_1,n1565__1_3_1_1_1_10_1_1
n1568__1_3_1_1_1_18_1,n1568__1_3_1_1_1_18_1_1
n1568__1_3_1_1_1_18_2,n1568__1_3_1_1_1_18_2_1
n1569__1_3_1_1_1_10_1,n1569__1_3_1_1_1_10_1_1
n1569__1_3_1_1_1_10_2,n1569__1_3_1_1_1_10_2_1
n1571__1_3_1_1_1_10_1,n1571__1_3_1_1_1_10_1_1
n1571__1_3_1_1_1_10_2,n1571__1_3_1_1_1_10_2_1
n1571__1_3_1_1_1_10_3,n1571__1_3_1_1_1_10_3_1
n1571__1_3_1_1_1_10_4,n1571__1_3_1_1_1_10_4_1
n1577__1_3_1_1_1_12_1,n1577__1_3_1_1_1_12_1_1
n1578__1_3_1_1_1_18_1,n1578__1_3_1_1_1_18_1_1
n1578__1_3_1_1_1_18_2,n1578__1_3_1_1_1_18_2_1
n1578__1_3_1_1_1_18_3,n1578__1_3_1_1_1_18_3_1
n1580__1_3_1_1_1_15_1,n1580__1_3_1_1_1_15_1_1
n1580__1_3_1_1_1_15_2,n1580__1_3_1_1_1_15_2_1
n1580__1_3_1_1_1_15_3,n1580__1_3_1_1_1_15_3_1
n1580__1_3_1_1_1_15_4,n1580__1_3_1_1_1_15_4_1
n1581__1_3_1_1_1_14_1,n1581__1_3_1_1_1_14_1_1
n1585__1_3_1_1_1_11_1,n1585__1_3_1_1_1_11_1_1
n1586__1_3_1_1_1_10_1,n1586__1_3_1_1_1_10_1_1
n1587__1_3_1_1_1_10_1,n1587__1_3_1_1_1_10_1_1
n1588__1_3_1_1_1_10_1,n1588__1_3_1_1_1_10_1_1
n1589__1_3_1_1_1_10_1,n1589__1_3_1_1_1_10_1_1
n1590__1_3_1_1_1_9_1,n1590__1_3_1_1_1_9_1_1
n1594__1_3_1_1_1_9_1,n1594__1_3_1_1_1_9_1_1
n1595__1_3_1_1_1_15_1,n1595__1_3_1_1_1_15_1_1
n1596__1_3_1_1_1_16_1,n1596__1_3_1_1_1_16_1_1
n1596__1_3_1_1_1_16_2,n1596__1_3_1_1_1_16_2_1
n1597__1_3_1_1_1_11_1,n1597__1_3_1_1_1_11_1_1
n1598__1_3_1_1_1_14_1,n1598__1_3_1_1_1_14_1_1
n1601__1_3_1_1_1_9_1,n1601__1_3_1_1_1_9_1_1
n1602__1_3_1_1_1_11_1,n1602__1_3_1_1_1_11_1_1
n1604__1_3_1_1_1_10_1,n1604__1_3_1_1_1_10_1_1
n1604__1_3_1_1_1_10_2,n1604__1_3_1_1_1_10_2_1
n1604__1_3_1_1_1_10_3,n1604__1_3_1_1_1_10_3_1
n1604__1_3_1_1_1_10_4,n1604__1_3_1_1_1_10_4_1
n1605__1_3_1_1_1_14_1,n1605__1_3_1_1_1_14_1_1
n1605__1_3_1_1_1_14_2,n1605__1_3_1_1_1_14_2_1
n1605__1_3_1_1_1_14_3,n1605__1_3_1_1_1_14_3_1
n1609__1_3_1_1_1_9_1,n1609__1_3_1_1_1_9_1_1
n1609__1_3_1_1_1_9_2,n1609__1_3_1_1_1_9_2_1
n1611__1_3_1_1_1_9_1,n1611__1_3_1_1_1_9_1_1
n1612__1_3_1_1_1_11_1,n1612__1_3_1_1_1_11_1_1
n1614__1_3_1_1_1_11_1,n1614__1_3_1_1_1_11_1_1
n1615__1_3_1_1_1_11_1,n1615__1_3_1_1_1_11_1_1
n1615__1_3_1_1_1_11_2,n1615__1_3_1_1_1_11_2_1
n1615__1_3_1_1_1_11_3,n1615__1_3_1_1_1_11_3_1
n1615__1_3_1_1_1_11_4,n1615__1_3_1_1_1_11_4_1
n1616__1_3_1_1_1_13_1,n1616__1_3_1_1_1_13_1_1
n1617__1_3_1_1_1_9_1,n1617__1_3_1_1_1_9_1_1
n1618__1_3_1_1_1_15_1,n1618__1_3_1_1_1_15_1_1
n1620__1_3_1_1_1_18_1,n1620__1_3_1_1_1_18_1_1
n1625__1_3_1_1_1_9_1,n1625__1_3_1_1_1_9_1_1
n1625__1_3_1_1_1_9_2,n1625__1_3_1_1_1_9_2_1
n1626__1_3_1_1_1_10_1,n1626__1_3_1_1_1_10_1_1
n1629__1_3_1_1_1_14_1,n1629__1_3_1_1_1_14_1_1
n1629__1_3_1_1_1_14_2,n1629__1_3_1_1_1_14_2_1
n1630__1_3_1_1_1_10_1,n1630__1_3_1_1_1_10_1_1
n1630__1_3_1_1_1_10_2,n1630__1_3_1_1_1_10_2_1
n1633__1_3_1_1_1_12_1,n1633__1_3_1_1_1_12_1_1
n1634__1_3_1_1_1_9_1,n1634__1_3_1_1_1_9_1_1
n1634__1_3_1_1_1_9_2,n1634__1_3_1_1_1_9_2_1
n1635__1_3_1_1_1_9_1,n1635__1_3_1_1_1_9_1_1
n1637__1_3_1_1_1_13_1,n1637__1_3_1_1_1_13_1_1
n1641__1_3_1_1_1_11_1,n1641__1_3_1_1_1_11_1_1
n1643__1_3_1_1_1_12_1,n1643__1_3_1_1_1_12_1_1
n1644__1_3_1_1_1_13_1,n1644__1_3_1_1_1_13_1_1
n1644__1_3_1_1_1_13_2,n1644__1_3_1_1_1_13_2_1
n1646__1_3_1_1_1_18_1,n1646__1_3_1_1_1_18_1_1
n1648__1_3_1_1_1_11_1,n1648__1_3_1_1_1_11_1_1
n1649__1_3_1_1_1_10_1,n1649__1_3_1_1_1_10_1_1
n1649__1_3_1_1_1_10_2,n1649__1_3_1_1_1_10_2_1
n1651__1_3_1_1_1_12_1,n1651__1_3_1_1_1_12_1_1
n1651__1_3_1_1_1_12_2,n1651__1_3_1_1_1_12_2_1
n1651__1_3_1_1_1_12_3,n1651__1_3_1_1_1_12_3_1
n1651__1_3_1_1_1_12_4,n1651__1_3_1_1_1_12_4_1
n1653__1_3_1_1_1_18_1,n1653__1_3_1_1_1_18_1_1
n1653__1_3_1_1_1_18_2,n1653__1_3_1_1_1_18_2_1
n1655__1_3_1_1_1_11_1,n1655__1_3_1_1_1_11_1_1
n1656__1_3_1_1_1_12_1,n1656__1_3_1_1_1_12_1_1
n1656__1_3_1_1_1_12_2,n1656__1_3_1_1_1_12_2_1
n1657__1_3_1_1_1_9_1,n1657__1_3_1_1_1_9_1_1
n1658__1_3_1_1_1_11_1,n1658__1_3_1_1_1_11_1_1
n1658__1_3_1_1_1_11_2,n1658__1_3_1_1_1_11_2_1
n1658__1_3_1_1_1_11_3,n1658__1_3_1_1_1_11_3_1
n1658__1_3_1_1_1_11_4,n1658__1_3_1_1_1_11_4_1
n1659__1_3_1_1_1_18_1,n1659__1_3_1_1_1_18_1_1
n1660__1_3_1_1_1_12_1,n1660__1_3_1_1_1_12_1_1
n1660__1_3_1_1_1_12_2,n1660__1_3_1_1_1_12_2_1
n1661__1_3_1_1_1_10_1,n1661__1_3_1_1_1_10_1_1
n1662__1_3_1_1_1_12_1,n1662__1_3_1_1_1_12_1_1
n1663__1_3_1_1_1_12_1,n1663__1_3_1_1_1_12_1_1
n1663__1_3_1_1_1_12_2,n1663__1_3_1_1_1_12_2_1
n1663__1_3_1_1_1_12_3,n1663__1_3_1_1_1_12_3_1
n1663__1_3_1_1_1_12_4,n1663__1_3_1_1_1_12_4_1
n1667__1_3_1_1_1_12_1,n1667__1_3_1_1_1_12_1_1
n1667__1_3_1_1_1_12_2,n1667__1_3_1_1_1_12_2_1
n1667__1_3_1_1_1_12_3,n1667__1_3_1_1_1_12_3_1
n1670__1_3_1_1_1_12_1,n1670__1_3_1_1_1_12_1_1
n1670__1_3_1_1_1_12_2,n1670__1_3_1_1_1_12_2_1
n1671__1_3_1_1_1_17_1,n1671__1_3_1_1_1_17_1_1
n1674__1_3_1_1_1_9_1,n1674__1_3_1_1_1_9_1_1
n1674__1_3_1_1_1_9_2,n1674__1_3_1_1_1_9_2_1
n1674__1_3_1_1_1_9_3,n1674__1_3_1_1_1_9_3_1
n1674__1_3_1_1_1_9_4,n1674__1_3_1_1_1_9_4_1
n1679__1_3_1_1_1_11_1,n1679__1_3_1_1_1_11_1_1
n1680__1_3_1_1_1_12_1,n1680__1_3_1_1_1_12_1_1
n1681__1_3_1_1_1_10_1,n1681__1_3_1_1_1_10_1_1
n1682__1_3_1_1_1_18_1,n1682__1_3_1_1_1_18_1_1
n1684__1_3_1_1_1_16_1,n1684__1_3_1_1_1_16_1_1
n1684__1_3_1_1_1_16_2,n1684__1_3_1_1_1_16_2_1
n1685__1_3_1_1_1_11_1,n1685__1_3_1_1_1_11_1_1
n1687__1_3_1_1_1_13_1,n1687__1_3_1_1_1_13_1_1
n1690__1_3_1_1_1_9_1,n1690__1_3_1_1_1_9_1_1
n1693__1_3_1_1_1_12_1,n1693__1_3_1_1_1_12_1_1
n1693__1_3_1_1_1_12_2,n1693__1_3_1_1_1_12_2_1
n1695__1_3_1_1_1_11_1,n1695__1_3_1_1_1_11_1_1
n1696__1_3_1_1_1_9_1,n1696__1_3_1_1_1_9_1_1
n1699__1_3_1_1_1_9_1,n1699__1_3_1_1_1_9_1_1
n1699__1_3_1_1_1_9_2,n1699__1_3_1_1_1_9_2_1
n1702__1_3_1_1_1_12_1,n1702__1_3_1_1_1_12_1_1
n1702__1_3_1_1_1_12_2,n1702__1_3_1_1_1_12_2_1
n1704__1_3_1_1_1_12_1,n1704__1_3_1_1_1_12_1_1
n1705__1_3_1_1_1_9_1,n1705__1_3_1_1_1_9_1_1
n1706__1_3_1_1_1_8_1,n1706__1_3_1_1_1_8_1_1
n1706__1_3_1_1_1_8_2,n1706__1_3_1_1_1_8_2_1
n1706__1_3_1_1_1_8_3,n1706__1_3_1_1_1_8_3_1
n1706__1_3_1_1_1_8_4,n1706__1_3_1_1_1_8_4_1
n1707__1_3_1_1_1_11_1,n1707__1_3_1_1_1_11_1_1
n1711__1_3_1_1_1_16_1,n1711__1_3_1_1_1_16_1_1
n1712__1_3_1_1_1_9_1,n1712__1_3_1_1_1_9_1_1
n1714__1_3_1_1_1_11_1,n1714__1_3_1_1_1_11_1_1
n1715__1_3_1_1_1_11_1,n1715__1_3_1_1_1_11_1_1
n1718__1_3_1_1_1_15_1,n1718__1_3_1_1_1_15_1_1
n1720__1_3_1_1_1_10_1,n1720__1_3_1_1_1_10_1_1
n1720__1_3_1_1_1_10_2,n1720__1_3_1_1_1_10_2_1
n1720__1_3_1_1_1_10_3,n1720__1_3_1_1_1_10_3_1
n1720__1_3_1_1_1_10_4,n1720__1_3_1_1_1_10_4_1
n1721__1_3_1_1_1_13_1,n1721__1_3_1_1_1_13_1_1
n1724__1_3_1_1_1_8_1,n1724__1_3_1_1_1_8_1_1
n1724__1_3_1_1_1_8_2,n1724__1_3_1_1_1_8_2_1
n1724__1_3_1_1_1_8_3,n1724__1_3_1_1_1_8_3_1
n1724__1_3_1_1_1_8_4,n1724__1_3_1_1_1_8_4_1
n1730__1_3_1_1_1_19_1,n1730__1_3_1_1_1_19_1_1
n1730__1_3_1_1_1_19_2,n1730__1_3_1_1_1_19_2_1
n1730__1_3_1_1_1_19_3,n1730__1_3_1_1_1_19_3_1
n1730__1_3_1_1_1_19_4,n1730__1_3_1_1_1_19_4_1
n1731__1_3_1_1_1_11_1,n1731__1_3_1_1_1_11_1_1
n1731__1_3_1_1_1_11_2,n1731__1_3_1_1_1_11_2_1
n1732__1_3_1_1_1_17_1,n1732__1_3_1_1_1_17_1_1
n1736__1_3_1_1_1_10_1,n1736__1_3_1_1_1_10_1_1
n1737__1_3_1_1_1_11_1,n1737__1_3_1_1_1_11_1_1
n1737__1_3_1_1_1_11_2,n1737__1_3_1_1_1_11_2_1
n1739__1_3_1_1_1_18_1,n1739__1_3_1_1_1_18_1_1
n1742__1_3_1_1_1_9_1,n1742__1_3_1_1_1_9_1_1
n1743__1_3_1_1_1_9_1,n1743__1_3_1_1_1_9_1_1
n1743__1_3_1_1_1_9_2,n1743__1_3_1_1_1_9_2_1
n1743__1_3_1_1_1_9_3,n1743__1_3_1_1_1_9_3_1
n1746__1_3_1_1_1_11_1,n1746__1_3_1_1_1_11_1_1
n1746__1_3_1_1_1_11_2,n1746__1_3_1_1_1_11_2_1
n1746__1_3_1_1_1_11_3,n1746__1_3_1_1_1_11_3_1
n1746__1_3_1_1_1_11_4,n1746__1_3_1_1_1_11_4_1
n1746__1_3_1_1_1_11_5,n1746__1_3_1_1_1_11_5_1
n1746__1_3_1_1_1_11_6,n1746__1_3_1_1_1_11_6_1
n1748__1_3_1_1_1_10_1,n1748__1_3_1_1_1_10_1_1
n1749__1_3_1_1_1_18_1,n1749__1_3_1_1_1_18_1_1
n1749__1_3_1_1_1_18_2,n1749__1_3_1_1_1_18_2_1
n1749__1_3_1_1_1_18_3,n1749__1_3_1_1_1_18_3_1
n1754__1_3_1_1_1_13_1,n1754__1_3_1_1_1_13_1_1
n1755__1_3_1_1_1_10_1,n1755__1_3_1_1_1_10_1_1
n1756__1_3_1_1_1_9_1,n1756__1_3_1_1_1_9_1_1
n1757__1_3_1_1_1_9_1,n1757__1_3_1_1_1_9_1_1
n1757__1_3_1_1_1_9_2,n1757__1_3_1_1_1_9_2_1
n1757__1_3_1_1_1_9_3,n1757__1_3_1_1_1_9_3_1
n1757__1_3_1_1_1_9_4,n1757__1_3_1_1_1_9_4_1
n1758__1_3_1_1_1_10_1,n1758__1_3_1_1_1_10_1_1
n1759__1_3_1_1_1_18_1,n1759__1_3_1_1_1_18_1_1
n1759__1_3_1_1_1_18_2,n1759__1_3_1_1_1_18_2_1
n1759__1_3_1_1_1_18_3,n1759__1_3_1_1_1_18_3_1
n1761__1_3_1_1_1_11_1,n1761__1_3_1_1_1_11_1_1
n1761__1_3_1_1_1_11_2,n1761__1_3_1_1_1_11_2_1
n1762__1_3_1_1_1_12_1,n1762__1_3_1_1_1_12_1_1
n1763__1_3_1_1_1_12_1,n1763__1_3_1_1_1_12_1_1
n1764__1_3_1_1_1_10_1,n1764__1_3_1_1_1_10_1_1
n1765__1_3_1_1_1_12_1,n1765__1_3_1_1_1_12_1_1
n1765__1_3_1_1_1_12_2,n1765__1_3_1_1_1_12_2_1
n1767__1_3_1_1_1_12_1,n1767__1_3_1_1_1_12_1_1
n1768__1_3_1_1_1_18_1,n1768__1_3_1_1_1_18_1_1
n1769__1_3_1_1_1_10_1,n1769__1_3_1_1_1_10_1_1
n1771__1_3_1_1_1_11_1,n1771__1_3_1_1_1_11_1_1
n1771__1_3_1_1_1_11_2,n1771__1_3_1_1_1_11_2_1
n1771__1_3_1_1_1_11_3,n1771__1_3_1_1_1_11_3_1
n1772__1_3_1_1_1_12_1,n1772__1_3_1_1_1_12_1_1
n1772__1_3_1_1_1_12_2,n1772__1_3_1_1_1_12_2_1
n1773__1_3_1_1_1_14_1,n1773__1_3_1_1_1_14_1_1
n1774__1_3_1_1_1_9_1,n1774__1_3_1_1_1_9_1_1
n1774__1_3_1_1_1_9_2,n1774__1_3_1_1_1_9_2_1
n1780__1_3_1_1_1_11_1,n1780__1_3_1_1_1_11_1_1
n1780__1_3_1_1_1_11_2,n1780__1_3_1_1_1_11_2_1
n1780__1_3_1_1_1_11_3,n1780__1_3_1_1_1_11_3_1
n1781__1_3_1_1_1_9_1,n1781__1_3_1_1_1_9_1_1
n1786__1_3_1_1_1_10_1,n1786__1_3_1_1_1_10_1_1
n1786__1_3_1_1_1_10_2,n1786__1_3_1_1_1_10_2_1
n1786__1_3_1_1_1_10_3,n1786__1_3_1_1_1_10_3_1
n1788__1_3_1_1_1_12_1,n1788__1_3_1_1_1_12_1_1
n1789__1_3_1_1_1_12_1,n1789__1_3_1_1_1_12_1_1
n1790__1_3_1_1_1_11_1,n1790__1_3_1_1_1_11_1_1
n1790__1_3_1_1_1_11_2,n1790__1_3_1_1_1_11_2_1
n1794__1_3_1_1_1_11_1,n1794__1_3_1_1_1_11_1_1
n1795__1_3_1_1_1_11_1,n1795__1_3_1_1_1_11_1_1
n1796__1_3_1_1_1_10_1,n1796__1_3_1_1_1_10_1_1
n1797__1_3_1_1_1_18_1,n1797__1_3_1_1_1_18_1_1
n1797__1_3_1_1_1_18_2,n1797__1_3_1_1_1_18_2_1
n1798__1_3_1_1_1_14_1,n1798__1_3_1_1_1_14_1_1
n1799__1_3_1_1_1_11_1,n1799__1_3_1_1_1_11_1_1
n1799__1_3_1_1_1_11_2,n1799__1_3_1_1_1_11_2_1
n1799__1_3_1_1_1_11_3,n1799__1_3_1_1_1_11_3_1
n1802__1_3_1_1_1_10_1,n1802__1_3_1_1_1_10_1_1
n1804__1_3_1_1_1_15_1,n1804__1_3_1_1_1_15_1_1
n1804__1_3_1_1_1_15_2,n1804__1_3_1_1_1_15_2_1
n1806__1_3_1_1_1_11_1,n1806__1_3_1_1_1_11_1_1
n1808__1_3_1_1_1_8_1,n1808__1_3_1_1_1_8_1_1
n1808__1_3_1_1_1_8_2,n1808__1_3_1_1_1_8_2_1
n1810__1_3_1_1_1_14_1,n1810__1_3_1_1_1_14_1_1
n1811__1_3_1_1_1_9_1,n1811__1_3_1_1_1_9_1_1
n1813__1_3_1_1_1_17_1,n1813__1_3_1_1_1_17_1_1
n1816__1_3_1_1_1_10_1,n1816__1_3_1_1_1_10_1_1
n1816__1_3_1_1_1_10_2,n1816__1_3_1_1_1_10_2_1
n1816__1_3_1_1_1_10_3,n1816__1_3_1_1_1_10_3_1
n1817__1_3_1_1_1_11_1,n1817__1_3_1_1_1_11_1_1
n1818__1_3_1_1_1_15_1,n1818__1_3_1_1_1_15_1_1
n1819__1_3_1_1_1_18_1,n1819__1_3_1_1_1_18_1_1
n1820__1_3_1_1_1_9_1,n1820__1_3_1_1_1_9_1_1
n1826__1_3_1_1_1_13_1,n1826__1_3_1_1_1_13_1_1
n1826__1_3_1_1_1_13_2,n1826__1_3_1_1_1_13_2_1
n1828__1_3_1_1_1_13_1,n1828__1_3_1_1_1_13_1_1
n1829__1_3_1_1_1_14_1,n1829__1_3_1_1_1_14_1_1
n1829__1_3_1_1_1_14_2,n1829__1_3_1_1_1_14_2_1
n1829__1_3_1_1_1_14_3,n1829__1_3_1_1_1_14_3_1
n1829__1_3_1_1_1_14_4,n1829__1_3_1_1_1_14_4_1
n1829__1_3_1_1_1_14_5,n1829__1_3_1_1_1_14_5_1
n1831__1_3_1_1_1_14_1,n1831__1_3_1_1_1_14_1_1
n1834__1_3_1_1_1_12_1,n1834__1_3_1_1_1_12_1_1
n1840__1_3_1_1_1_18_1,n1840__1_3_1_1_1_18_1_1
n1840__1_3_1_1_1_18_2,n1840__1_3_1_1_1_18_2_1
n1840__1_3_1_1_1_18_3,n1840__1_3_1_1_1_18_3_1
n1841__1_3_1_1_1_10_1,n1841__1_3_1_1_1_10_1_1
n1841__1_3_1_1_1_10_2,n1841__1_3_1_1_1_10_2_1
n1842__1_3_1_1_1_14_1,n1842__1_3_1_1_1_14_1_1
n1843__1_3_1_1_1_10_1,n1843__1_3_1_1_1_10_1_1
n1844__1_3_1_1_1_10_1,n1844__1_3_1_1_1_10_1_1
n1847__1_3_1_1_1_10_1,n1847__1_3_1_1_1_10_1_1
n1848__1_3_1_1_1_10_1,n1848__1_3_1_1_1_10_1_1
n1849__1_3_1_1_1_9_1,n1849__1_3_1_1_1_9_1_1
n1849__1_3_1_1_1_9_2,n1849__1_3_1_1_1_9_2_1
n1851__1_3_1_1_1_10_1,n1851__1_3_1_1_1_10_1_1
n1851__1_3_1_1_1_10_2,n1851__1_3_1_1_1_10_2_1
n1855__1_3_1_1_1_9_1,n1855__1_3_1_1_1_9_1_1
n1856__1_3_1_1_1_10_1,n1856__1_3_1_1_1_10_1_1
n1856__1_3_1_1_1_10_2,n1856__1_3_1_1_1_10_2_1
n1856__1_3_1_1_1_10_3,n1856__1_3_1_1_1_10_3_1
n1856__1_3_1_1_1_10_4,n1856__1_3_1_1_1_10_4_1
n1856__1_3_1_1_1_10_5,n1856__1_3_1_1_1_10_5_1
n1857__1_3_1_1_1_9_1,n1857__1_3_1_1_1_9_1_1
n1857__1_3_1_1_1_9_2,n1857__1_3_1_1_1_9_2_1
n1857__1_3_1_1_1_9_3,n1857__1_3_1_1_1_9_3_1
n1857__1_3_1_1_1_9_4,n1857__1_3_1_1_1_9_4_1
n1858__1_3_1_1_1_11_1,n1858__1_3_1_1_1_11_1_1
n1859__1_3_1_1_1_11_1,n1859__1_3_1_1_1_11_1_1
n1859__1_3_1_1_1_11_2,n1859__1_3_1_1_1_11_2_1
n1861__1_3_1_1_1_10_1,n1861__1_3_1_1_1_10_1_1
n1862__1_3_1_1_1_11_1,n1862__1_3_1_1_1_11_1_1
n1863__1_3_1_1_1_15_1,n1863__1_3_1_1_1_15_1_1
n1866__1_3_1_1_1_11_1,n1866__1_3_1_1_1_11_1_1
n1867__1_3_1_1_1_11_1,n1867__1_3_1_1_1_11_1_1
n1868__1_3_1_1_1_14_1,n1868__1_3_1_1_1_14_1_1
n1868__1_3_1_1_1_14_2,n1868__1_3_1_1_1_14_2_1
n1868__1_3_1_1_1_14_3,n1868__1_3_1_1_1_14_3_1
n1870__1_3_1_1_1_12_1,n1870__1_3_1_1_1_12_1_1
n1871__1_3_1_1_1_10_1,n1871__1_3_1_1_1_10_1_1
n1874__1_3_1_1_1_9_1,n1874__1_3_1_1_1_9_1_1
n1875__1_3_1_1_1_13_1,n1875__1_3_1_1_1_13_1_1
n1875__1_3_1_1_1_13_2,n1875__1_3_1_1_1_13_2_1
n1875__1_3_1_1_1_13_3,n1875__1_3_1_1_1_13_3_1
n1875__1_3_1_1_1_13_4,n1875__1_3_1_1_1_13_4_1
n1875__1_3_1_1_1_13_5,n1875__1_3_1_1_1_13_5_1
n1876__1_3_1_1_1_14_1,n1876__1_3_1_1_1_14_1_1
n1877__1_3_1_1_1_12_1,n1877__1_3_1_1_1_12_1_1
n1879__1_3_1_1_1_14_1,n1879__1_3_1_1_1_14_1_1
n1880__1_3_1_1_1_13_1,n1880__1_3_1_1_1_13_1_1
n1881__1_3_1_1_1_10_1,n1881__1_3_1_1_1_10_1_1
n1884__1_3_1_1_1_9_1,n1884__1_3_1_1_1_9_1_1
n1884__1_3_1_1_1_9_2,n1884__1_3_1_1_1_9_2_1
n1885__1_3_1_1_1_10_1,n1885__1_3_1_1_1_10_1_1
n1886__1_3_1_1_1_12_1,n1886__1_3_1_1_1_12_1_1
n1886__1_3_1_1_1_12_2,n1886__1_3_1_1_1_12_2_1
n1886__1_3_1_1_1_12_3,n1886__1_3_1_1_1_12_3_1
n1887__1_3_1_1_1_9_1,n1887__1_3_1_1_1_9_1_1
n1887__1_3_1_1_1_9_2,n1887__1_3_1_1_1_9_2_1
n1888__1_3_1_1_1_13_1,n1888__1_3_1_1_1_13_1_1
n1889__1_3_1_1_1_9_1,n1889__1_3_1_1_1_9_1_1
n1890__1_3_1_1_1_10_1,n1890__1_3_1_1_1_10_1_1
n1890__1_3_1_1_1_10_2,n1890__1_3_1_1_1_10_2_1
n1891__1_3_1_1_1_13_1,n1891__1_3_1_1_1_13_1_1
n1893__1_3_1_1_1_10_1,n1893__1_3_1_1_1_10_1_1
n1893__1_3_1_1_1_10_2,n1893__1_3_1_1_1_10_2_1
n1893__1_3_1_1_1_10_3,n1893__1_3_1_1_1_10_3_1
n1894__1_3_1_1_1_9_1,n1894__1_3_1_1_1_9_1_1
n1894__1_3_1_1_1_9_2,n1894__1_3_1_1_1_9_2_1
n1894__1_3_1_1_1_9_3,n1894__1_3_1_1_1_9_3_1
n1895__1_3_1_1_1_9_1,n1895__1_3_1_1_1_9_1_1
n1895__1_3_1_1_1_9_2,n1895__1_3_1_1_1_9_2_1
n1897__1_3_1_1_1_8_1,n1897__1_3_1_1_1_8_1_1
n1898__1_3_1_1_1_14_1,n1898__1_3_1_1_1_14_1_1
n1900__1_3_1_1_1_16_1,n1900__1_3_1_1_1_16_1_1
n1901__1_3_1_1_1_12_1,n1901__1_3_1_1_1_12_1_1
n1902__1_3_1_1_1_16_1,n1902__1_3_1_1_1_16_1_1
n1903__1_3_1_1_1_11_1,n1903__1_3_1_1_1_11_1_1
n1903__1_3_1_1_1_11_2,n1903__1_3_1_1_1_11_2_1
n1904__1_3_1_1_1_16_1,n1904__1_3_1_1_1_16_1_1
n1904__1_3_1_1_1_16_2,n1904__1_3_1_1_1_16_2_1
n1906__1_3_1_1_1_11_1,n1906__1_3_1_1_1_11_1_1
n1907__1_3_1_1_1_13_1,n1907__1_3_1_1_1_13_1_1
n1910__1_3_1_1_1_8_1,n1910__1_3_1_1_1_8_1_1
n1912__1_3_1_1_1_10_1,n1912__1_3_1_1_1_10_1_1
n1912__1_3_1_1_1_10_2,n1912__1_3_1_1_1_10_2_1
n1913__1_3_1_1_1_10_1,n1913__1_3_1_1_1_10_1_1
n1913__1_3_1_1_1_10_2,n1913__1_3_1_1_1_10_2_1
n1913__1_3_1_1_1_10_3,n1913__1_3_1_1_1_10_3_1
n1913__1_3_1_1_1_10_4,n1913__1_3_1_1_1_10_4_1
n1914__1_3_1_1_1_18_1,n1914__1_3_1_1_1_18_1_1
n1916__1_3_1_1_1_19_1,n1916__1_3_1_1_1_19_1_1
n1917__1_3_1_1_1_12_1,n1917__1_3_1_1_1_12_1_1
n1917__1_3_1_1_1_12_2,n1917__1_3_1_1_1_12_2_1
n1917__1_3_1_1_1_12_3,n1917__1_3_1_1_1_12_3_1
n1919__1_3_1_1_1_11_1,n1919__1_3_1_1_1_11_1_1
n1919__1_3_1_1_1_11_2,n1919__1_3_1_1_1_11_2_1
n1920__1_3_1_1_1_10_1,n1920__1_3_1_1_1_10_1_1
n1920__1_3_1_1_1_10_2,n1920__1_3_1_1_1_10_2_1
n1920__1_3_1_1_1_10_3,n1920__1_3_1_1_1_10_3_1
n1920__1_3_1_1_1_10_4,n1920__1_3_1_1_1_10_4_1
n1920__1_3_1_1_1_10_5,n1920__1_3_1_1_1_10_5_1
n1921__1_3_1_1_1_11_1,n1921__1_3_1_1_1_11_1_1
n1922__1_3_1_1_1_10_1,n1922__1_3_1_1_1_10_1_1
n1922__1_3_1_1_1_10_2,n1922__1_3_1_1_1_10_2_1
n1923__1_3_1_1_1_10_1,n1923__1_3_1_1_1_10_1_1
n1927__1_3_1_1_1_10_1,n1927__1_3_1_1_1_10_1_1
n1928__1_3_1_1_1_11_1,n1928__1_3_1_1_1_11_1_1
n1928__1_3_1_1_1_11_2,n1928__1_3_1_1_1_11_2_1
n1930__1_3_1_1_1_17_1,n1930__1_3_1_1_1_17_1_1
n1930__1_3_1_1_1_17_2,n1930__1_3_1_1_1_17_2_1
n1932__1_3_1_1_1_12_1,n1932__1_3_1_1_1_12_1_1
n1933__1_3_1_1_1_11_1,n1933__1_3_1_1_1_11_1_1
n1933__1_3_1_1_1_11_2,n1933__1_3_1_1_1_11_2_1
n1933__1_3_1_1_1_11_3,n1933__1_3_1_1_1_11_3_1
n1936__1_3_1_1_1_17_1,n1936__1_3_1_1_1_17_1_1
n1937__1_3_1_1_1_12_1,n1937__1_3_1_1_1_12_1_1
n1938__1_3_1_1_1_14_1,n1938__1_3_1_1_1_14_1_1
n1939__1_3_1_1_1_12_1,n1939__1_3_1_1_1_12_1_1
n1940__1_3_1_1_1_10_1,n1940__1_3_1_1_1_10_1_1
n1942__1_3_1_1_1_14_1,n1942__1_3_1_1_1_14_1_1
n1945__1_3_1_1_1_12_1,n1945__1_3_1_1_1_12_1_1
n1946__1_3_1_1_1_10_1,n1946__1_3_1_1_1_10_1_1
n1947__1_3_1_1_1_12_1,n1947__1_3_1_1_1_12_1_1
n1947__1_3_1_1_1_12_2,n1947__1_3_1_1_1_12_2_1
n1949__1_3_1_1_1_9_1,n1949__1_3_1_1_1_9_1_1
n1949__1_3_1_1_1_9_2,n1949__1_3_1_1_1_9_2_1
n1949__1_3_1_1_1_9_3,n1949__1_3_1_1_1_9_3_1
n1950__1_3_1_1_1_16_1,n1950__1_3_1_1_1_16_1_1
n1955__1_3_1_1_1_8_1,n1955__1_3_1_1_1_8_1_1
n1955__1_3_1_1_1_8_2,n1955__1_3_1_1_1_8_2_1
n1956__1_3_1_1_1_11_1,n1956__1_3_1_1_1_11_1_1
n1958__1_3_1_1_1_10_1,n1958__1_3_1_1_1_10_1_1
n1959__1_3_1_1_1_11_1,n1959__1_3_1_1_1_11_1_1
n1962__1_3_1_1_1_10_1,n1962__1_3_1_1_1_10_1_1
n1966__1_3_1_1_1_10_1,n1966__1_3_1_1_1_10_1_1
n1967__1_3_1_1_1_9_1,n1967__1_3_1_1_1_9_1_1
n1968__1_3_1_1_1_10_1,n1968__1_3_1_1_1_10_1_1
n1968__1_3_1_1_1_10_2,n1968__1_3_1_1_1_10_2_1
n1968__1_3_1_1_1_10_3,n1968__1_3_1_1_1_10_3_1
n1969__1_3_1_1_1_8_1,n1969__1_3_1_1_1_8_1_1
n1971__1_3_1_1_1_11_1,n1971__1_3_1_1_1_11_1_1
n1971__1_3_1_1_1_11_2,n1971__1_3_1_1_1_11_2_1
n1971__1_3_1_1_1_11_3,n1971__1_3_1_1_1_11_3_1
n1975__1_3_1_1_1_12_1,n1975__1_3_1_1_1_12_1_1
n1975__1_3_1_1_1_12_2,n1975__1_3_1_1_1_12_2_1
n1976__1_3_1_1_1_18_1,n1976__1_3_1_1_1_18_1_1
n1976__1_3_1_1_1_18_2,n1976__1_3_1_1_1_18_2_1
n1976__1_3_1_1_1_18_3,n1976__1_3_1_1_1_18_3_1
n1977__1_3_1_1_1_10_1,n1977__1_3_1_1_1_10_1_1
n1979__1_3_1_1_1_11_1,n1979__1_3_1_1_1_11_1_1
n1980__1_3_1_1_1_11_1,n1980__1_3_1_1_1_11_1_1
n1984__1_3_1_1_1_8_1,n1984__1_3_1_1_1_8_1_1
n1984__1_3_1_1_1_8_2,n1984__1_3_1_1_1_8_2_1
n1985__1_3_1_1_1_12_1,n1985__1_3_1_1_1_12_1_1
n1985__1_3_1_1_1_12_2,n1985__1_3_1_1_1_12_2_1
n1985__1_3_1_1_1_12_3,n1985__1_3_1_1_1_12_3_1
n1986__1_3_1_1_1_16_1,n1986__1_3_1_1_1_16_1_1
n1986__1_3_1_1_1_16_2,n1986__1_3_1_1_1_16_2_1
n1987__1_3_1_1_1_12_1,n1987__1_3_1_1_1_12_1_1
n1988__1_3_1_1_1_14_1,n1988__1_3_1_1_1_14_1_1
n1991__1_3_1_1_1_18_1,n1991__1_3_1_1_1_18_1_1
n1993__1_3_1_1_1_13_1,n1993__1_3_1_1_1_13_1_1
n1994__1_3_1_1_1_18_1,n1994__1_3_1_1_1_18_1_1
n1994__1_3_1_1_1_18_2,n1994__1_3_1_1_1_18_2_1
n1994__1_3_1_1_1_18_3,n1994__1_3_1_1_1_18_3_1
n1994__1_3_1_1_1_18_4,n1994__1_3_1_1_1_18_4_1
n1994__1_3_1_1_1_18_5,n1994__1_3_1_1_1_18_5_1
n1995__1_3_1_1_1_18_1,n1995__1_3_1_1_1_18_1_1
n1995__1_3_1_1_1_18_2,n1995__1_3_1_1_1_18_2_1
n1996__1_3_1_1_1_11_1,n1996__1_3_1_1_1_11_1_1
n1996__1_3_1_1_1_11_2,n1996__1_3_1_1_1_11_2_1
n1997__1_3_1_1_1_10_1,n1997__1_3_1_1_1_10_1_1
n1998__1_3_1_1_1_13_1,n1998__1_3_1_1_1_13_1_1
n1999__1_3_1_1_1_13_1,n1999__1_3_1_1_1_13_1_1
n2008__1_3_1_1_1_9_1,n2008__1_3_1_1_1_9_1_1
n2009__1_3_1_1_1_15_1,n2009__1_3_1_1_1_15_1_1
n2011__1_3_1_1_1_14_1,n2011__1_3_1_1_1_14_1_1
n2012__1_3_1_1_1_17_1,n2012__1_3_1_1_1_17_1_1
n2014__1_3_1_1_1_10_1,n2014__1_3_1_1_1_10_1_1
n2014__1_3_1_1_1_10_2,n2014__1_3_1_1_1_10_2_1
n2014__1_3_1_1_1_10_3,n2014__1_3_1_1_1_10_3_1
n2014__1_3_1_1_1_10_4,n2014__1_3_1_1_1_10_4_1
n2014__1_3_1_1_1_10_5,n2014__1_3_1_1_1_10_5_1
n2014__1_3_1_1_1_10_6,n2014__1_3_1_1_1_10_6_1
n2015__1_3_1_1_1_11_1,n2015__1_3_1_1_1_11_1_1
n2018__1_3_1_1_1_13_1,n2018__1_3_1_1_1_13_1_1
n2018__1_3_1_1_1_13_2,n2018__1_3_1_1_1_13_2_1
n2018__1_3_1_1_1_13_3,n2018__1_3_1_1_1_13_3_1
n2018__1_3_1_1_1_13_4,n2018__1_3_1_1_1_13_4_1
n2019__1_3_1_1_1_11_1,n2019__1_3_1_1_1_11_1_1
n2019__1_3_1_1_1_11_2,n2019__1_3_1_1_1_11_2_1
n2022__1_3_1_1_1_10_1,n2022__1_3_1_1_1_10_1_1
n2022__1_3_1_1_1_10_2,n2022__1_3_1_1_1_10_2_1
n2024__1_3_1_1_1_10_1,n2024__1_3_1_1_1_10_1_1
n2027__1_3_1_1_1_14_1,n2027__1_3_1_1_1_14_1_1
n2029__1_3_1_1_1_9_1,n2029__1_3_1_1_1_9_1_1
n2031__1_3_1_1_1_15_1,n2031__1_3_1_1_1_15_1_1
n2032__1_3_1_1_1_10_1,n2032__1_3_1_1_1_10_1_1
n2033__1_3_1_1_1_9_1,n2033__1_3_1_1_1_9_1_1
n2033__1_3_1_1_1_9_2,n2033__1_3_1_1_1_9_2_1
n2036__1_3_1_1_1_12_1,n2036__1_3_1_1_1_12_1_1
n2036__1_3_1_1_1_12_2,n2036__1_3_1_1_1_12_2_1
n2037__1_3_1_1_1_11_1,n2037__1_3_1_1_1_11_1_1
n2038__1_3_1_1_1_10_1,n2038__1_3_1_1_1_10_1_1
n2041__1_3_1_1_1_13_1,n2041__1_3_1_1_1_13_1_1
n2042__1_3_1_1_1_10_1,n2042__1_3_1_1_1_10_1_1
n2042__1_3_1_1_1_10_2,n2042__1_3_1_1_1_10_2_1
n2043__1_3_1_1_1_11_1,n2043__1_3_1_1_1_11_1_1
n2043__1_3_1_1_1_11_2,n2043__1_3_1_1_1_11_2_1
n2044__1_3_1_1_1_11_1,n2044__1_3_1_1_1_11_1_1
n2044__1_3_1_1_1_11_2,n2044__1_3_1_1_1_11_2_1
n2046__1_3_1_1_1_11_1,n2046__1_3_1_1_1_11_1_1
n2047__1_3_1_1_1_18_1,n2047__1_3_1_1_1_18_1_1
n2047__1_3_1_1_1_18_2,n2047__1_3_1_1_1_18_2_1
n2049__1_3_1_1_1_11_1,n2049__1_3_1_1_1_11_1_1
n2049__1_3_1_1_1_11_2,n2049__1_3_1_1_1_11_2_1
n2052__1_3_1_1_1_17_1,n2052__1_3_1_1_1_17_1_1
n2054__1_3_1_1_1_15_1,n2054__1_3_1_1_1_15_1_1
n2054__1_3_1_1_1_15_2,n2054__1_3_1_1_1_15_2_1
n2055__1_3_1_1_1_12_1,n2055__1_3_1_1_1_12_1_1
n2056__1_3_1_1_1_10_1,n2056__1_3_1_1_1_10_1_1
n2056__1_3_1_1_1_10_2,n2056__1_3_1_1_1_10_2_1
n2056__1_3_1_1_1_10_3,n2056__1_3_1_1_1_10_3_1
n2056__1_3_1_1_1_10_4,n2056__1_3_1_1_1_10_4_1
n2057__1_3_1_1_1_10_1,n2057__1_3_1_1_1_10_1_1
n2058__1_3_1_1_1_11_1,n2058__1_3_1_1_1_11_1_1
n2058__1_3_1_1_1_11_2,n2058__1_3_1_1_1_11_2_1
n2062__1_3_1_1_1_11_1,n2062__1_3_1_1_1_11_1_1
n2063__1_3_1_1_1_14_1,n2063__1_3_1_1_1_14_1_1
n2065__1_3_1_1_1_12_1,n2065__1_3_1_1_1_12_1_1
n2067__1_3_1_1_1_11_1,n2067__1_3_1_1_1_11_1_1
n2070__1_3_1_1_1_11_1,n2070__1_3_1_1_1_11_1_1
n2073__1_3_1_1_1_10_1,n2073__1_3_1_1_1_10_1_1
n2074__1_3_1_1_1_17_1,n2074__1_3_1_1_1_17_1_1
n2074__1_3_1_1_1_17_2,n2074__1_3_1_1_1_17_2_1
n2074__1_3_1_1_1_17_3,n2074__1_3_1_1_1_17_3_1
n2077__1_3_1_1_1_11_1,n2077__1_3_1_1_1_11_1_1
n2078__1_3_1_1_1_10_1,n2078__1_3_1_1_1_10_1_1
n2078__1_3_1_1_1_10_2,n2078__1_3_1_1_1_10_2_1
n2078__1_3_1_1_1_10_3,n2078__1_3_1_1_1_10_3_1
n2080__1_3_1_1_1_9_1,n2080__1_3_1_1_1_9_1_1
n2081__1_3_1_1_1_15_1,n2081__1_3_1_1_1_15_1_1
n2081__1_3_1_1_1_15_2,n2081__1_3_1_1_1_15_2_1
n2081__1_3_1_1_1_15_3,n2081__1_3_1_1_1_15_3_1
n2082__1_3_1_1_1_16_1,n2082__1_3_1_1_1_16_1_1
n2082__1_3_1_1_1_16_2,n2082__1_3_1_1_1_16_2_1
n2085__1_3_1_1_1_8_1,n2085__1_3_1_1_1_8_1_1
n2091__1_3_1_1_1_10_1,n2091__1_3_1_1_1_10_1_1
n2092__1_3_1_1_1_9_1,n2092__1_3_1_1_1_9_1_1
n2093__1_3_1_1_1_11_1,n2093__1_3_1_1_1_11_1_1
n2095__1_3_1_1_1_9_1,n2095__1_3_1_1_1_9_1_1
n2096__1_3_1_1_1_13_1,n2096__1_3_1_1_1_13_1_1
n2098__1_3_1_1_1_10_1,n2098__1_3_1_1_1_10_1_1
n2100__1_3_1_1_1_11_1,n2100__1_3_1_1_1_11_1_1
n2101__1_3_1_1_1_11_1,n2101__1_3_1_1_1_11_1_1
n2101__1_3_1_1_1_11_2,n2101__1_3_1_1_1_11_2_1
n2101__1_3_1_1_1_11_3,n2101__1_3_1_1_1_11_3_1
n2102__1_3_1_1_1_11_1,n2102__1_3_1_1_1_11_1_1
n2104__1_3_1_1_1_11_1,n2104__1_3_1_1_1_11_1_1
n2107__1_3_1_1_1_13_1,n2107__1_3_1_1_1_13_1_1
n2109__1_3_1_1_1_18_1,n2109__1_3_1_1_1_18_1_1
n2110__1_3_1_1_1_18_1,n2110__1_3_1_1_1_18_1_1
n2111__1_3_1_1_1_11_1,n2111__1_3_1_1_1_11_1_1
n2112__1_3_1_1_1_10_1,n2112__1_3_1_1_1_10_1_1
n2114__1_3_1_1_1_10_1,n2114__1_3_1_1_1_10_1_1
n2116__1_3_1_1_1_14_1,n2116__1_3_1_1_1_14_1_1
n2116__1_3_1_1_1_14_2,n2116__1_3_1_1_1_14_2_1
n2118__1_3_1_1_1_10_1,n2118__1_3_1_1_1_10_1_1
n2118__1_3_1_1_1_10_2,n2118__1_3_1_1_1_10_2_1
n2122__1_3_1_1_1_10_1,n2122__1_3_1_1_1_10_1_1
n2122__1_3_1_1_1_10_2,n2122__1_3_1_1_1_10_2_1
n2122__1_3_1_1_1_10_3,n2122__1_3_1_1_1_10_3_1
n2122__1_3_1_1_1_10_4,n2122__1_3_1_1_1_10_4_1
n2123__1_3_1_1_1_10_1,n2123__1_3_1_1_1_10_1_1
n2123__1_3_1_1_1_10_2,n2123__1_3_1_1_1_10_2_1
n2126__1_3_1_1_1_13_1,n2126__1_3_1_1_1_13_1_1
n2126__1_3_1_1_1_13_2,n2126__1_3_1_1_1_13_2_1
n2127__1_3_1_1_1_10_1,n2127__1_3_1_1_1_10_1_1
n2127__1_3_1_1_1_10_2,n2127__1_3_1_1_1_10_2_1
n2127__1_3_1_1_1_10_3,n2127__1_3_1_1_1_10_3_1
n2127__1_3_1_1_1_10_4,n2127__1_3_1_1_1_10_4_1
n2127__1_3_1_1_1_10_5,n2127__1_3_1_1_1_10_5_1
n2127__1_3_1_1_1_10_6,n2127__1_3_1_1_1_10_6_1
n2132__1_3_1_1_1_10_1,n2132__1_3_1_1_1_10_1_1
n2133__1_3_1_1_1_11_1,n2133__1_3_1_1_1_11_1_1
n2134__1_3_1_1_1_10_1,n2134__1_3_1_1_1_10_1_1
n2136__1_3_1_1_1_9_1,n2136__1_3_1_1_1_9_1_1
n2139__1_3_1_1_1_9_1,n2139__1_3_1_1_1_9_1_1
n2142__1_3_1_1_1_12_1,n2142__1_3_1_1_1_12_1_1
n2143__1_3_1_1_1_10_1,n2143__1_3_1_1_1_10_1_1
n2145__1_3_1_1_1_11_1,n2145__1_3_1_1_1_11_1_1
n2145__1_3_1_1_1_11_2,n2145__1_3_1_1_1_11_2_1
n2146__1_3_1_1_1_18_1,n2146__1_3_1_1_1_18_1_1
n2146__1_3_1_1_1_18_2,n2146__1_3_1_1_1_18_2_1
n2146__1_3_1_1_1_18_3,n2146__1_3_1_1_1_18_3_1
n2146__1_3_1_1_1_18_4,n2146__1_3_1_1_1_18_4_1
n2147__1_3_1_1_1_10_1,n2147__1_3_1_1_1_10_1_1
n2148__1_3_1_1_1_9_1,n2148__1_3_1_1_1_9_1_1
n2149__1_3_1_1_1_10_1,n2149__1_3_1_1_1_10_1_1
n2149__1_3_1_1_1_10_2,n2149__1_3_1_1_1_10_2_1
n2150__1_3_1_1_1_10_1,n2150__1_3_1_1_1_10_1_1
n2155__1_3_1_1_1_12_1,n2155__1_3_1_1_1_12_1_1
n2156__1_3_1_1_1_11_1,n2156__1_3_1_1_1_11_1_1
n2158__1_3_1_1_1_10_1,n2158__1_3_1_1_1_10_1_1
n2159__1_3_1_1_1_10_1,n2159__1_3_1_1_1_10_1_1
n2160__1_3_1_1_1_10_1,n2160__1_3_1_1_1_10_1_1
n2161__1_3_1_1_1_10_1,n2161__1_3_1_1_1_10_1_1
n2163__1_3_1_1_1_12_1,n2163__1_3_1_1_1_12_1_1
n2163__1_3_1_1_1_12_2,n2163__1_3_1_1_1_12_2_1
n2164__1_3_1_1_1_12_1,n2164__1_3_1_1_1_12_1_1
n2164__1_3_1_1_1_12_2,n2164__1_3_1_1_1_12_2_1
n2165__1_3_1_1_1_11_1,n2165__1_3_1_1_1_11_1_1
n2166__1_3_1_1_1_11_1,n2166__1_3_1_1_1_11_1_1
n2166__1_3_1_1_1_11_2,n2166__1_3_1_1_1_11_2_1
n2166__1_3_1_1_1_11_3,n2166__1_3_1_1_1_11_3_1
n2168__1_3_1_1_1_10_1,n2168__1_3_1_1_1_10_1_1
n2169__1_3_1_1_1_12_1,n2169__1_3_1_1_1_12_1_1
n2169__1_3_1_1_1_12_2,n2169__1_3_1_1_1_12_2_1
n2172__1_3_1_1_1_10_1,n2172__1_3_1_1_1_10_1_1
n2172__1_3_1_1_1_10_2,n2172__1_3_1_1_1_10_2_1
n2172__1_3_1_1_1_10_3,n2172__1_3_1_1_1_10_3_1
n2173__1_3_1_1_1_11_1,n2173__1_3_1_1_1_11_1_1
n2174__1_3_1_1_1_11_1,n2174__1_3_1_1_1_11_1_1
n2174__1_3_1_1_1_11_2,n2174__1_3_1_1_1_11_2_1
