n1__1_3_1_1_1_6,n1__1_3_1_1_1_6_1
n3__1_3_1_1_1_6,n3__1_3_1_1_1_6_1
n3__1_3_1_1_1_6_1_3,n3__1_3_1_1_1_6_1_3_1
n6__1_3_1_1_1_6,n6__1_3_1_1_1_6_1
n6__1_3_1_1_1_6_1_1,n6__1_3_1_1_1_6_1_1_1
n6__1_3_1_1_1_6_1_3,n6__1_3_1_1_1_6_1_3_1
n6__1_3_1_1_1_6_1_5,n6__1_3_1_1_1_6_1_5_1
n8__1_3_1_1_1_6,n8__1_3_1_1_1_6_1
n8__1_3_1_1_1_6_1_1,n8__1_3_1_1_1_6_1_1_1
n8__1_3_1_1_1_6_1_4,n8__1_3_1_1_1_6_1_4_1
n9__1_3_1_1_1_6,n9__1_3_1_1_1_6_1
n9__1_3_1_1_1_6_1_1,n9__1_3_1_1_1_6_1_1_1
n10__1_3_1_1_1_6,n10__1_3_1_1_1_6_1
n10__1_3_1_1_1_6_1_2,n10__1_3_1_1_1_6_1_2_1
n13__1_3_1_1_1_6,n13__1_3_1_1_1_6_1
n13__1_3_1_1_1_6_1_2,n13__1_3_1_1_1_6_1_2_1
n15__1_3_1_1_1_6,n15__1_3_1_1_1_6_1
n15__1_3_1_1_1_6_1_3,n15__1_3_1_1_1_6_1_3_1
n17__1_3_1_1_1_7,n17__1_3_1_1_1_7_1
n17__1_3_1_1_1_7_1_1,n17__1_3_1_1_1_7_1_1_1
n17__1_3_1_1_1_7_1_2,n17__1_3_1_1_1_7_1_2_1
n17__1_3_1_1_1_7_1_3,n17__1_3_1_1_1_7_1_3_1
n18__1_3_1_1_1_6,n18__1_3_1_1_1_6_1
n20__1_3_1_1_1_6,n20__1_3_1_1_1_6_1
n21__1_3_1_1_1_7,n21__1_3_1_1_1_7_1
n21__1_3_1_1_1_7_1_1,n21__1_3_1_1_1_7_1_1_1
n21__1_3_1_1_1_7_1_3,n21__1_3_1_1_1_7_1_3_1
n26__1_3_1_1_1_6,n26__1_3_1_1_1_6_1
n28__1_3_1_1_1_6,n28__1_3_1_1_1_6_1
n37__1_3_1_1_1_6,n37__1_3_1_1_1_6_1
n43__1_3_1_1_1_6,n43__1_3_1_1_1_6_1
n43__1_3_1_1_1_6_1_3,n43__1_3_1_1_1_6_1_3_1
n49__1_3_1_1_1_6,n49__1_3_1_1_1_6_1
n54__1_3_1_1_1_6,n54__1_3_1_1_1_6_1
n54__1_3_1_1_1_6_1_2,n54__1_3_1_1_1_6_1_2_1
n54__1_3_1_1_1_6_1_3,n54__1_3_1_1_1_6_1_3_1
n56__1_3_1_1_1_6,n56__1_3_1_1_1_6_1
n68__1_3_1_1_1_6,n68__1_3_1_1_1_6_1
n68__1_3_1_1_1_6_1_2,n68__1_3_1_1_1_6_1_2_1
n76__1_3_1_1_1_6,n76__1_3_1_1_1_6_1
n76__1_3_1_1_1_6_1_2,n76__1_3_1_1_1_6_1_2_1
n77__1_3_1_1_1_6,n77__1_3_1_1_1_6_1
n78__1_3_1_1_1_6,n78__1_3_1_1_1_6_1
n78__1_3_1_1_1_6_1_2,n78__1_3_1_1_1_6_1_2_1
n81__1_3_1_1_1_6,n81__1_3_1_1_1_6_1
n83__1_3_1_1_1_7,n83__1_3_1_1_1_7_1
n90__1_3_1_1_1_6,n90__1_3_1_1_1_6_1
n94__1_3_1_1_1_7,n94__1_3_1_1_1_7_1
n94__1_3_1_1_1_7_1_1,n94__1_3_1_1_1_7_1_1_1
n98__1_3_1_1_1_6,n98__1_3_1_1_1_6_1
n99__1_3_1_1_1_6,n99__1_3_1_1_1_6_1
n102__1_3_1_1_1_6,n102__1_3_1_1_1_6_1
n103__1_3_1_1_1_6,n103__1_3_1_1_1_6_1
n104__1_3_1_1_1_6,n104__1_3_1_1_1_6_1
n104__1_3_1_1_1_6_1_1,n104__1_3_1_1_1_6_1_1_1
n107__1_3_1_1_1_6,n107__1_3_1_1_1_6_1
n109__1_3_1_1_1_6,n109__1_3_1_1_1_6_1
n109__1_3_1_1_1_6_1_1,n109__1_3_1_1_1_6_1_1_1
n110__1_3_1_1_1_6,n110__1_3_1_1_1_6_1
n113__1_3_1_1_1_6,n113__1_3_1_1_1_6_1
n113__1_3_1_1_1_6_1_5,n113__1_3_1_1_1_6_1_5_1
n114__1_3_1_1_1_6,n114__1_3_1_1_1_6_1
n114__1_3_1_1_1_6_1_2,n114__1_3_1_1_1_6_1_2_1
n116__1_3_1_1_1_6,n116__1_3_1_1_1_6_1
n117__1_3_1_1_1_6,n117__1_3_1_1_1_6_1
n120__1_3_1_1_1_6,n120__1_3_1_1_1_6_1
n120__1_3_1_1_1_6_1_3,n120__1_3_1_1_1_6_1_3_1
n124__1_3_1_1_1_6,n124__1_3_1_1_1_6_1
n124__1_3_1_1_1_6_1_3,n124__1_3_1_1_1_6_1_3_1
n124__1_3_1_1_1_6_1_5,n124__1_3_1_1_1_6_1_5_1
n125__1_3_1_1_1_6,n125__1_3_1_1_1_6_1
n125__1_3_1_1_1_6_1_3,n125__1_3_1_1_1_6_1_3_1
n128__1_3_1_1_1_6,n128__1_3_1_1_1_6_1
n129__1_3_1_1_1_6,n129__1_3_1_1_1_6_1
n131__1_3_1_1_1_6,n131__1_3_1_1_1_6_1
n134__1_3_1_1_1_6,n134__1_3_1_1_1_6_1
n134__1_3_1_1_1_6_1_1,n134__1_3_1_1_1_6_1_1_1
n140__1_3_1_1_1_6,n140__1_3_1_1_1_6_1
n140__1_3_1_1_1_6_1_1,n140__1_3_1_1_1_6_1_1_1
n140__1_3_1_1_1_6_1_4,n140__1_3_1_1_1_6_1_4_1
n142__1_3_1_1_1_6,n142__1_3_1_1_1_6_1
n144__1_3_1_1_1_6,n144__1_3_1_1_1_6_1
n146__1_3_1_1_1_7,n146__1_3_1_1_1_7_1
n148__1_3_1_1_1_5,n148__1_3_1_1_1_5_1
n148__1_3_1_1_1_5_1_2,n148__1_3_1_1_1_5_1_2_1
n149__1_3_1_1_1_6,n149__1_3_1_1_1_6_1
n150__1_3_1_1_1_6,n150__1_3_1_1_1_6_1
n150__1_3_1_1_1_6_1_2,n150__1_3_1_1_1_6_1_2_1
n154__1_3_1_1_1_6,n154__1_3_1_1_1_6_1
n159__1_3_1_1_1_6,n159__1_3_1_1_1_6_1
n161__1_3_1_1_1_7,n161__1_3_1_1_1_7_1
n171__1_3_1_1_1_6,n171__1_3_1_1_1_6_1
n176__1_3_1_1_1_6,n176__1_3_1_1_1_6_1
n176__1_3_1_1_1_6_1_2,n176__1_3_1_1_1_6_1_2_1
n177__1_3_1_1_1_6,n177__1_3_1_1_1_6_1
n177__1_3_1_1_1_6_1_2,n177__1_3_1_1_1_6_1_2_1
n186__1_3_1_1_1_6,n186__1_3_1_1_1_6_1
n186__1_3_1_1_1_6_1_1,n186__1_3_1_1_1_6_1_1_1
n186__1_3_1_1_1_6_1_2,n186__1_3_1_1_1_6_1_2_1
n188__1_3_1_1_1_7,n188__1_3_1_1_1_7_1
n189__1_3_1_1_1_7,n189__1_3_1_1_1_7_1
n189__1_3_1_1_1_7_1_1,n189__1_3_1_1_1_7_1_1_1
n189__1_3_1_1_1_7_1_2,n189__1_3_1_1_1_7_1_2_1
n191__1_3_1_1_1_6,n191__1_3_1_1_1_6_1
n205__1_3_1_1_1_6,n205__1_3_1_1_1_6_1
n206__1_3_1_1_1_6,n206__1_3_1_1_1_6_1
n207__1_3_1_1_1_6,n207__1_3_1_1_1_6_1
n207__1_3_1_1_1_6_1_4,n207__1_3_1_1_1_6_1_4_1
n217__1_3_1_1_1_6,n217__1_3_1_1_1_6_1
n217__1_3_1_1_1_6_1_3,n217__1_3_1_1_1_6_1_3_1
n220__1_3_1_1_1_6,n220__1_3_1_1_1_6_1
n220__1_3_1_1_1_6_1_1,n220__1_3_1_1_1_6_1_1_1
n220__1_3_1_1_1_6_1_3,n220__1_3_1_1_1_6_1_3_1
n221__1_3_1_1_1_6,n221__1_3_1_1_1_6_1
n223__1_3_1_1_1_7,n223__1_3_1_1_1_7_1
n223__1_3_1_1_1_7_1_1,n223__1_3_1_1_1_7_1_1_1
n224__1_3_1_1_1_6,n224__1_3_1_1_1_6_1
n227__1_3_1_1_1_6,n227__1_3_1_1_1_6_1
n229__1_3_1_1_1_6,n229__1_3_1_1_1_6_1
n234__1_3_1_1_1_6,n234__1_3_1_1_1_6_1
n237__1_3_1_1_1_6,n237__1_3_1_1_1_6_1
n238__1_3_1_1_1_6,n238__1_3_1_1_1_6_1
n238__1_3_1_1_1_6_1_1,n238__1_3_1_1_1_6_1_1_1
n240__1_3_1_1_1_6,n240__1_3_1_1_1_6_1
n242__1_3_1_1_1_6,n242__1_3_1_1_1_6_1
n246__1_3_1_1_1_6,n246__1_3_1_1_1_6_1
n246__1_3_1_1_1_6_1_3,n246__1_3_1_1_1_6_1_3_1
n253__1_3_1_1_1_6,n253__1_3_1_1_1_6_1
n254__1_3_1_1_1_6,n254__1_3_1_1_1_6_1
n254__1_3_1_1_1_6_1_2,n254__1_3_1_1_1_6_1_2_1
n256__1_3_1_1_1_6,n256__1_3_1_1_1_6_1
n260__1_3_1_1_1_6,n260__1_3_1_1_1_6_1
n261__1_3_1_1_1_6,n261__1_3_1_1_1_6_1
n261__1_3_1_1_1_6_1_2,n261__1_3_1_1_1_6_1_2_1
n262__1_3_1_1_1_6,n262__1_3_1_1_1_6_1
n263__1_3_1_1_1_6,n263__1_3_1_1_1_6_1
n264__1_3_1_1_1_6,n264__1_3_1_1_1_6_1
n264__1_3_1_1_1_6_1_1,n264__1_3_1_1_1_6_1_1_1
n264__1_3_1_1_1_6_1_3,n264__1_3_1_1_1_6_1_3_1
n265__1_3_1_1_1_6,n265__1_3_1_1_1_6_1
n265__1_3_1_1_1_6_1_2,n265__1_3_1_1_1_6_1_2_1
n268__1_3_1_1_1_6,n268__1_3_1_1_1_6_1
n268__1_3_1_1_1_6_1_2,n268__1_3_1_1_1_6_1_2_1
n270__1_3_1_1_1_6,n270__1_3_1_1_1_6_1
n275__1_3_1_1_1_6,n275__1_3_1_1_1_6_1
n282__1_3_1_1_1_6,n282__1_3_1_1_1_6_1
n287__1_3_1_1_1_6,n287__1_3_1_1_1_6_1
n287__1_3_1_1_1_6_1_2,n287__1_3_1_1_1_6_1_2_1
n290__1_3_1_1_1_6,n290__1_3_1_1_1_6_1
n296__1_3_1_1_1_6,n296__1_3_1_1_1_6_1
n297__1_3_1_1_1_6,n297__1_3_1_1_1_6_1
n297__1_3_1_1_1_6_1_2,n297__1_3_1_1_1_6_1_2_1
n298__1_3_1_1_1_6,n298__1_3_1_1_1_6_1
n302__1_3_1_1_1_6,n302__1_3_1_1_1_6_1
n302__1_3_1_1_1_6_1_3,n302__1_3_1_1_1_6_1_3_1
n314__1_3_1_1_1_6,n314__1_3_1_1_1_6_1
n314__1_3_1_1_1_6_1_1,n314__1_3_1_1_1_6_1_1_1
n314__1_3_1_1_1_6_1_2,n314__1_3_1_1_1_6_1_2_1
n315__1_3_1_1_1_5,n315__1_3_1_1_1_5_1
n315__1_3_1_1_1_5_1_1,n315__1_3_1_1_1_5_1_1_1
n316__1_3_1_1_1_6,n316__1_3_1_1_1_6_1
n320__1_3_1_1_1_6,n320__1_3_1_1_1_6_1
n322__1_3_1_1_1_6,n322__1_3_1_1_1_6_1
n324__1_3_1_1_1_6,n324__1_3_1_1_1_6_1
n325__1_3_1_1_1_6,n325__1_3_1_1_1_6_1
n325__1_3_1_1_1_6_1_2,n325__1_3_1_1_1_6_1_2_1
n325__1_3_1_1_1_6_1_4,n325__1_3_1_1_1_6_1_4_1
n330__1_3_1_1_1_6,n330__1_3_1_1_1_6_1
n330__1_3_1_1_1_6_1_2,n330__1_3_1_1_1_6_1_2_1
n332__1_3_1_1_1_6,n332__1_3_1_1_1_6_1
n332__1_3_1_1_1_6_1_2,n332__1_3_1_1_1_6_1_2_1
n334__1_3_1_1_1_7,n334__1_3_1_1_1_7_1
n334__1_3_1_1_1_7_1_2,n334__1_3_1_1_1_7_1_2_1
n339__1_3_1_1_1_6,n339__1_3_1_1_1_6_1
n339__1_3_1_1_1_6_1_1,n339__1_3_1_1_1_6_1_1_1
n339__1_3_1_1_1_6_1_3,n339__1_3_1_1_1_6_1_3_1
n341__1_3_1_1_1_6,n341__1_3_1_1_1_6_1
n341__1_3_1_1_1_6_1_3,n341__1_3_1_1_1_6_1_3_1
n346__1_3_1_1_1_7,n346__1_3_1_1_1_7_1
n346__1_3_1_1_1_7_1_4,n346__1_3_1_1_1_7_1_4_1
n348__1_3_1_1_1_6,n348__1_3_1_1_1_6_1
n353__1_3_1_1_1_6,n353__1_3_1_1_1_6_1
n353__1_3_1_1_1_6_1_3,n353__1_3_1_1_1_6_1_3_1
n353__1_3_1_1_1_6_1_4,n353__1_3_1_1_1_6_1_4_1
n354__1_3_1_1_1_6,n354__1_3_1_1_1_6_1
n354__1_3_1_1_1_6_1_2,n354__1_3_1_1_1_6_1_2_1
n354__1_3_1_1_1_6_1_3,n354__1_3_1_1_1_6_1_3_1
n357__1_3_1_1_1_6,n357__1_3_1_1_1_6_1
n357__1_3_1_1_1_6_1_1,n357__1_3_1_1_1_6_1_1_1
n358__1_3_1_1_1_6,n358__1_3_1_1_1_6_1
n361__1_3_1_1_1_6,n361__1_3_1_1_1_6_1
n361__1_3_1_1_1_6_1_1,n361__1_3_1_1_1_6_1_1_1
n361__1_3_1_1_1_6_1_3,n361__1_3_1_1_1_6_1_3_1
n368__1_3_1_1_1_6,n368__1_3_1_1_1_6_1
n368__1_3_1_1_1_6_1_2,n368__1_3_1_1_1_6_1_2_1
n370__1_3_1_1_1_6,n370__1_3_1_1_1_6_1
n374__1_3_1_1_1_6,n374__1_3_1_1_1_6_1
n377__1_3_1_1_1_6,n377__1_3_1_1_1_6_1
n377__1_3_1_1_1_6_1_1,n377__1_3_1_1_1_6_1_1_1
n381__1_3_1_1_1_6,n381__1_3_1_1_1_6_1
n382__1_3_1_1_1_6,n382__1_3_1_1_1_6_1
n384__1_3_1_1_1_6,n384__1_3_1_1_1_6_1
n384__1_3_1_1_1_6_1_2,n384__1_3_1_1_1_6_1_2_1
n393__1_3_1_1_1_6,n393__1_3_1_1_1_6_1
n395__1_3_1_1_1_7,n395__1_3_1_1_1_7_1
n396__1_3_1_1_1_6,n396__1_3_1_1_1_6_1
n396__1_3_1_1_1_6_1_2,n396__1_3_1_1_1_6_1_2_1
n398__1_3_1_1_1_6,n398__1_3_1_1_1_6_1
n398__1_3_1_1_1_6_1_1,n398__1_3_1_1_1_6_1_1_1
n399__1_3_1_1_1_6,n399__1_3_1_1_1_6_1
n402__1_3_1_1_1_7,n402__1_3_1_1_1_7_1
n402__1_3_1_1_1_7_1_2,n402__1_3_1_1_1_7_1_2_1
n403__1_3_1_1_1_6,n403__1_3_1_1_1_6_1
n405__1_3_1_1_1_6,n405__1_3_1_1_1_6_1
n405__1_3_1_1_1_6_1_1,n405__1_3_1_1_1_6_1_1_1
n410__1_3_1_1_1_6,n410__1_3_1_1_1_6_1
n410__1_3_1_1_1_6_1_3,n410__1_3_1_1_1_6_1_3_1
n413__1_3_1_1_1_6,n413__1_3_1_1_1_6_1
n413__1_3_1_1_1_6_1_4,n413__1_3_1_1_1_6_1_4_1
n415__1_3_1_1_1_6,n415__1_3_1_1_1_6_1
n415__1_3_1_1_1_6_1_3,n415__1_3_1_1_1_6_1_3_1
n418__1_3_1_1_1_6,n418__1_3_1_1_1_6_1
n422__1_3_1_1_1_7,n422__1_3_1_1_1_7_1
n422__1_3_1_1_1_7_1_1,n422__1_3_1_1_1_7_1_1_1
n427__1_3_1_1_1_6,n427__1_3_1_1_1_6_1
n427__1_3_1_1_1_6_1_2,n427__1_3_1_1_1_6_1_2_1
n428__1_3_1_1_1_6,n428__1_3_1_1_1_6_1
n432__1_3_1_1_1_6,n432__1_3_1_1_1_6_1
n432__1_3_1_1_1_6_1_3,n432__1_3_1_1_1_6_1_3_1
n435__1_3_1_1_1_7,n435__1_3_1_1_1_7_1
n438__1_3_1_1_1_7,n438__1_3_1_1_1_7_1
n438__1_3_1_1_1_7_1_1,n438__1_3_1_1_1_7_1_1_1
n441__1_3_1_1_1_6,n441__1_3_1_1_1_6_1
n447__1_3_1_1_1_6,n447__1_3_1_1_1_6_1
n453__1_3_1_1_1_6,n453__1_3_1_1_1_6_1
n456__1_3_1_1_1_7,n456__1_3_1_1_1_7_1
n461__1_3_1_1_1_6,n461__1_3_1_1_1_6_1
n462__1_3_1_1_1_6,n462__1_3_1_1_1_6_1
n462__1_3_1_1_1_6_1_1,n462__1_3_1_1_1_6_1_1_1
n466__1_3_1_1_1_6,n466__1_3_1_1_1_6_1
n468__1_3_1_1_1_6,n468__1_3_1_1_1_6_1
n468__1_3_1_1_1_6_1_1,n468__1_3_1_1_1_6_1_1_1
n471__1_3_1_1_1_6,n471__1_3_1_1_1_6_1
n474__1_3_1_1_1_6,n474__1_3_1_1_1_6_1
n474__1_3_1_1_1_6_1_2,n474__1_3_1_1_1_6_1_2_1
n475__1_3_1_1_1_6,n475__1_3_1_1_1_6_1
n485__1_3_1_1_1_6,n485__1_3_1_1_1_6_1
n486__1_3_1_1_1_6,n486__1_3_1_1_1_6_1
n486__1_3_1_1_1_6_1_1,n486__1_3_1_1_1_6_1_1_1
n494__1_3_1_1_1_6,n494__1_3_1_1_1_6_1
n494__1_3_1_1_1_6_1_1,n494__1_3_1_1_1_6_1_1_1
n494__1_3_1_1_1_6_1_2,n494__1_3_1_1_1_6_1_2_1
n496__1_3_1_1_1_6,n496__1_3_1_1_1_6_1
n496__1_3_1_1_1_6_1_2,n496__1_3_1_1_1_6_1_2_1
n501__1_3_1_1_1_6,n501__1_3_1_1_1_6_1
n501__1_3_1_1_1_6_1_1,n501__1_3_1_1_1_6_1_1_1
n502__1_3_1_1_1_6,n502__1_3_1_1_1_6_1
n502__1_3_1_1_1_6_1_2,n502__1_3_1_1_1_6_1_2_1
n503__1_3_1_1_1_6,n503__1_3_1_1_1_6_1
n506__1_3_1_1_1_6,n506__1_3_1_1_1_6_1
n506__1_3_1_1_1_6_1_5,n506__1_3_1_1_1_6_1_5_1
n507__1_3_1_1_1_6,n507__1_3_1_1_1_6_1
n507__1_3_1_1_1_6_1_1,n507__1_3_1_1_1_6_1_1_1
n515__1_3_1_1_1_6,n515__1_3_1_1_1_6_1
n515__1_3_1_1_1_6_1_2,n515__1_3_1_1_1_6_1_2_1
n521__1_3_1_1_1_6,n521__1_3_1_1_1_6_1
n521__1_3_1_1_1_6_1_2,n521__1_3_1_1_1_6_1_2_1
n521__1_3_1_1_1_6_1_3,n521__1_3_1_1_1_6_1_3_1
n526__1_3_1_1_1_6,n526__1_3_1_1_1_6_1
n526__1_3_1_1_1_6_1_1,n526__1_3_1_1_1_6_1_1_1
n526__1_3_1_1_1_6_1_3,n526__1_3_1_1_1_6_1_3_1
n526__1_3_1_1_1_6_1_4,n526__1_3_1_1_1_6_1_4_1
n528__1_3_1_1_1_6,n528__1_3_1_1_1_6_1
n528__1_3_1_1_1_6_1_2,n528__1_3_1_1_1_6_1_2_1
n530__1_3_1_1_1_6,n530__1_3_1_1_1_6_1
n534__1_3_1_1_1_6,n534__1_3_1_1_1_6_1
n537__1_3_1_1_1_6,n537__1_3_1_1_1_6_1
n540__1_3_1_1_1_6,n540__1_3_1_1_1_6_1
n540__1_3_1_1_1_6_1_1,n540__1_3_1_1_1_6_1_1_1
n540__1_3_1_1_1_6_1_3,n540__1_3_1_1_1_6_1_3_1
n542__1_3_1_1_1_6,n542__1_3_1_1_1_6_1
n542__1_3_1_1_1_6_1_1,n542__1_3_1_1_1_6_1_1_1
n542__1_3_1_1_1_6_1_2,n542__1_3_1_1_1_6_1_2_1
n542__1_3_1_1_1_6_1_3,n542__1_3_1_1_1_6_1_3_1
n543__1_3_1_1_1_6,n543__1_3_1_1_1_6_1
n543__1_3_1_1_1_6_1_3,n543__1_3_1_1_1_6_1_3_1
n545__1_3_1_1_1_6,n545__1_3_1_1_1_6_1
n549__1_3_1_1_1_6,n549__1_3_1_1_1_6_1
n550__1_3_1_1_1_6,n550__1_3_1_1_1_6_1
n553__1_3_1_1_1_6,n553__1_3_1_1_1_6_1
n556__1_3_1_1_1_6,n556__1_3_1_1_1_6_1
n563__1_3_1_1_1_6,n563__1_3_1_1_1_6_1
n564__1_3_1_1_1_7,n564__1_3_1_1_1_7_1
n565__1_3_1_1_1_6,n565__1_3_1_1_1_6_1
n568__1_3_1_1_1_6,n568__1_3_1_1_1_6_1
n570__1_3_1_1_1_6,n570__1_3_1_1_1_6_1
n583__1_3_1_1_1_6,n583__1_3_1_1_1_6_1
n584__1_3_1_1_1_6,n584__1_3_1_1_1_6_1
n584__1_3_1_1_1_6_1_1,n584__1_3_1_1_1_6_1_1_1
n584__1_3_1_1_1_6_1_2,n584__1_3_1_1_1_6_1_2_1
n584__1_3_1_1_1_6_1_3,n584__1_3_1_1_1_6_1_3_1
n593__1_3_1_1_1_6,n593__1_3_1_1_1_6_1
n594__1_3_1_1_1_7,n594__1_3_1_1_1_7_1
n594__1_3_1_1_1_7_1_2,n594__1_3_1_1_1_7_1_2_1
n604__1_3_1_1_1_7,n604__1_3_1_1_1_7_1
n604__1_3_1_1_1_7_1_1,n604__1_3_1_1_1_7_1_1_1
n605__1_3_1_1_1_6,n605__1_3_1_1_1_6_1
n605__1_3_1_1_1_6_1_2,n605__1_3_1_1_1_6_1_2_1
n610__1_3_1_1_1_6,n610__1_3_1_1_1_6_1
n613__1_3_1_1_1_6,n613__1_3_1_1_1_6_1
n613__1_3_1_1_1_6_1_2,n613__1_3_1_1_1_6_1_2_1
n623__1_3_1_1_1_7,n623__1_3_1_1_1_7_1
n629__1_3_1_1_1_6,n629__1_3_1_1_1_6_1
n630__1_3_1_1_1_6,n630__1_3_1_1_1_6_1
n631__1_3_1_1_1_6,n631__1_3_1_1_1_6_1
n634__1_3_1_1_1_6,n634__1_3_1_1_1_6_1
n634__1_3_1_1_1_6_1_2,n634__1_3_1_1_1_6_1_2_1
n644__1_3_1_1_1_6,n644__1_3_1_1_1_6_1
n644__1_3_1_1_1_6_1_2,n644__1_3_1_1_1_6_1_2_1
n647__1_3_1_1_1_6,n647__1_3_1_1_1_6_1
n656__1_3_1_1_1_6,n656__1_3_1_1_1_6_1
n659__1_3_1_1_1_6,n659__1_3_1_1_1_6_1
n665__1_3_1_1_1_6,n665__1_3_1_1_1_6_1
n665__1_3_1_1_1_6_1_1,n665__1_3_1_1_1_6_1_1_1
n669__1_3_1_1_1_6,n669__1_3_1_1_1_6_1
n669__1_3_1_1_1_6_1_3,n669__1_3_1_1_1_6_1_3_1
n674__1_3_1_1_1_7,n674__1_3_1_1_1_7_1
n674__1_3_1_1_1_7_1_2,n674__1_3_1_1_1_7_1_2_1
n679__1_3_1_1_1_6,n679__1_3_1_1_1_6_1
n679__1_3_1_1_1_6_1_2,n679__1_3_1_1_1_6_1_2_1
n681__1_3_1_1_1_6,n681__1_3_1_1_1_6_1
n685__1_3_1_1_1_6,n685__1_3_1_1_1_6_1
n687__1_3_1_1_1_6,n687__1_3_1_1_1_6_1
n687__1_3_1_1_1_6_1_3,n687__1_3_1_1_1_6_1_3_1
n688__1_3_1_1_1_6,n688__1_3_1_1_1_6_1
n688__1_3_1_1_1_6_1_2,n688__1_3_1_1_1_6_1_2_1
n694__1_3_1_1_1_6,n694__1_3_1_1_1_6_1
n700__1_3_1_1_1_7,n700__1_3_1_1_1_7_1
n701__1_3_1_1_1_6,n701__1_3_1_1_1_6_1
n703__1_3_1_1_1_6,n703__1_3_1_1_1_6_1
n703__1_3_1_1_1_6_1_2,n703__1_3_1_1_1_6_1_2_1
n703__1_3_1_1_1_6_1_3,n703__1_3_1_1_1_6_1_3_1
n704__1_3_1_1_1_7,n704__1_3_1_1_1_7_1
n704__1_3_1_1_1_7_1_2,n704__1_3_1_1_1_7_1_2_1
n706__1_3_1_1_1_6,n706__1_3_1_1_1_6_1
n706__1_3_1_1_1_6_1_2,n706__1_3_1_1_1_6_1_2_1
n707__1_3_1_1_1_6,n707__1_3_1_1_1_6_1
n711__1_3_1_1_1_6,n711__1_3_1_1_1_6_1
n711__1_3_1_1_1_6_1_2,n711__1_3_1_1_1_6_1_2_1
n714__1_3_1_1_1_6,n714__1_3_1_1_1_6_1
n714__1_3_1_1_1_6_1_2,n714__1_3_1_1_1_6_1_2_1
n719__1_3_1_1_1_6,n719__1_3_1_1_1_6_1
n723__1_3_1_1_1_6,n723__1_3_1_1_1_6_1
n723__1_3_1_1_1_6_1_1,n723__1_3_1_1_1_6_1_1_1
n725__1_3_1_1_1_6,n725__1_3_1_1_1_6_1
n725__1_3_1_1_1_6_1_3,n725__1_3_1_1_1_6_1_3_1
n731__1_3_1_1_1_6,n731__1_3_1_1_1_6_1
n731__1_3_1_1_1_6_1_1,n731__1_3_1_1_1_6_1_1_1
n736__1_3_1_1_1_6,n736__1_3_1_1_1_6_1
n737__1_3_1_1_1_6,n737__1_3_1_1_1_6_1
n737__1_3_1_1_1_6_1_2,n737__1_3_1_1_1_6_1_2_1
n737__1_3_1_1_1_6_1_3,n737__1_3_1_1_1_6_1_3_1
n740__1_3_1_1_1_6,n740__1_3_1_1_1_6_1
n740__1_3_1_1_1_6_1_1,n740__1_3_1_1_1_6_1_1_1
n741__1_3_1_1_1_6,n741__1_3_1_1_1_6_1
n743__1_3_1_1_1_6,n743__1_3_1_1_1_6_1
n743__1_3_1_1_1_6_1_1,n743__1_3_1_1_1_6_1_1_1
n746__1_3_1_1_1_6,n746__1_3_1_1_1_6_1
n747__1_3_1_1_1_6,n747__1_3_1_1_1_6_1
n752__1_3_1_1_1_6,n752__1_3_1_1_1_6_1
n756__1_3_1_1_1_6,n756__1_3_1_1_1_6_1
n757__1_3_1_1_1_5,n757__1_3_1_1_1_5_1
n758__1_3_1_1_1_6,n758__1_3_1_1_1_6_1
n758__1_3_1_1_1_6_1_3,n758__1_3_1_1_1_6_1_3_1
n760__1_3_1_1_1_7,n760__1_3_1_1_1_7_1
n762__1_3_1_1_1_7,n762__1_3_1_1_1_7_1
n762__1_3_1_1_1_7_1_3,n762__1_3_1_1_1_7_1_3_1
n767__1_3_1_1_1_6,n767__1_3_1_1_1_6_1
n768__1_3_1_1_1_6,n768__1_3_1_1_1_6_1
n774__1_3_1_1_1_6,n774__1_3_1_1_1_6_1
n779__1_3_1_1_1_6,n779__1_3_1_1_1_6_1
n780__1_3_1_1_1_6,n780__1_3_1_1_1_6_1
n786__1_3_1_1_1_6,n786__1_3_1_1_1_6_1
n786__1_3_1_1_1_6_1_3,n786__1_3_1_1_1_6_1_3_1
n788__1_3_1_1_1_6,n788__1_3_1_1_1_6_1
n789__1_3_1_1_1_6,n789__1_3_1_1_1_6_1
n789__1_3_1_1_1_6_1_1,n789__1_3_1_1_1_6_1_1_1
n793__1_3_1_1_1_6,n793__1_3_1_1_1_6_1
n793__1_3_1_1_1_6_1_2,n793__1_3_1_1_1_6_1_2_1
n794__1_3_1_1_1_6,n794__1_3_1_1_1_6_1
n794__1_3_1_1_1_6_1_3,n794__1_3_1_1_1_6_1_3_1
n796__1_3_1_1_1_6,n796__1_3_1_1_1_6_1
n796__1_3_1_1_1_6_1_2,n796__1_3_1_1_1_6_1_2_1
n798__1_3_1_1_1_6,n798__1_3_1_1_1_6_1
n800__1_3_1_1_1_7,n800__1_3_1_1_1_7_1
n807__1_3_1_1_1_6,n807__1_3_1_1_1_6_1
n810__1_3_1_1_1_6,n810__1_3_1_1_1_6_1
n810__1_3_1_1_1_6_1_3,n810__1_3_1_1_1_6_1_3_1
n813__1_3_1_1_1_6,n813__1_3_1_1_1_6_1
n813__1_3_1_1_1_6_1_1,n813__1_3_1_1_1_6_1_1_1
n817__1_3_1_1_1_6,n817__1_3_1_1_1_6_1
n823__1_3_1_1_1_6,n823__1_3_1_1_1_6_1
n823__1_3_1_1_1_6_1_1,n823__1_3_1_1_1_6_1_1_1
n823__1_3_1_1_1_6_1_2,n823__1_3_1_1_1_6_1_2_1
n823__1_3_1_1_1_6_1_3,n823__1_3_1_1_1_6_1_3_1
n826__1_3_1_1_1_7,n826__1_3_1_1_1_7_1
n826__1_3_1_1_1_7_1_1,n826__1_3_1_1_1_7_1_1_1
n826__1_3_1_1_1_7_1_3,n826__1_3_1_1_1_7_1_3_1
n828__1_3_1_1_1_6,n828__1_3_1_1_1_6_1
n828__1_3_1_1_1_6_1_2,n828__1_3_1_1_1_6_1_2_1
n828__1_3_1_1_1_6_1_3,n828__1_3_1_1_1_6_1_3_1
n830__1_3_1_1_1_6,n830__1_3_1_1_1_6_1
n831__1_3_1_1_1_7,n831__1_3_1_1_1_7_1
n832__1_3_1_1_1_6,n832__1_3_1_1_1_6_1
n832__1_3_1_1_1_6_1_1,n832__1_3_1_1_1_6_1_1_1
n840__1_3_1_1_1_6,n840__1_3_1_1_1_6_1
n842__1_3_1_1_1_7,n842__1_3_1_1_1_7_1
n842__1_3_1_1_1_7_1_1,n842__1_3_1_1_1_7_1_1_1
n844__1_3_1_1_1_5,n844__1_3_1_1_1_5_1
n844__1_3_1_1_1_5_1_1,n844__1_3_1_1_1_5_1_1_1
n844__1_3_1_1_1_5_1_2,n844__1_3_1_1_1_5_1_2_1
n847__1_3_1_1_1_6,n847__1_3_1_1_1_6_1
n851__1_3_1_1_1_6,n851__1_3_1_1_1_6_1
n851__1_3_1_1_1_6_1_3,n851__1_3_1_1_1_6_1_3_1
n857__1_3_1_1_1_7,n857__1_3_1_1_1_7_1
n866__1_3_1_1_1_6,n866__1_3_1_1_1_6_1
n875__1_3_1_1_1_6,n875__1_3_1_1_1_6_1
n882__1_3_1_1_1_6,n882__1_3_1_1_1_6_1
n882__1_3_1_1_1_6_1_1,n882__1_3_1_1_1_6_1_1_1
n882__1_3_1_1_1_6_1_2,n882__1_3_1_1_1_6_1_2_1
n886__1_3_1_1_1_6,n886__1_3_1_1_1_6_1
n886__1_3_1_1_1_6_1_3,n886__1_3_1_1_1_6_1_3_1
n888__1_3_1_1_1_6,n888__1_3_1_1_1_6_1
n888__1_3_1_1_1_6_1_2,n888__1_3_1_1_1_6_1_2_1
n895__1_3_1_1_1_7,n895__1_3_1_1_1_7_1
n896__1_3_1_1_1_6,n896__1_3_1_1_1_6_1
n901__1_3_1_1_1_6,n901__1_3_1_1_1_6_1
n906__1_3_1_1_1_6,n906__1_3_1_1_1_6_1
n906__1_3_1_1_1_6_1_1,n906__1_3_1_1_1_6_1_1_1
n909__1_3_1_1_1_7,n909__1_3_1_1_1_7_1
n909__1_3_1_1_1_7_1_1,n909__1_3_1_1_1_7_1_1_1
n909__1_3_1_1_1_7_1_4,n909__1_3_1_1_1_7_1_4_1
n925__1_3_1_1_1_6,n925__1_3_1_1_1_6_1
n925__1_3_1_1_1_6_1_1,n925__1_3_1_1_1_6_1_1_1
n931__1_3_1_1_1_6,n931__1_3_1_1_1_6_1
n937__1_3_1_1_1_6,n937__1_3_1_1_1_6_1
n937__1_3_1_1_1_6_1_1,n937__1_3_1_1_1_6_1_1_1
n938__1_3_1_1_1_6,n938__1_3_1_1_1_6_1
n938__1_3_1_1_1_6_1_5,n938__1_3_1_1_1_6_1_5_1
n940__1_3_1_1_1_5,n940__1_3_1_1_1_5_1
n940__1_3_1_1_1_5_1_1,n940__1_3_1_1_1_5_1_1_1
n941__1_3_1_1_1_6,n941__1_3_1_1_1_6_1
n946__1_3_1_1_1_6,n946__1_3_1_1_1_6_1
n948__1_3_1_1_1_6,n948__1_3_1_1_1_6_1
n951__1_3_1_1_1_6,n951__1_3_1_1_1_6_1
n953__1_3_1_1_1_5,n953__1_3_1_1_1_5_1
n953__1_3_1_1_1_5_1_1,n953__1_3_1_1_1_5_1_1_1
n953__1_3_1_1_1_5_1_3,n953__1_3_1_1_1_5_1_3_1
n954__1_3_1_1_1_6,n954__1_3_1_1_1_6_1
n956__1_3_1_1_1_7,n956__1_3_1_1_1_7_1
n956__1_3_1_1_1_7_1_1,n956__1_3_1_1_1_7_1_1_1
n960__1_3_1_1_1_6,n960__1_3_1_1_1_6_1
n962__1_3_1_1_1_6,n962__1_3_1_1_1_6_1
n966__1_3_1_1_1_6,n966__1_3_1_1_1_6_1
n971__1_3_1_1_1_6,n971__1_3_1_1_1_6_1
n971__1_3_1_1_1_6_1_1,n971__1_3_1_1_1_6_1_1_1
n974__1_3_1_1_1_6,n974__1_3_1_1_1_6_1
n992__1_3_1_1_1_6,n992__1_3_1_1_1_6_1
n992__1_3_1_1_1_6_1_1,n992__1_3_1_1_1_6_1_1_1
n996__1_3_1_1_1_6,n996__1_3_1_1_1_6_1
n1003__1_3_1_1_1_6,n1003__1_3_1_1_1_6_1
n1003__1_3_1_1_1_6_1_1,n1003__1_3_1_1_1_6_1_1_1
n1003__1_3_1_1_1_6_1_2,n1003__1_3_1_1_1_6_1_2_1
n1011__1_3_1_1_1_6,n1011__1_3_1_1_1_6_1
n1011__1_3_1_1_1_6_1_3,n1011__1_3_1_1_1_6_1_3_1
n1013__1_3_1_1_1_6,n1013__1_3_1_1_1_6_1
n1015__1_3_1_1_1_6,n1015__1_3_1_1_1_6_1
n1016__1_3_1_1_1_7,n1016__1_3_1_1_1_7_1
n1016__1_3_1_1_1_7_1_2,n1016__1_3_1_1_1_7_1_2_1
n1022__1_3_1_1_1_6,n1022__1_3_1_1_1_6_1
n1022__1_3_1_1_1_6_1_2,n1022__1_3_1_1_1_6_1_2_1
n1022__1_3_1_1_1_6_1_4,n1022__1_3_1_1_1_6_1_4_1
n1031__1_3_1_1_1_6,n1031__1_3_1_1_1_6_1
n1033__1_3_1_1_1_6,n1033__1_3_1_1_1_6_1
n1033__1_3_1_1_1_6_1_2,n1033__1_3_1_1_1_6_1_2_1
n1039__1_3_1_1_1_6,n1039__1_3_1_1_1_6_1
n1039__1_3_1_1_1_6_1_2,n1039__1_3_1_1_1_6_1_2_1
n1041__1_3_1_1_1_7,n1041__1_3_1_1_1_7_1
n1041__1_3_1_1_1_7_1_1,n1041__1_3_1_1_1_7_1_1_1
n1048__1_3_1_1_1_6,n1048__1_3_1_1_1_6_1
n1049__1_3_1_1_1_6,n1049__1_3_1_1_1_6_1
n1049__1_3_1_1_1_6_1_3,n1049__1_3_1_1_1_6_1_3_1
n1052__1_3_1_1_1_6,n1052__1_3_1_1_1_6_1
n1058__1_3_1_1_1_6,n1058__1_3_1_1_1_6_1
n1059__1_3_1_1_1_6,n1059__1_3_1_1_1_6_1
n1059__1_3_1_1_1_6_1_2,n1059__1_3_1_1_1_6_1_2_1
n1061__1_3_1_1_1_6,n1061__1_3_1_1_1_6_1
n1064__1_3_1_1_1_6,n1064__1_3_1_1_1_6_1
n1064__1_3_1_1_1_6_1_1,n1064__1_3_1_1_1_6_1_1_1
n1065__1_3_1_1_1_6,n1065__1_3_1_1_1_6_1
n1065__1_3_1_1_1_6_1_2,n1065__1_3_1_1_1_6_1_2_1
n1070__1_3_1_1_1_6,n1070__1_3_1_1_1_6_1
n1072__1_3_1_1_1_6,n1072__1_3_1_1_1_6_1
n1072__1_3_1_1_1_6_1_3,n1072__1_3_1_1_1_6_1_3_1
n1075__1_3_1_1_1_6,n1075__1_3_1_1_1_6_1
n1075__1_3_1_1_1_6_1_2,n1075__1_3_1_1_1_6_1_2_1
n1077__1_3_1_1_1_6,n1077__1_3_1_1_1_6_1
n1077__1_3_1_1_1_6_1_3,n1077__1_3_1_1_1_6_1_3_1
n1084__1_3_1_1_1_6,n1084__1_3_1_1_1_6_1
n1084__1_3_1_1_1_6_1_2,n1084__1_3_1_1_1_6_1_2_1
n1091__1_3_1_1_1_6,n1091__1_3_1_1_1_6_1
n1091__1_3_1_1_1_6_1_2,n1091__1_3_1_1_1_6_1_2_1
n1096__1_3_1_1_1_6,n1096__1_3_1_1_1_6_1
n1096__1_3_1_1_1_6_1_1,n1096__1_3_1_1_1_6_1_1_1
n1096__1_3_1_1_1_6_1_3,n1096__1_3_1_1_1_6_1_3_1
n1097__1_3_1_1_1_6,n1097__1_3_1_1_1_6_1
n1098__1_3_1_1_1_7,n1098__1_3_1_1_1_7_1
n1098__1_3_1_1_1_7_1_1,n1098__1_3_1_1_1_7_1_1_1
n1101__1_3_1_1_1_6,n1101__1_3_1_1_1_6_1
n1101__1_3_1_1_1_6_1_4,n1101__1_3_1_1_1_6_1_4_1
n1102__1_3_1_1_1_6,n1102__1_3_1_1_1_6_1
n1104__1_3_1_1_1_6,n1104__1_3_1_1_1_6_1
n1110__1_3_1_1_1_6,n1110__1_3_1_1_1_6_1
n1110__1_3_1_1_1_6_1_4,n1110__1_3_1_1_1_6_1_4_1
n1111__1_3_1_1_1_6,n1111__1_3_1_1_1_6_1
n1115__1_3_1_1_1_6,n1115__1_3_1_1_1_6_1
n1120__1_3_1_1_1_6,n1120__1_3_1_1_1_6_1
n1126__1_3_1_1_1_6,n1126__1_3_1_1_1_6_1
n1131__1_3_1_1_1_6,n1131__1_3_1_1_1_6_1
n1132__1_3_1_1_1_6,n1132__1_3_1_1_1_6_1
n1138__1_3_1_1_1_6,n1138__1_3_1_1_1_6_1
n1139__1_3_1_1_1_6,n1139__1_3_1_1_1_6_1
n1139__1_3_1_1_1_6_1_3,n1139__1_3_1_1_1_6_1_3_1
n1141__1_3_1_1_1_6,n1141__1_3_1_1_1_6_1
n1141__1_3_1_1_1_6_1_1,n1141__1_3_1_1_1_6_1_1_1
n1141__1_3_1_1_1_6_1_3,n1141__1_3_1_1_1_6_1_3_1
n1141__1_3_1_1_1_6_1_4,n1141__1_3_1_1_1_6_1_4_1
n1143__1_3_1_1_1_5,n1143__1_3_1_1_1_5_1
n1148__1_3_1_1_1_6,n1148__1_3_1_1_1_6_1
n1149__1_3_1_1_1_6,n1149__1_3_1_1_1_6_1
n1153__1_3_1_1_1_7,n1153__1_3_1_1_1_7_1
n1156__1_3_1_1_1_6,n1156__1_3_1_1_1_6_1
n1156__1_3_1_1_1_6_1_2,n1156__1_3_1_1_1_6_1_2_1
n1156__1_3_1_1_1_6_1_3,n1156__1_3_1_1_1_6_1_3_1
n1157__1_3_1_1_1_6,n1157__1_3_1_1_1_6_1
n1160__1_3_1_1_1_6,n1160__1_3_1_1_1_6_1
n1165__1_3_1_1_1_6,n1165__1_3_1_1_1_6_1
n1165__1_3_1_1_1_6_1_2,n1165__1_3_1_1_1_6_1_2_1
n1168__1_3_1_1_1_6,n1168__1_3_1_1_1_6_1
n1168__1_3_1_1_1_6_1_1,n1168__1_3_1_1_1_6_1_1_1
n1171__1_3_1_1_1_6,n1171__1_3_1_1_1_6_1
n1171__1_3_1_1_1_6_1_4,n1171__1_3_1_1_1_6_1_4_1
n1180__1_3_1_1_1_6,n1180__1_3_1_1_1_6_1
n1182__1_3_1_1_1_7,n1182__1_3_1_1_1_7_1
n1182__1_3_1_1_1_7_1_4,n1182__1_3_1_1_1_7_1_4_1
n1183__1_3_1_1_1_6,n1183__1_3_1_1_1_6_1
n1186__1_3_1_1_1_6,n1186__1_3_1_1_1_6_1
n1190__1_3_1_1_1_6,n1190__1_3_1_1_1_6_1
n1195__1_3_1_1_1_6,n1195__1_3_1_1_1_6_1
n1195__1_3_1_1_1_6_1_1,n1195__1_3_1_1_1_6_1_1_1
n1195__1_3_1_1_1_6_1_3,n1195__1_3_1_1_1_6_1_3_1
n1206__1_3_1_1_1_6,n1206__1_3_1_1_1_6_1
n1206__1_3_1_1_1_6_1_3,n1206__1_3_1_1_1_6_1_3_1
n1207__1_3_1_1_1_6,n1207__1_3_1_1_1_6_1
n1208__1_3_1_1_1_6,n1208__1_3_1_1_1_6_1
n1220__1_3_1_1_1_6,n1220__1_3_1_1_1_6_1
n1220__1_3_1_1_1_6_1_3,n1220__1_3_1_1_1_6_1_3_1
n1224__1_3_1_1_1_6,n1224__1_3_1_1_1_6_1
n1224__1_3_1_1_1_6_1_1,n1224__1_3_1_1_1_6_1_1_1
n1225__1_3_1_1_1_6,n1225__1_3_1_1_1_6_1
n1226__1_3_1_1_1_5,n1226__1_3_1_1_1_5_1
n1226__1_3_1_1_1_5_1_2,n1226__1_3_1_1_1_5_1_2_1
n1227__1_3_1_1_1_6,n1227__1_3_1_1_1_6_1
n1227__1_3_1_1_1_6_1_1,n1227__1_3_1_1_1_6_1_1_1
n1227__1_3_1_1_1_6_1_2,n1227__1_3_1_1_1_6_1_2_1
n1233__1_3_1_1_1_6,n1233__1_3_1_1_1_6_1
n1233__1_3_1_1_1_6_1_2,n1233__1_3_1_1_1_6_1_2_1
n1233__1_3_1_1_1_6_1_3,n1233__1_3_1_1_1_6_1_3_1
n1237__1_3_1_1_1_6,n1237__1_3_1_1_1_6_1
n1239__1_3_1_1_1_7,n1239__1_3_1_1_1_7_1
n1244__1_3_1_1_1_6,n1244__1_3_1_1_1_6_1
n1244__1_3_1_1_1_6_1_3,n1244__1_3_1_1_1_6_1_3_1
n1245__1_3_1_1_1_6,n1245__1_3_1_1_1_6_1
n1245__1_3_1_1_1_6_1_5,n1245__1_3_1_1_1_6_1_5_1
n1247__1_3_1_1_1_6,n1247__1_3_1_1_1_6_1
n1249__1_3_1_1_1_6,n1249__1_3_1_1_1_6_1
n1258__1_3_1_1_1_6,n1258__1_3_1_1_1_6_1
n1260__1_3_1_1_1_6,n1260__1_3_1_1_1_6_1
n1260__1_3_1_1_1_6_1_5,n1260__1_3_1_1_1_6_1_5_1
n1265__1_3_1_1_1_6,n1265__1_3_1_1_1_6_1
n1276__1_3_1_1_1_6,n1276__1_3_1_1_1_6_1
n1281__1_3_1_1_1_6,n1281__1_3_1_1_1_6_1
n1281__1_3_1_1_1_6_1_2,n1281__1_3_1_1_1_6_1_2_1
n1283__1_3_1_1_1_6,n1283__1_3_1_1_1_6_1
n1283__1_3_1_1_1_6_1_2,n1283__1_3_1_1_1_6_1_2_1
n1285__1_3_1_1_1_6,n1285__1_3_1_1_1_6_1
n1290__1_3_1_1_1_6,n1290__1_3_1_1_1_6_1
n1292__1_3_1_1_1_6,n1292__1_3_1_1_1_6_1
n1292__1_3_1_1_1_6_1_1,n1292__1_3_1_1_1_6_1_1_1
n1295__1_3_1_1_1_6,n1295__1_3_1_1_1_6_1
n1295__1_3_1_1_1_6_1_1,n1295__1_3_1_1_1_6_1_1_1
n1297__1_3_1_1_1_6,n1297__1_3_1_1_1_6_1
n1297__1_3_1_1_1_6_1_3,n1297__1_3_1_1_1_6_1_3_1
n1297__1_3_1_1_1_6_1_4,n1297__1_3_1_1_1_6_1_4_1
n1298__1_3_1_1_1_7,n1298__1_3_1_1_1_7_1
n1298__1_3_1_1_1_7_1_3,n1298__1_3_1_1_1_7_1_3_1
n1302__1_3_1_1_1_6,n1302__1_3_1_1_1_6_1
n1302__1_3_1_1_1_6_1_1,n1302__1_3_1_1_1_6_1_1_1
n1302__1_3_1_1_1_6_1_4,n1302__1_3_1_1_1_6_1_4_1
n1311__1_3_1_1_1_6,n1311__1_3_1_1_1_6_1
n1311__1_3_1_1_1_6_1_2,n1311__1_3_1_1_1_6_1_2_1
n1312__1_3_1_1_1_6,n1312__1_3_1_1_1_6_1
n1312__1_3_1_1_1_6_1_2,n1312__1_3_1_1_1_6_1_2_1
n1313__1_3_1_1_1_6,n1313__1_3_1_1_1_6_1
n1320__1_3_1_1_1_6,n1320__1_3_1_1_1_6_1
n1321__1_3_1_1_1_6,n1321__1_3_1_1_1_6_1
n1321__1_3_1_1_1_6_1_3,n1321__1_3_1_1_1_6_1_3_1
n1323__1_3_1_1_1_5,n1323__1_3_1_1_1_5_1
n1326__1_3_1_1_1_6,n1326__1_3_1_1_1_6_1
n1326__1_3_1_1_1_6_1_1,n1326__1_3_1_1_1_6_1_1_1
n1329__1_3_1_1_1_6,n1329__1_3_1_1_1_6_1
n1330__1_3_1_1_1_6,n1330__1_3_1_1_1_6_1
n1334__1_3_1_1_1_6,n1334__1_3_1_1_1_6_1
n1336__1_3_1_1_1_6,n1336__1_3_1_1_1_6_1
n1339__1_3_1_1_1_6,n1339__1_3_1_1_1_6_1
n1340__1_3_1_1_1_6,n1340__1_3_1_1_1_6_1
n1340__1_3_1_1_1_6_1_2,n1340__1_3_1_1_1_6_1_2_1
n1342__1_3_1_1_1_7,n1342__1_3_1_1_1_7_1
n1351__1_3_1_1_1_6,n1351__1_3_1_1_1_6_1
n1351__1_3_1_1_1_6_1_2,n1351__1_3_1_1_1_6_1_2_1
n1352__1_3_1_1_1_6,n1352__1_3_1_1_1_6_1
n1353__1_3_1_1_1_6,n1353__1_3_1_1_1_6_1
n1355__1_3_1_1_1_6,n1355__1_3_1_1_1_6_1
n1358__1_3_1_1_1_7,n1358__1_3_1_1_1_7_1
n1360__1_3_1_1_1_6,n1360__1_3_1_1_1_6_1
n1361__1_3_1_1_1_6,n1361__1_3_1_1_1_6_1
n1363__1_3_1_1_1_6,n1363__1_3_1_1_1_6_1
n1363__1_3_1_1_1_6_1_2,n1363__1_3_1_1_1_6_1_2_1
n1366__1_3_1_1_1_6,n1366__1_3_1_1_1_6_1
n1366__1_3_1_1_1_6_1_1,n1366__1_3_1_1_1_6_1_1_1
n1368__1_3_1_1_1_6,n1368__1_3_1_1_1_6_1
n1368__1_3_1_1_1_6_1_1,n1368__1_3_1_1_1_6_1_1_1
n1368__1_3_1_1_1_6_1_2,n1368__1_3_1_1_1_6_1_2_1
n1370__1_3_1_1_1_6,n1370__1_3_1_1_1_6_1
n1370__1_3_1_1_1_6_1_1,n1370__1_3_1_1_1_6_1_1_1
n1370__1_3_1_1_1_6_1_2,n1370__1_3_1_1_1_6_1_2_1
n1373__1_3_1_1_1_6,n1373__1_3_1_1_1_6_1
n1373__1_3_1_1_1_6_1_2,n1373__1_3_1_1_1_6_1_2_1
n1374__1_3_1_1_1_7,n1374__1_3_1_1_1_7_1
n1375__1_3_1_1_1_6,n1375__1_3_1_1_1_6_1
n1377__1_3_1_1_1_6,n1377__1_3_1_1_1_6_1
n1377__1_3_1_1_1_6_1_3,n1377__1_3_1_1_1_6_1_3_1
n1378__1_3_1_1_1_6,n1378__1_3_1_1_1_6_1
n1378__1_3_1_1_1_6_1_1,n1378__1_3_1_1_1_6_1_1_1
n1378__1_3_1_1_1_6_1_2,n1378__1_3_1_1_1_6_1_2_1
n1378__1_3_1_1_1_6_1_3,n1378__1_3_1_1_1_6_1_3_1
n1379__1_3_1_1_1_6,n1379__1_3_1_1_1_6_1
n1383__1_3_1_1_1_6,n1383__1_3_1_1_1_6_1
n1388__1_3_1_1_1_6,n1388__1_3_1_1_1_6_1
n1389__1_3_1_1_1_6,n1389__1_3_1_1_1_6_1
n1389__1_3_1_1_1_6_1_3,n1389__1_3_1_1_1_6_1_3_1
n1393__1_3_1_1_1_6,n1393__1_3_1_1_1_6_1
n1395__1_3_1_1_1_6,n1395__1_3_1_1_1_6_1
n1395__1_3_1_1_1_6_1_2,n1395__1_3_1_1_1_6_1_2_1
n1400__1_3_1_1_1_5,n1400__1_3_1_1_1_5_1
n1411__1_3_1_1_1_6,n1411__1_3_1_1_1_6_1
n1411__1_3_1_1_1_6_1_1,n1411__1_3_1_1_1_6_1_1_1
n1411__1_3_1_1_1_6_1_2,n1411__1_3_1_1_1_6_1_2_1
n1420__1_3_1_1_1_6,n1420__1_3_1_1_1_6_1
n1420__1_3_1_1_1_6_1_4,n1420__1_3_1_1_1_6_1_4_1
n1424__1_3_1_1_1_6,n1424__1_3_1_1_1_6_1
n1424__1_3_1_1_1_6_1_2,n1424__1_3_1_1_1_6_1_2_1
n1424__1_3_1_1_1_6_1_3,n1424__1_3_1_1_1_6_1_3_1
n1428__1_3_1_1_1_6,n1428__1_3_1_1_1_6_1
n1429__1_3_1_1_1_6,n1429__1_3_1_1_1_6_1
n1429__1_3_1_1_1_6_1_1,n1429__1_3_1_1_1_6_1_1_1
n1433__1_3_1_1_1_6,n1433__1_3_1_1_1_6_1
n1435__1_3_1_1_1_6,n1435__1_3_1_1_1_6_1
n1440__1_3_1_1_1_5,n1440__1_3_1_1_1_5_1
n1441__1_3_1_1_1_6,n1441__1_3_1_1_1_6_1
n1448__1_3_1_1_1_7,n1448__1_3_1_1_1_7_1
n1448__1_3_1_1_1_7_1_3,n1448__1_3_1_1_1_7_1_3_1
n1453__1_3_1_1_1_6,n1453__1_3_1_1_1_6_1
n1453__1_3_1_1_1_6_1_1,n1453__1_3_1_1_1_6_1_1_1
n1453__1_3_1_1_1_6_1_3,n1453__1_3_1_1_1_6_1_3_1
n1458__1_3_1_1_1_6,n1458__1_3_1_1_1_6_1
n1458__1_3_1_1_1_6_1_2,n1458__1_3_1_1_1_6_1_2_1
n1459__1_3_1_1_1_6,n1459__1_3_1_1_1_6_1
n1459__1_3_1_1_1_6_1_2,n1459__1_3_1_1_1_6_1_2_1
n1461__1_3_1_1_1_6,n1461__1_3_1_1_1_6_1
n1462__1_3_1_1_1_6,n1462__1_3_1_1_1_6_1
n1462__1_3_1_1_1_6_1_2,n1462__1_3_1_1_1_6_1_2_1
n1469__1_3_1_1_1_6,n1469__1_3_1_1_1_6_1
n1471__1_3_1_1_1_6,n1471__1_3_1_1_1_6_1
n1471__1_3_1_1_1_6_1_4,n1471__1_3_1_1_1_6_1_4_1
n1472__1_3_1_1_1_6,n1472__1_3_1_1_1_6_1
n1473__1_3_1_1_1_6,n1473__1_3_1_1_1_6_1
n1473__1_3_1_1_1_6_1_2,n1473__1_3_1_1_1_6_1_2_1
n1476__1_3_1_1_1_6,n1476__1_3_1_1_1_6_1
n1477__1_3_1_1_1_6,n1477__1_3_1_1_1_6_1
n1481__1_3_1_1_1_6,n1481__1_3_1_1_1_6_1
n1483__1_3_1_1_1_6,n1483__1_3_1_1_1_6_1
n1483__1_3_1_1_1_6_1_3,n1483__1_3_1_1_1_6_1_3_1
n1483__1_3_1_1_1_6_1_4,n1483__1_3_1_1_1_6_1_4_1
n1485__1_3_1_1_1_6,n1485__1_3_1_1_1_6_1
n1486__1_3_1_1_1_6,n1486__1_3_1_1_1_6_1
n1493__1_3_1_1_1_6,n1493__1_3_1_1_1_6_1
n1497__1_3_1_1_1_5,n1497__1_3_1_1_1_5_1
n1497__1_3_1_1_1_5_1_1,n1497__1_3_1_1_1_5_1_1_1
n1497__1_3_1_1_1_5_1_2,n1497__1_3_1_1_1_5_1_2_1
n1501__1_3_1_1_1_6,n1501__1_3_1_1_1_6_1
n1505__1_3_1_1_1_6,n1505__1_3_1_1_1_6_1
n1510__1_3_1_1_1_6,n1510__1_3_1_1_1_6_1
n1515__1_3_1_1_1_7,n1515__1_3_1_1_1_7_1
n1515__1_3_1_1_1_7_1_2,n1515__1_3_1_1_1_7_1_2_1
n1517__1_3_1_1_1_6,n1517__1_3_1_1_1_6_1
n1518__1_3_1_1_1_6,n1518__1_3_1_1_1_6_1
n1518__1_3_1_1_1_6_1_1,n1518__1_3_1_1_1_6_1_1_1
n1519__1_3_1_1_1_6,n1519__1_3_1_1_1_6_1
n1523__1_3_1_1_1_6,n1523__1_3_1_1_1_6_1
n1523__1_3_1_1_1_6_1_1,n1523__1_3_1_1_1_6_1_1_1
n1525__1_3_1_1_1_6,n1525__1_3_1_1_1_6_1
n1525__1_3_1_1_1_6_1_4,n1525__1_3_1_1_1_6_1_4_1
n1528__1_3_1_1_1_6,n1528__1_3_1_1_1_6_1
n1530__1_3_1_1_1_7,n1530__1_3_1_1_1_7_1
n1531__1_3_1_1_1_6,n1531__1_3_1_1_1_6_1
n1540__1_3_1_1_1_5,n1540__1_3_1_1_1_5_1
n1540__1_3_1_1_1_5_1_2,n1540__1_3_1_1_1_5_1_2_1
n1540__1_3_1_1_1_5_1_5,n1540__1_3_1_1_1_5_1_5_1
n1543__1_3_1_1_1_6,n1543__1_3_1_1_1_6_1
n1543__1_3_1_1_1_6_1_3,n1543__1_3_1_1_1_6_1_3_1
n1549__1_3_1_1_1_6,n1549__1_3_1_1_1_6_1
n1549__1_3_1_1_1_6_1_2,n1549__1_3_1_1_1_6_1_2_1
n1549__1_3_1_1_1_6_1_3,n1549__1_3_1_1_1_6_1_3_1
n1550__1_3_1_1_1_6,n1550__1_3_1_1_1_6_1
n1551__1_3_1_1_1_6,n1551__1_3_1_1_1_6_1
n1556__1_3_1_1_1_6,n1556__1_3_1_1_1_6_1
n1566__1_3_1_1_1_6,n1566__1_3_1_1_1_6_1
n1566__1_3_1_1_1_6_1_3,n1566__1_3_1_1_1_6_1_3_1
n1571__1_3_1_1_1_6,n1571__1_3_1_1_1_6_1
n1572__1_3_1_1_1_6,n1572__1_3_1_1_1_6_1
n1573__1_3_1_1_1_6,n1573__1_3_1_1_1_6_1
n1573__1_3_1_1_1_6_1_4,n1573__1_3_1_1_1_6_1_4_1
n1575__1_3_1_1_1_6,n1575__1_3_1_1_1_6_1
n1576__1_3_1_1_1_6,n1576__1_3_1_1_1_6_1
n1579__1_3_1_1_1_6,n1579__1_3_1_1_1_6_1
n1579__1_3_1_1_1_6_1_2,n1579__1_3_1_1_1_6_1_2_1
n1579__1_3_1_1_1_6_1_3,n1579__1_3_1_1_1_6_1_3_1
n1580__1_3_1_1_1_6,n1580__1_3_1_1_1_6_1
n1580__1_3_1_1_1_6_1_2,n1580__1_3_1_1_1_6_1_2_1
n1581__1_3_1_1_1_6,n1581__1_3_1_1_1_6_1
n1582__1_3_1_1_1_6,n1582__1_3_1_1_1_6_1
n1582__1_3_1_1_1_6_1_5,n1582__1_3_1_1_1_6_1_5_1
n1583__1_3_1_1_1_6,n1583__1_3_1_1_1_6_1
n1589__1_3_1_1_1_6,n1589__1_3_1_1_1_6_1
n1593__1_3_1_1_1_6,n1593__1_3_1_1_1_6_1
n1593__1_3_1_1_1_6_1_2,n1593__1_3_1_1_1_6_1_2_1
n1594__1_3_1_1_1_6,n1594__1_3_1_1_1_6_1
n1594__1_3_1_1_1_6_1_1,n1594__1_3_1_1_1_6_1_1_1
n1594__1_3_1_1_1_6_1_4,n1594__1_3_1_1_1_6_1_4_1
n1595__1_3_1_1_1_6,n1595__1_3_1_1_1_6_1
n1598__1_3_1_1_1_7,n1598__1_3_1_1_1_7_1
n1599__1_3_1_1_1_6,n1599__1_3_1_1_1_6_1
n1599__1_3_1_1_1_6_1_2,n1599__1_3_1_1_1_6_1_2_1
n1600__1_3_1_1_1_6,n1600__1_3_1_1_1_6_1
n1600__1_3_1_1_1_6_1_1,n1600__1_3_1_1_1_6_1_1_1
n1600__1_3_1_1_1_6_1_3,n1600__1_3_1_1_1_6_1_3_1
n1601__1_3_1_1_1_6,n1601__1_3_1_1_1_6_1
n1608__1_3_1_1_1_6,n1608__1_3_1_1_1_6_1
n1615__1_3_1_1_1_6,n1615__1_3_1_1_1_6_1
n1615__1_3_1_1_1_6_1_2,n1615__1_3_1_1_1_6_1_2_1
n1615__1_3_1_1_1_6_1_4,n1615__1_3_1_1_1_6_1_4_1
n1615__1_3_1_1_1_6_1_5,n1615__1_3_1_1_1_6_1_5_1
n1620__1_3_1_1_1_6,n1620__1_3_1_1_1_6_1
n1621__1_3_1_1_1_6,n1621__1_3_1_1_1_6_1
n1627__1_3_1_1_1_6,n1627__1_3_1_1_1_6_1
n1627__1_3_1_1_1_6_1_1,n1627__1_3_1_1_1_6_1_1_1
n1632__1_3_1_1_1_5,n1632__1_3_1_1_1_5_1
n1632__1_3_1_1_1_5_1_2,n1632__1_3_1_1_1_5_1_2_1
n1632__1_3_1_1_1_5_1_3,n1632__1_3_1_1_1_5_1_3_1
n1632__1_3_1_1_1_5_1_4,n1632__1_3_1_1_1_5_1_4_1
n1633__1_3_1_1_1_7,n1633__1_3_1_1_1_7_1
n1633__1_3_1_1_1_7_1_1,n1633__1_3_1_1_1_7_1_1_1
n1637__1_3_1_1_1_6,n1637__1_3_1_1_1_6_1
n1642__1_3_1_1_1_7,n1642__1_3_1_1_1_7_1
n1642__1_3_1_1_1_7_1_1,n1642__1_3_1_1_1_7_1_1_1
n1647__1_3_1_1_1_6,n1647__1_3_1_1_1_6_1
n1647__1_3_1_1_1_6_1_2,n1647__1_3_1_1_1_6_1_2_1
n1653__1_3_1_1_1_7,n1653__1_3_1_1_1_7_1
n1655__1_3_1_1_1_6,n1655__1_3_1_1_1_6_1
n1656__1_3_1_1_1_6,n1656__1_3_1_1_1_6_1
n1656__1_3_1_1_1_6_1_2,n1656__1_3_1_1_1_6_1_2_1
n1662__1_3_1_1_1_7,n1662__1_3_1_1_1_7_1
n1665__1_3_1_1_1_7,n1665__1_3_1_1_1_7_1
n1669__1_3_1_1_1_6,n1669__1_3_1_1_1_6_1
n1671__1_3_1_1_1_5,n1671__1_3_1_1_1_5_1
n1671__1_3_1_1_1_5_1_1,n1671__1_3_1_1_1_5_1_1_1
n1671__1_3_1_1_1_5_1_3,n1671__1_3_1_1_1_5_1_3_1
n1673__1_3_1_1_1_7,n1673__1_3_1_1_1_7_1
n1673__1_3_1_1_1_7_1_1,n1673__1_3_1_1_1_7_1_1_1
n1676__1_3_1_1_1_6,n1676__1_3_1_1_1_6_1
n1676__1_3_1_1_1_6_1_1,n1676__1_3_1_1_1_6_1_1_1
n1678__1_3_1_1_1_6,n1678__1_3_1_1_1_6_1
n1682__1_3_1_1_1_6,n1682__1_3_1_1_1_6_1
n1683__1_3_1_1_1_6,n1683__1_3_1_1_1_6_1
n1683__1_3_1_1_1_6_1_1,n1683__1_3_1_1_1_6_1_1_1
n1683__1_3_1_1_1_6_1_2,n1683__1_3_1_1_1_6_1_2_1
n1683__1_3_1_1_1_6_1_3,n1683__1_3_1_1_1_6_1_3_1
n1687__1_3_1_1_1_6,n1687__1_3_1_1_1_6_1
n1705__1_3_1_1_1_6,n1705__1_3_1_1_1_6_1
n1705__1_3_1_1_1_6_1_1,n1705__1_3_1_1_1_6_1_1_1
n1717__1_3_1_1_1_6,n1717__1_3_1_1_1_6_1
n1717__1_3_1_1_1_6_1_1,n1717__1_3_1_1_1_6_1_1_1
n1721__1_3_1_1_1_6,n1721__1_3_1_1_1_6_1
n1722__1_3_1_1_1_6,n1722__1_3_1_1_1_6_1
n1726__1_3_1_1_1_6,n1726__1_3_1_1_1_6_1
n1731__1_3_1_1_1_5,n1731__1_3_1_1_1_5_1
n1735__1_3_1_1_1_6,n1735__1_3_1_1_1_6_1
n1736__1_3_1_1_1_6,n1736__1_3_1_1_1_6_1
n1736__1_3_1_1_1_6_1_3,n1736__1_3_1_1_1_6_1_3_1
n1737__1_3_1_1_1_6,n1737__1_3_1_1_1_6_1
n1737__1_3_1_1_1_6_1_2,n1737__1_3_1_1_1_6_1_2_1
n1738__1_3_1_1_1_6,n1738__1_3_1_1_1_6_1
n1742__1_3_1_1_1_6,n1742__1_3_1_1_1_6_1
n1742__1_3_1_1_1_6_1_2,n1742__1_3_1_1_1_6_1_2_1
n1746__1_3_1_1_1_6,n1746__1_3_1_1_1_6_1
n1748__1_3_1_1_1_6,n1748__1_3_1_1_1_6_1
n1748__1_3_1_1_1_6_1_2,n1748__1_3_1_1_1_6_1_2_1
n1753__1_3_1_1_1_6,n1753__1_3_1_1_1_6_1
n1754__1_3_1_1_1_7,n1754__1_3_1_1_1_7_1
n1754__1_3_1_1_1_7_1_1,n1754__1_3_1_1_1_7_1_1_1
n1755__1_3_1_1_1_6,n1755__1_3_1_1_1_6_1
n1755__1_3_1_1_1_6_1_3,n1755__1_3_1_1_1_6_1_3_1
n1755__1_3_1_1_1_6_1_4,n1755__1_3_1_1_1_6_1_4_1
n1762__1_3_1_1_1_6,n1762__1_3_1_1_1_6_1
n1769__1_3_1_1_1_7,n1769__1_3_1_1_1_7_1
n1769__1_3_1_1_1_7_1_3,n1769__1_3_1_1_1_7_1_3_1
n1769__1_3_1_1_1_7_1_5,n1769__1_3_1_1_1_7_1_5_1
n1770__1_3_1_1_1_6,n1770__1_3_1_1_1_6_1
n1770__1_3_1_1_1_6_1_2,n1770__1_3_1_1_1_6_1_2_1
n1778__1_3_1_1_1_6,n1778__1_3_1_1_1_6_1
n1778__1_3_1_1_1_6_1_3,n1778__1_3_1_1_1_6_1_3_1
n1780__1_3_1_1_1_6,n1780__1_3_1_1_1_6_1
n1780__1_3_1_1_1_6_1_1,n1780__1_3_1_1_1_6_1_1_1
n1780__1_3_1_1_1_6_1_4,n1780__1_3_1_1_1_6_1_4_1
n1781__1_3_1_1_1_5,n1781__1_3_1_1_1_5_1
n1782__1_3_1_1_1_6,n1782__1_3_1_1_1_6_1
n1785__1_3_1_1_1_5,n1785__1_3_1_1_1_5_1
n1793__1_3_1_1_1_6,n1793__1_3_1_1_1_6_1
n1793__1_3_1_1_1_6_1_1,n1793__1_3_1_1_1_6_1_1_1
n1797__1_3_1_1_1_6,n1797__1_3_1_1_1_6_1
n1799__1_3_1_1_1_6,n1799__1_3_1_1_1_6_1
n1799__1_3_1_1_1_6_1_3,n1799__1_3_1_1_1_6_1_3_1
n1800__1_3_1_1_1_6,n1800__1_3_1_1_1_6_1
n1800__1_3_1_1_1_6_1_1,n1800__1_3_1_1_1_6_1_1_1
n1800__1_3_1_1_1_6_1_2,n1800__1_3_1_1_1_6_1_2_1
n1801__1_3_1_1_1_7,n1801__1_3_1_1_1_7_1
n1804__1_3_1_1_1_6,n1804__1_3_1_1_1_6_1
n1805__1_3_1_1_1_6,n1805__1_3_1_1_1_6_1
n1807__1_3_1_1_1_6,n1807__1_3_1_1_1_6_1
n1825__1_3_1_1_1_6,n1825__1_3_1_1_1_6_1
n1831__1_3_1_1_1_6,n1831__1_3_1_1_1_6_1
n1835__1_3_1_1_1_6,n1835__1_3_1_1_1_6_1
n1835__1_3_1_1_1_6_1_3,n1835__1_3_1_1_1_6_1_3_1
n1836__1_3_1_1_1_6,n1836__1_3_1_1_1_6_1
n1842__1_3_1_1_1_6,n1842__1_3_1_1_1_6_1
n1842__1_3_1_1_1_6_1_3,n1842__1_3_1_1_1_6_1_3_1
n1844__1_3_1_1_1_6,n1844__1_3_1_1_1_6_1
n1844__1_3_1_1_1_6_1_2,n1844__1_3_1_1_1_6_1_2_1
n1851__1_3_1_1_1_6,n1851__1_3_1_1_1_6_1
n1857__1_3_1_1_1_6,n1857__1_3_1_1_1_6_1
n1858__1_3_1_1_1_6,n1858__1_3_1_1_1_6_1
n1858__1_3_1_1_1_6_1_1,n1858__1_3_1_1_1_6_1_1_1
n1868__1_3_1_1_1_6,n1868__1_3_1_1_1_6_1
n1868__1_3_1_1_1_6_1_2,n1868__1_3_1_1_1_6_1_2_1
n1870__1_3_1_1_1_6,n1870__1_3_1_1_1_6_1
n1870__1_3_1_1_1_6_1_1,n1870__1_3_1_1_1_6_1_1_1
n1870__1_3_1_1_1_6_1_3,n1870__1_3_1_1_1_6_1_3_1
n1878__1_3_1_1_1_7,n1878__1_3_1_1_1_7_1
n1878__1_3_1_1_1_7_1_1,n1878__1_3_1_1_1_7_1_1_1
n1878__1_3_1_1_1_7_1_3,n1878__1_3_1_1_1_7_1_3_1
n1880__1_3_1_1_1_7,n1880__1_3_1_1_1_7_1
n1887__1_3_1_1_1_6,n1887__1_3_1_1_1_6_1
n1887__1_3_1_1_1_6_1_5,n1887__1_3_1_1_1_6_1_5_1
n1889__1_3_1_1_1_5,n1889__1_3_1_1_1_5_1
n1893__1_3_1_1_1_6,n1893__1_3_1_1_1_6_1
n1893__1_3_1_1_1_6_1_3,n1893__1_3_1_1_1_6_1_3_1
n1896__1_3_1_1_1_6,n1896__1_3_1_1_1_6_1
n1898__1_3_1_1_1_6,n1898__1_3_1_1_1_6_1
n1898__1_3_1_1_1_6_1_1,n1898__1_3_1_1_1_6_1_1_1
n1901__1_3_1_1_1_6,n1901__1_3_1_1_1_6_1
n1902__1_3_1_1_1_6,n1902__1_3_1_1_1_6_1
n1904__1_3_1_1_1_6,n1904__1_3_1_1_1_6_1
n1908__1_3_1_1_1_5,n1908__1_3_1_1_1_5_1
n1912__1_3_1_1_1_6,n1912__1_3_1_1_1_6_1
n1913__1_3_1_1_1_6,n1913__1_3_1_1_1_6_1
n1913__1_3_1_1_1_6_1_1,n1913__1_3_1_1_1_6_1_1_1
n1915__1_3_1_1_1_6,n1915__1_3_1_1_1_6_1
n1915__1_3_1_1_1_6_1_1,n1915__1_3_1_1_1_6_1_1_1
n1916__1_3_1_1_1_7,n1916__1_3_1_1_1_7_1
n1918__1_3_1_1_1_6,n1918__1_3_1_1_1_6_1
n1923__1_3_1_1_1_6,n1923__1_3_1_1_1_6_1
n1923__1_3_1_1_1_6_1_3,n1923__1_3_1_1_1_6_1_3_1
n1924__1_3_1_1_1_6,n1924__1_3_1_1_1_6_1
n1925__1_3_1_1_1_5,n1925__1_3_1_1_1_5_1
n1928__1_3_1_1_1_7,n1928__1_3_1_1_1_7_1
n1935__1_3_1_1_1_5,n1935__1_3_1_1_1_5_1
n1936__1_3_1_1_1_6,n1936__1_3_1_1_1_6_1
n1936__1_3_1_1_1_6_1_4,n1936__1_3_1_1_1_6_1_4_1
n1943__1_3_1_1_1_6,n1943__1_3_1_1_1_6_1
n1943__1_3_1_1_1_6_1_1,n1943__1_3_1_1_1_6_1_1_1
n1944__1_3_1_1_1_6,n1944__1_3_1_1_1_6_1
n1944__1_3_1_1_1_6_1_3,n1944__1_3_1_1_1_6_1_3_1
n1951__1_3_1_1_1_6,n1951__1_3_1_1_1_6_1
n1951__1_3_1_1_1_6_1_1,n1951__1_3_1_1_1_6_1_1_1
n1951__1_3_1_1_1_6_1_3,n1951__1_3_1_1_1_6_1_3_1
n1952__1_3_1_1_1_6,n1952__1_3_1_1_1_6_1
n1960__1_3_1_1_1_6,n1960__1_3_1_1_1_6_1
n1964__1_3_1_1_1_6,n1964__1_3_1_1_1_6_1
n1964__1_3_1_1_1_6_1_3,n1964__1_3_1_1_1_6_1_3_1
n1967__1_3_1_1_1_5,n1967__1_3_1_1_1_5_1
n1970__1_3_1_1_1_6,n1970__1_3_1_1_1_6_1
n1971__1_3_1_1_1_5,n1971__1_3_1_1_1_5_1
n1977__1_3_1_1_1_7,n1977__1_3_1_1_1_7_1
n1980__1_3_1_1_1_6,n1980__1_3_1_1_1_6_1
n1981__1_3_1_1_1_6,n1981__1_3_1_1_1_6_1
n1984__1_3_1_1_1_6,n1984__1_3_1_1_1_6_1
n1984__1_3_1_1_1_6_1_3,n1984__1_3_1_1_1_6_1_3_1
n1986__1_3_1_1_1_6,n1986__1_3_1_1_1_6_1
n1989__1_3_1_1_1_6,n1989__1_3_1_1_1_6_1
n1989__1_3_1_1_1_6_1_3,n1989__1_3_1_1_1_6_1_3_1
n1991__1_3_1_1_1_6,n1991__1_3_1_1_1_6_1
n1991__1_3_1_1_1_6_1_3,n1991__1_3_1_1_1_6_1_3_1
n1991__1_3_1_1_1_6_1_4,n1991__1_3_1_1_1_6_1_4_1
n2000__1_3_1_1_1_6,n2000__1_3_1_1_1_6_1
n2002__1_3_1_1_1_6,n2002__1_3_1_1_1_6_1
n2004__1_3_1_1_1_7,n2004__1_3_1_1_1_7_1
n2010__1_3_1_1_1_6,n2010__1_3_1_1_1_6_1
n2016__1_3_1_1_1_6,n2016__1_3_1_1_1_6_1
n2017__1_3_1_1_1_6,n2017__1_3_1_1_1_6_1
n2017__1_3_1_1_1_6_1_1,n2017__1_3_1_1_1_6_1_1_1
n2020__1_3_1_1_1_6,n2020__1_3_1_1_1_6_1
n2020__1_3_1_1_1_6_1_2,n2020__1_3_1_1_1_6_1_2_1
n2025__1_3_1_1_1_6,n2025__1_3_1_1_1_6_1
n2025__1_3_1_1_1_6_1_3,n2025__1_3_1_1_1_6_1_3_1
n2025__1_3_1_1_1_6_1_4,n2025__1_3_1_1_1_6_1_4_1
n2029__1_3_1_1_1_6,n2029__1_3_1_1_1_6_1
n2031__1_3_1_1_1_6,n2031__1_3_1_1_1_6_1
n2034__1_3_1_1_1_6,n2034__1_3_1_1_1_6_1
n2035__1_3_1_1_1_6,n2035__1_3_1_1_1_6_1
n2035__1_3_1_1_1_6_1_1,n2035__1_3_1_1_1_6_1_1_1
n2035__1_3_1_1_1_6_1_3,n2035__1_3_1_1_1_6_1_3_1
n2039__1_3_1_1_1_6,n2039__1_3_1_1_1_6_1
n2039__1_3_1_1_1_6_1_2,n2039__1_3_1_1_1_6_1_2_1
n2040__1_3_1_1_1_6,n2040__1_3_1_1_1_6_1
n2040__1_3_1_1_1_6_1_1,n2040__1_3_1_1_1_6_1_1_1
n2041__1_3_1_1_1_6,n2041__1_3_1_1_1_6_1
n2041__1_3_1_1_1_6_1_2,n2041__1_3_1_1_1_6_1_2_1
n2053__1_3_1_1_1_7,n2053__1_3_1_1_1_7_1
n2053__1_3_1_1_1_7_1_2,n2053__1_3_1_1_1_7_1_2_1
n2054__1_3_1_1_1_7,n2054__1_3_1_1_1_7_1
n2057__1_3_1_1_1_6,n2057__1_3_1_1_1_6_1
n2059__1_3_1_1_1_6,n2059__1_3_1_1_1_6_1
n2059__1_3_1_1_1_6_1_1,n2059__1_3_1_1_1_6_1_1_1
n2059__1_3_1_1_1_6_1_3,n2059__1_3_1_1_1_6_1_3_1
n2066__1_3_1_1_1_6,n2066__1_3_1_1_1_6_1
n2068__1_3_1_1_1_6,n2068__1_3_1_1_1_6_1
n2068__1_3_1_1_1_6_1_1,n2068__1_3_1_1_1_6_1_1_1
n2070__1_3_1_1_1_6,n2070__1_3_1_1_1_6_1
n2072__1_3_1_1_1_6,n2072__1_3_1_1_1_6_1
n2072__1_3_1_1_1_6_1_1,n2072__1_3_1_1_1_6_1_1_1
n2072__1_3_1_1_1_6_1_2,n2072__1_3_1_1_1_6_1_2_1
n2073__1_3_1_1_1_6,n2073__1_3_1_1_1_6_1
n2074__1_3_1_1_1_6,n2074__1_3_1_1_1_6_1
n2083__1_3_1_1_1_7,n2083__1_3_1_1_1_7_1
n2085__1_3_1_1_1_6,n2085__1_3_1_1_1_6_1
n2085__1_3_1_1_1_6_1_3,n2085__1_3_1_1_1_6_1_3_1
n2089__1_3_1_1_1_6,n2089__1_3_1_1_1_6_1
n2093__1_3_1_1_1_6,n2093__1_3_1_1_1_6_1
n2096__1_3_1_1_1_6,n2096__1_3_1_1_1_6_1
n2097__1_3_1_1_1_6,n2097__1_3_1_1_1_6_1
n2107__1_3_1_1_1_6,n2107__1_3_1_1_1_6_1
n2108__1_3_1_1_1_6,n2108__1_3_1_1_1_6_1
n2108__1_3_1_1_1_6_1_3,n2108__1_3_1_1_1_6_1_3_1
n2119__1_3_1_1_1_5,n2119__1_3_1_1_1_5_1
n2121__1_3_1_1_1_6,n2121__1_3_1_1_1_6_1
n2122__1_3_1_1_1_6,n2122__1_3_1_1_1_6_1
n2126__1_3_1_1_1_6,n2126__1_3_1_1_1_6_1
n2126__1_3_1_1_1_6_1_2,n2126__1_3_1_1_1_6_1_2_1
n2127__1_3_1_1_1_6,n2127__1_3_1_1_1_6_1
n2128__1_3_1_1_1_6,n2128__1_3_1_1_1_6_1
n2128__1_3_1_1_1_6_1_2,n2128__1_3_1_1_1_6_1_2_1
n2128__1_3_1_1_1_6_1_4,n2128__1_3_1_1_1_6_1_4_1
n2139__1_3_1_1_1_6,n2139__1_3_1_1_1_6_1
n2139__1_3_1_1_1_6_1_1,n2139__1_3_1_1_1_6_1_1_1
n2139__1_3_1_1_1_6_1_3,n2139__1_3_1_1_1_6_1_3_1
n2139__1_3_1_1_1_6_1_4,n2139__1_3_1_1_1_6_1_4_1
n2141__1_3_1_1_1_6,n2141__1_3_1_1_1_6_1
n2143__1_3_1_1_1_6,n2143__1_3_1_1_1_6_1
n2143__1_3_1_1_1_6_1_1,n2143__1_3_1_1_1_6_1_1_1
n2143__1_3_1_1_1_6_1_2,n2143__1_3_1_1_1_6_1_2_1
n2143__1_3_1_1_1_6_1_3,n2143__1_3_1_1_1_6_1_3_1
n2146__1_3_1_1_1_6,n2146__1_3_1_1_1_6_1
n2151__1_3_1_1_1_7,n2151__1_3_1_1_1_7_1
n2151__1_3_1_1_1_7_1_2,n2151__1_3_1_1_1_7_1_2_1
n2151__1_3_1_1_1_7_1_4,n2151__1_3_1_1_1_7_1_4_1
n2153__1_3_1_1_1_6,n2153__1_3_1_1_1_6_1
n2155__1_3_1_1_1_6,n2155__1_3_1_1_1_6_1
n2157__1_3_1_1_1_6,n2157__1_3_1_1_1_6_1
n2157__1_3_1_1_1_6_1_4,n2157__1_3_1_1_1_6_1_4_1
n2158__1_3_1_1_1_6,n2158__1_3_1_1_1_6_1
n2158__1_3_1_1_1_6_1_1,n2158__1_3_1_1_1_6_1_1_1
n2159__1_3_1_1_1_6,n2159__1_3_1_1_1_6_1
n2161__1_3_1_1_1_6,n2161__1_3_1_1_1_6_1
n2162__1_3_1_1_1_6,n2162__1_3_1_1_1_6_1
n2166__1_3_1_1_1_6,n2166__1_3_1_1_1_6_1
n2169__1_3_1_1_1_6,n2169__1_3_1_1_1_6_1
n2179__1_3_1_1_3,n2179__1_3_1_1_3_1
n2179__1_3_1_1_3_1_1,n2179__1_3_1_1_3_1_1_1
n2180__1_3_1_1_3,n2180__1_3_1_1_3_1
n2180__1_3_1_1_3_1_4,n2180__1_3_1_1_3_1_4_1
n2181__1_3_1_1_3,n2181__1_3_1_1_3_1
n2181__1_3_1_1_3_1_1,n2181__1_3_1_1_3_1_1_1
n2184__1_3_1_1_3,n2184__1_3_1_1_3_1
n2189__1_3_1_1_3,n2189__1_3_1_1_3_1
n2192__1_3_1_1_3,n2192__1_3_1_1_3_1
n2202__1_3_1_1_3,n2202__1_3_1_1_3_1
n2202__1_3_1_1_3_1_1,n2202__1_3_1_1_3_1_1_1
n2202__1_3_1_1_3_1_4,n2202__1_3_1_1_3_1_4_1
n2203__1_3_1_1_3,n2203__1_3_1_1_3_1
n2204__1_3_1_1_3,n2204__1_3_1_1_3_1
n2210__1_3_1_1_3,n2210__1_3_1_1_3_1
n2210__1_3_1_1_3_1_2,n2210__1_3_1_1_3_1_2_1
n2210__1_3_1_1_3_1_3,n2210__1_3_1_1_3_1_3_1
n2213__1_3_1_1_3,n2213__1_3_1_1_3_1
n2213__1_3_1_1_3_1_2,n2213__1_3_1_1_3_1_2_1
n2214__1_3_1_1_3,n2214__1_3_1_1_3_1
n2214__1_3_1_1_3_1_3,n2214__1_3_1_1_3_1_3_1
n2217__1_3_1_1_3,n2217__1_3_1_1_3_1
n2217__1_3_1_1_3_1_3,n2217__1_3_1_1_3_1_3_1
n2220__1_3_1_1_3,n2220__1_3_1_1_3_1
n2222__1_3_1_1_3,n2222__1_3_1_1_3_1
n2222__1_3_1_1_3_1_2,n2222__1_3_1_1_3_1_2_1
n2223__1_3_1_1_3,n2223__1_3_1_1_3_1
n2223__1_3_1_1_3_1_3,n2223__1_3_1_1_3_1_3_1
n2227__1_3_1_1_3,n2227__1_3_1_1_3_1
n2227__1_3_1_1_3_1_1,n2227__1_3_1_1_3_1_1_1
n2230__1_3_1_1_3,n2230__1_3_1_1_3_1
n2231__1_3_1_1_3,n2231__1_3_1_1_3_1
n2231__1_3_1_1_3_1_1,n2231__1_3_1_1_3_1_1_1
n2233__1_3_1_1_3,n2233__1_3_1_1_3_1
n2235__1_3_1_1_3,n2235__1_3_1_1_3_1
n2236__1_3_1_1_3,n2236__1_3_1_1_3_1
n2236__1_3_1_1_3_1_2,n2236__1_3_1_1_3_1_2_1
n2238__1_3_1_1_3,n2238__1_3_1_1_3_1
n2238__1_3_1_1_3_1_1,n2238__1_3_1_1_3_1_1_1
n2242__1_3_1_1_3,n2242__1_3_1_1_3_1
n2243__1_3_1_1_3,n2243__1_3_1_1_3_1
n2243__1_3_1_1_3_1_3,n2243__1_3_1_1_3_1_3_1
n2245__1_3_1_1_3,n2245__1_3_1_1_3_1
n2245__1_3_1_1_3_1_3,n2245__1_3_1_1_3_1_3_1
n2246__1_3_1_1_3,n2246__1_3_1_1_3_1
n2246__1_3_1_1_3_1_2,n2246__1_3_1_1_3_1_2_1
n2246__1_3_1_1_3_1_3,n2246__1_3_1_1_3_1_3_1
n2252__1_3_1_1_3,n2252__1_3_1_1_3_1
n2254__1_3_1_1_3,n2254__1_3_1_1_3_1
n2256__1_3_1_1_3,n2256__1_3_1_1_3_1
n2256__1_3_1_1_3_1_1,n2256__1_3_1_1_3_1_1_1
n2256__1_3_1_1_3_1_2,n2256__1_3_1_1_3_1_2_1
n2258__1_3_1_1_3,n2258__1_3_1_1_3_1
n2258__1_3_1_1_3_1_1,n2258__1_3_1_1_3_1_1_1
n2261__1_3_1_1_3,n2261__1_3_1_1_3_1
n2263__1_3_1_1_3,n2263__1_3_1_1_3_1
n2272__1_3_1_1_3,n2272__1_3_1_1_3_1
n2272__1_3_1_1_3_1_1,n2272__1_3_1_1_3_1_1_1
n2273__1_3_1_1_3,n2273__1_3_1_1_3_1
n4926__1_3_1_1_16_2,n4926__1_3_1_1_16_2_1
n4926__1_3_1_1_16_2_1_1,n4926__1_3_1_1_16_2_1_1_1
n4927__1_3_1_1_14_2,n4927__1_3_1_1_14_2_1
n4929__1_3_1_1_8_2,n4929__1_3_1_1_8_2_1
n4929__1_3_1_1_8_2_1_1,n4929__1_3_1_1_8_2_1_1_1
n4930__1_3_1_1_12_2,n4930__1_3_1_1_12_2_1
n4933__1_3_1_1_7_2,n4933__1_3_1_1_7_2_1
n4940__1_3_1_1_28_2,n4940__1_3_1_1_28_2_1
n4941__1_3_1_1_17_2,n4941__1_3_1_1_17_2_1
n4943__1_3_1_1_10_2,n4943__1_3_1_1_10_2_1
n4947__1_3_1_1_7_2,n4947__1_3_1_1_7_2_1
n4952__1_3_1_1_9_2,n4952__1_3_1_1_9_2_1
n4952__1_3_1_1_9_2_1_1,n4952__1_3_1_1_9_2_1_1_1
n4958__1_3_1_1_10_2,n4958__1_3_1_1_10_2_1
n4961__1_3_1_1_9_2,n4961__1_3_1_1_9_2_1
n4964__1_3_1_1_10_2,n4964__1_3_1_1_10_2_1
n4964__1_3_1_1_10_2_1_5,n4964__1_3_1_1_10_2_1_5_1
n4965__1_3_1_1_8_2,n4965__1_3_1_1_8_2_1
n4965__1_3_1_1_8_2_1_1,n4965__1_3_1_1_8_2_1_1_1
n4968__1_3_1_1_32_2,n4968__1_3_1_1_32_2_1
n4968__1_3_1_1_32_2_1_3,n4968__1_3_1_1_32_2_1_3_1
n4969__1_3_1_1_9_2,n4969__1_3_1_1_9_2_1
n4971__1_3_1_1_9_2,n4971__1_3_1_1_9_2_1
n4971__1_3_1_1_9_2_1_1,n4971__1_3_1_1_9_2_1_1_1
n4974__1_3_1_1_9_2,n4974__1_3_1_1_9_2_1
n4975__1_3_1_1_19_2,n4975__1_3_1_1_19_2_1
n4975__1_3_1_1_19_2_1_1,n4975__1_3_1_1_19_2_1_1_1
n4976__1_3_1_1_14_2,n4976__1_3_1_1_14_2_1
n4980__1_3_1_1_17_2,n4980__1_3_1_1_17_2_1
n4981__1_3_1_1_10_2,n4981__1_3_1_1_10_2_1
n4981__1_3_1_1_10_2_1_2,n4981__1_3_1_1_10_2_1_2_1
n4989__1_3_1_1_9_2,n4989__1_3_1_1_9_2_1
n4989__1_3_1_1_9_2_1_2,n4989__1_3_1_1_9_2_1_2_1
n4989__1_3_1_1_9_2_1_3,n4989__1_3_1_1_9_2_1_3_1
n4990__1_3_1_1_8_2,n4990__1_3_1_1_8_2_1
n4990__1_3_1_1_8_2_1_1,n4990__1_3_1_1_8_2_1_1_1
n4991__1_3_1_1_9_2,n4991__1_3_1_1_9_2_1
n4991__1_3_1_1_9_2_1_1,n4991__1_3_1_1_9_2_1_1_1
n4993__1_3_1_1_11_2,n4993__1_3_1_1_11_2_1
n4997__1_3_1_1_11_2,n4997__1_3_1_1_11_2_1
n4997__1_3_1_1_11_2_1_2,n4997__1_3_1_1_11_2_1_2_1
n4999__1_3_1_1_30_2,n4999__1_3_1_1_30_2_1
n5000__1_3_1_1_8_2,n5000__1_3_1_1_8_2_1
n5009__1_3_1_1_9_2,n5009__1_3_1_1_9_2_1
n5010__1_3_1_1_7_2,n5010__1_3_1_1_7_2_1
n5014__1_3_1_1_18_2,n5014__1_3_1_1_18_2_1
n5015__1_3_1_1_10_2,n5015__1_3_1_1_10_2_1
n5019__1_3_1_1_16_2,n5019__1_3_1_1_16_2_1
n5022__1_3_1_1_14_2,n5022__1_3_1_1_14_2_1
n5024__1_3_1_1_23_2,n5024__1_3_1_1_23_2_1
n5024__1_3_1_1_23_2_1_1,n5024__1_3_1_1_23_2_1_1_1
n5025__1_3_1_1_29_2,n5025__1_3_1_1_29_2_1
n5025__1_3_1_1_29_2_1_1,n5025__1_3_1_1_29_2_1_1_1
n5028__1_3_1_1_13_2,n5028__1_3_1_1_13_2_1
n5028__1_3_1_1_13_2_1_2,n5028__1_3_1_1_13_2_1_2_1
n5028__1_3_1_1_13_2_1_4,n5028__1_3_1_1_13_2_1_4_1
n5029__1_3_1_1_8_2,n5029__1_3_1_1_8_2_1
n5033__1_3_1_1_9_2,n5033__1_3_1_1_9_2_1
n5035__1_3_1_1_15_2,n5035__1_3_1_1_15_2_1
n5035__1_3_1_1_15_2_1_1,n5035__1_3_1_1_15_2_1_1_1
n5039__1_3_1_1_31_2,n5039__1_3_1_1_31_2_1
n5039__1_3_1_1_31_2_1_3,n5039__1_3_1_1_31_2_1_3_1
n5041__1_3_1_1_20_2,n5041__1_3_1_1_20_2_1
n5043__1_3_1_1_10_2,n5043__1_3_1_1_10_2_1
n5047__1_3_1_1_10_2,n5047__1_3_1_1_10_2_1
n5047__1_3_1_1_10_2_1_3,n5047__1_3_1_1_10_2_1_3_1
n5053__1_3_1_1_15_2,n5053__1_3_1_1_15_2_1
n5055__1_3_1_1_25_2,n5055__1_3_1_1_25_2_1
n5057__1_3_1_1_18_2,n5057__1_3_1_1_18_2_1
n5057__1_3_1_1_18_2_1_1,n5057__1_3_1_1_18_2_1_1_1
n5059__1_3_1_1_13_2,n5059__1_3_1_1_13_2_1
n5059__1_3_1_1_13_2_1_2,n5059__1_3_1_1_13_2_1_2_1
n5066__1_3_1_1_8_2,n5066__1_3_1_1_8_2_1
n5068__1_3_1_1_8_2,n5068__1_3_1_1_8_2_1
n5071__1_3_1_1_8_2,n5071__1_3_1_1_8_2_1
n5071__1_3_1_1_8_2_1_3,n5071__1_3_1_1_8_2_1_3_1
n5071__1_3_1_1_8_2_1_4,n5071__1_3_1_1_8_2_1_4_1
n5075__1_3_1_1_12_2,n5075__1_3_1_1_12_2_1
n5078__1_3_1_1_9_2,n5078__1_3_1_1_9_2_1
n5090__1_3_1_1_12_2,n5090__1_3_1_1_12_2_1
n5090__1_3_1_1_12_2_1_2,n5090__1_3_1_1_12_2_1_2_1
n5093__1_3_1_1_11_2,n5093__1_3_1_1_11_2_1
n5097__1_3_1_1_15_2,n5097__1_3_1_1_15_2_1
n5100__1_3_1_1_11_2,n5100__1_3_1_1_11_2_1
n5104__1_3_1_1_7_2,n5104__1_3_1_1_7_2_1
n5106__1_3_1_1_11_2,n5106__1_3_1_1_11_2_1
n5110__1_3_1_1_12_2,n5110__1_3_1_1_12_2_1
n5110__1_3_1_1_12_2_1_2,n5110__1_3_1_1_12_2_1_2_1
n5111__1_3_1_1_6_2,n5111__1_3_1_1_6_2_1
n5114__1_3_1_1_8_2,n5114__1_3_1_1_8_2_1
n5121__1_3_1_1_9_2,n5121__1_3_1_1_9_2_1
n5122__1_3_1_1_10_2,n5122__1_3_1_1_10_2_1
n5123__1_3_1_1_10_2,n5123__1_3_1_1_10_2_1
n5126__1_3_1_1_12_2,n5126__1_3_1_1_12_2_1
n5127__1_3_1_1_8_2,n5127__1_3_1_1_8_2_1
n5128__1_3_1_1_7_2,n5128__1_3_1_1_7_2_1
n5133__1_3_1_1_19_2,n5133__1_3_1_1_19_2_1
n5134__1_3_1_1_16_2,n5134__1_3_1_1_16_2_1
n5134__1_3_1_1_16_2_1_2,n5134__1_3_1_1_16_2_1_2_1
n5142__1_3_1_1_9_2,n5142__1_3_1_1_9_2_1
n5142__1_3_1_1_9_2_1_3,n5142__1_3_1_1_9_2_1_3_1
n5144__1_3_1_1_7_2,n5144__1_3_1_1_7_2_1
n5145__1_3_1_1_11_2,n5145__1_3_1_1_11_2_1
n5150__1_3_1_1_12_2,n5150__1_3_1_1_12_2_1
n5150__1_3_1_1_12_2_1_2,n5150__1_3_1_1_12_2_1_2_1
n5152__1_3_1_1_16_2,n5152__1_3_1_1_16_2_1
n5155__1_3_1_1_10_2,n5155__1_3_1_1_10_2_1
n5157__1_3_1_1_11_2,n5157__1_3_1_1_11_2_1
n5160__1_3_1_1_27_2,n5160__1_3_1_1_27_2_1
n5164__1_3_1_1_12_2,n5164__1_3_1_1_12_2_1
n5165__1_3_1_1_11_2,n5165__1_3_1_1_11_2_1
n5167__1_3_1_1_15_2,n5167__1_3_1_1_15_2_1
n5168__1_3_1_1_23_2,n5168__1_3_1_1_23_2_1
n5170__1_3_1_1_21_2,n5170__1_3_1_1_21_2_1
n5172__1_3_1_1_9_2,n5172__1_3_1_1_9_2_1
n5172__1_3_1_1_9_2_1_2,n5172__1_3_1_1_9_2_1_2_1
n5173__1_3_1_1_8_2,n5173__1_3_1_1_8_2_1
n5177__1_3_1_1_10_2,n5177__1_3_1_1_10_2_1
n5178__1_3_1_1_12_2,n5178__1_3_1_1_12_2_1
n5178__1_3_1_1_12_2_1_1,n5178__1_3_1_1_12_2_1_1_1
n5178__1_3_1_1_12_2_1_2,n5178__1_3_1_1_12_2_1_2_1
n5179__1_3_1_1_11_2,n5179__1_3_1_1_11_2_1
n5179__1_3_1_1_11_2_1_1,n5179__1_3_1_1_11_2_1_1_1
n5185__1_3_1_1_6_2,n5185__1_3_1_1_6_2_1
n5185__1_3_1_1_6_2_1_2,n5185__1_3_1_1_6_2_1_2_1
n5185__1_3_1_1_6_2_1_3,n5185__1_3_1_1_6_2_1_3_1
n5190__1_3_1_1_8_2,n5190__1_3_1_1_8_2_1
n5197__1_3_1_1_10_2,n5197__1_3_1_1_10_2_1
n5197__1_3_1_1_10_2_1_1,n5197__1_3_1_1_10_2_1_1_1
n5197__1_3_1_1_10_2_1_2,n5197__1_3_1_1_10_2_1_2_1
n5200__1_3_1_1_8_2,n5200__1_3_1_1_8_2_1
n5200__1_3_1_1_8_2_1_2,n5200__1_3_1_1_8_2_1_2_1
n5201__1_3_1_1_9_2,n5201__1_3_1_1_9_2_1
n5202__1_3_1_1_12_2,n5202__1_3_1_1_12_2_1
n5202__1_3_1_1_12_2_1_1,n5202__1_3_1_1_12_2_1_1_1
n5202__1_3_1_1_12_2_1_2,n5202__1_3_1_1_12_2_1_2_1
n5204__1_3_1_1_14_2,n5204__1_3_1_1_14_2_1
n5204__1_3_1_1_14_2_1_1,n5204__1_3_1_1_14_2_1_1_1
n5205__1_3_1_1_9_2,n5205__1_3_1_1_9_2_1
n5206__1_3_1_1_10_2,n5206__1_3_1_1_10_2_1
n5207__1_3_1_1_10_2,n5207__1_3_1_1_10_2_1
n5207__1_3_1_1_10_2_1_2,n5207__1_3_1_1_10_2_1_2_1
n5209__1_3_1_1_12_2,n5209__1_3_1_1_12_2_1
n5209__1_3_1_1_12_2_1_1,n5209__1_3_1_1_12_2_1_1_1
n5209__1_3_1_1_12_2_1_2,n5209__1_3_1_1_12_2_1_2_1
n5210__1_3_1_1_9_2,n5210__1_3_1_1_9_2_1
n5210__1_3_1_1_9_2_1_3,n5210__1_3_1_1_9_2_1_3_1
n5210__1_3_1_1_9_2_1_4,n5210__1_3_1_1_9_2_1_4_1
n5212__1_3_1_1_11_2,n5212__1_3_1_1_11_2_1
n5212__1_3_1_1_11_2_1_1,n5212__1_3_1_1_11_2_1_1_1
n5213__1_3_1_1_9_2,n5213__1_3_1_1_9_2_1
n5215__1_3_1_1_7_2,n5215__1_3_1_1_7_2_1
n5217__1_3_1_1_16_2,n5217__1_3_1_1_16_2_1
n5218__1_3_1_1_13_2,n5218__1_3_1_1_13_2_1
n5218__1_3_1_1_13_2_1_3,n5218__1_3_1_1_13_2_1_3_1
n5225__1_3_1_1_8_2,n5225__1_3_1_1_8_2_1
n5229__1_3_1_1_8_2,n5229__1_3_1_1_8_2_1
n5229__1_3_1_1_8_2_1_3,n5229__1_3_1_1_8_2_1_3_1
n5230__1_3_1_1_16_2,n5230__1_3_1_1_16_2_1
n5230__1_3_1_1_16_2_1_1,n5230__1_3_1_1_16_2_1_1_1
n5232__1_3_1_1_17_2,n5232__1_3_1_1_17_2_1
n5238__1_3_1_1_12_2,n5238__1_3_1_1_12_2_1
n5238__1_3_1_1_12_2_1_1,n5238__1_3_1_1_12_2_1_1_1
n5238__1_3_1_1_12_2_1_2,n5238__1_3_1_1_12_2_1_2_1
n5241__1_3_1_1_8_2,n5241__1_3_1_1_8_2_1
n5244__1_3_1_1_10_2,n5244__1_3_1_1_10_2_1
n5246__1_3_1_1_11_2,n5246__1_3_1_1_11_2_1
n5246__1_3_1_1_11_2_1_1,n5246__1_3_1_1_11_2_1_1_1
n5248__1_3_1_1_9_2,n5248__1_3_1_1_9_2_1
n5249__1_3_1_1_7_2,n5249__1_3_1_1_7_2_1
n5259__1_3_1_1_9_2,n5259__1_3_1_1_9_2_1
n5259__1_3_1_1_9_2_1_1,n5259__1_3_1_1_9_2_1_1_1
n5259__1_3_1_1_9_2_1_4,n5259__1_3_1_1_9_2_1_4_1
n5262__1_3_1_1_20_2,n5262__1_3_1_1_20_2_1
n5265__1_3_1_1_10_2,n5265__1_3_1_1_10_2_1
n5265__1_3_1_1_10_2_1_1,n5265__1_3_1_1_10_2_1_1_1
n5265__1_3_1_1_10_2_1_3,n5265__1_3_1_1_10_2_1_3_1
n5266__1_3_1_1_6_2,n5266__1_3_1_1_6_2_1
n5266__1_3_1_1_6_2_1_2,n5266__1_3_1_1_6_2_1_2_1
n5266__1_3_1_1_6_2_1_3,n5266__1_3_1_1_6_2_1_3_1
n5272__1_3_1_1_14_2,n5272__1_3_1_1_14_2_1
n5278__1_3_1_1_6_2,n5278__1_3_1_1_6_2_1
n5278__1_3_1_1_6_2_1_2,n5278__1_3_1_1_6_2_1_2_1
n5282__1_3_1_1_13_2,n5282__1_3_1_1_13_2_1
n5285__1_3_1_1_11_2,n5285__1_3_1_1_11_2_1
n5287__1_3_1_1_9_2,n5287__1_3_1_1_9_2_1
n5291__1_3_1_1_8_2,n5291__1_3_1_1_8_2_1
n5292__1_3_1_1_18_2,n5292__1_3_1_1_18_2_1
n5293__1_3_1_1_10_2,n5293__1_3_1_1_10_2_1
n5293__1_3_1_1_10_2_1_1,n5293__1_3_1_1_10_2_1_1_1
n5295__1_3_1_1_8_2,n5295__1_3_1_1_8_2_1
n5297__1_3_1_1_15_2,n5297__1_3_1_1_15_2_1
n5297__1_3_1_1_15_2_1_2,n5297__1_3_1_1_15_2_1_2_1
n5298__1_3_1_1_12_2,n5298__1_3_1_1_12_2_1
n5307__1_3_1_1_10_2,n5307__1_3_1_1_10_2_1
n5309__1_3_1_1_11_2,n5309__1_3_1_1_11_2_1
n5310__1_3_1_1_13_2,n5310__1_3_1_1_13_2_1
n5312__1_3_1_1_11_2,n5312__1_3_1_1_11_2_1
n5313__1_3_1_1_9_2,n5313__1_3_1_1_9_2_1
n5320__1_3_1_1_8_2,n5320__1_3_1_1_8_2_1
n5325__1_3_1_1_9_2,n5325__1_3_1_1_9_2_1
n5325__1_3_1_1_9_2_1_1,n5325__1_3_1_1_9_2_1_1_1
n5328__1_3_1_1_10_2,n5328__1_3_1_1_10_2_1
n5331__1_3_1_1_9_2,n5331__1_3_1_1_9_2_1
n5331__1_3_1_1_9_2_1_1,n5331__1_3_1_1_9_2_1_1_1
n5335__1_3_1_1_9_2,n5335__1_3_1_1_9_2_1
n5335__1_3_1_1_9_2_1_1,n5335__1_3_1_1_9_2_1_1_1
n5338__1_3_1_1_16_2,n5338__1_3_1_1_16_2_1
n5339__1_3_1_1_8_2,n5339__1_3_1_1_8_2_1
n5339__1_3_1_1_8_2_1_2,n5339__1_3_1_1_8_2_1_2_1
n5340__1_3_1_1_11_2,n5340__1_3_1_1_11_2_1
n5340__1_3_1_1_11_2_1_2,n5340__1_3_1_1_11_2_1_2_1
n5341__1_3_1_1_17_2,n5341__1_3_1_1_17_2_1
n5341__1_3_1_1_17_2_1_2,n5341__1_3_1_1_17_2_1_2_1
n5343__1_3_1_1_30_2,n5343__1_3_1_1_30_2_1
n5343__1_3_1_1_30_2_1_1,n5343__1_3_1_1_30_2_1_1_1
n5347__1_3_1_1_12_2,n5347__1_3_1_1_12_2_1
n5347__1_3_1_1_12_2_1_1,n5347__1_3_1_1_12_2_1_1_1
n5347__1_3_1_1_12_2_1_2,n5347__1_3_1_1_12_2_1_2_1
n5348__1_3_1_1_13_2,n5348__1_3_1_1_13_2_1
n5349__1_3_1_1_19_2,n5349__1_3_1_1_19_2_1
n5349__1_3_1_1_19_2_1_1,n5349__1_3_1_1_19_2_1_1_1
n5352__1_3_1_1_10_2,n5352__1_3_1_1_10_2_1
n5352__1_3_1_1_10_2_1_1,n5352__1_3_1_1_10_2_1_1_1
n5354__1_3_1_1_15_2,n5354__1_3_1_1_15_2_1
n5354__1_3_1_1_15_2_1_4,n5354__1_3_1_1_15_2_1_4_1
n5360__1_3_1_1_19_2,n5360__1_3_1_1_19_2_1
n5360__1_3_1_1_19_2_1_4,n5360__1_3_1_1_19_2_1_4_1
n5361__1_3_1_1_17_2,n5361__1_3_1_1_17_2_1
n5361__1_3_1_1_17_2_1_2,n5361__1_3_1_1_17_2_1_2_1
n5364__1_3_1_1_7_2,n5364__1_3_1_1_7_2_1
n5367__1_3_1_1_12_2,n5367__1_3_1_1_12_2_1
n5367__1_3_1_1_12_2_1_2,n5367__1_3_1_1_12_2_1_2_1
n5369__1_3_1_1_42_2,n5369__1_3_1_1_42_2_1
n5369__1_3_1_1_42_2_1_1,n5369__1_3_1_1_42_2_1_1_1
n5370__1_3_1_1_12_2,n5370__1_3_1_1_12_2_1
n5370__1_3_1_1_12_2_1_1,n5370__1_3_1_1_12_2_1_1_1
n5370__1_3_1_1_12_2_1_2,n5370__1_3_1_1_12_2_1_2_1
n5371__1_3_1_1_7_2,n5371__1_3_1_1_7_2_1
n5371__1_3_1_1_7_2_1_2,n5371__1_3_1_1_7_2_1_2_1
n5377__1_3_1_1_8_2,n5377__1_3_1_1_8_2_1
n5378__1_3_1_1_11_2,n5378__1_3_1_1_11_2_1
n5378__1_3_1_1_11_2_1_4,n5378__1_3_1_1_11_2_1_4_1
n5380__1_3_1_1_11_2,n5380__1_3_1_1_11_2_1
n5384__1_3_1_1_10_2,n5384__1_3_1_1_10_2_1
n5386__1_3_1_1_9_2,n5386__1_3_1_1_9_2_1
n5390__1_3_1_1_6_2,n5390__1_3_1_1_6_2_1
n5400__1_3_1_1_11_2,n5400__1_3_1_1_11_2_1
n5401__1_3_1_1_8_2,n5401__1_3_1_1_8_2_1
n5405__1_3_1_1_10_2,n5405__1_3_1_1_10_2_1
n5407__1_3_1_1_29_2,n5407__1_3_1_1_29_2_1
n5407__1_3_1_1_29_2_1_2,n5407__1_3_1_1_29_2_1_2_1
n5408__1_3_1_1_10_2,n5408__1_3_1_1_10_2_1
n5418__1_3_1_1_9_2,n5418__1_3_1_1_9_2_1
n5418__1_3_1_1_9_2_1_1,n5418__1_3_1_1_9_2_1_1_1
n5422__1_3_1_1_13_2,n5422__1_3_1_1_13_2_1
n5427__1_3_1_1_16_2,n5427__1_3_1_1_16_2_1
n5427__1_3_1_1_16_2_1_1,n5427__1_3_1_1_16_2_1_1_1
n5427__1_3_1_1_16_2_1_3,n5427__1_3_1_1_16_2_1_3_1
n5431__1_3_1_1_9_2,n5431__1_3_1_1_9_2_1
n5431__1_3_1_1_9_2_1_2,n5431__1_3_1_1_9_2_1_2_1
n5433__1_3_1_1_10_2,n5433__1_3_1_1_10_2_1
n5433__1_3_1_1_10_2_1_1,n5433__1_3_1_1_10_2_1_1_1
n5433__1_3_1_1_10_2_1_3,n5433__1_3_1_1_10_2_1_3_1
n5439__1_3_1_1_16_2,n5439__1_3_1_1_16_2_1
n5439__1_3_1_1_16_2_1_3,n5439__1_3_1_1_16_2_1_3_1
n5441__1_3_1_1_11_2,n5441__1_3_1_1_11_2_1
n5441__1_3_1_1_11_2_1_2,n5441__1_3_1_1_11_2_1_2_1
n5443__1_3_1_1_7_2,n5443__1_3_1_1_7_2_1
n5443__1_3_1_1_7_2_1_2,n5443__1_3_1_1_7_2_1_2_1
n5443__1_3_1_1_7_2_1_3,n5443__1_3_1_1_7_2_1_3_1
n5446__1_3_1_1_9_2,n5446__1_3_1_1_9_2_1
n5446__1_3_1_1_9_2_1_2,n5446__1_3_1_1_9_2_1_2_1
n5446__1_3_1_1_9_2_1_3,n5446__1_3_1_1_9_2_1_3_1
n5448__1_3_1_1_7_2,n5448__1_3_1_1_7_2_1
n5454__1_3_1_1_9_2,n5454__1_3_1_1_9_2_1
n5454__1_3_1_1_9_2_1_2,n5454__1_3_1_1_9_2_1_2_1
n5456__1_3_1_1_10_2,n5456__1_3_1_1_10_2_1
n5466__1_3_1_1_7_2,n5466__1_3_1_1_7_2_1
n5466__1_3_1_1_7_2_1_1,n5466__1_3_1_1_7_2_1_1_1
n5467__1_3_1_1_22_2,n5467__1_3_1_1_22_2_1
n5468__1_3_1_1_11_2,n5468__1_3_1_1_11_2_1
n5468__1_3_1_1_11_2_1_1,n5468__1_3_1_1_11_2_1_1_1
n5477__1_3_1_1_17_2,n5477__1_3_1_1_17_2_1
n5478__1_3_1_1_7_2,n5478__1_3_1_1_7_2_1
n5479__1_3_1_1_7_2,n5479__1_3_1_1_7_2_1
n5479__1_3_1_1_7_2_1_1,n5479__1_3_1_1_7_2_1_1_1
n5481__1_3_1_1_8_2,n5481__1_3_1_1_8_2_1
n5481__1_3_1_1_8_2_1_2,n5481__1_3_1_1_8_2_1_2_1
n5482__1_3_1_1_23_2,n5482__1_3_1_1_23_2_1
n5482__1_3_1_1_23_2_1_2,n5482__1_3_1_1_23_2_1_2_1
n5483__1_3_1_1_7_2,n5483__1_3_1_1_7_2_1
n5483__1_3_1_1_7_2_1_4,n5483__1_3_1_1_7_2_1_4_1
n5490__1_3_1_1_9_2,n5490__1_3_1_1_9_2_1
n5493__1_3_1_1_19_2,n5493__1_3_1_1_19_2_1
n5503__1_3_1_1_12_2,n5503__1_3_1_1_12_2_1
n5503__1_3_1_1_12_2_1_1,n5503__1_3_1_1_12_2_1_1_1
n5503__1_3_1_1_12_2_1_4,n5503__1_3_1_1_12_2_1_4_1
n5505__1_3_1_1_8_2,n5505__1_3_1_1_8_2_1
n5505__1_3_1_1_8_2_1_1,n5505__1_3_1_1_8_2_1_1_1
n5505__1_3_1_1_8_2_1_2,n5505__1_3_1_1_8_2_1_2_1
n5507__1_3_1_1_17_2,n5507__1_3_1_1_17_2_1
n5507__1_3_1_1_17_2_1_4,n5507__1_3_1_1_17_2_1_4_1
n5508__1_3_1_1_9_2,n5508__1_3_1_1_9_2_1
n5508__1_3_1_1_9_2_1_3,n5508__1_3_1_1_9_2_1_3_1
n5520__1_3_1_1_13_2,n5520__1_3_1_1_13_2_1
n5520__1_3_1_1_13_2_1_1,n5520__1_3_1_1_13_2_1_1_1
n5530__1_3_1_1_7_2,n5530__1_3_1_1_7_2_1
n5534__1_3_1_1_8_2,n5534__1_3_1_1_8_2_1
n5534__1_3_1_1_8_2_1_2,n5534__1_3_1_1_8_2_1_2_1
n5534__1_3_1_1_8_2_1_3,n5534__1_3_1_1_8_2_1_3_1
n5536__1_3_1_1_26_2,n5536__1_3_1_1_26_2_1
n5537__1_3_1_1_12_2,n5537__1_3_1_1_12_2_1
n5537__1_3_1_1_12_2_1_1,n5537__1_3_1_1_12_2_1_1_1
n5538__1_3_1_1_8_2,n5538__1_3_1_1_8_2_1
n5539__1_3_1_1_12_2,n5539__1_3_1_1_12_2_1
n5539__1_3_1_1_12_2_1_1,n5539__1_3_1_1_12_2_1_1_1
n5540__1_3_1_1_10_2,n5540__1_3_1_1_10_2_1
n5543__1_3_1_1_9_2,n5543__1_3_1_1_9_2_1
n5545__1_3_1_1_19_2,n5545__1_3_1_1_19_2_1
n5548__1_3_1_1_7_2,n5548__1_3_1_1_7_2_1
n5548__1_3_1_1_7_2_1_1,n5548__1_3_1_1_7_2_1_1_1
n5551__1_3_1_1_13_2,n5551__1_3_1_1_13_2_1
n5552__1_3_1_1_8_2,n5552__1_3_1_1_8_2_1
n5552__1_3_1_1_8_2_1_1,n5552__1_3_1_1_8_2_1_1_1
n5552__1_3_1_1_8_2_1_2,n5552__1_3_1_1_8_2_1_2_1
n5557__1_3_1_1_14_2,n5557__1_3_1_1_14_2_1
n5561__1_3_1_1_12_2,n5561__1_3_1_1_12_2_1
n5564__1_3_1_1_7_2,n5564__1_3_1_1_7_2_1
n5564__1_3_1_1_7_2_1_2,n5564__1_3_1_1_7_2_1_2_1
n5569__1_3_1_1_7_2,n5569__1_3_1_1_7_2_1
n5569__1_3_1_1_7_2_1_1,n5569__1_3_1_1_7_2_1_1_1
n5572__1_3_1_1_25_2,n5572__1_3_1_1_25_2_1
n5572__1_3_1_1_25_2_1_1,n5572__1_3_1_1_25_2_1_1_1
n5572__1_3_1_1_25_2_1_2,n5572__1_3_1_1_25_2_1_2_1
n5573__1_3_1_1_8_2,n5573__1_3_1_1_8_2_1
n5574__1_3_1_1_9_2,n5574__1_3_1_1_9_2_1
n5578__1_3_1_1_13_2,n5578__1_3_1_1_13_2_1
n5578__1_3_1_1_13_2_1_2,n5578__1_3_1_1_13_2_1_2_1
n5584__1_3_1_1_11_2,n5584__1_3_1_1_11_2_1
n5584__1_3_1_1_11_2_1_2,n5584__1_3_1_1_11_2_1_2_1
n5590__1_3_1_1_8_2,n5590__1_3_1_1_8_2_1
n5591__1_3_1_1_12_2,n5591__1_3_1_1_12_2_1
n5591__1_3_1_1_12_2_1_1,n5591__1_3_1_1_12_2_1_1_1
n5591__1_3_1_1_12_2_1_2,n5591__1_3_1_1_12_2_1_2_1
n5595__1_3_1_1_11_2,n5595__1_3_1_1_11_2_1
n5595__1_3_1_1_11_2_1_1,n5595__1_3_1_1_11_2_1_1_1
n5596__1_3_1_1_8_2,n5596__1_3_1_1_8_2_1
n5596__1_3_1_1_8_2_1_1,n5596__1_3_1_1_8_2_1_1_1
n5598__1_3_1_1_9_2,n5598__1_3_1_1_9_2_1
n5599__1_3_1_1_11_2,n5599__1_3_1_1_11_2_1
n5603__1_3_1_1_16_2,n5603__1_3_1_1_16_2_1
n5604__1_3_1_1_9_2,n5604__1_3_1_1_9_2_1
n5604__1_3_1_1_9_2_1_3,n5604__1_3_1_1_9_2_1_3_1
n5604__1_3_1_1_9_2_1_4,n5604__1_3_1_1_9_2_1_4_1
n5605__1_3_1_1_10_2,n5605__1_3_1_1_10_2_1
n5605__1_3_1_1_10_2_1_1,n5605__1_3_1_1_10_2_1_1_1
n5605__1_3_1_1_10_2_1_2,n5605__1_3_1_1_10_2_1_2_1
n5606__1_3_1_1_15_2,n5606__1_3_1_1_15_2_1
n5608__1_3_1_1_13_2,n5608__1_3_1_1_13_2_1
n5608__1_3_1_1_13_2_1_1,n5608__1_3_1_1_13_2_1_1_1
n5615__1_3_1_1_13_2,n5615__1_3_1_1_13_2_1
n5615__1_3_1_1_13_2_1_2,n5615__1_3_1_1_13_2_1_2_1
n5617__1_3_1_1_13_2,n5617__1_3_1_1_13_2_1
n5623__1_3_1_1_20_2,n5623__1_3_1_1_20_2_1
n5626__1_3_1_1_9_2,n5626__1_3_1_1_9_2_1
n5627__1_3_1_1_22_2,n5627__1_3_1_1_22_2_1
n5627__1_3_1_1_22_2_1_2,n5627__1_3_1_1_22_2_1_2_1
n5634__1_3_1_1_8_2,n5634__1_3_1_1_8_2_1
n5634__1_3_1_1_8_2_1_1,n5634__1_3_1_1_8_2_1_1_1
n5634__1_3_1_1_8_2_1_2,n5634__1_3_1_1_8_2_1_2_1
n5635__1_3_1_1_20_2,n5635__1_3_1_1_20_2_1
n5637__1_3_1_1_9_2,n5637__1_3_1_1_9_2_1
n5638__1_3_1_1_8_2,n5638__1_3_1_1_8_2_1
n5639__1_3_1_1_12_2,n5639__1_3_1_1_12_2_1
n5639__1_3_1_1_12_2_1_1,n5639__1_3_1_1_12_2_1_1_1
n5641__1_3_1_1_14_2,n5641__1_3_1_1_14_2_1
n5642__1_3_1_1_14_2,n5642__1_3_1_1_14_2_1
n5642__1_3_1_1_14_2_1_1,n5642__1_3_1_1_14_2_1_1_1
n5647__1_3_1_1_15_2,n5647__1_3_1_1_15_2_1
n5648__1_3_1_1_10_2,n5648__1_3_1_1_10_2_1
n5653__1_3_1_1_16_2,n5653__1_3_1_1_16_2_1
n5658__1_3_1_1_14_2,n5658__1_3_1_1_14_2_1
n5658__1_3_1_1_14_2_1_1,n5658__1_3_1_1_14_2_1_1_1
n5661__1_3_1_1_9_2,n5661__1_3_1_1_9_2_1
n5667__1_3_1_1_9_2,n5667__1_3_1_1_9_2_1
n5668__1_3_1_1_16_2,n5668__1_3_1_1_16_2_1
n5668__1_3_1_1_16_2_1_1,n5668__1_3_1_1_16_2_1_1_1
n5669__1_3_1_1_15_2,n5669__1_3_1_1_15_2_1
n5670__1_3_1_1_7_2,n5670__1_3_1_1_7_2_1
n5670__1_3_1_1_7_2_1_1,n5670__1_3_1_1_7_2_1_1_1
n5679__1_3_1_1_7_2,n5679__1_3_1_1_7_2_1
n5679__1_3_1_1_7_2_1_1,n5679__1_3_1_1_7_2_1_1_1
n5687__1_3_1_1_21_2,n5687__1_3_1_1_21_2_1
n5688__1_3_1_1_9_2,n5688__1_3_1_1_9_2_1
n5690__1_3_1_1_18_2,n5690__1_3_1_1_18_2_1
n5692__1_3_1_1_12_2,n5692__1_3_1_1_12_2_1
n5692__1_3_1_1_12_2_1_2,n5692__1_3_1_1_12_2_1_2_1
n5694__1_3_1_1_25_2,n5694__1_3_1_1_25_2_1
n5694__1_3_1_1_25_2_1_3,n5694__1_3_1_1_25_2_1_3_1
n5699__1_3_1_1_10_2,n5699__1_3_1_1_10_2_1
n5699__1_3_1_1_10_2_1_1,n5699__1_3_1_1_10_2_1_1_1
n5699__1_3_1_1_10_2_1_3,n5699__1_3_1_1_10_2_1_3_1
n5701__1_3_1_1_13_2,n5701__1_3_1_1_13_2_1
n5705__1_3_1_1_8_2,n5705__1_3_1_1_8_2_1
n5705__1_3_1_1_8_2_1_1,n5705__1_3_1_1_8_2_1_1_1
n5706__1_3_1_1_15_2,n5706__1_3_1_1_15_2_1
n5710__1_3_1_1_9_2,n5710__1_3_1_1_9_2_1
n5710__1_3_1_1_9_2_1_2,n5710__1_3_1_1_9_2_1_2_1
n5711__1_3_1_1_7_2,n5711__1_3_1_1_7_2_1
n5717__1_3_1_1_9_2,n5717__1_3_1_1_9_2_1
n5717__1_3_1_1_9_2_1_1,n5717__1_3_1_1_9_2_1_1_1
n5723__1_3_1_1_11_2,n5723__1_3_1_1_11_2_1
n5723__1_3_1_1_11_2_1_2,n5723__1_3_1_1_11_2_1_2_1
n5732__1_3_1_1_27_2,n5732__1_3_1_1_27_2_1
n5733__1_3_1_1_19_2,n5733__1_3_1_1_19_2_1
n5733__1_3_1_1_19_2_1_1,n5733__1_3_1_1_19_2_1_1_1
n5734__1_3_1_1_8_2,n5734__1_3_1_1_8_2_1
n5739__1_3_1_1_13_2,n5739__1_3_1_1_13_2_1
n5746__1_3_1_1_9_2,n5746__1_3_1_1_9_2_1
n5748__1_3_1_1_11_2,n5748__1_3_1_1_11_2_1
n5748__1_3_1_1_11_2_1_1,n5748__1_3_1_1_11_2_1_1_1
n5750__1_3_1_1_9_2,n5750__1_3_1_1_9_2_1
n5756__1_3_1_1_7_2,n5756__1_3_1_1_7_2_1
n5756__1_3_1_1_7_2_1_2,n5756__1_3_1_1_7_2_1_2_1
n5757__1_3_1_1_8_2,n5757__1_3_1_1_8_2_1
n5762__1_3_1_1_9_2,n5762__1_3_1_1_9_2_1
n5764__1_3_1_1_11_2,n5764__1_3_1_1_11_2_1
n5764__1_3_1_1_11_2_1_2,n5764__1_3_1_1_11_2_1_2_1
n5764__1_3_1_1_11_2_1_3,n5764__1_3_1_1_11_2_1_3_1
n5764__1_3_1_1_11_2_1_4,n5764__1_3_1_1_11_2_1_4_1
n5776__1_3_1_1_7_2,n5776__1_3_1_1_7_2_1
n5776__1_3_1_1_7_2_1_1,n5776__1_3_1_1_7_2_1_1_1
n5776__1_3_1_1_7_2_1_3,n5776__1_3_1_1_7_2_1_3_1
n5785__1_3_1_1_21_2,n5785__1_3_1_1_21_2_1
n5790__1_3_1_1_16_2,n5790__1_3_1_1_16_2_1
n5794__1_3_1_1_12_2,n5794__1_3_1_1_12_2_1
n5797__1_3_1_1_13_2,n5797__1_3_1_1_13_2_1
n5797__1_3_1_1_13_2_1_2,n5797__1_3_1_1_13_2_1_2_1
n5803__1_3_1_1_26_2,n5803__1_3_1_1_26_2_1
n5803__1_3_1_1_26_2_1_2,n5803__1_3_1_1_26_2_1_2_1
n5805__1_3_1_1_7_2,n5805__1_3_1_1_7_2_1
n5812__1_3_1_1_18_2,n5812__1_3_1_1_18_2_1
n5812__1_3_1_1_18_2_1_2,n5812__1_3_1_1_18_2_1_2_1
n5816__1_3_1_1_10_2,n5816__1_3_1_1_10_2_1
n5826__1_3_1_1_9_2,n5826__1_3_1_1_9_2_1
n5831__1_3_1_1_11_2,n5831__1_3_1_1_11_2_1
n5842__1_3_1_1_8_2,n5842__1_3_1_1_8_2_1
n5844__1_3_1_1_19_2,n5844__1_3_1_1_19_2_1
n5845__1_3_1_1_8_2,n5845__1_3_1_1_8_2_1
n5845__1_3_1_1_8_2_1_1,n5845__1_3_1_1_8_2_1_1_1
n5845__1_3_1_1_8_2_1_3,n5845__1_3_1_1_8_2_1_3_1
n5846__1_3_1_1_14_2,n5846__1_3_1_1_14_2_1
n5846__1_3_1_1_14_2_1_1,n5846__1_3_1_1_14_2_1_1_1
n5846__1_3_1_1_14_2_1_2,n5846__1_3_1_1_14_2_1_2_1
n5854__1_3_1_1_18_2,n5854__1_3_1_1_18_2_1
n5856__1_3_1_1_7_2,n5856__1_3_1_1_7_2_1
n5860__1_3_1_1_18_2,n5860__1_3_1_1_18_2_1
n5860__1_3_1_1_18_2_1_1,n5860__1_3_1_1_18_2_1_1_1
n5861__1_3_1_1_17_2,n5861__1_3_1_1_17_2_1
n5861__1_3_1_1_17_2_1_1,n5861__1_3_1_1_17_2_1_1_1
n5861__1_3_1_1_17_2_1_3,n5861__1_3_1_1_17_2_1_3_1
n5862__1_3_1_1_10_2,n5862__1_3_1_1_10_2_1
n5865__1_3_1_1_7_2,n5865__1_3_1_1_7_2_1
n5865__1_3_1_1_7_2_1_3,n5865__1_3_1_1_7_2_1_3_1
n5867__1_3_1_1_7_2,n5867__1_3_1_1_7_2_1
n5867__1_3_1_1_7_2_1_1,n5867__1_3_1_1_7_2_1_1_1
n5867__1_3_1_1_7_2_1_2,n5867__1_3_1_1_7_2_1_2_1
n5868__1_3_1_1_9_2,n5868__1_3_1_1_9_2_1
n5868__1_3_1_1_9_2_1_3,n5868__1_3_1_1_9_2_1_3_1
n5871__1_3_1_1_16_2,n5871__1_3_1_1_16_2_1
n5871__1_3_1_1_16_2_1_1,n5871__1_3_1_1_16_2_1_1_1
n5875__1_3_1_1_11_2,n5875__1_3_1_1_11_2_1
n5875__1_3_1_1_11_2_1_1,n5875__1_3_1_1_11_2_1_1_1
n5878__1_3_1_1_8_2,n5878__1_3_1_1_8_2_1
n5878__1_3_1_1_8_2_1_2,n5878__1_3_1_1_8_2_1_2_1
n5879__1_3_1_1_17_2,n5879__1_3_1_1_17_2_1
n5879__1_3_1_1_17_2_1_3,n5879__1_3_1_1_17_2_1_3_1
n5880__1_3_1_1_8_2,n5880__1_3_1_1_8_2_1
n5880__1_3_1_1_8_2_1_2,n5880__1_3_1_1_8_2_1_2_1
n5889__1_3_1_1_12_2,n5889__1_3_1_1_12_2_1
n5894__1_3_1_1_7_2,n5894__1_3_1_1_7_2_1
n5901__1_3_1_1_8_2,n5901__1_3_1_1_8_2_1
n5901__1_3_1_1_8_2_1_1,n5901__1_3_1_1_8_2_1_1_1
n5910__1_3_1_1_12_2,n5910__1_3_1_1_12_2_1
n5914__1_3_1_1_8_2,n5914__1_3_1_1_8_2_1
n5916__1_3_1_1_11_2,n5916__1_3_1_1_11_2_1
n5917__1_3_1_1_16_2,n5917__1_3_1_1_16_2_1
n5917__1_3_1_1_16_2_1_3,n5917__1_3_1_1_16_2_1_3_1
n5918__1_3_1_1_12_2,n5918__1_3_1_1_12_2_1
n5920__1_3_1_1_15_2,n5920__1_3_1_1_15_2_1
n5930__1_3_1_1_11_2,n5930__1_3_1_1_11_2_1
n5933__1_3_1_1_8_2,n5933__1_3_1_1_8_2_1
n5933__1_3_1_1_8_2_1_1,n5933__1_3_1_1_8_2_1_1_1
n5933__1_3_1_1_8_2_1_2,n5933__1_3_1_1_8_2_1_2_1
n5934__1_3_1_1_7_2,n5934__1_3_1_1_7_2_1
n5939__1_3_1_1_17_2,n5939__1_3_1_1_17_2_1
n5939__1_3_1_1_17_2_1_1,n5939__1_3_1_1_17_2_1_1_1
n5944__1_3_1_1_9_2,n5944__1_3_1_1_9_2_1
n5946__1_3_1_1_9_2,n5946__1_3_1_1_9_2_1
n5946__1_3_1_1_9_2_1_2,n5946__1_3_1_1_9_2_1_2_1
n5952__1_3_1_1_10_2,n5952__1_3_1_1_10_2_1
n5952__1_3_1_1_10_2_1_3,n5952__1_3_1_1_10_2_1_3_1
n5954__1_3_1_1_17_2,n5954__1_3_1_1_17_2_1
n5956__1_3_1_1_9_2,n5956__1_3_1_1_9_2_1
n5956__1_3_1_1_9_2_1_1,n5956__1_3_1_1_9_2_1_1_1
n5957__1_3_1_1_14_2,n5957__1_3_1_1_14_2_1
n5958__1_3_1_1_9_2,n5958__1_3_1_1_9_2_1
n5958__1_3_1_1_9_2_1_1,n5958__1_3_1_1_9_2_1_1_1
n5958__1_3_1_1_9_2_1_4,n5958__1_3_1_1_9_2_1_4_1
n5961__1_3_1_1_11_2,n5961__1_3_1_1_11_2_1
n5962__1_3_1_1_19_2,n5962__1_3_1_1_19_2_1
n5962__1_3_1_1_19_2_1_2,n5962__1_3_1_1_19_2_1_2_1
n5963__1_3_1_1_9_2,n5963__1_3_1_1_9_2_1
n5963__1_3_1_1_9_2_1_3,n5963__1_3_1_1_9_2_1_3_1
n5966__1_3_1_1_13_2,n5966__1_3_1_1_13_2_1
n5966__1_3_1_1_13_2_1_1,n5966__1_3_1_1_13_2_1_1_1
n5968__1_3_1_1_8_2,n5968__1_3_1_1_8_2_1
n5969__1_3_1_1_14_2,n5969__1_3_1_1_14_2_1
n5969__1_3_1_1_14_2_1_1,n5969__1_3_1_1_14_2_1_1_1
n5971__1_3_1_1_9_2,n5971__1_3_1_1_9_2_1
n5972__1_3_1_1_37_2,n5972__1_3_1_1_37_2_1
n5972__1_3_1_1_37_2_1_2,n5972__1_3_1_1_37_2_1_2_1
n5982__1_3_1_1_11_2,n5982__1_3_1_1_11_2_1
n5982__1_3_1_1_11_2_1_3,n5982__1_3_1_1_11_2_1_3_1
n5983__1_3_1_1_10_2,n5983__1_3_1_1_10_2_1
n5990__1_3_1_1_10_2,n5990__1_3_1_1_10_2_1
n5991__1_3_1_1_11_2,n5991__1_3_1_1_11_2_1
n5993__1_3_1_1_14_2,n5993__1_3_1_1_14_2_1
n5995__1_3_1_1_11_2,n5995__1_3_1_1_11_2_1
n6000__1_3_1_1_16_2,n6000__1_3_1_1_16_2_1
n6003__1_3_1_1_8_2,n6003__1_3_1_1_8_2_1
n6004__1_3_1_1_13_2,n6004__1_3_1_1_13_2_1
n6005__1_3_1_1_8_2,n6005__1_3_1_1_8_2_1
n6005__1_3_1_1_8_2_1_2,n6005__1_3_1_1_8_2_1_2_1
n6008__1_3_1_1_18_2,n6008__1_3_1_1_18_2_1
n6011__1_3_1_1_9_2,n6011__1_3_1_1_9_2_1
n6021__1_3_1_1_7_2,n6021__1_3_1_1_7_2_1
n6021__1_3_1_1_7_2_1_5,n6021__1_3_1_1_7_2_1_5_1
n6034__1_3_1_1_14_2,n6034__1_3_1_1_14_2_1
n6034__1_3_1_1_14_2_1_3,n6034__1_3_1_1_14_2_1_3_1
n6035__1_3_1_1_8_2,n6035__1_3_1_1_8_2_1
n6036__1_3_1_1_7_2,n6036__1_3_1_1_7_2_1
n6039__1_3_1_1_14_2,n6039__1_3_1_1_14_2_1
n6039__1_3_1_1_14_2_1_1,n6039__1_3_1_1_14_2_1_1_1
n6043__1_3_1_1_9_2,n6043__1_3_1_1_9_2_1
n6047__1_3_1_1_9_2,n6047__1_3_1_1_9_2_1
n6049__1_3_1_1_12_2,n6049__1_3_1_1_12_2_1
n6050__1_3_1_1_27_2,n6050__1_3_1_1_27_2_1
n6051__1_3_1_1_7_2,n6051__1_3_1_1_7_2_1
n6054__1_3_1_1_15_2,n6054__1_3_1_1_15_2_1
n6055__1_3_1_1_28_2,n6055__1_3_1_1_28_2_1
n6057__1_3_1_1_11_2,n6057__1_3_1_1_11_2_1
n6057__1_3_1_1_11_2_1_2,n6057__1_3_1_1_11_2_1_2_1
n6060__1_3_1_1_8_2,n6060__1_3_1_1_8_2_1
n6061__1_3_1_1_7_2,n6061__1_3_1_1_7_2_1
n6061__1_3_1_1_7_2_1_1,n6061__1_3_1_1_7_2_1_1_1
n6063__1_3_1_1_10_2,n6063__1_3_1_1_10_2_1
n6071__1_3_1_1_8_2,n6071__1_3_1_1_8_2_1
n6073__1_3_1_1_21_2,n6073__1_3_1_1_21_2_1
n6073__1_3_1_1_21_2_1_1,n6073__1_3_1_1_21_2_1_1_1
n6075__1_3_1_1_12_2,n6075__1_3_1_1_12_2_1
n6075__1_3_1_1_12_2_1_3,n6075__1_3_1_1_12_2_1_3_1
n6076__1_3_1_1_8_2,n6076__1_3_1_1_8_2_1
n6076__1_3_1_1_8_2_1_2,n6076__1_3_1_1_8_2_1_2_1
n6077__1_3_1_1_12_2,n6077__1_3_1_1_12_2_1
n6077__1_3_1_1_12_2_1_2,n6077__1_3_1_1_12_2_1_2_1
n6079__1_3_1_1_12_2,n6079__1_3_1_1_12_2_1
n6081__1_3_1_1_7_2,n6081__1_3_1_1_7_2_1
n6081__1_3_1_1_7_2_1_1,n6081__1_3_1_1_7_2_1_1_1
n6083__1_3_1_1_13_2,n6083__1_3_1_1_13_2_1
n6083__1_3_1_1_13_2_1_3,n6083__1_3_1_1_13_2_1_3_1
n6086__1_3_1_1_10_2,n6086__1_3_1_1_10_2_1
n6087__1_3_1_1_7_2,n6087__1_3_1_1_7_2_1
n6087__1_3_1_1_7_2_1_1,n6087__1_3_1_1_7_2_1_1_1
n6088__1_3_1_1_10_2,n6088__1_3_1_1_10_2_1
n6088__1_3_1_1_10_2_1_3,n6088__1_3_1_1_10_2_1_3_1
n6091__1_3_1_1_9_2,n6091__1_3_1_1_9_2_1
n6092__1_3_1_1_21_2,n6092__1_3_1_1_21_2_1
n6093__1_3_1_1_11_2,n6093__1_3_1_1_11_2_1
n6093__1_3_1_1_11_2_1_2,n6093__1_3_1_1_11_2_1_2_1
n6093__1_3_1_1_11_2_1_3,n6093__1_3_1_1_11_2_1_3_1
n6095__1_3_1_1_10_2,n6095__1_3_1_1_10_2_1
n6097__1_3_1_1_9_2,n6097__1_3_1_1_9_2_1
n6097__1_3_1_1_9_2_1_2,n6097__1_3_1_1_9_2_1_2_1
n6099__1_3_1_1_22_2,n6099__1_3_1_1_22_2_1
n6104__1_3_1_1_7_2,n6104__1_3_1_1_7_2_1
n6105__1_3_1_1_7_2,n6105__1_3_1_1_7_2_1
n6105__1_3_1_1_7_2_1_1,n6105__1_3_1_1_7_2_1_1_1
n6117__1_3_1_1_8_2,n6117__1_3_1_1_8_2_1
n6121__1_3_1_1_14_2,n6121__1_3_1_1_14_2_1
n6123__1_3_1_1_9_2,n6123__1_3_1_1_9_2_1
n6123__1_3_1_1_9_2_1_1,n6123__1_3_1_1_9_2_1_1_1
n6124__1_3_1_1_13_2,n6124__1_3_1_1_13_2_1
n6126__1_3_1_1_8_2,n6126__1_3_1_1_8_2_1
n6127__1_3_1_1_8_2,n6127__1_3_1_1_8_2_1
n6130__1_3_1_1_8_2,n6130__1_3_1_1_8_2_1
n6130__1_3_1_1_8_2_1_2,n6130__1_3_1_1_8_2_1_2_1
n6130__1_3_1_1_8_2_1_3,n6130__1_3_1_1_8_2_1_3_1
n6131__1_3_1_1_8_2,n6131__1_3_1_1_8_2_1
n6132__1_3_1_1_8_2,n6132__1_3_1_1_8_2_1
n6134__1_3_1_1_8_2,n6134__1_3_1_1_8_2_1
n6134__1_3_1_1_8_2_1_1,n6134__1_3_1_1_8_2_1_1_1
n6138__1_3_1_1_8_2,n6138__1_3_1_1_8_2_1
n6142__1_3_1_1_8_2,n6142__1_3_1_1_8_2_1
n6145__1_3_1_1_8_2,n6145__1_3_1_1_8_2_1
n6154__1_3_1_1_8_2,n6154__1_3_1_1_8_2_1
n6154__1_3_1_1_8_2_1_2,n6154__1_3_1_1_8_2_1_2_1
n6157__1_3_1_1_8_2,n6157__1_3_1_1_8_2_1
n6157__1_3_1_1_8_2_1_5,n6157__1_3_1_1_8_2_1_5_1
n6159__1_3_1_1_8_2,n6159__1_3_1_1_8_2_1
n6160__1_3_1_1_8_2,n6160__1_3_1_1_8_2_1
n6162__1_3_1_1_8_2,n6162__1_3_1_1_8_2_1
n6162__1_3_1_1_8_2_1_1,n6162__1_3_1_1_8_2_1_1_1
n6175__1_3_1_1_8_2,n6175__1_3_1_1_8_2_1
n6175__1_3_1_1_8_2_1_2,n6175__1_3_1_1_8_2_1_2_1
n6178__1_3_1_1_8_2,n6178__1_3_1_1_8_2_1
n6179__1_3_1_1_8_2,n6179__1_3_1_1_8_2_1
n6180__1_3_1_1_8_2,n6180__1_3_1_1_8_2_1
n6180__1_3_1_1_8_2_1_2,n6180__1_3_1_1_8_2_1_2_1
n6184__1_3_1_1_8_2,n6184__1_3_1_1_8_2_1
n6184__1_3_1_1_8_2_1_3,n6184__1_3_1_1_8_2_1_3_1
n6184__1_3_1_1_8_2_1_5,n6184__1_3_1_1_8_2_1_5_1
n6185__1_3_1_1_8_2,n6185__1_3_1_1_8_2_1
n6185__1_3_1_1_8_2_1_2,n6185__1_3_1_1_8_2_1_2_1
n6187__1_3_1_1_8_2,n6187__1_3_1_1_8_2_1
n6192__1_3_1_1_8_2,n6192__1_3_1_1_8_2_1
n6192__1_3_1_1_8_2_1_1,n6192__1_3_1_1_8_2_1_1_1
n6197__1_3_1_1_8_2,n6197__1_3_1_1_8_2_1
n6198__1_3_1_1_8_2,n6198__1_3_1_1_8_2_1
n6198__1_3_1_1_8_2_1_2,n6198__1_3_1_1_8_2_1_2_1
n6200__1_3_1_1_8_2,n6200__1_3_1_1_8_2_1
n6203__1_3_1_1_8_2,n6203__1_3_1_1_8_2_1
n6203__1_3_1_1_8_2_1_2,n6203__1_3_1_1_8_2_1_2_1
n6204__1_3_1_1_8_2,n6204__1_3_1_1_8_2_1
n6208__1_3_1_1_8_2,n6208__1_3_1_1_8_2_1
n6216__1_3_1_1_8_2,n6216__1_3_1_1_8_2_1
n6218__1_3_1_1_8_2,n6218__1_3_1_1_8_2_1
n6223__1_3_1_1_8_2,n6223__1_3_1_1_8_2_1
n6228__1_3_1_1_8_2,n6228__1_3_1_1_8_2_1
n6228__1_3_1_1_8_2_1_2,n6228__1_3_1_1_8_2_1_2_1
n6230__1_3_1_1_8_2,n6230__1_3_1_1_8_2_1
n6240__1_3_1_1_8_2,n6240__1_3_1_1_8_2_1
n6240__1_3_1_1_8_2_1_2,n6240__1_3_1_1_8_2_1_2_1
n6242__1_3_1_1_8_2,n6242__1_3_1_1_8_2_1
n6247__1_3_1_1_8_2,n6247__1_3_1_1_8_2_1
n6250__1_3_1_1_8_2,n6250__1_3_1_1_8_2_1
n6250__1_3_1_1_8_2_1_1,n6250__1_3_1_1_8_2_1_1_1
n6251__1_3_1_1_8_2,n6251__1_3_1_1_8_2_1
n6251__1_3_1_1_8_2_1_1,n6251__1_3_1_1_8_2_1_1_1
n6253__1_3_1_1_8_2,n6253__1_3_1_1_8_2_1
n6257__1_3_1_1_8_2,n6257__1_3_1_1_8_2_1
n6258__1_3_1_1_8_2,n6258__1_3_1_1_8_2_1
n6260__1_3_1_1_8_2,n6260__1_3_1_1_8_2_1
n6262__1_3_1_1_8_2,n6262__1_3_1_1_8_2_1
n6264__1_3_1_1_8_2,n6264__1_3_1_1_8_2_1
n6269__1_3_1_1_8_2,n6269__1_3_1_1_8_2_1
n6269__1_3_1_1_8_2_1_3,n6269__1_3_1_1_8_2_1_3_1
n6274__1_3_1_1_8_2,n6274__1_3_1_1_8_2_1
n6274__1_3_1_1_8_2_1_2,n6274__1_3_1_1_8_2_1_2_1
n6274__1_3_1_1_8_2_1_3,n6274__1_3_1_1_8_2_1_3_1
n6274__1_3_1_1_8_2_1_4,n6274__1_3_1_1_8_2_1_4_1
n6274__1_3_1_1_8_2_1_5,n6274__1_3_1_1_8_2_1_5_1
n6276__1_3_1_1_8_2,n6276__1_3_1_1_8_2_1
n6278__1_3_1_1_8_2,n6278__1_3_1_1_8_2_1
n6284__1_3_1_1_8_2,n6284__1_3_1_1_8_2_1
n6285__1_3_1_1_8_2,n6285__1_3_1_1_8_2_1
n6286__1_3_1_1_8_2,n6286__1_3_1_1_8_2_1
n6297__1_3_1_1_8_2,n6297__1_3_1_1_8_2_1
n6297__1_3_1_1_8_2_1_1,n6297__1_3_1_1_8_2_1_1_1
n6299__1_3_1_1_8_2,n6299__1_3_1_1_8_2_1
n6303__1_3_1_1_8_2,n6303__1_3_1_1_8_2_1
n6305__1_3_1_1_8_2,n6305__1_3_1_1_8_2_1
n6305__1_3_1_1_8_2_1_2,n6305__1_3_1_1_8_2_1_2_1
n6307__1_3_1_1_8_2,n6307__1_3_1_1_8_2_1
n6307__1_3_1_1_8_2_1_1,n6307__1_3_1_1_8_2_1_1_1
n6308__1_3_1_1_8_2,n6308__1_3_1_1_8_2_1
n6309__1_3_1_1_8_2,n6309__1_3_1_1_8_2_1
n6309__1_3_1_1_8_2_1_2,n6309__1_3_1_1_8_2_1_2_1
n6309__1_3_1_1_8_2_1_4,n6309__1_3_1_1_8_2_1_4_1
n6310__1_3_1_1_8_2,n6310__1_3_1_1_8_2_1
n6310__1_3_1_1_8_2_1_1,n6310__1_3_1_1_8_2_1_1_1
n6312__1_3_1_1_8_2,n6312__1_3_1_1_8_2_1
n6313__1_3_1_1_8_2,n6313__1_3_1_1_8_2_1
n6326__1_3_1_1_8_2,n6326__1_3_1_1_8_2_1
n6327__1_3_1_1_8_2,n6327__1_3_1_1_8_2_1
n6327__1_3_1_1_8_2_1_2,n6327__1_3_1_1_8_2_1_2_1
n6329__1_3_1_1_8_2,n6329__1_3_1_1_8_2_1
n6335__1_3_1_1_8_2,n6335__1_3_1_1_8_2_1
n6337__1_3_1_1_8_2,n6337__1_3_1_1_8_2_1
n6348__1_3_1_1_8_2,n6348__1_3_1_1_8_2_1
n6349__1_3_1_1_8_2,n6349__1_3_1_1_8_2_1
n6349__1_3_1_1_8_2_1_1,n6349__1_3_1_1_8_2_1_1_1
n6349__1_3_1_1_8_2_1_4,n6349__1_3_1_1_8_2_1_4_1
n6350__1_3_1_1_8_2,n6350__1_3_1_1_8_2_1
n6350__1_3_1_1_8_2_1_2,n6350__1_3_1_1_8_2_1_2_1
n6350__1_3_1_1_8_2_1_3,n6350__1_3_1_1_8_2_1_3_1
n6353__1_3_1_1_8_2,n6353__1_3_1_1_8_2_1
n6359__1_3_1_1_8_2,n6359__1_3_1_1_8_2_1
n6361__1_3_1_1_8_2,n6361__1_3_1_1_8_2_1
n6367__1_3_1_1_8_2,n6367__1_3_1_1_8_2_1
n6367__1_3_1_1_8_2_1_1,n6367__1_3_1_1_8_2_1_1_1
n6368__1_3_1_1_8_2,n6368__1_3_1_1_8_2_1
n6373__1_3_1_1_8_2,n6373__1_3_1_1_8_2_1
n6373__1_3_1_1_8_2_1_1,n6373__1_3_1_1_8_2_1_1_1
n6389__1_3_1_1_8_2,n6389__1_3_1_1_8_2_1
n6389__1_3_1_1_8_2_1_2,n6389__1_3_1_1_8_2_1_2_1
n6389__1_3_1_1_8_2_1_3,n6389__1_3_1_1_8_2_1_3_1
n6394__1_3_1_1_8_2,n6394__1_3_1_1_8_2_1
n6394__1_3_1_1_8_2_1_1,n6394__1_3_1_1_8_2_1_1_1
n6394__1_3_1_1_8_2_1_2,n6394__1_3_1_1_8_2_1_2_1
n6396__1_3_1_1_8_2,n6396__1_3_1_1_8_2_1
n6396__1_3_1_1_8_2_1_3,n6396__1_3_1_1_8_2_1_3_1
n6400__1_3_1_1_8_2,n6400__1_3_1_1_8_2_1
n6400__1_3_1_1_8_2_1_1,n6400__1_3_1_1_8_2_1_1_1
n6400__1_3_1_1_8_2_1_3,n6400__1_3_1_1_8_2_1_3_1
n6403__1_3_1_1_8_2,n6403__1_3_1_1_8_2_1
n6403__1_3_1_1_8_2_1_1,n6403__1_3_1_1_8_2_1_1_1
n6405__1_3_1_1_8_2,n6405__1_3_1_1_8_2_1
n6406__1_3_1_1_8_2,n6406__1_3_1_1_8_2_1
n6412__1_3_1_1_8_2,n6412__1_3_1_1_8_2_1
n6412__1_3_1_1_8_2_1_2,n6412__1_3_1_1_8_2_1_2_1
n6412__1_3_1_1_8_2_1_3,n6412__1_3_1_1_8_2_1_3_1
n6413__1_3_1_1_8_2,n6413__1_3_1_1_8_2_1
n6415__1_3_1_1_8_2,n6415__1_3_1_1_8_2_1
n6419__1_3_1_1_8_2,n6419__1_3_1_1_8_2_1
n6419__1_3_1_1_8_2_1_1,n6419__1_3_1_1_8_2_1_1_1
n6420__1_3_1_1_8_2,n6420__1_3_1_1_8_2_1
n6420__1_3_1_1_8_2_1_2,n6420__1_3_1_1_8_2_1_2_1
n6420__1_3_1_1_8_2_1_3,n6420__1_3_1_1_8_2_1_3_1
n6421__1_3_1_1_8_2,n6421__1_3_1_1_8_2_1
n6421__1_3_1_1_8_2_1_1,n6421__1_3_1_1_8_2_1_1_1
n6425__1_3_1_1_8_2,n6425__1_3_1_1_8_2_1
n6429__1_3_1_1_8_2,n6429__1_3_1_1_8_2_1
n6438__1_3_1_1_8_2,n6438__1_3_1_1_8_2_1
n6439__1_3_1_1_8_2,n6439__1_3_1_1_8_2_1
n6442__1_3_1_1_8_2,n6442__1_3_1_1_8_2_1
n6442__1_3_1_1_8_2_1_1,n6442__1_3_1_1_8_2_1_1_1
n6443__1_3_1_1_8_2,n6443__1_3_1_1_8_2_1
n6445__1_3_1_1_8_2,n6445__1_3_1_1_8_2_1
n6451__1_3_1_1_8_2,n6451__1_3_1_1_8_2_1
n6456__1_3_1_1_8_2,n6456__1_3_1_1_8_2_1
n6457__1_3_1_1_8_2,n6457__1_3_1_1_8_2_1
n6463__1_3_1_1_8_2,n6463__1_3_1_1_8_2_1
n6463__1_3_1_1_8_2_1_3,n6463__1_3_1_1_8_2_1_3_1
n6465__1_3_1_1_8_2,n6465__1_3_1_1_8_2_1
n6468__1_3_1_1_8_2,n6468__1_3_1_1_8_2_1
n6470__1_3_1_1_8_2,n6470__1_3_1_1_8_2_1
n6471__1_3_1_1_8_2,n6471__1_3_1_1_8_2_1
n6471__1_3_1_1_8_2_1_1,n6471__1_3_1_1_8_2_1_1_1
n6472__1_3_1_1_8_2,n6472__1_3_1_1_8_2_1
n6472__1_3_1_1_8_2_1_2,n6472__1_3_1_1_8_2_1_2_1
n6482__1_3_1_1_8_2,n6482__1_3_1_1_8_2_1
n6482__1_3_1_1_8_2_1_1,n6482__1_3_1_1_8_2_1_1_1
n6487__1_3_1_1_8_2,n6487__1_3_1_1_8_2_1
n6487__1_3_1_1_8_2_1_1,n6487__1_3_1_1_8_2_1_1_1
n6488__1_3_1_1_8_2,n6488__1_3_1_1_8_2_1
n6489__1_3_1_1_8_2,n6489__1_3_1_1_8_2_1
n6492__1_3_1_1_8_2,n6492__1_3_1_1_8_2_1
n6492__1_3_1_1_8_2_1_1,n6492__1_3_1_1_8_2_1_1_1
n6495__1_3_1_1_8_2,n6495__1_3_1_1_8_2_1
n6506__1_3_1_1_8_2,n6506__1_3_1_1_8_2_1
n6506__1_3_1_1_8_2_1_1,n6506__1_3_1_1_8_2_1_1_1
n6509__1_3_1_1_8_2,n6509__1_3_1_1_8_2_1
n6509__1_3_1_1_8_2_1_1,n6509__1_3_1_1_8_2_1_1_1
n6509__1_3_1_1_8_2_1_2,n6509__1_3_1_1_8_2_1_2_1
n6511__1_3_1_1_8_2,n6511__1_3_1_1_8_2_1
n6520__1_3_1_1_8_2,n6520__1_3_1_1_8_2_1
n6520__1_3_1_1_8_2_1_1,n6520__1_3_1_1_8_2_1_1_1
n6520__1_3_1_1_8_2_1_4,n6520__1_3_1_1_8_2_1_4_1
n6523__1_3_1_1_8_2,n6523__1_3_1_1_8_2_1
n6523__1_3_1_1_8_2_1_2,n6523__1_3_1_1_8_2_1_2_1
n6524__1_3_1_1_8_2,n6524__1_3_1_1_8_2_1
n6524__1_3_1_1_8_2_1_2,n6524__1_3_1_1_8_2_1_2_1
n6524__1_3_1_1_8_2_1_4,n6524__1_3_1_1_8_2_1_4_1
n6525__1_3_1_1_8_2,n6525__1_3_1_1_8_2_1
n6529__1_3_1_1_8_2,n6529__1_3_1_1_8_2_1
n6529__1_3_1_1_8_2_1_2,n6529__1_3_1_1_8_2_1_2_1
n6530__1_3_1_1_8_2,n6530__1_3_1_1_8_2_1
n6533__1_3_1_1_8_2,n6533__1_3_1_1_8_2_1
n6534__1_3_1_1_8_2,n6534__1_3_1_1_8_2_1
n6534__1_3_1_1_8_2_1_1,n6534__1_3_1_1_8_2_1_1_1
n6534__1_3_1_1_8_2_1_3,n6534__1_3_1_1_8_2_1_3_1
n6536__1_3_1_1_8_2,n6536__1_3_1_1_8_2_1
n6548__1_3_1_1_8_2,n6548__1_3_1_1_8_2_1
n6550__1_3_1_1_8_2,n6550__1_3_1_1_8_2_1
n6551__1_3_1_1_8_2,n6551__1_3_1_1_8_2_1
n6551__1_3_1_1_8_2_1_1,n6551__1_3_1_1_8_2_1_1_1
n6561__1_3_1_1_8_2,n6561__1_3_1_1_8_2_1
n6562__1_3_1_1_8_2,n6562__1_3_1_1_8_2_1
n6562__1_3_1_1_8_2_1_3,n6562__1_3_1_1_8_2_1_3_1
n6563__1_3_1_1_8_2,n6563__1_3_1_1_8_2_1
n6564__1_3_1_1_8_2,n6564__1_3_1_1_8_2_1
n6566__1_3_1_1_8_2,n6566__1_3_1_1_8_2_1
n6568__1_3_1_1_8_2,n6568__1_3_1_1_8_2_1
n6574__1_3_1_1_8_2,n6574__1_3_1_1_8_2_1
n6581__1_3_1_1_8_2,n6581__1_3_1_1_8_2_1
n6584__1_3_1_1_8_2,n6584__1_3_1_1_8_2_1
n6585__1_3_1_1_8_2,n6585__1_3_1_1_8_2_1
n6585__1_3_1_1_8_2_1_2,n6585__1_3_1_1_8_2_1_2_1
n6588__1_3_1_1_8_2,n6588__1_3_1_1_8_2_1
n6592__1_3_1_1_8_2,n6592__1_3_1_1_8_2_1
n6594__1_3_1_1_8_2,n6594__1_3_1_1_8_2_1
n6594__1_3_1_1_8_2_1_5,n6594__1_3_1_1_8_2_1_5_1
n6596__1_3_1_1_8_2,n6596__1_3_1_1_8_2_1
n6600__1_3_1_1_8_2,n6600__1_3_1_1_8_2_1
n6602__1_3_1_1_8_2,n6602__1_3_1_1_8_2_1
n6605__1_3_1_1_8_2,n6605__1_3_1_1_8_2_1
n6605__1_3_1_1_8_2_1_1,n6605__1_3_1_1_8_2_1_1_1
n6605__1_3_1_1_8_2_1_2,n6605__1_3_1_1_8_2_1_2_1
n6606__1_3_1_1_8_2,n6606__1_3_1_1_8_2_1
n6606__1_3_1_1_8_2_1_3,n6606__1_3_1_1_8_2_1_3_1
n6607__1_3_1_1_8_2,n6607__1_3_1_1_8_2_1
n6607__1_3_1_1_8_2_1_1,n6607__1_3_1_1_8_2_1_1_1
n6612__1_3_1_1_8_2,n6612__1_3_1_1_8_2_1
n6612__1_3_1_1_8_2_1_2,n6612__1_3_1_1_8_2_1_2_1
n6616__1_3_1_1_8_2,n6616__1_3_1_1_8_2_1
n6616__1_3_1_1_8_2_1_2,n6616__1_3_1_1_8_2_1_2_1
n6618__1_3_1_1_8_2,n6618__1_3_1_1_8_2_1
n6618__1_3_1_1_8_2_1_1,n6618__1_3_1_1_8_2_1_1_1
n6619__1_3_1_1_8_2,n6619__1_3_1_1_8_2_1
n6619__1_3_1_1_8_2_1_1,n6619__1_3_1_1_8_2_1_1_1
n6627__1_3_1_1_8_2,n6627__1_3_1_1_8_2_1
n6629__1_3_1_1_8_2,n6629__1_3_1_1_8_2_1
n6630__1_3_1_1_8_2,n6630__1_3_1_1_8_2_1
n6630__1_3_1_1_8_2_1_1,n6630__1_3_1_1_8_2_1_1_1
n6631__1_3_1_1_8_2,n6631__1_3_1_1_8_2_1
n6631__1_3_1_1_8_2_1_1,n6631__1_3_1_1_8_2_1_1_1
n6635__1_3_1_1_8_2,n6635__1_3_1_1_8_2_1
n6635__1_3_1_1_8_2_1_2,n6635__1_3_1_1_8_2_1_2_1
n6635__1_3_1_1_8_2_1_4,n6635__1_3_1_1_8_2_1_4_1
n6636__1_3_1_1_8_2,n6636__1_3_1_1_8_2_1
n6636__1_3_1_1_8_2_1_1,n6636__1_3_1_1_8_2_1_1_1
n6644__1_3_1_1_8_2,n6644__1_3_1_1_8_2_1
n6646__1_3_1_1_8_2,n6646__1_3_1_1_8_2_1
n6646__1_3_1_1_8_2_1_4,n6646__1_3_1_1_8_2_1_4_1
n6648__1_3_1_1_8_2,n6648__1_3_1_1_8_2_1
n6656__1_3_1_1_8_2,n6656__1_3_1_1_8_2_1
n6656__1_3_1_1_8_2_1_2,n6656__1_3_1_1_8_2_1_2_1
n6657__1_3_1_1_8_2,n6657__1_3_1_1_8_2_1
n6658__1_3_1_1_8_2,n6658__1_3_1_1_8_2_1
n6659__1_3_1_1_8_2,n6659__1_3_1_1_8_2_1
n6659__1_3_1_1_8_2_1_2,n6659__1_3_1_1_8_2_1_2_1
n6660__1_3_1_1_8_2,n6660__1_3_1_1_8_2_1
n6660__1_3_1_1_8_2_1_3,n6660__1_3_1_1_8_2_1_3_1
n6662__1_3_1_1_8_2,n6662__1_3_1_1_8_2_1
n6662__1_3_1_1_8_2_1_2,n6662__1_3_1_1_8_2_1_2_1
n6663__1_3_1_1_8_2,n6663__1_3_1_1_8_2_1
n6664__1_3_1_1_8_2,n6664__1_3_1_1_8_2_1
n6674__1_3_1_1_8_2,n6674__1_3_1_1_8_2_1
n6674__1_3_1_1_8_2_1_2,n6674__1_3_1_1_8_2_1_2_1
n6675__1_3_1_1_8_2,n6675__1_3_1_1_8_2_1
n6681__1_3_1_1_8_2,n6681__1_3_1_1_8_2_1
n6682__1_3_1_1_8_2,n6682__1_3_1_1_8_2_1
n6687__1_3_1_1_8_2,n6687__1_3_1_1_8_2_1
n6687__1_3_1_1_8_2_1_1,n6687__1_3_1_1_8_2_1_1_1
n6687__1_3_1_1_8_2_1_2,n6687__1_3_1_1_8_2_1_2_1
n6690__1_3_1_1_8_2,n6690__1_3_1_1_8_2_1
n6690__1_3_1_1_8_2_1_1,n6690__1_3_1_1_8_2_1_1_1
n6690__1_3_1_1_8_2_1_2,n6690__1_3_1_1_8_2_1_2_1
n6690__1_3_1_1_8_2_1_3,n6690__1_3_1_1_8_2_1_3_1
n6696__1_3_1_1_8_2,n6696__1_3_1_1_8_2_1
n6696__1_3_1_1_8_2_1_3,n6696__1_3_1_1_8_2_1_3_1
n6700__1_3_1_1_8_2,n6700__1_3_1_1_8_2_1
n6700__1_3_1_1_8_2_1_1,n6700__1_3_1_1_8_2_1_1_1
n6705__1_3_1_1_8_2,n6705__1_3_1_1_8_2_1
n6705__1_3_1_1_8_2_1_4,n6705__1_3_1_1_8_2_1_4_1
n6710__1_3_1_1_8_2,n6710__1_3_1_1_8_2_1
n6710__1_3_1_1_8_2_1_1,n6710__1_3_1_1_8_2_1_1_1
n6711__1_3_1_1_8_2,n6711__1_3_1_1_8_2_1
n6717__1_3_1_1_8_2,n6717__1_3_1_1_8_2_1
n6717__1_3_1_1_8_2_1_3,n6717__1_3_1_1_8_2_1_3_1
n6718__1_3_1_1_8_2,n6718__1_3_1_1_8_2_1
n6720__1_3_1_1_8_2,n6720__1_3_1_1_8_2_1
n6724__1_3_1_1_8_2,n6724__1_3_1_1_8_2_1
n6724__1_3_1_1_8_2_1_1,n6724__1_3_1_1_8_2_1_1_1
n6732__1_3_1_1_8_2,n6732__1_3_1_1_8_2_1
n6736__1_3_1_1_8_2,n6736__1_3_1_1_8_2_1
n6736__1_3_1_1_8_2_1_2,n6736__1_3_1_1_8_2_1_2_1
n6738__1_3_1_1_8_2,n6738__1_3_1_1_8_2_1
n6738__1_3_1_1_8_2_1_1,n6738__1_3_1_1_8_2_1_1_1
n6745__1_3_1_1_8_2,n6745__1_3_1_1_8_2_1
n6749__1_3_1_1_8_2,n6749__1_3_1_1_8_2_1
n6750__1_3_1_1_8_2,n6750__1_3_1_1_8_2_1
n6752__1_3_1_1_8_2,n6752__1_3_1_1_8_2_1
n6757__1_3_1_1_8_2,n6757__1_3_1_1_8_2_1
n6757__1_3_1_1_8_2_1_1,n6757__1_3_1_1_8_2_1_1_1
n6757__1_3_1_1_8_2_1_2,n6757__1_3_1_1_8_2_1_2_1
n6761__1_3_1_1_8_2,n6761__1_3_1_1_8_2_1
n6761__1_3_1_1_8_2_1_1,n6761__1_3_1_1_8_2_1_1_1
n6762__1_3_1_1_8_2,n6762__1_3_1_1_8_2_1
n6762__1_3_1_1_8_2_1_2,n6762__1_3_1_1_8_2_1_2_1
n6768__1_3_1_1_8_2,n6768__1_3_1_1_8_2_1
n6770__1_3_1_1_8_2,n6770__1_3_1_1_8_2_1
n6776__1_3_1_1_8_2,n6776__1_3_1_1_8_2_1
n6776__1_3_1_1_8_2_1_2,n6776__1_3_1_1_8_2_1_2_1
n6787__1_3_1_1_8_2,n6787__1_3_1_1_8_2_1
n6788__1_3_1_1_8_2,n6788__1_3_1_1_8_2_1
n6788__1_3_1_1_8_2_1_1,n6788__1_3_1_1_8_2_1_1_1
n6792__1_3_1_1_8_2,n6792__1_3_1_1_8_2_1
n6795__1_3_1_1_8_2,n6795__1_3_1_1_8_2_1
n6795__1_3_1_1_8_2_1_2,n6795__1_3_1_1_8_2_1_2_1
n6799__1_3_1_1_8_2,n6799__1_3_1_1_8_2_1
n6800__1_3_1_1_8_2,n6800__1_3_1_1_8_2_1
n6800__1_3_1_1_8_2_1_3,n6800__1_3_1_1_8_2_1_3_1
n6802__1_3_1_1_8_2,n6802__1_3_1_1_8_2_1
n6808__1_3_1_1_8_2,n6808__1_3_1_1_8_2_1
n6808__1_3_1_1_8_2_1_3,n6808__1_3_1_1_8_2_1_3_1
n6811__1_3_1_1_8_2,n6811__1_3_1_1_8_2_1
n6816__1_3_1_1_8_2,n6816__1_3_1_1_8_2_1
n6817__1_3_1_1_8_2,n6817__1_3_1_1_8_2_1
n6819__1_3_1_1_8_2,n6819__1_3_1_1_8_2_1
n6823__1_3_1_1_8_2,n6823__1_3_1_1_8_2_1
n6823__1_3_1_1_8_2_1_1,n6823__1_3_1_1_8_2_1_1_1
n6823__1_3_1_1_8_2_1_2,n6823__1_3_1_1_8_2_1_2_1
n6826__1_3_1_1_8_2,n6826__1_3_1_1_8_2_1
n6826__1_3_1_1_8_2_1_1,n6826__1_3_1_1_8_2_1_1_1
n6838__1_3_1_1_8_2,n6838__1_3_1_1_8_2_1
n6838__1_3_1_1_8_2_1_1,n6838__1_3_1_1_8_2_1_1_1
n6838__1_3_1_1_8_2_1_2,n6838__1_3_1_1_8_2_1_2_1
n6841__1_3_1_1_8_2,n6841__1_3_1_1_8_2_1
n6841__1_3_1_1_8_2_1_1,n6841__1_3_1_1_8_2_1_1_1
n6841__1_3_1_1_8_2_1_2,n6841__1_3_1_1_8_2_1_2_1
n6845__1_3_1_1_8_2,n6845__1_3_1_1_8_2_1
n6851__1_3_1_1_8_2,n6851__1_3_1_1_8_2_1
n6853__1_3_1_1_8_2,n6853__1_3_1_1_8_2_1
n6854__1_3_1_1_8_2,n6854__1_3_1_1_8_2_1
n6856__1_3_1_1_8_2,n6856__1_3_1_1_8_2_1
n6856__1_3_1_1_8_2_1_1,n6856__1_3_1_1_8_2_1_1_1
n6864__1_3_1_1_8_2,n6864__1_3_1_1_8_2_1
n6864__1_3_1_1_8_2_1_3,n6864__1_3_1_1_8_2_1_3_1
n6867__1_3_1_1_8_2,n6867__1_3_1_1_8_2_1
n6867__1_3_1_1_8_2_1_1,n6867__1_3_1_1_8_2_1_1_1
n6869__1_3_1_1_8_2,n6869__1_3_1_1_8_2_1
n6870__1_3_1_1_8_2,n6870__1_3_1_1_8_2_1
n6872__1_3_1_1_8_2,n6872__1_3_1_1_8_2_1
n6874__1_3_1_1_8_2,n6874__1_3_1_1_8_2_1
n6874__1_3_1_1_8_2_1_2,n6874__1_3_1_1_8_2_1_2_1
n6875__1_3_1_1_8_2,n6875__1_3_1_1_8_2_1
n6878__1_3_1_1_8_2,n6878__1_3_1_1_8_2_1
n6878__1_3_1_1_8_2_1_2,n6878__1_3_1_1_8_2_1_2_1
n6882__1_3_1_1_8_2,n6882__1_3_1_1_8_2_1
n6882__1_3_1_1_8_2_1_2,n6882__1_3_1_1_8_2_1_2_1
n6889__1_3_1_1_8_2,n6889__1_3_1_1_8_2_1
n6889__1_3_1_1_8_2_1_3,n6889__1_3_1_1_8_2_1_3_1
n6890__1_3_1_1_8_2,n6890__1_3_1_1_8_2_1
n6896__1_3_1_1_8_2,n6896__1_3_1_1_8_2_1
n6896__1_3_1_1_8_2_1_1,n6896__1_3_1_1_8_2_1_1_1
n6901__1_3_1_1_8_2,n6901__1_3_1_1_8_2_1
n6901__1_3_1_1_8_2_1_2,n6901__1_3_1_1_8_2_1_2_1
n6904__1_3_1_1_8_2,n6904__1_3_1_1_8_2_1
n6904__1_3_1_1_8_2_1_1,n6904__1_3_1_1_8_2_1_1_1
n6906__1_3_1_1_8_2,n6906__1_3_1_1_8_2_1
n6906__1_3_1_1_8_2_1_2,n6906__1_3_1_1_8_2_1_2_1
n6908__1_3_1_1_8_2,n6908__1_3_1_1_8_2_1
n6910__1_3_1_1_8_2,n6910__1_3_1_1_8_2_1
n6915__1_3_1_1_8_2,n6915__1_3_1_1_8_2_1
n6915__1_3_1_1_8_2_1_2,n6915__1_3_1_1_8_2_1_2_1
n6917__1_3_1_1_8_2,n6917__1_3_1_1_8_2_1
n6917__1_3_1_1_8_2_1_3,n6917__1_3_1_1_8_2_1_3_1
n6921__1_3_1_1_8_2,n6921__1_3_1_1_8_2_1
n6921__1_3_1_1_8_2_1_4,n6921__1_3_1_1_8_2_1_4_1
n6922__1_3_1_1_8_2,n6922__1_3_1_1_8_2_1
n6924__1_3_1_1_8_2,n6924__1_3_1_1_8_2_1
n6924__1_3_1_1_8_2_1_1,n6924__1_3_1_1_8_2_1_1_1
n6931__1_3_1_1_8_2,n6931__1_3_1_1_8_2_1
n6937__1_3_1_1_8_2,n6937__1_3_1_1_8_2_1
n6938__1_3_1_1_8_2,n6938__1_3_1_1_8_2_1
n6942__1_3_1_1_8_2,n6942__1_3_1_1_8_2_1
n6943__1_3_1_1_8_2,n6943__1_3_1_1_8_2_1
n6944__1_3_1_1_8_2,n6944__1_3_1_1_8_2_1
n6946__1_3_1_1_8_2,n6946__1_3_1_1_8_2_1
n6947__1_3_1_1_8_2,n6947__1_3_1_1_8_2_1
n6951__1_3_1_1_8_2,n6951__1_3_1_1_8_2_1
n6953__1_3_1_1_8_2,n6953__1_3_1_1_8_2_1
n6954__1_3_1_1_8_2,n6954__1_3_1_1_8_2_1
n6964__1_3_1_1_8_2,n6964__1_3_1_1_8_2_1
n6965__1_3_1_1_8_2,n6965__1_3_1_1_8_2_1
n6969__1_3_1_1_8_2,n6969__1_3_1_1_8_2_1
n6969__1_3_1_1_8_2_1_2,n6969__1_3_1_1_8_2_1_2_1
n6974__1_3_1_1_8_2,n6974__1_3_1_1_8_2_1
n6977__1_3_1_1_8_2,n6977__1_3_1_1_8_2_1
n6990__1_3_1_1_8_2,n6990__1_3_1_1_8_2_1
n6991__1_3_1_1_8_2,n6991__1_3_1_1_8_2_1
n6992__1_3_1_1_8_2,n6992__1_3_1_1_8_2_1
n6993__1_3_1_1_8_2,n6993__1_3_1_1_8_2_1
n6994__1_3_1_1_8_2,n6994__1_3_1_1_8_2_1
n6995__1_3_1_1_8_2,n6995__1_3_1_1_8_2_1
n6996__1_3_1_1_8_2,n6996__1_3_1_1_8_2_1
n6996__1_3_1_1_8_2_1_2,n6996__1_3_1_1_8_2_1_2_1
n6997__1_3_1_1_8_2,n6997__1_3_1_1_8_2_1
n6999__1_3_1_1_8_2,n6999__1_3_1_1_8_2_1
n7000__1_3_1_1_8_2,n7000__1_3_1_1_8_2_1
n7002__1_3_1_1_8_2,n7002__1_3_1_1_8_2_1
n7002__1_3_1_1_8_2_1_3,n7002__1_3_1_1_8_2_1_3_1
n7003__1_3_1_1_8_2,n7003__1_3_1_1_8_2_1
n7004__1_3_1_1_8_2,n7004__1_3_1_1_8_2_1
n7004__1_3_1_1_8_2_1_2,n7004__1_3_1_1_8_2_1_2_1
n7005__1_3_1_1_8_2,n7005__1_3_1_1_8_2_1
n7006__1_3_1_1_8_2,n7006__1_3_1_1_8_2_1
n7012__1_3_1_1_8_2,n7012__1_3_1_1_8_2_1
n7012__1_3_1_1_8_2_1_1,n7012__1_3_1_1_8_2_1_1_1
n7012__1_3_1_1_8_2_1_2,n7012__1_3_1_1_8_2_1_2_1
n7012__1_3_1_1_8_2_1_3,n7012__1_3_1_1_8_2_1_3_1
n7014__1_3_1_1_8_2,n7014__1_3_1_1_8_2_1
n7014__1_3_1_1_8_2_1_2,n7014__1_3_1_1_8_2_1_2_1
n7017__1_3_1_1_8_2,n7017__1_3_1_1_8_2_1
n7017__1_3_1_1_8_2_1_2,n7017__1_3_1_1_8_2_1_2_1
n7017__1_3_1_1_8_2_1_3,n7017__1_3_1_1_8_2_1_3_1
n7029__1_3_1_1_8_2,n7029__1_3_1_1_8_2_1
n7031__1_3_1_1_8_2,n7031__1_3_1_1_8_2_1
n7031__1_3_1_1_8_2_1_1,n7031__1_3_1_1_8_2_1_1_1
n7033__1_3_1_1_8_2,n7033__1_3_1_1_8_2_1
n7035__1_3_1_1_8_2,n7035__1_3_1_1_8_2_1
n7036__1_3_1_1_8_2,n7036__1_3_1_1_8_2_1
n7036__1_3_1_1_8_2_1_1,n7036__1_3_1_1_8_2_1_1_1
n7039__1_3_1_1_8_2,n7039__1_3_1_1_8_2_1
n7039__1_3_1_1_8_2_1_1,n7039__1_3_1_1_8_2_1_1_1
n7039__1_3_1_1_8_2_1_2,n7039__1_3_1_1_8_2_1_2_1
n7043__1_3_1_1_8_2,n7043__1_3_1_1_8_2_1
n7044__1_3_1_1_8_2,n7044__1_3_1_1_8_2_1
n7055__1_3_1_1_8_2,n7055__1_3_1_1_8_2_1
n7056__1_3_1_1_8_2,n7056__1_3_1_1_8_2_1
n7056__1_3_1_1_8_2_1_1,n7056__1_3_1_1_8_2_1_1_1
n7057__1_3_1_1_8_2,n7057__1_3_1_1_8_2_1
n7057__1_3_1_1_8_2_1_1,n7057__1_3_1_1_8_2_1_1_1
n7062__1_3_1_1_8_2,n7062__1_3_1_1_8_2_1
n7062__1_3_1_1_8_2_1_1,n7062__1_3_1_1_8_2_1_1_1
n7062__1_3_1_1_8_2_1_2,n7062__1_3_1_1_8_2_1_2_1
n7066__1_3_1_1_8_2,n7066__1_3_1_1_8_2_1
n7066__1_3_1_1_8_2_1_1,n7066__1_3_1_1_8_2_1_1_1
n7066__1_3_1_1_8_2_1_2,n7066__1_3_1_1_8_2_1_2_1
n7069__1_3_1_1_8_2,n7069__1_3_1_1_8_2_1
n7069__1_3_1_1_8_2_1_2,n7069__1_3_1_1_8_2_1_2_1
n7075__1_3_1_1_8_2,n7075__1_3_1_1_8_2_1
n7075__1_3_1_1_8_2_1_2,n7075__1_3_1_1_8_2_1_2_1
n7076__1_3_1_1_8_2,n7076__1_3_1_1_8_2_1
n7077__1_3_1_1_8_2,n7077__1_3_1_1_8_2_1
n7079__1_3_1_1_8_2,n7079__1_3_1_1_8_2_1
n7081__1_3_1_1_8_2,n7081__1_3_1_1_8_2_1
n7090__1_3_1_1_8_2,n7090__1_3_1_1_8_2_1
n7091__1_3_1_1_8_2,n7091__1_3_1_1_8_2_1
n7091__1_3_1_1_8_2_1_1,n7091__1_3_1_1_8_2_1_1_1
n7091__1_3_1_1_8_2_1_3,n7091__1_3_1_1_8_2_1_3_1
n7092__1_3_1_1_8_2,n7092__1_3_1_1_8_2_1
n7092__1_3_1_1_8_2_1_3,n7092__1_3_1_1_8_2_1_3_1
n7096__1_3_1_1_8_2,n7096__1_3_1_1_8_2_1
n7099__1_3_1_1_8_2,n7099__1_3_1_1_8_2_1
n7100__1_3_1_1_8_2,n7100__1_3_1_1_8_2_1
