n5__1_3_1,n5__1_3_1_1
n6__1_3_1,n6__1_3_1_1
n9__1_3_1,n9__1_3_1_1
n10__1_3_1,n10__1_3_1_1
n18__1_3_1,n18__1_3_1_1
n20__1_3_1,n20__1_3_1_1
n21__1_3_1,n21__1_3_1_1
n23__1_3_1,n23__1_3_1_1
n25__1_3_1,n25__1_3_1_1
n28__1_3_1,n28__1_3_1_1
n30__1_3_1,n30__1_3_1_1
n31__1_3_1,n31__1_3_1_1
n32__1_3_1,n32__1_3_1_1
n34__1_3_1,n34__1_3_1_1
n36__1_3_1,n36__1_3_1_1
n37__1_3_1,n37__1_3_1_1
n39__1_3_1,n39__1_3_1_1
n40__1_3_1,n40__1_3_1_1
n41__1_3_1,n41__1_3_1_1
n42__1_3_1,n42__1_3_1_1
n43__1_3_1,n43__1_3_1_1
n45__1_3_1,n45__1_3_1_1
n47__1_3_1,n47__1_3_1_1
n48__1_3_1,n48__1_3_1_1
n49__1_3_1,n49__1_3_1_1
n51__1_3_1,n51__1_3_1_1
n54__1_3_1,n54__1_3_1_1
n55__1_3_1,n55__1_3_1_1
