n6126__1_3_1,n6126__1_3_1_1
n6132__1_3_1,n6132__1_3_1_1
n6137__1_3_1,n6137__1_3_1_1
n6138__1_3_1,n6138__1_3_1_1
n6142__1_3_1,n6142__1_3_1_1
n6151__1_3_1,n6151__1_3_1_1
n6153__1_3_1,n6153__1_3_1_1
n6164__1_3_1,n6164__1_3_1_1
n6170__1_3_1,n6170__1_3_1_1
n6174__1_3_1,n6174__1_3_1_1
n6183__1_3_1,n6183__1_3_1_1
n6184__1_3_1,n6184__1_3_1_1
n6185__1_3_1,n6185__1_3_1_1
n6198__1_3_1,n6198__1_3_1_1
n6200__1_3_1,n6200__1_3_1_1
n6206__1_3_1,n6206__1_3_1_1
n6210__1_3_1,n6210__1_3_1_1
n6215__1_3_1,n6215__1_3_1_1
n6223__1_3_1,n6223__1_3_1_1
n6225__1_3_1,n6225__1_3_1_1
n6228__1_3_1,n6228__1_3_1_1
n6229__1_3_1,n6229__1_3_1_1
n6236__1_3_1,n6236__1_3_1_1
n6245__1_3_1,n6245__1_3_1_1
n6248__1_3_1,n6248__1_3_1_1
n6254__1_3_1,n6254__1_3_1_1
n6255__1_3_1,n6255__1_3_1_1
n6257__1_3_1,n6257__1_3_1_1
n6260__1_3_1,n6260__1_3_1_1
n6264__1_3_1,n6264__1_3_1_1
n6265__1_3_1,n6265__1_3_1_1
n6268__1_3_1,n6268__1_3_1_1
n6270__1_3_1,n6270__1_3_1_1
n6271__1_3_1,n6271__1_3_1_1
n6272__1_3_1,n6272__1_3_1_1
n6276__1_3_1,n6276__1_3_1_1
n6290__1_3_1,n6290__1_3_1_1
n6295__1_3_1,n6295__1_3_1_1
n6314__1_3_1,n6314__1_3_1_1
n6316__1_3_1,n6316__1_3_1_1
n6318__1_3_1,n6318__1_3_1_1
n6330__1_3_1,n6330__1_3_1_1
n6331__1_3_1,n6331__1_3_1_1
n6338__1_3_1,n6338__1_3_1_1
n6344__1_3_1,n6344__1_3_1_1
n6354__1_3_1,n6354__1_3_1_1
n6356__1_3_1,n6356__1_3_1_1
n6359__1_3_1,n6359__1_3_1_1
n6377__1_3_1,n6377__1_3_1_1
n6382__1_3_1,n6382__1_3_1_1
n6388__1_3_1,n6388__1_3_1_1
n6389__1_3_1,n6389__1_3_1_1
n6392__1_3_1,n6392__1_3_1_1
n6403__1_3_1,n6403__1_3_1_1
n6412__1_3_1,n6412__1_3_1_1
n6419__1_3_1,n6419__1_3_1_1
n6421__1_3_1,n6421__1_3_1_1
n6426__1_3_1,n6426__1_3_1_1
n6428__1_3_1,n6428__1_3_1_1
n6433__1_3_1,n6433__1_3_1_1
n6435__1_3_1,n6435__1_3_1_1
n6437__1_3_1,n6437__1_3_1_1
n6444__1_3_1,n6444__1_3_1_1
n6448__1_3_1,n6448__1_3_1_1
n6450__1_3_1,n6450__1_3_1_1
n6455__1_3_1,n6455__1_3_1_1
n6458__1_3_1,n6458__1_3_1_1
n6462__1_3_1,n6462__1_3_1_1
n6463__1_3_1,n6463__1_3_1_1
n6465__1_3_1,n6465__1_3_1_1
n6469__1_3_1,n6469__1_3_1_1
n6475__1_3_1,n6475__1_3_1_1
n6476__1_3_1,n6476__1_3_1_1
n6477__1_3_1,n6477__1_3_1_1
n6481__1_3_1,n6481__1_3_1_1
n6494__1_3_1,n6494__1_3_1_1
n6495__1_3_1,n6495__1_3_1_1
n6496__1_3_1,n6496__1_3_1_1
n6501__1_3_1,n6501__1_3_1_1
n6508__1_3_1,n6508__1_3_1_1
n6511__1_3_1,n6511__1_3_1_1
n6512__1_3_1,n6512__1_3_1_1
n6513__1_3_1,n6513__1_3_1_1
n6518__1_3_1,n6518__1_3_1_1
n6520__1_3_1,n6520__1_3_1_1
n6521__1_3_1,n6521__1_3_1_1
n6522__1_3_1,n6522__1_3_1_1
n6524__1_3_1,n6524__1_3_1_1
n6525__1_3_1,n6525__1_3_1_1
n6538__1_3_1,n6538__1_3_1_1
n6540__1_3_1,n6540__1_3_1_1
n6542__1_3_1,n6542__1_3_1_1
n6549__1_3_1,n6549__1_3_1_1
n6550__1_3_1,n6550__1_3_1_1
n6574__1_3_1,n6574__1_3_1_1
n6578__1_3_1,n6578__1_3_1_1
n6580__1_3_1,n6580__1_3_1_1
n6582__1_3_1,n6582__1_3_1_1
n6584__1_3_1,n6584__1_3_1_1
n6585__1_3_1,n6585__1_3_1_1
n6606__1_3_1,n6606__1_3_1_1
n6612__1_3_1,n6612__1_3_1_1
n6623__1_3_1,n6623__1_3_1_1
n6634__1_3_1,n6634__1_3_1_1
n6642__1_3_1,n6642__1_3_1_1
n6644__1_3_1,n6644__1_3_1_1
n6646__1_3_1,n6646__1_3_1_1
n6655__1_3_1,n6655__1_3_1_1
n6656__1_3_1,n6656__1_3_1_1
n6657__1_3_1,n6657__1_3_1_1
n6659__1_3_1,n6659__1_3_1_1
n6673__1_3_1,n6673__1_3_1_1
n6675__1_3_1,n6675__1_3_1_1
n6681__1_3_1,n6681__1_3_1_1
n6686__1_3_1,n6686__1_3_1_1
n6691__1_3_1,n6691__1_3_1_1
n6692__1_3_1,n6692__1_3_1_1
n6700__1_3_1,n6700__1_3_1_1
n6706__1_3_1,n6706__1_3_1_1
n6731__1_3_1,n6731__1_3_1_1
n6734__1_3_1,n6734__1_3_1_1
n6747__1_3_1,n6747__1_3_1_1
n6750__1_3_1,n6750__1_3_1_1
n6753__1_3_1,n6753__1_3_1_1
n6780__1_3_1,n6780__1_3_1_1
n6781__1_3_1,n6781__1_3_1_1
n6782__1_3_1,n6782__1_3_1_1
n6783__1_3_1,n6783__1_3_1_1
n6786__1_3_1,n6786__1_3_1_1
n6801__1_3_1,n6801__1_3_1_1
n6809__1_3_1,n6809__1_3_1_1
n6815__1_3_1,n6815__1_3_1_1
n6816__1_3_1,n6816__1_3_1_1
n6818__1_3_1,n6818__1_3_1_1
n6822__1_3_1,n6822__1_3_1_1
n6826__1_3_1,n6826__1_3_1_1
n6829__1_3_1,n6829__1_3_1_1
n6832__1_3_1,n6832__1_3_1_1
n6835__1_3_1,n6835__1_3_1_1
n6836__1_3_1,n6836__1_3_1_1
n6855__1_3_1,n6855__1_3_1_1
n6861__1_3_1,n6861__1_3_1_1
n6863__1_3_1,n6863__1_3_1_1
n6865__1_3_1,n6865__1_3_1_1
n6866__1_3_1,n6866__1_3_1_1
n6877__1_3_1,n6877__1_3_1_1
n6879__1_3_1,n6879__1_3_1_1
n6884__1_3_1,n6884__1_3_1_1
n6892__1_3_1,n6892__1_3_1_1
n6895__1_3_1,n6895__1_3_1_1
n6898__1_3_1,n6898__1_3_1_1
n6903__1_3_1,n6903__1_3_1_1
n6904__1_3_1,n6904__1_3_1_1
n6917__1_3_1,n6917__1_3_1_1
n6922__1_3_1,n6922__1_3_1_1
n6926__1_3_1,n6926__1_3_1_1
n6933__1_3_1,n6933__1_3_1_1
n6934__1_3_1,n6934__1_3_1_1
n6938__1_3_1,n6938__1_3_1_1
n6939__1_3_1,n6939__1_3_1_1
n6946__1_3_1,n6946__1_3_1_1
n6955__1_3_1,n6955__1_3_1_1
n6963__1_3_1,n6963__1_3_1_1
n6987__1_3_1,n6987__1_3_1_1
n6994__1_3_1,n6994__1_3_1_1
n6996__1_3_1,n6996__1_3_1_1
n7000__1_3_1,n7000__1_3_1_1
n7006__1_3_1,n7006__1_3_1_1
n7007__1_3_1,n7007__1_3_1_1
n7013__1_3_1,n7013__1_3_1_1
n7020__1_3_1,n7020__1_3_1_1
n7031__1_3_1,n7031__1_3_1_1
n7035__1_3_1,n7035__1_3_1_1
n7037__1_3_1,n7037__1_3_1_1
n7040__1_3_1,n7040__1_3_1_1
n7044__1_3_1,n7044__1_3_1_1
n7050__1_3_1,n7050__1_3_1_1
n7054__1_3_1,n7054__1_3_1_1
n7058__1_3_1,n7058__1_3_1_1
n7059__1_3_1,n7059__1_3_1_1
n7060__1_3_1,n7060__1_3_1_1
n7062__1_3_1,n7062__1_3_1_1
n7068__1_3_1,n7068__1_3_1_1
n7071__1_3_1,n7071__1_3_1_1
n7074__1_3_1,n7074__1_3_1_1
n7080__1_3_1,n7080__1_3_1_1
n7090__1_3_1,n7090__1_3_1_1
n7099__1_3_1,n7099__1_3_1_1
