n2377__1_3_1,n2377__1_3_1_1
n2380__1_3_1,n2380__1_3_1_1
n2381__1_3_1,n2381__1_3_1_1
n2384__1_3_1,n2384__1_3_1_1
n2391__1_3_1,n2391__1_3_1_1
n2395__1_3_1,n2395__1_3_1_1
n2396__1_3_1,n2396__1_3_1_1
n2400__1_3_1,n2400__1_3_1_1
n2401__1_3_1,n2401__1_3_1_1
n2402__1_3_1,n2402__1_3_1_1
n2403__1_3_1,n2403__1_3_1_1
n2409__1_3_1,n2409__1_3_1_1
n2410__1_3_1,n2410__1_3_1_1
n2412__1_3_1,n2412__1_3_1_1
n2413__1_3_1,n2413__1_3_1_1
n2415__1_3_1,n2415__1_3_1_1
n2416__1_3_1,n2416__1_3_1_1
n2418__1_3_1,n2418__1_3_1_1
n2421__1_3_1,n2421__1_3_1_1
n2423__1_3_1,n2423__1_3_1_1
n2426__1_3_1,n2426__1_3_1_1
n2427__1_3_1,n2427__1_3_1_1
n2428__1_3_1,n2428__1_3_1_1
n2432__1_3_1,n2432__1_3_1_1
n2434__1_3_1,n2434__1_3_1_1
n2441__1_3_1,n2441__1_3_1_1
n2442__1_3_1,n2442__1_3_1_1
n2445__1_3_1,n2445__1_3_1_1
n2447__1_3_1,n2447__1_3_1_1
n2449__1_3_1,n2449__1_3_1_1
n2450__1_3_1,n2450__1_3_1_1
n2451__1_3_1,n2451__1_3_1_1
n2452__1_3_1,n2452__1_3_1_1
n2453__1_3_1,n2453__1_3_1_1
n2455__1_3_1,n2455__1_3_1_1
n2456__1_3_1,n2456__1_3_1_1
n2458__1_3_1,n2458__1_3_1_1
n2459__1_3_1,n2459__1_3_1_1
n2461__1_3_1,n2461__1_3_1_1
n2462__1_3_1,n2462__1_3_1_1
n2466__1_3_1,n2466__1_3_1_1
n2468__1_3_1,n2468__1_3_1_1
n2470__1_3_1,n2470__1_3_1_1
n2471__1_3_1,n2471__1_3_1_1
n2472__1_3_1,n2472__1_3_1_1
n2473__1_3_1,n2473__1_3_1_1
n2474__1_3_1,n2474__1_3_1_1
n2478__1_3_1,n2478__1_3_1_1
n2479__1_3_1,n2479__1_3_1_1
n2481__1_3_1,n2481__1_3_1_1
n2482__1_3_1,n2482__1_3_1_1
n2483__1_3_1,n2483__1_3_1_1
n2484__1_3_1,n2484__1_3_1_1
n2485__1_3_1,n2485__1_3_1_1
n2486__1_3_1,n2486__1_3_1_1
n2488__1_3_1,n2488__1_3_1_1
n2489__1_3_1,n2489__1_3_1_1
n2490__1_3_1,n2490__1_3_1_1
n2493__1_3_1,n2493__1_3_1_1
n2494__1_3_1,n2494__1_3_1_1
n2498__1_3_1,n2498__1_3_1_1
n2500__1_3_1,n2500__1_3_1_1
n2502__1_3_1,n2502__1_3_1_1
n2503__1_3_1,n2503__1_3_1_1
n2504__1_3_1,n2504__1_3_1_1
n2506__1_3_1,n2506__1_3_1_1
n2507__1_3_1,n2507__1_3_1_1
n2510__1_3_1,n2510__1_3_1_1
n2511__1_3_1,n2511__1_3_1_1
n2513__1_3_1,n2513__1_3_1_1
n2514__1_3_1,n2514__1_3_1_1
n2515__1_3_1,n2515__1_3_1_1
n2516__1_3_1,n2516__1_3_1_1
n2517__1_3_1,n2517__1_3_1_1
n2518__1_3_1,n2518__1_3_1_1
n2520__1_3_1,n2520__1_3_1_1
n2521__1_3_1,n2521__1_3_1_1
n2522__1_3_1,n2522__1_3_1_1
n2525__1_3_1,n2525__1_3_1_1
n2526__1_3_1,n2526__1_3_1_1
n2527__1_3_1,n2527__1_3_1_1
n2532__1_3_1,n2532__1_3_1_1
n2533__1_3_1,n2533__1_3_1_1
n2534__1_3_1,n2534__1_3_1_1
n2535__1_3_1,n2535__1_3_1_1
n2536__1_3_1,n2536__1_3_1_1
n2539__1_3_1,n2539__1_3_1_1
n2542__1_3_1,n2542__1_3_1_1
n2545__1_3_1,n2545__1_3_1_1
n2547__1_3_1,n2547__1_3_1_1
n2548__1_3_1,n2548__1_3_1_1
n2550__1_3_1,n2550__1_3_1_1
n2552__1_3_1,n2552__1_3_1_1
n2553__1_3_1,n2553__1_3_1_1
n2557__1_3_1,n2557__1_3_1_1
n2558__1_3_1,n2558__1_3_1_1
n2559__1_3_1,n2559__1_3_1_1
n2561__1_3_1,n2561__1_3_1_1
n2563__1_3_1,n2563__1_3_1_1
n2564__1_3_1,n2564__1_3_1_1
n2565__1_3_1,n2565__1_3_1_1
n2566__1_3_1,n2566__1_3_1_1
n2567__1_3_1,n2567__1_3_1_1
n2568__1_3_1,n2568__1_3_1_1
n2571__1_3_1,n2571__1_3_1_1
n2572__1_3_1,n2572__1_3_1_1
n2574__1_3_1,n2574__1_3_1_1
n2576__1_3_1,n2576__1_3_1_1
n2582__1_3_1,n2582__1_3_1_1
n2585__1_3_1,n2585__1_3_1_1
n2588__1_3_1,n2588__1_3_1_1
n2591__1_3_1,n2591__1_3_1_1
n2592__1_3_1,n2592__1_3_1_1
n2593__1_3_1,n2593__1_3_1_1
n2595__1_3_1,n2595__1_3_1_1
n2597__1_3_1,n2597__1_3_1_1
n2603__1_3_1,n2603__1_3_1_1
n2604__1_3_1,n2604__1_3_1_1
n2605__1_3_1,n2605__1_3_1_1
n2608__1_3_1,n2608__1_3_1_1
n2615__1_3_1,n2615__1_3_1_1
n2619__1_3_1,n2619__1_3_1_1
n2620__1_3_1,n2620__1_3_1_1
n2623__1_3_1,n2623__1_3_1_1
n2624__1_3_1,n2624__1_3_1_1
n2625__1_3_1,n2625__1_3_1_1
n2627__1_3_1,n2627__1_3_1_1
n2629__1_3_1,n2629__1_3_1_1
n2633__1_3_1,n2633__1_3_1_1
n2636__1_3_1,n2636__1_3_1_1
n2637__1_3_1,n2637__1_3_1_1
n2640__1_3_1,n2640__1_3_1_1
n2647__1_3_1,n2647__1_3_1_1
n2651__1_3_1,n2651__1_3_1_1
n2652__1_3_1,n2652__1_3_1_1
n2656__1_3_1,n2656__1_3_1_1
n2657__1_3_1,n2657__1_3_1_1
n2658__1_3_1,n2658__1_3_1_1
n2659__1_3_1,n2659__1_3_1_1
n2665__1_3_1,n2665__1_3_1_1
n2666__1_3_1,n2666__1_3_1_1
n2668__1_3_1,n2668__1_3_1_1
n2669__1_3_1,n2669__1_3_1_1
n2671__1_3_1,n2671__1_3_1_1
n2672__1_3_1,n2672__1_3_1_1
n2674__1_3_1,n2674__1_3_1_1
n2677__1_3_1,n2677__1_3_1_1
n2679__1_3_1,n2679__1_3_1_1
n2682__1_3_1,n2682__1_3_1_1
n2683__1_3_1,n2683__1_3_1_1
n2684__1_3_1,n2684__1_3_1_1
n2688__1_3_1,n2688__1_3_1_1
n2690__1_3_1,n2690__1_3_1_1
n2697__1_3_1,n2697__1_3_1_1
n2698__1_3_1,n2698__1_3_1_1
n2701__1_3_1,n2701__1_3_1_1
n2703__1_3_1,n2703__1_3_1_1
n2705__1_3_1,n2705__1_3_1_1
n2706__1_3_1,n2706__1_3_1_1
n2707__1_3_1,n2707__1_3_1_1
n2708__1_3_1,n2708__1_3_1_1
n2709__1_3_1,n2709__1_3_1_1
n2711__1_3_1,n2711__1_3_1_1
n2712__1_3_1,n2712__1_3_1_1
n2714__1_3_1,n2714__1_3_1_1
n2715__1_3_1,n2715__1_3_1_1
n2717__1_3_1,n2717__1_3_1_1
n2718__1_3_1,n2718__1_3_1_1
n2722__1_3_1,n2722__1_3_1_1
n2724__1_3_1,n2724__1_3_1_1
n2726__1_3_1,n2726__1_3_1_1
n2727__1_3_1,n2727__1_3_1_1
n2728__1_3_1,n2728__1_3_1_1
n2729__1_3_1,n2729__1_3_1_1
n2730__1_3_1,n2730__1_3_1_1
n2734__1_3_1,n2734__1_3_1_1
n2735__1_3_1,n2735__1_3_1_1
n2737__1_3_1,n2737__1_3_1_1
n2738__1_3_1,n2738__1_3_1_1
n2739__1_3_1,n2739__1_3_1_1
n2740__1_3_1,n2740__1_3_1_1
n2741__1_3_1,n2741__1_3_1_1
n2742__1_3_1,n2742__1_3_1_1
n2744__1_3_1,n2744__1_3_1_1
n2745__1_3_1,n2745__1_3_1_1
n2746__1_3_1,n2746__1_3_1_1
n2749__1_3_1,n2749__1_3_1_1
n2750__1_3_1,n2750__1_3_1_1
n2754__1_3_1,n2754__1_3_1_1
n2756__1_3_1,n2756__1_3_1_1
n2758__1_3_1,n2758__1_3_1_1
n2759__1_3_1,n2759__1_3_1_1
n2760__1_3_1,n2760__1_3_1_1
n2762__1_3_1,n2762__1_3_1_1
n2763__1_3_1,n2763__1_3_1_1
n2766__1_3_1,n2766__1_3_1_1
n2767__1_3_1,n2767__1_3_1_1
n2769__1_3_1,n2769__1_3_1_1
n2770__1_3_1,n2770__1_3_1_1
n2771__1_3_1,n2771__1_3_1_1
n2772__1_3_1,n2772__1_3_1_1
n2773__1_3_1,n2773__1_3_1_1
n2774__1_3_1,n2774__1_3_1_1
n2776__1_3_1,n2776__1_3_1_1
n2777__1_3_1,n2777__1_3_1_1
n2778__1_3_1,n2778__1_3_1_1
n2781__1_3_1,n2781__1_3_1_1
n2782__1_3_1,n2782__1_3_1_1
n2783__1_3_1,n2783__1_3_1_1
n2788__1_3_1,n2788__1_3_1_1
n2789__1_3_1,n2789__1_3_1_1
n2790__1_3_1,n2790__1_3_1_1
n2791__1_3_1,n2791__1_3_1_1
n2792__1_3_1,n2792__1_3_1_1
n2795__1_3_1,n2795__1_3_1_1
n2798__1_3_1,n2798__1_3_1_1
n2801__1_3_1,n2801__1_3_1_1
n2803__1_3_1,n2803__1_3_1_1
n2804__1_3_1,n2804__1_3_1_1
n2806__1_3_1,n2806__1_3_1_1
n2808__1_3_1,n2808__1_3_1_1
n2809__1_3_1,n2809__1_3_1_1
n2813__1_3_1,n2813__1_3_1_1
n2814__1_3_1,n2814__1_3_1_1
n2815__1_3_1,n2815__1_3_1_1
n2817__1_3_1,n2817__1_3_1_1
n2819__1_3_1,n2819__1_3_1_1
n2820__1_3_1,n2820__1_3_1_1
n2821__1_3_1,n2821__1_3_1_1
n2822__1_3_1,n2822__1_3_1_1
n2823__1_3_1,n2823__1_3_1_1
n2824__1_3_1,n2824__1_3_1_1
n2827__1_3_1,n2827__1_3_1_1
n2828__1_3_1,n2828__1_3_1_1
n2830__1_3_1,n2830__1_3_1_1
n2832__1_3_1,n2832__1_3_1_1
n2838__1_3_1,n2838__1_3_1_1
n2841__1_3_1,n2841__1_3_1_1
n2844__1_3_1,n2844__1_3_1_1
n2847__1_3_1,n2847__1_3_1_1
n2848__1_3_1,n2848__1_3_1_1
n2849__1_3_1,n2849__1_3_1_1
n2851__1_3_1,n2851__1_3_1_1
n2853__1_3_1,n2853__1_3_1_1
n2859__1_3_1,n2859__1_3_1_1
n2860__1_3_1,n2860__1_3_1_1
n2861__1_3_1,n2861__1_3_1_1
n2864__1_3_1,n2864__1_3_1_1
n2871__1_3_1,n2871__1_3_1_1
n2875__1_3_1,n2875__1_3_1_1
n2876__1_3_1,n2876__1_3_1_1
n2879__1_3_1,n2879__1_3_1_1
n2880__1_3_1,n2880__1_3_1_1
n2881__1_3_1,n2881__1_3_1_1
n2883__1_3_1,n2883__1_3_1_1
n2885__1_3_1,n2885__1_3_1_1
n2889__1_3_1,n2889__1_3_1_1
n2892__1_3_1,n2892__1_3_1_1
n2893__1_3_1,n2893__1_3_1_1
n2896__1_3_1,n2896__1_3_1_1
n2903__1_3_1,n2903__1_3_1_1
n2907__1_3_1,n2907__1_3_1_1
n2908__1_3_1,n2908__1_3_1_1
n2912__1_3_1,n2912__1_3_1_1
n2913__1_3_1,n2913__1_3_1_1
n2914__1_3_1,n2914__1_3_1_1
n2915__1_3_1,n2915__1_3_1_1
n2921__1_3_1,n2921__1_3_1_1
n2922__1_3_1,n2922__1_3_1_1
n2924__1_3_1,n2924__1_3_1_1
n2925__1_3_1,n2925__1_3_1_1
n2927__1_3_1,n2927__1_3_1_1
n2928__1_3_1,n2928__1_3_1_1
n2930__1_3_1,n2930__1_3_1_1
n2933__1_3_1,n2933__1_3_1_1
n2935__1_3_1,n2935__1_3_1_1
n2938__1_3_1,n2938__1_3_1_1
n2939__1_3_1,n2939__1_3_1_1
n2940__1_3_1,n2940__1_3_1_1
n2944__1_3_1,n2944__1_3_1_1
n2946__1_3_1,n2946__1_3_1_1
n2953__1_3_1,n2953__1_3_1_1
n2954__1_3_1,n2954__1_3_1_1
n2957__1_3_1,n2957__1_3_1_1
n2959__1_3_1,n2959__1_3_1_1
n2961__1_3_1,n2961__1_3_1_1
n2962__1_3_1,n2962__1_3_1_1
n2963__1_3_1,n2963__1_3_1_1
n2964__1_3_1,n2964__1_3_1_1
n2965__1_3_1,n2965__1_3_1_1
n2967__1_3_1,n2967__1_3_1_1
n2968__1_3_1,n2968__1_3_1_1
n2970__1_3_1,n2970__1_3_1_1
n2971__1_3_1,n2971__1_3_1_1
n2973__1_3_1,n2973__1_3_1_1
n2974__1_3_1,n2974__1_3_1_1
n2978__1_3_1,n2978__1_3_1_1
n2980__1_3_1,n2980__1_3_1_1
n2982__1_3_1,n2982__1_3_1_1
n2983__1_3_1,n2983__1_3_1_1
n2984__1_3_1,n2984__1_3_1_1
n2985__1_3_1,n2985__1_3_1_1
n2986__1_3_1,n2986__1_3_1_1
n2990__1_3_1,n2990__1_3_1_1
n2991__1_3_1,n2991__1_3_1_1
n2993__1_3_1,n2993__1_3_1_1
n2994__1_3_1,n2994__1_3_1_1
n2995__1_3_1,n2995__1_3_1_1
n2996__1_3_1,n2996__1_3_1_1
n2997__1_3_1,n2997__1_3_1_1
n2998__1_3_1,n2998__1_3_1_1
n3000__1_3_1,n3000__1_3_1_1
n3001__1_3_1,n3001__1_3_1_1
n3002__1_3_1,n3002__1_3_1_1
n3005__1_3_1,n3005__1_3_1_1
n3006__1_3_1,n3006__1_3_1_1
n3010__1_3_1,n3010__1_3_1_1
n3012__1_3_1,n3012__1_3_1_1
n3014__1_3_1,n3014__1_3_1_1
n3015__1_3_1,n3015__1_3_1_1
n3016__1_3_1,n3016__1_3_1_1
n3018__1_3_1,n3018__1_3_1_1
n3019__1_3_1,n3019__1_3_1_1
n3022__1_3_1,n3022__1_3_1_1
n3023__1_3_1,n3023__1_3_1_1
n3025__1_3_1,n3025__1_3_1_1
n3026__1_3_1,n3026__1_3_1_1
n3027__1_3_1,n3027__1_3_1_1
n3028__1_3_1,n3028__1_3_1_1
n3029__1_3_1,n3029__1_3_1_1
n3030__1_3_1,n3030__1_3_1_1
n3032__1_3_1,n3032__1_3_1_1
n3033__1_3_1,n3033__1_3_1_1
n3034__1_3_1,n3034__1_3_1_1
n3037__1_3_1,n3037__1_3_1_1
n3038__1_3_1,n3038__1_3_1_1
n3039__1_3_1,n3039__1_3_1_1
n3044__1_3_1,n3044__1_3_1_1
n3045__1_3_1,n3045__1_3_1_1
n3046__1_3_1,n3046__1_3_1_1
n3047__1_3_1,n3047__1_3_1_1
n3048__1_3_1,n3048__1_3_1_1
n3051__1_3_1,n3051__1_3_1_1
n3054__1_3_1,n3054__1_3_1_1
n3057__1_3_1,n3057__1_3_1_1
n3059__1_3_1,n3059__1_3_1_1
n3060__1_3_1,n3060__1_3_1_1
n3062__1_3_1,n3062__1_3_1_1
n3064__1_3_1,n3064__1_3_1_1
n3065__1_3_1,n3065__1_3_1_1
n3069__1_3_1,n3069__1_3_1_1
n3070__1_3_1,n3070__1_3_1_1
n3071__1_3_1,n3071__1_3_1_1
n3073__1_3_1,n3073__1_3_1_1
n3075__1_3_1,n3075__1_3_1_1
n3076__1_3_1,n3076__1_3_1_1
n3077__1_3_1,n3077__1_3_1_1
n3078__1_3_1,n3078__1_3_1_1
n3079__1_3_1,n3079__1_3_1_1
n3080__1_3_1,n3080__1_3_1_1
n3083__1_3_1,n3083__1_3_1_1
n3084__1_3_1,n3084__1_3_1_1
n3086__1_3_1,n3086__1_3_1_1
n3088__1_3_1,n3088__1_3_1_1
n3094__1_3_1,n3094__1_3_1_1
n3097__1_3_1,n3097__1_3_1_1
n3100__1_3_1,n3100__1_3_1_1
n3103__1_3_1,n3103__1_3_1_1
n3104__1_3_1,n3104__1_3_1_1
n3105__1_3_1,n3105__1_3_1_1
n3107__1_3_1,n3107__1_3_1_1
n3109__1_3_1,n3109__1_3_1_1
n3115__1_3_1,n3115__1_3_1_1
n3116__1_3_1,n3116__1_3_1_1
n3117__1_3_1,n3117__1_3_1_1
n3120__1_3_1,n3120__1_3_1_1
n3127__1_3_1,n3127__1_3_1_1
n3131__1_3_1,n3131__1_3_1_1
n3132__1_3_1,n3132__1_3_1_1
n3135__1_3_1,n3135__1_3_1_1
n3136__1_3_1,n3136__1_3_1_1
n3137__1_3_1,n3137__1_3_1_1
n3139__1_3_1,n3139__1_3_1_1
n3141__1_3_1,n3141__1_3_1_1
n3145__1_3_1,n3145__1_3_1_1
n3148__1_3_1,n3148__1_3_1_1
n3149__1_3_1,n3149__1_3_1_1
n3152__1_3_1,n3152__1_3_1_1
n3159__1_3_1,n3159__1_3_1_1
n3163__1_3_1,n3163__1_3_1_1
n3164__1_3_1,n3164__1_3_1_1
n3168__1_3_1,n3168__1_3_1_1
n3169__1_3_1,n3169__1_3_1_1
n3170__1_3_1,n3170__1_3_1_1
n3171__1_3_1,n3171__1_3_1_1
n3177__1_3_1,n3177__1_3_1_1
n3178__1_3_1,n3178__1_3_1_1
n3180__1_3_1,n3180__1_3_1_1
n3181__1_3_1,n3181__1_3_1_1
n3183__1_3_1,n3183__1_3_1_1
n3184__1_3_1,n3184__1_3_1_1
n3186__1_3_1,n3186__1_3_1_1
n3189__1_3_1,n3189__1_3_1_1
n3191__1_3_1,n3191__1_3_1_1
n3194__1_3_1,n3194__1_3_1_1
n3195__1_3_1,n3195__1_3_1_1
n3196__1_3_1,n3196__1_3_1_1
n3200__1_3_1,n3200__1_3_1_1
n3202__1_3_1,n3202__1_3_1_1
n3209__1_3_1,n3209__1_3_1_1
n3210__1_3_1,n3210__1_3_1_1
n3213__1_3_1,n3213__1_3_1_1
n3215__1_3_1,n3215__1_3_1_1
n3217__1_3_1,n3217__1_3_1_1
n3218__1_3_1,n3218__1_3_1_1
n3219__1_3_1,n3219__1_3_1_1
n3220__1_3_1,n3220__1_3_1_1
n3221__1_3_1,n3221__1_3_1_1
n3223__1_3_1,n3223__1_3_1_1
n3224__1_3_1,n3224__1_3_1_1
n3226__1_3_1,n3226__1_3_1_1
n3227__1_3_1,n3227__1_3_1_1
n3229__1_3_1,n3229__1_3_1_1
n3230__1_3_1,n3230__1_3_1_1
n3234__1_3_1,n3234__1_3_1_1
n3236__1_3_1,n3236__1_3_1_1
n3238__1_3_1,n3238__1_3_1_1
n3239__1_3_1,n3239__1_3_1_1
n3240__1_3_1,n3240__1_3_1_1
n3241__1_3_1,n3241__1_3_1_1
n3242__1_3_1,n3242__1_3_1_1
n3246__1_3_1,n3246__1_3_1_1
n3247__1_3_1,n3247__1_3_1_1
n3249__1_3_1,n3249__1_3_1_1
n3250__1_3_1,n3250__1_3_1_1
n3251__1_3_1,n3251__1_3_1_1
n3252__1_3_1,n3252__1_3_1_1
n3253__1_3_1,n3253__1_3_1_1
n3254__1_3_1,n3254__1_3_1_1
n3256__1_3_1,n3256__1_3_1_1
n3257__1_3_1,n3257__1_3_1_1
n3258__1_3_1,n3258__1_3_1_1
n3261__1_3_1,n3261__1_3_1_1
n3262__1_3_1,n3262__1_3_1_1
n3266__1_3_1,n3266__1_3_1_1
n3268__1_3_1,n3268__1_3_1_1
n3270__1_3_1,n3270__1_3_1_1
n3271__1_3_1,n3271__1_3_1_1
n3272__1_3_1,n3272__1_3_1_1
n3274__1_3_1,n3274__1_3_1_1
n3275__1_3_1,n3275__1_3_1_1
n3278__1_3_1,n3278__1_3_1_1
n3279__1_3_1,n3279__1_3_1_1
n3281__1_3_1,n3281__1_3_1_1
n3282__1_3_1,n3282__1_3_1_1
n3283__1_3_1,n3283__1_3_1_1
n3284__1_3_1,n3284__1_3_1_1
n3285__1_3_1,n3285__1_3_1_1
n3286__1_3_1,n3286__1_3_1_1
n3288__1_3_1,n3288__1_3_1_1
n3289__1_3_1,n3289__1_3_1_1
n3290__1_3_1,n3290__1_3_1_1
n3293__1_3_1,n3293__1_3_1_1
n3294__1_3_1,n3294__1_3_1_1
n3295__1_3_1,n3295__1_3_1_1
n3300__1_3_1,n3300__1_3_1_1
n3301__1_3_1,n3301__1_3_1_1
n3302__1_3_1,n3302__1_3_1_1
n3303__1_3_1,n3303__1_3_1_1
n3304__1_3_1,n3304__1_3_1_1
n3307__1_3_1,n3307__1_3_1_1
n3310__1_3_1,n3310__1_3_1_1
n3313__1_3_1,n3313__1_3_1_1
n3315__1_3_1,n3315__1_3_1_1
n3316__1_3_1,n3316__1_3_1_1
n3318__1_3_1,n3318__1_3_1_1
n3320__1_3_1,n3320__1_3_1_1
n3321__1_3_1,n3321__1_3_1_1
n3325__1_3_1,n3325__1_3_1_1
n3326__1_3_1,n3326__1_3_1_1
n3327__1_3_1,n3327__1_3_1_1
n3329__1_3_1,n3329__1_3_1_1
n3331__1_3_1,n3331__1_3_1_1
n3332__1_3_1,n3332__1_3_1_1
n3333__1_3_1,n3333__1_3_1_1
n3334__1_3_1,n3334__1_3_1_1
n3335__1_3_1,n3335__1_3_1_1
n3336__1_3_1,n3336__1_3_1_1
n3339__1_3_1,n3339__1_3_1_1
n3340__1_3_1,n3340__1_3_1_1
n3342__1_3_1,n3342__1_3_1_1
n3344__1_3_1,n3344__1_3_1_1
n3350__1_3_1,n3350__1_3_1_1
n3353__1_3_1,n3353__1_3_1_1
n3356__1_3_1,n3356__1_3_1_1
n3359__1_3_1,n3359__1_3_1_1
n3360__1_3_1,n3360__1_3_1_1
n3361__1_3_1,n3361__1_3_1_1
n3363__1_3_1,n3363__1_3_1_1
n3365__1_3_1,n3365__1_3_1_1
n3371__1_3_1,n3371__1_3_1_1
n3372__1_3_1,n3372__1_3_1_1
n3373__1_3_1,n3373__1_3_1_1
n3376__1_3_1,n3376__1_3_1_1
n3383__1_3_1,n3383__1_3_1_1
n3387__1_3_1,n3387__1_3_1_1
n3388__1_3_1,n3388__1_3_1_1
n3391__1_3_1,n3391__1_3_1_1
n3392__1_3_1,n3392__1_3_1_1
n3393__1_3_1,n3393__1_3_1_1
n3395__1_3_1,n3395__1_3_1_1
n3397__1_3_1,n3397__1_3_1_1
n3401__1_3_1,n3401__1_3_1_1
n3404__1_3_1,n3404__1_3_1_1
n3405__1_3_1,n3405__1_3_1_1
n3408__1_3_1,n3408__1_3_1_1
n3415__1_3_1,n3415__1_3_1_1
n3419__1_3_1,n3419__1_3_1_1
n3420__1_3_1,n3420__1_3_1_1
n3424__1_3_1,n3424__1_3_1_1
n3425__1_3_1,n3425__1_3_1_1
n3426__1_3_1,n3426__1_3_1_1
n3427__1_3_1,n3427__1_3_1_1
n3433__1_3_1,n3433__1_3_1_1
n3434__1_3_1,n3434__1_3_1_1
n3436__1_3_1,n3436__1_3_1_1
n3437__1_3_1,n3437__1_3_1_1
n3439__1_3_1,n3439__1_3_1_1
n3440__1_3_1,n3440__1_3_1_1
n3442__1_3_1,n3442__1_3_1_1
n3445__1_3_1,n3445__1_3_1_1
n3447__1_3_1,n3447__1_3_1_1
n3450__1_3_1,n3450__1_3_1_1
n3451__1_3_1,n3451__1_3_1_1
n3452__1_3_1,n3452__1_3_1_1
n3456__1_3_1,n3456__1_3_1_1
n3458__1_3_1,n3458__1_3_1_1
n3465__1_3_1,n3465__1_3_1_1
n3466__1_3_1,n3466__1_3_1_1
n3469__1_3_1,n3469__1_3_1_1
n3471__1_3_1,n3471__1_3_1_1
n3473__1_3_1,n3473__1_3_1_1
n3474__1_3_1,n3474__1_3_1_1
n3475__1_3_1,n3475__1_3_1_1
n3476__1_3_1,n3476__1_3_1_1
n3477__1_3_1,n3477__1_3_1_1
n3479__1_3_1,n3479__1_3_1_1
n3480__1_3_1,n3480__1_3_1_1
n3482__1_3_1,n3482__1_3_1_1
n3483__1_3_1,n3483__1_3_1_1
n3485__1_3_1,n3485__1_3_1_1
n3486__1_3_1,n3486__1_3_1_1
n3490__1_3_1,n3490__1_3_1_1
n3492__1_3_1,n3492__1_3_1_1
n3494__1_3_1,n3494__1_3_1_1
n3495__1_3_1,n3495__1_3_1_1
n3496__1_3_1,n3496__1_3_1_1
n3497__1_3_1,n3497__1_3_1_1
n3498__1_3_1,n3498__1_3_1_1
n3502__1_3_1,n3502__1_3_1_1
n3503__1_3_1,n3503__1_3_1_1
n3505__1_3_1,n3505__1_3_1_1
n3506__1_3_1,n3506__1_3_1_1
n3507__1_3_1,n3507__1_3_1_1
n3508__1_3_1,n3508__1_3_1_1
n3509__1_3_1,n3509__1_3_1_1
n3510__1_3_1,n3510__1_3_1_1
n3512__1_3_1,n3512__1_3_1_1
n3513__1_3_1,n3513__1_3_1_1
n3514__1_3_1,n3514__1_3_1_1
n3517__1_3_1,n3517__1_3_1_1
n3518__1_3_1,n3518__1_3_1_1
n3522__1_3_1,n3522__1_3_1_1
n3524__1_3_1,n3524__1_3_1_1
n3526__1_3_1,n3526__1_3_1_1
n3527__1_3_1,n3527__1_3_1_1
n3528__1_3_1,n3528__1_3_1_1
n3530__1_3_1,n3530__1_3_1_1
n3531__1_3_1,n3531__1_3_1_1
n3534__1_3_1,n3534__1_3_1_1
n3535__1_3_1,n3535__1_3_1_1
n3537__1_3_1,n3537__1_3_1_1
n3538__1_3_1,n3538__1_3_1_1
n3539__1_3_1,n3539__1_3_1_1
n3540__1_3_1,n3540__1_3_1_1
n3541__1_3_1,n3541__1_3_1_1
n3542__1_3_1,n3542__1_3_1_1
n3544__1_3_1,n3544__1_3_1_1
n3545__1_3_1,n3545__1_3_1_1
n3546__1_3_1,n3546__1_3_1_1
n3549__1_3_1,n3549__1_3_1_1
n3550__1_3_1,n3550__1_3_1_1
n3551__1_3_1,n3551__1_3_1_1
n3556__1_3_1,n3556__1_3_1_1
n3557__1_3_1,n3557__1_3_1_1
n3558__1_3_1,n3558__1_3_1_1
n3559__1_3_1,n3559__1_3_1_1
n3560__1_3_1,n3560__1_3_1_1
n3563__1_3_1,n3563__1_3_1_1
n3566__1_3_1,n3566__1_3_1_1
n3569__1_3_1,n3569__1_3_1_1
n3571__1_3_1,n3571__1_3_1_1
n3572__1_3_1,n3572__1_3_1_1
n3574__1_3_1,n3574__1_3_1_1
n3576__1_3_1,n3576__1_3_1_1
n3577__1_3_1,n3577__1_3_1_1
n3581__1_3_1,n3581__1_3_1_1
n3582__1_3_1,n3582__1_3_1_1
n3583__1_3_1,n3583__1_3_1_1
n3585__1_3_1,n3585__1_3_1_1
n3587__1_3_1,n3587__1_3_1_1
n3588__1_3_1,n3588__1_3_1_1
n3589__1_3_1,n3589__1_3_1_1
n3590__1_3_1,n3590__1_3_1_1
n3591__1_3_1,n3591__1_3_1_1
n3592__1_3_1,n3592__1_3_1_1
n3595__1_3_1,n3595__1_3_1_1
n3596__1_3_1,n3596__1_3_1_1
n3598__1_3_1,n3598__1_3_1_1
n3600__1_3_1,n3600__1_3_1_1
n3606__1_3_1,n3606__1_3_1_1
n3609__1_3_1,n3609__1_3_1_1
n3612__1_3_1,n3612__1_3_1_1
n3615__1_3_1,n3615__1_3_1_1
n3616__1_3_1,n3616__1_3_1_1
n3617__1_3_1,n3617__1_3_1_1
n3619__1_3_1,n3619__1_3_1_1
n3621__1_3_1,n3621__1_3_1_1
n3627__1_3_1,n3627__1_3_1_1
n3628__1_3_1,n3628__1_3_1_1
n3629__1_3_1,n3629__1_3_1_1
n3632__1_3_1,n3632__1_3_1_1
n3639__1_3_1,n3639__1_3_1_1
n3643__1_3_1,n3643__1_3_1_1
n3644__1_3_1,n3644__1_3_1_1
n3647__1_3_1,n3647__1_3_1_1
n3648__1_3_1,n3648__1_3_1_1
n3649__1_3_1,n3649__1_3_1_1
n3651__1_3_1,n3651__1_3_1_1
n3653__1_3_1,n3653__1_3_1_1
n3657__1_3_1,n3657__1_3_1_1
n3660__1_3_1,n3660__1_3_1_1
n3661__1_3_1,n3661__1_3_1_1
n3664__1_3_1,n3664__1_3_1_1
n3671__1_3_1,n3671__1_3_1_1
n3675__1_3_1,n3675__1_3_1_1
n3676__1_3_1,n3676__1_3_1_1
n3680__1_3_1,n3680__1_3_1_1
n3681__1_3_1,n3681__1_3_1_1
n3682__1_3_1,n3682__1_3_1_1
n3683__1_3_1,n3683__1_3_1_1
n3689__1_3_1,n3689__1_3_1_1
n3690__1_3_1,n3690__1_3_1_1
n3692__1_3_1,n3692__1_3_1_1
n3693__1_3_1,n3693__1_3_1_1
n3695__1_3_1,n3695__1_3_1_1
n3696__1_3_1,n3696__1_3_1_1
n3698__1_3_1,n3698__1_3_1_1
n3701__1_3_1,n3701__1_3_1_1
n3703__1_3_1,n3703__1_3_1_1
n3706__1_3_1,n3706__1_3_1_1
n3707__1_3_1,n3707__1_3_1_1
n3708__1_3_1,n3708__1_3_1_1
n3712__1_3_1,n3712__1_3_1_1
n3714__1_3_1,n3714__1_3_1_1
n3721__1_3_1,n3721__1_3_1_1
n3722__1_3_1,n3722__1_3_1_1
n3725__1_3_1,n3725__1_3_1_1
n3727__1_3_1,n3727__1_3_1_1
n3729__1_3_1,n3729__1_3_1_1
n3730__1_3_1,n3730__1_3_1_1
n3731__1_3_1,n3731__1_3_1_1
n3732__1_3_1,n3732__1_3_1_1
n3733__1_3_1,n3733__1_3_1_1
n3735__1_3_1,n3735__1_3_1_1
n3736__1_3_1,n3736__1_3_1_1
n3738__1_3_1,n3738__1_3_1_1
n3739__1_3_1,n3739__1_3_1_1
n3741__1_3_1,n3741__1_3_1_1
n3742__1_3_1,n3742__1_3_1_1
n3746__1_3_1,n3746__1_3_1_1
n3748__1_3_1,n3748__1_3_1_1
n3750__1_3_1,n3750__1_3_1_1
n3751__1_3_1,n3751__1_3_1_1
n3752__1_3_1,n3752__1_3_1_1
n3753__1_3_1,n3753__1_3_1_1
n3754__1_3_1,n3754__1_3_1_1
n3758__1_3_1,n3758__1_3_1_1
n3759__1_3_1,n3759__1_3_1_1
n3761__1_3_1,n3761__1_3_1_1
n3762__1_3_1,n3762__1_3_1_1
n3763__1_3_1,n3763__1_3_1_1
n3764__1_3_1,n3764__1_3_1_1
n3765__1_3_1,n3765__1_3_1_1
n3766__1_3_1,n3766__1_3_1_1
n3768__1_3_1,n3768__1_3_1_1
n3769__1_3_1,n3769__1_3_1_1
n3770__1_3_1,n3770__1_3_1_1
n3773__1_3_1,n3773__1_3_1_1
n3774__1_3_1,n3774__1_3_1_1
n3778__1_3_1,n3778__1_3_1_1
n3780__1_3_1,n3780__1_3_1_1
n3782__1_3_1,n3782__1_3_1_1
n3783__1_3_1,n3783__1_3_1_1
n3784__1_3_1,n3784__1_3_1_1
n3786__1_3_1,n3786__1_3_1_1
n3787__1_3_1,n3787__1_3_1_1
n3790__1_3_1,n3790__1_3_1_1
n3791__1_3_1,n3791__1_3_1_1
n3793__1_3_1,n3793__1_3_1_1
n3794__1_3_1,n3794__1_3_1_1
n3795__1_3_1,n3795__1_3_1_1
n3796__1_3_1,n3796__1_3_1_1
n3797__1_3_1,n3797__1_3_1_1
n3798__1_3_1,n3798__1_3_1_1
n3800__1_3_1,n3800__1_3_1_1
n3801__1_3_1,n3801__1_3_1_1
n3802__1_3_1,n3802__1_3_1_1
n3805__1_3_1,n3805__1_3_1_1
n3806__1_3_1,n3806__1_3_1_1
n3807__1_3_1,n3807__1_3_1_1
n3812__1_3_1,n3812__1_3_1_1
n3813__1_3_1,n3813__1_3_1_1
n3814__1_3_1,n3814__1_3_1_1
n3815__1_3_1,n3815__1_3_1_1
n3816__1_3_1,n3816__1_3_1_1
n3819__1_3_1,n3819__1_3_1_1
n3822__1_3_1,n3822__1_3_1_1
n3825__1_3_1,n3825__1_3_1_1
n3827__1_3_1,n3827__1_3_1_1
n3828__1_3_1,n3828__1_3_1_1
n3830__1_3_1,n3830__1_3_1_1
n3832__1_3_1,n3832__1_3_1_1
n3833__1_3_1,n3833__1_3_1_1
n3837__1_3_1,n3837__1_3_1_1
n3838__1_3_1,n3838__1_3_1_1
n3839__1_3_1,n3839__1_3_1_1
n3841__1_3_1,n3841__1_3_1_1
n3843__1_3_1,n3843__1_3_1_1
n3844__1_3_1,n3844__1_3_1_1
n3845__1_3_1,n3845__1_3_1_1
n3846__1_3_1,n3846__1_3_1_1
n3847__1_3_1,n3847__1_3_1_1
n3848__1_3_1,n3848__1_3_1_1
n3851__1_3_1,n3851__1_3_1_1
n3852__1_3_1,n3852__1_3_1_1
n3854__1_3_1,n3854__1_3_1_1
n3856__1_3_1,n3856__1_3_1_1
n3862__1_3_1,n3862__1_3_1_1
n3865__1_3_1,n3865__1_3_1_1
n3868__1_3_1,n3868__1_3_1_1
n3871__1_3_1,n3871__1_3_1_1
n3872__1_3_1,n3872__1_3_1_1
n3873__1_3_1,n3873__1_3_1_1
n3875__1_3_1,n3875__1_3_1_1
n3877__1_3_1,n3877__1_3_1_1
n3883__1_3_1,n3883__1_3_1_1
n3884__1_3_1,n3884__1_3_1_1
n3885__1_3_1,n3885__1_3_1_1
n3888__1_3_1,n3888__1_3_1_1
n3895__1_3_1,n3895__1_3_1_1
n3899__1_3_1,n3899__1_3_1_1
n3900__1_3_1,n3900__1_3_1_1
n3903__1_3_1,n3903__1_3_1_1
n3904__1_3_1,n3904__1_3_1_1
n3905__1_3_1,n3905__1_3_1_1
n3907__1_3_1,n3907__1_3_1_1
n3909__1_3_1,n3909__1_3_1_1
n3913__1_3_1,n3913__1_3_1_1
n3916__1_3_1,n3916__1_3_1_1
n3917__1_3_1,n3917__1_3_1_1
n3920__1_3_1,n3920__1_3_1_1
n3927__1_3_1,n3927__1_3_1_1
n3931__1_3_1,n3931__1_3_1_1
n3932__1_3_1,n3932__1_3_1_1
n3936__1_3_1,n3936__1_3_1_1
n3937__1_3_1,n3937__1_3_1_1
n3938__1_3_1,n3938__1_3_1_1
n3939__1_3_1,n3939__1_3_1_1
n3945__1_3_1,n3945__1_3_1_1
n3946__1_3_1,n3946__1_3_1_1
n3948__1_3_1,n3948__1_3_1_1
n3949__1_3_1,n3949__1_3_1_1
n3951__1_3_1,n3951__1_3_1_1
n3952__1_3_1,n3952__1_3_1_1
n3954__1_3_1,n3954__1_3_1_1
n3957__1_3_1,n3957__1_3_1_1
n3959__1_3_1,n3959__1_3_1_1
n3962__1_3_1,n3962__1_3_1_1
n3963__1_3_1,n3963__1_3_1_1
n3964__1_3_1,n3964__1_3_1_1
n3968__1_3_1,n3968__1_3_1_1
n3970__1_3_1,n3970__1_3_1_1
n3977__1_3_1,n3977__1_3_1_1
n3978__1_3_1,n3978__1_3_1_1
n3981__1_3_1,n3981__1_3_1_1
n3983__1_3_1,n3983__1_3_1_1
n3985__1_3_1,n3985__1_3_1_1
n3986__1_3_1,n3986__1_3_1_1
n3987__1_3_1,n3987__1_3_1_1
n3988__1_3_1,n3988__1_3_1_1
n3989__1_3_1,n3989__1_3_1_1
n3991__1_3_1,n3991__1_3_1_1
n3992__1_3_1,n3992__1_3_1_1
n3994__1_3_1,n3994__1_3_1_1
n3995__1_3_1,n3995__1_3_1_1
n3997__1_3_1,n3997__1_3_1_1
n3998__1_3_1,n3998__1_3_1_1
n4002__1_3_1,n4002__1_3_1_1
n4004__1_3_1,n4004__1_3_1_1
n4006__1_3_1,n4006__1_3_1_1
n4007__1_3_1,n4007__1_3_1_1
n4008__1_3_1,n4008__1_3_1_1
n4009__1_3_1,n4009__1_3_1_1
n4010__1_3_1,n4010__1_3_1_1
n4014__1_3_1,n4014__1_3_1_1
n4015__1_3_1,n4015__1_3_1_1
n4017__1_3_1,n4017__1_3_1_1
n4018__1_3_1,n4018__1_3_1_1
n4019__1_3_1,n4019__1_3_1_1
n4020__1_3_1,n4020__1_3_1_1
n4021__1_3_1,n4021__1_3_1_1
n4022__1_3_1,n4022__1_3_1_1
n4024__1_3_1,n4024__1_3_1_1
n4025__1_3_1,n4025__1_3_1_1
n4026__1_3_1,n4026__1_3_1_1
n4029__1_3_1,n4029__1_3_1_1
n4030__1_3_1,n4030__1_3_1_1
n4034__1_3_1,n4034__1_3_1_1
n4036__1_3_1,n4036__1_3_1_1
n4038__1_3_1,n4038__1_3_1_1
n4039__1_3_1,n4039__1_3_1_1
n4040__1_3_1,n4040__1_3_1_1
n4042__1_3_1,n4042__1_3_1_1
n4043__1_3_1,n4043__1_3_1_1
n4046__1_3_1,n4046__1_3_1_1
n4047__1_3_1,n4047__1_3_1_1
n4049__1_3_1,n4049__1_3_1_1
n4050__1_3_1,n4050__1_3_1_1
n4051__1_3_1,n4051__1_3_1_1
n4052__1_3_1,n4052__1_3_1_1
n4053__1_3_1,n4053__1_3_1_1
n4054__1_3_1,n4054__1_3_1_1
n4056__1_3_1,n4056__1_3_1_1
n4057__1_3_1,n4057__1_3_1_1
n4058__1_3_1,n4058__1_3_1_1
n4061__1_3_1,n4061__1_3_1_1
n4062__1_3_1,n4062__1_3_1_1
n4063__1_3_1,n4063__1_3_1_1
n4068__1_3_1,n4068__1_3_1_1
n4069__1_3_1,n4069__1_3_1_1
n4070__1_3_1,n4070__1_3_1_1
n4071__1_3_1,n4071__1_3_1_1
n4072__1_3_1,n4072__1_3_1_1
n4075__1_3_1,n4075__1_3_1_1
n4078__1_3_1,n4078__1_3_1_1
n4081__1_3_1,n4081__1_3_1_1
n4083__1_3_1,n4083__1_3_1_1
n4084__1_3_1,n4084__1_3_1_1
n4086__1_3_1,n4086__1_3_1_1
n4088__1_3_1,n4088__1_3_1_1
n4089__1_3_1,n4089__1_3_1_1
n4093__1_3_1,n4093__1_3_1_1
n4094__1_3_1,n4094__1_3_1_1
n4095__1_3_1,n4095__1_3_1_1
n4097__1_3_1,n4097__1_3_1_1
n4099__1_3_1,n4099__1_3_1_1
n4100__1_3_1,n4100__1_3_1_1
n4101__1_3_1,n4101__1_3_1_1
n4102__1_3_1,n4102__1_3_1_1
n4103__1_3_1,n4103__1_3_1_1
n4104__1_3_1,n4104__1_3_1_1
n4107__1_3_1,n4107__1_3_1_1
n4108__1_3_1,n4108__1_3_1_1
n4110__1_3_1,n4110__1_3_1_1
n4112__1_3_1,n4112__1_3_1_1
n4118__1_3_1,n4118__1_3_1_1
n4121__1_3_1,n4121__1_3_1_1
n4124__1_3_1,n4124__1_3_1_1
n4127__1_3_1,n4127__1_3_1_1
n4128__1_3_1,n4128__1_3_1_1
n4129__1_3_1,n4129__1_3_1_1
n4131__1_3_1,n4131__1_3_1_1
n4133__1_3_1,n4133__1_3_1_1
n4139__1_3_1,n4139__1_3_1_1
n4140__1_3_1,n4140__1_3_1_1
n4141__1_3_1,n4141__1_3_1_1
n4144__1_3_1,n4144__1_3_1_1
n4151__1_3_1,n4151__1_3_1_1
n4155__1_3_1,n4155__1_3_1_1
n4156__1_3_1,n4156__1_3_1_1
n4159__1_3_1,n4159__1_3_1_1
n4160__1_3_1,n4160__1_3_1_1
n4161__1_3_1,n4161__1_3_1_1
n4163__1_3_1,n4163__1_3_1_1
n4165__1_3_1,n4165__1_3_1_1
n4169__1_3_1,n4169__1_3_1_1
n4172__1_3_1,n4172__1_3_1_1
n4173__1_3_1,n4173__1_3_1_1
n4176__1_3_1,n4176__1_3_1_1
n4183__1_3_1,n4183__1_3_1_1
n4187__1_3_1,n4187__1_3_1_1
n4188__1_3_1,n4188__1_3_1_1
n4192__1_3_1,n4192__1_3_1_1
n4193__1_3_1,n4193__1_3_1_1
n4194__1_3_1,n4194__1_3_1_1
n4195__1_3_1,n4195__1_3_1_1
n4201__1_3_1,n4201__1_3_1_1
n4202__1_3_1,n4202__1_3_1_1
n4204__1_3_1,n4204__1_3_1_1
n4205__1_3_1,n4205__1_3_1_1
n4207__1_3_1,n4207__1_3_1_1
n4208__1_3_1,n4208__1_3_1_1
n4210__1_3_1,n4210__1_3_1_1
n4213__1_3_1,n4213__1_3_1_1
n4215__1_3_1,n4215__1_3_1_1
n4218__1_3_1,n4218__1_3_1_1
n4219__1_3_1,n4219__1_3_1_1
n4220__1_3_1,n4220__1_3_1_1
n4224__1_3_1,n4224__1_3_1_1
n4226__1_3_1,n4226__1_3_1_1
n4233__1_3_1,n4233__1_3_1_1
n4234__1_3_1,n4234__1_3_1_1
n4237__1_3_1,n4237__1_3_1_1
n4239__1_3_1,n4239__1_3_1_1
n4241__1_3_1,n4241__1_3_1_1
n4242__1_3_1,n4242__1_3_1_1
n4243__1_3_1,n4243__1_3_1_1
n4244__1_3_1,n4244__1_3_1_1
n4245__1_3_1,n4245__1_3_1_1
n4247__1_3_1,n4247__1_3_1_1
n4248__1_3_1,n4248__1_3_1_1
n4250__1_3_1,n4250__1_3_1_1
n4251__1_3_1,n4251__1_3_1_1
n4253__1_3_1,n4253__1_3_1_1
n4254__1_3_1,n4254__1_3_1_1
n4258__1_3_1,n4258__1_3_1_1
n4260__1_3_1,n4260__1_3_1_1
n4262__1_3_1,n4262__1_3_1_1
n4263__1_3_1,n4263__1_3_1_1
n4264__1_3_1,n4264__1_3_1_1
n4265__1_3_1,n4265__1_3_1_1
n4266__1_3_1,n4266__1_3_1_1
n4270__1_3_1,n4270__1_3_1_1
n4271__1_3_1,n4271__1_3_1_1
n4273__1_3_1,n4273__1_3_1_1
n4274__1_3_1,n4274__1_3_1_1
n4275__1_3_1,n4275__1_3_1_1
n4276__1_3_1,n4276__1_3_1_1
n4277__1_3_1,n4277__1_3_1_1
n4278__1_3_1,n4278__1_3_1_1
n4280__1_3_1,n4280__1_3_1_1
n4281__1_3_1,n4281__1_3_1_1
n4282__1_3_1,n4282__1_3_1_1
n4285__1_3_1,n4285__1_3_1_1
n4286__1_3_1,n4286__1_3_1_1
n4290__1_3_1,n4290__1_3_1_1
n4292__1_3_1,n4292__1_3_1_1
n4294__1_3_1,n4294__1_3_1_1
n4295__1_3_1,n4295__1_3_1_1
n4296__1_3_1,n4296__1_3_1_1
n4298__1_3_1,n4298__1_3_1_1
n4299__1_3_1,n4299__1_3_1_1
n4302__1_3_1,n4302__1_3_1_1
n4303__1_3_1,n4303__1_3_1_1
n4305__1_3_1,n4305__1_3_1_1
n4306__1_3_1,n4306__1_3_1_1
n4307__1_3_1,n4307__1_3_1_1
n4308__1_3_1,n4308__1_3_1_1
n4309__1_3_1,n4309__1_3_1_1
n4310__1_3_1,n4310__1_3_1_1
n4312__1_3_1,n4312__1_3_1_1
n4313__1_3_1,n4313__1_3_1_1
n4314__1_3_1,n4314__1_3_1_1
n4317__1_3_1,n4317__1_3_1_1
n4318__1_3_1,n4318__1_3_1_1
n4319__1_3_1,n4319__1_3_1_1
n4324__1_3_1,n4324__1_3_1_1
n4325__1_3_1,n4325__1_3_1_1
n4326__1_3_1,n4326__1_3_1_1
n4327__1_3_1,n4327__1_3_1_1
n4328__1_3_1,n4328__1_3_1_1
n4331__1_3_1,n4331__1_3_1_1
n4334__1_3_1,n4334__1_3_1_1
n4337__1_3_1,n4337__1_3_1_1
n4339__1_3_1,n4339__1_3_1_1
n4340__1_3_1,n4340__1_3_1_1
n4342__1_3_1,n4342__1_3_1_1
n4344__1_3_1,n4344__1_3_1_1
n4345__1_3_1,n4345__1_3_1_1
n4349__1_3_1,n4349__1_3_1_1
n4350__1_3_1,n4350__1_3_1_1
n4351__1_3_1,n4351__1_3_1_1
n4353__1_3_1,n4353__1_3_1_1
n4355__1_3_1,n4355__1_3_1_1
n4356__1_3_1,n4356__1_3_1_1
n4357__1_3_1,n4357__1_3_1_1
n4358__1_3_1,n4358__1_3_1_1
n4359__1_3_1,n4359__1_3_1_1
n4360__1_3_1,n4360__1_3_1_1
n4363__1_3_1,n4363__1_3_1_1
n4364__1_3_1,n4364__1_3_1_1
n4366__1_3_1,n4366__1_3_1_1
n4368__1_3_1,n4368__1_3_1_1
n4374__1_3_1,n4374__1_3_1_1
n4377__1_3_1,n4377__1_3_1_1
n4380__1_3_1,n4380__1_3_1_1
n4383__1_3_1,n4383__1_3_1_1
n4384__1_3_1,n4384__1_3_1_1
n4385__1_3_1,n4385__1_3_1_1
n4387__1_3_1,n4387__1_3_1_1
n4389__1_3_1,n4389__1_3_1_1
n4395__1_3_1,n4395__1_3_1_1
n4396__1_3_1,n4396__1_3_1_1
n4397__1_3_1,n4397__1_3_1_1
n4400__1_3_1,n4400__1_3_1_1
n4407__1_3_1,n4407__1_3_1_1
n4411__1_3_1,n4411__1_3_1_1
n4412__1_3_1,n4412__1_3_1_1
n4415__1_3_1,n4415__1_3_1_1
n4416__1_3_1,n4416__1_3_1_1
n4417__1_3_1,n4417__1_3_1_1
n4419__1_3_1,n4419__1_3_1_1
n4421__1_3_1,n4421__1_3_1_1
n4425__1_3_1,n4425__1_3_1_1
n4428__1_3_1,n4428__1_3_1_1
n4429__1_3_1,n4429__1_3_1_1
n4432__1_3_1,n4432__1_3_1_1
n4439__1_3_1,n4439__1_3_1_1
n4443__1_3_1,n4443__1_3_1_1
n4444__1_3_1,n4444__1_3_1_1
n4448__1_3_1,n4448__1_3_1_1
n4449__1_3_1,n4449__1_3_1_1
n4450__1_3_1,n4450__1_3_1_1
n4451__1_3_1,n4451__1_3_1_1
n4457__1_3_1,n4457__1_3_1_1
n4458__1_3_1,n4458__1_3_1_1
n4460__1_3_1,n4460__1_3_1_1
n4461__1_3_1,n4461__1_3_1_1
n4463__1_3_1,n4463__1_3_1_1
n4464__1_3_1,n4464__1_3_1_1
n4466__1_3_1,n4466__1_3_1_1
n4469__1_3_1,n4469__1_3_1_1
n4471__1_3_1,n4471__1_3_1_1
n4474__1_3_1,n4474__1_3_1_1
n4475__1_3_1,n4475__1_3_1_1
n4476__1_3_1,n4476__1_3_1_1
n4480__1_3_1,n4480__1_3_1_1
n4482__1_3_1,n4482__1_3_1_1
n4489__1_3_1,n4489__1_3_1_1
n4490__1_3_1,n4490__1_3_1_1
n4493__1_3_1,n4493__1_3_1_1
n4495__1_3_1,n4495__1_3_1_1
n4497__1_3_1,n4497__1_3_1_1
n4498__1_3_1,n4498__1_3_1_1
n4499__1_3_1,n4499__1_3_1_1
n4500__1_3_1,n4500__1_3_1_1
n4501__1_3_1,n4501__1_3_1_1
n4503__1_3_1,n4503__1_3_1_1
n4504__1_3_1,n4504__1_3_1_1
n4506__1_3_1,n4506__1_3_1_1
n4507__1_3_1,n4507__1_3_1_1
n4509__1_3_1,n4509__1_3_1_1
n4510__1_3_1,n4510__1_3_1_1
n4514__1_3_1,n4514__1_3_1_1
n4516__1_3_1,n4516__1_3_1_1
n4518__1_3_1,n4518__1_3_1_1
n4519__1_3_1,n4519__1_3_1_1
n4520__1_3_1,n4520__1_3_1_1
n4521__1_3_1,n4521__1_3_1_1
n4522__1_3_1,n4522__1_3_1_1
n4526__1_3_1,n4526__1_3_1_1
n4527__1_3_1,n4527__1_3_1_1
n4529__1_3_1,n4529__1_3_1_1
n4530__1_3_1,n4530__1_3_1_1
n4531__1_3_1,n4531__1_3_1_1
n4532__1_3_1,n4532__1_3_1_1
n4533__1_3_1,n4533__1_3_1_1
n4534__1_3_1,n4534__1_3_1_1
n4536__1_3_1,n4536__1_3_1_1
n4537__1_3_1,n4537__1_3_1_1
n4538__1_3_1,n4538__1_3_1_1
n4541__1_3_1,n4541__1_3_1_1
n4542__1_3_1,n4542__1_3_1_1
n4546__1_3_1,n4546__1_3_1_1
n4548__1_3_1,n4548__1_3_1_1
n4550__1_3_1,n4550__1_3_1_1
n4551__1_3_1,n4551__1_3_1_1
n4552__1_3_1,n4552__1_3_1_1
n4554__1_3_1,n4554__1_3_1_1
n4555__1_3_1,n4555__1_3_1_1
n4558__1_3_1,n4558__1_3_1_1
n4559__1_3_1,n4559__1_3_1_1
n4561__1_3_1,n4561__1_3_1_1
n4562__1_3_1,n4562__1_3_1_1
n4563__1_3_1,n4563__1_3_1_1
n4564__1_3_1,n4564__1_3_1_1
n4565__1_3_1,n4565__1_3_1_1
n4566__1_3_1,n4566__1_3_1_1
n4568__1_3_1,n4568__1_3_1_1
n4569__1_3_1,n4569__1_3_1_1
n4570__1_3_1,n4570__1_3_1_1
n4573__1_3_1,n4573__1_3_1_1
n4574__1_3_1,n4574__1_3_1_1
n4575__1_3_1,n4575__1_3_1_1
n4580__1_3_1,n4580__1_3_1_1
n4581__1_3_1,n4581__1_3_1_1
n4582__1_3_1,n4582__1_3_1_1
n4583__1_3_1,n4583__1_3_1_1
n4584__1_3_1,n4584__1_3_1_1
n4587__1_3_1,n4587__1_3_1_1
n4590__1_3_1,n4590__1_3_1_1
n4593__1_3_1,n4593__1_3_1_1
n4595__1_3_1,n4595__1_3_1_1
n4596__1_3_1,n4596__1_3_1_1
n4598__1_3_1,n4598__1_3_1_1
n4600__1_3_1,n4600__1_3_1_1
n4601__1_3_1,n4601__1_3_1_1
n4605__1_3_1,n4605__1_3_1_1
n4606__1_3_1,n4606__1_3_1_1
n4607__1_3_1,n4607__1_3_1_1
n4609__1_3_1,n4609__1_3_1_1
n4611__1_3_1,n4611__1_3_1_1
n4612__1_3_1,n4612__1_3_1_1
n4613__1_3_1,n4613__1_3_1_1
n4614__1_3_1,n4614__1_3_1_1
n4615__1_3_1,n4615__1_3_1_1
n4616__1_3_1,n4616__1_3_1_1
n4619__1_3_1,n4619__1_3_1_1
n4620__1_3_1,n4620__1_3_1_1
n4622__1_3_1,n4622__1_3_1_1
n4624__1_3_1,n4624__1_3_1_1
n4630__1_3_1,n4630__1_3_1_1
n4633__1_3_1,n4633__1_3_1_1
n4636__1_3_1,n4636__1_3_1_1
n4639__1_3_1,n4639__1_3_1_1
n4640__1_3_1,n4640__1_3_1_1
n4641__1_3_1,n4641__1_3_1_1
n4643__1_3_1,n4643__1_3_1_1
n4645__1_3_1,n4645__1_3_1_1
n4651__1_3_1,n4651__1_3_1_1
n4652__1_3_1,n4652__1_3_1_1
n4653__1_3_1,n4653__1_3_1_1
n4656__1_3_1,n4656__1_3_1_1
n4663__1_3_1,n4663__1_3_1_1
n4667__1_3_1,n4667__1_3_1_1
n4668__1_3_1,n4668__1_3_1_1
n4671__1_3_1,n4671__1_3_1_1
n4672__1_3_1,n4672__1_3_1_1
n4673__1_3_1,n4673__1_3_1_1
n4675__1_3_1,n4675__1_3_1_1
n4677__1_3_1,n4677__1_3_1_1
n4681__1_3_1,n4681__1_3_1_1
n4684__1_3_1,n4684__1_3_1_1
n4685__1_3_1,n4685__1_3_1_1
n4688__1_3_1,n4688__1_3_1_1
n4695__1_3_1,n4695__1_3_1_1
n4699__1_3_1,n4699__1_3_1_1
n4700__1_3_1,n4700__1_3_1_1
n4704__1_3_1,n4704__1_3_1_1
n4705__1_3_1,n4705__1_3_1_1
n4706__1_3_1,n4706__1_3_1_1
n4707__1_3_1,n4707__1_3_1_1
n4713__1_3_1,n4713__1_3_1_1
n4714__1_3_1,n4714__1_3_1_1
n4716__1_3_1,n4716__1_3_1_1
n4717__1_3_1,n4717__1_3_1_1
n4719__1_3_1,n4719__1_3_1_1
n4720__1_3_1,n4720__1_3_1_1
n4722__1_3_1,n4722__1_3_1_1
n4725__1_3_1,n4725__1_3_1_1
n4727__1_3_1,n4727__1_3_1_1
n4730__1_3_1,n4730__1_3_1_1
n4731__1_3_1,n4731__1_3_1_1
n4732__1_3_1,n4732__1_3_1_1
n4736__1_3_1,n4736__1_3_1_1
n4738__1_3_1,n4738__1_3_1_1
n4745__1_3_1,n4745__1_3_1_1
n4746__1_3_1,n4746__1_3_1_1
n4749__1_3_1,n4749__1_3_1_1
n4751__1_3_1,n4751__1_3_1_1
n4753__1_3_1,n4753__1_3_1_1
n4754__1_3_1,n4754__1_3_1_1
n4755__1_3_1,n4755__1_3_1_1
n4756__1_3_1,n4756__1_3_1_1
n4757__1_3_1,n4757__1_3_1_1
n4759__1_3_1,n4759__1_3_1_1
n4760__1_3_1,n4760__1_3_1_1
n4762__1_3_1,n4762__1_3_1_1
n4763__1_3_1,n4763__1_3_1_1
n4765__1_3_1,n4765__1_3_1_1
n4766__1_3_1,n4766__1_3_1_1
n4770__1_3_1,n4770__1_3_1_1
n4772__1_3_1,n4772__1_3_1_1
n4774__1_3_1,n4774__1_3_1_1
n4775__1_3_1,n4775__1_3_1_1
n4776__1_3_1,n4776__1_3_1_1
n4777__1_3_1,n4777__1_3_1_1
n4778__1_3_1,n4778__1_3_1_1
n4782__1_3_1,n4782__1_3_1_1
n4783__1_3_1,n4783__1_3_1_1
n4785__1_3_1,n4785__1_3_1_1
n4786__1_3_1,n4786__1_3_1_1
n4787__1_3_1,n4787__1_3_1_1
n4788__1_3_1,n4788__1_3_1_1
n4789__1_3_1,n4789__1_3_1_1
n4790__1_3_1,n4790__1_3_1_1
n4792__1_3_1,n4792__1_3_1_1
n4793__1_3_1,n4793__1_3_1_1
n4794__1_3_1,n4794__1_3_1_1
n4797__1_3_1,n4797__1_3_1_1
n4798__1_3_1,n4798__1_3_1_1
n4802__1_3_1,n4802__1_3_1_1
n4804__1_3_1,n4804__1_3_1_1
n4806__1_3_1,n4806__1_3_1_1
n4807__1_3_1,n4807__1_3_1_1
n4808__1_3_1,n4808__1_3_1_1
n4810__1_3_1,n4810__1_3_1_1
n4811__1_3_1,n4811__1_3_1_1
n4814__1_3_1,n4814__1_3_1_1
n4815__1_3_1,n4815__1_3_1_1
n4817__1_3_1,n4817__1_3_1_1
n4818__1_3_1,n4818__1_3_1_1
n4819__1_3_1,n4819__1_3_1_1
n4820__1_3_1,n4820__1_3_1_1
n4821__1_3_1,n4821__1_3_1_1
n4822__1_3_1,n4822__1_3_1_1
n4824__1_3_1,n4824__1_3_1_1
n4825__1_3_1,n4825__1_3_1_1
n4826__1_3_1,n4826__1_3_1_1
n4829__1_3_1,n4829__1_3_1_1
n4830__1_3_1,n4830__1_3_1_1
n4831__1_3_1,n4831__1_3_1_1
n4836__1_3_1,n4836__1_3_1_1
n4837__1_3_1,n4837__1_3_1_1
n4838__1_3_1,n4838__1_3_1_1
n4839__1_3_1,n4839__1_3_1_1
n4840__1_3_1,n4840__1_3_1_1
n4843__1_3_1,n4843__1_3_1_1
n4846__1_3_1,n4846__1_3_1_1
n4849__1_3_1,n4849__1_3_1_1
n4851__1_3_1,n4851__1_3_1_1
n4852__1_3_1,n4852__1_3_1_1
n4854__1_3_1,n4854__1_3_1_1
n4856__1_3_1,n4856__1_3_1_1
n4857__1_3_1,n4857__1_3_1_1
n4861__1_3_1,n4861__1_3_1_1
n4862__1_3_1,n4862__1_3_1_1
n4863__1_3_1,n4863__1_3_1_1
n4865__1_3_1,n4865__1_3_1_1
n4867__1_3_1,n4867__1_3_1_1
n4868__1_3_1,n4868__1_3_1_1
n4869__1_3_1,n4869__1_3_1_1
n4870__1_3_1,n4870__1_3_1_1
n4871__1_3_1,n4871__1_3_1_1
n4872__1_3_1,n4872__1_3_1_1
n4875__1_3_1,n4875__1_3_1_1
n4876__1_3_1,n4876__1_3_1_1
n4878__1_3_1,n4878__1_3_1_1
n4880__1_3_1,n4880__1_3_1_1
n4886__1_3_1,n4886__1_3_1_1
n4889__1_3_1,n4889__1_3_1_1
n4892__1_3_1,n4892__1_3_1_1
n4895__1_3_1,n4895__1_3_1_1
n4896__1_3_1,n4896__1_3_1_1
n4897__1_3_1,n4897__1_3_1_1
n4899__1_3_1,n4899__1_3_1_1
n4901__1_3_1,n4901__1_3_1_1
n4907__1_3_1,n4907__1_3_1_1
n4908__1_3_1,n4908__1_3_1_1
n4909__1_3_1,n4909__1_3_1_1
n4912__1_3_1,n4912__1_3_1_1
n4919__1_3_1,n4919__1_3_1_1
n4923__1_3_1,n4923__1_3_1_1
n4924__1_3_1,n4924__1_3_1_1
