n4926__1_3_1_1,n4926__1_3_1_1_3
n4927__1_3_1_1,n4927__1_3_1_1_3
n4930__1_3_1_1,n4930__1_3_1_1_3
n4931__1_3_1_1,n4931__1_3_1_1_3
n4936__1_3_1_1,n4936__1_3_1_1_3
n4942__1_3_1_1,n4942__1_3_1_1_3
n4944__1_3_1_1,n4944__1_3_1_1_3
n4945__1_3_1_1,n4945__1_3_1_1_3
n4946__1_3_1_1,n4946__1_3_1_1_3
n4948__1_3_1_1,n4948__1_3_1_1_3
n4950__1_3_1_1,n4950__1_3_1_1_3
n4951__1_3_1_1,n4951__1_3_1_1_3
n4952__1_3_1_1,n4952__1_3_1_1_3
n4953__1_3_1_1,n4953__1_3_1_1_3
n4956__1_3_1_1,n4956__1_3_1_1_3
n4958__1_3_1_1,n4958__1_3_1_1_3
n4959__1_3_1_1,n4959__1_3_1_1_3
n4960__1_3_1_1,n4960__1_3_1_1_3
n4961__1_3_1_1,n4961__1_3_1_1_3
n4962__1_3_1_1,n4962__1_3_1_1_3
n4963__1_3_1_1,n4963__1_3_1_1_3
n4965__1_3_1_1,n4965__1_3_1_1_3
n4967__1_3_1_1,n4967__1_3_1_1_3
n4969__1_3_1_1,n4969__1_3_1_1_3
n4970__1_3_1_1,n4970__1_3_1_1_3
n4971__1_3_1_1,n4971__1_3_1_1_3
n4974__1_3_1_1,n4974__1_3_1_1_3
n4975__1_3_1_1,n4975__1_3_1_1_3
n4977__1_3_1_1,n4977__1_3_1_1_3
n4979__1_3_1_1,n4979__1_3_1_1_3
n4980__1_3_1_1,n4980__1_3_1_1_3
n4981__1_3_1_1,n4981__1_3_1_1_3
n4983__1_3_1_1,n4983__1_3_1_1_3
n4985__1_3_1_1,n4985__1_3_1_1_3
n4987__1_3_1_1,n4987__1_3_1_1_3
n4988__1_3_1_1,n4988__1_3_1_1_3
n4989__1_3_1_1,n4989__1_3_1_1_3
n4990__1_3_1_1,n4990__1_3_1_1_3
n4991__1_3_1_1,n4991__1_3_1_1_3
n4994__1_3_1_1,n4994__1_3_1_1_3
n4995__1_3_1_1,n4995__1_3_1_1_3
n4996__1_3_1_1,n4996__1_3_1_1_3
n4997__1_3_1_1,n4997__1_3_1_1_3
n4998__1_3_1_1,n4998__1_3_1_1_3
n4999__1_3_1_1,n4999__1_3_1_1_3
n5000__1_3_1_1,n5000__1_3_1_1_3
n5005__1_3_1_1,n5005__1_3_1_1_3
n5006__1_3_1_1,n5006__1_3_1_1_3
n5008__1_3_1_1,n5008__1_3_1_1_3
n5010__1_3_1_1,n5010__1_3_1_1_3
n5011__1_3_1_1,n5011__1_3_1_1_3
n5012__1_3_1_1,n5012__1_3_1_1_3
n5015__1_3_1_1,n5015__1_3_1_1_3
n5019__1_3_1_1,n5019__1_3_1_1_3
n5020__1_3_1_1,n5020__1_3_1_1_3
n5023__1_3_1_1,n5023__1_3_1_1_3
n5026__1_3_1_1,n5026__1_3_1_1_3
n5028__1_3_1_1,n5028__1_3_1_1_3
n5029__1_3_1_1,n5029__1_3_1_1_3
n5031__1_3_1_1,n5031__1_3_1_1_3
n5032__1_3_1_1,n5032__1_3_1_1_3
n5033__1_3_1_1,n5033__1_3_1_1_3
n5037__1_3_1_1,n5037__1_3_1_1_3
n5038__1_3_1_1,n5038__1_3_1_1_3
n5039__1_3_1_1,n5039__1_3_1_1_3
n5042__1_3_1_1,n5042__1_3_1_1_3
n5044__1_3_1_1,n5044__1_3_1_1_3
n5045__1_3_1_1,n5045__1_3_1_1_3
n5047__1_3_1_1,n5047__1_3_1_1_3
n5048__1_3_1_1,n5048__1_3_1_1_3
n5051__1_3_1_1,n5051__1_3_1_1_3
n5052__1_3_1_1,n5052__1_3_1_1_3
n5053__1_3_1_1,n5053__1_3_1_1_3
n5055__1_3_1_1,n5055__1_3_1_1_3
n5056__1_3_1_1,n5056__1_3_1_1_3
n5057__1_3_1_1,n5057__1_3_1_1_3
n5059__1_3_1_1,n5059__1_3_1_1_3
n5061__1_3_1_1,n5061__1_3_1_1_3
n5062__1_3_1_1,n5062__1_3_1_1_3
n5063__1_3_1_1,n5063__1_3_1_1_3
n5065__1_3_1_1,n5065__1_3_1_1_3
n5069__1_3_1_1,n5069__1_3_1_1_3
n5070__1_3_1_1,n5070__1_3_1_1_3
n5071__1_3_1_1,n5071__1_3_1_1_3
n5072__1_3_1_1,n5072__1_3_1_1_3
n5073__1_3_1_1,n5073__1_3_1_1_3
n5076__1_3_1_1,n5076__1_3_1_1_3
n5078__1_3_1_1,n5078__1_3_1_1_3
n5079__1_3_1_1,n5079__1_3_1_1_3
n5080__1_3_1_1,n5080__1_3_1_1_3
n5082__1_3_1_1,n5082__1_3_1_1_3
n5084__1_3_1_1,n5084__1_3_1_1_3
n5086__1_3_1_1,n5086__1_3_1_1_3
n5087__1_3_1_1,n5087__1_3_1_1_3
n5088__1_3_1_1,n5088__1_3_1_1_3
n5089__1_3_1_1,n5089__1_3_1_1_3
n5091__1_3_1_1,n5091__1_3_1_1_3
n5094__1_3_1_1,n5094__1_3_1_1_3
n5098__1_3_1_1,n5098__1_3_1_1_3
n5101__1_3_1_1,n5101__1_3_1_1_3
n5103__1_3_1_1,n5103__1_3_1_1_3
n5105__1_3_1_1,n5105__1_3_1_1_3
n5106__1_3_1_1,n5106__1_3_1_1_3
n5108__1_3_1_1,n5108__1_3_1_1_3
n5110__1_3_1_1,n5110__1_3_1_1_3
n5113__1_3_1_1,n5113__1_3_1_1_3
n5114__1_3_1_1,n5114__1_3_1_1_3
n5121__1_3_1_1,n5121__1_3_1_1_3
n5123__1_3_1_1,n5123__1_3_1_1_3
n5127__1_3_1_1,n5127__1_3_1_1_3
n5129__1_3_1_1,n5129__1_3_1_1_3
n5131__1_3_1_1,n5131__1_3_1_1_3
n5134__1_3_1_1,n5134__1_3_1_1_3
n5135__1_3_1_1,n5135__1_3_1_1_3
n5138__1_3_1_1,n5138__1_3_1_1_3
n5143__1_3_1_1,n5143__1_3_1_1_3
n5144__1_3_1_1,n5144__1_3_1_1_3
n5145__1_3_1_1,n5145__1_3_1_1_3
n5147__1_3_1_1,n5147__1_3_1_1_3
n5149__1_3_1_1,n5149__1_3_1_1_3
n5150__1_3_1_1,n5150__1_3_1_1_3
n5151__1_3_1_1,n5151__1_3_1_1_3
n5152__1_3_1_1,n5152__1_3_1_1_3
n5155__1_3_1_1,n5155__1_3_1_1_3
n5156__1_3_1_1,n5156__1_3_1_1_3
n5157__1_3_1_1,n5157__1_3_1_1_3
n5158__1_3_1_1,n5158__1_3_1_1_3
n5160__1_3_1_1,n5160__1_3_1_1_3
n5164__1_3_1_1,n5164__1_3_1_1_3
n5165__1_3_1_1,n5165__1_3_1_1_3
n5166__1_3_1_1,n5166__1_3_1_1_3
n5170__1_3_1_1,n5170__1_3_1_1_3
n5172__1_3_1_1,n5172__1_3_1_1_3
n5173__1_3_1_1,n5173__1_3_1_1_3
n5174__1_3_1_1,n5174__1_3_1_1_3
n5175__1_3_1_1,n5175__1_3_1_1_3
n5176__1_3_1_1,n5176__1_3_1_1_3
n5179__1_3_1_1,n5179__1_3_1_1_3
n5181__1_3_1_1,n5181__1_3_1_1_3
n5184__1_3_1_1,n5184__1_3_1_1_3
n5186__1_3_1_1,n5186__1_3_1_1_3
n5188__1_3_1_1,n5188__1_3_1_1_3
n5189__1_3_1_1,n5189__1_3_1_1_3
n5193__1_3_1_1,n5193__1_3_1_1_3
n5194__1_3_1_1,n5194__1_3_1_1_3
n5195__1_3_1_1,n5195__1_3_1_1_3
n5197__1_3_1_1,n5197__1_3_1_1_3
n5198__1_3_1_1,n5198__1_3_1_1_3
n5200__1_3_1_1,n5200__1_3_1_1_3
n5202__1_3_1_1,n5202__1_3_1_1_3
n5211__1_3_1_1,n5211__1_3_1_1_3
n5216__1_3_1_1,n5216__1_3_1_1_3
n5217__1_3_1_1,n5217__1_3_1_1_3
n5218__1_3_1_1,n5218__1_3_1_1_3
n5219__1_3_1_1,n5219__1_3_1_1_3
n5220__1_3_1_1,n5220__1_3_1_1_3
n5222__1_3_1_1,n5222__1_3_1_1_3
n5226__1_3_1_1,n5226__1_3_1_1_3
n5229__1_3_1_1,n5229__1_3_1_1_3
n5230__1_3_1_1,n5230__1_3_1_1_3
n5233__1_3_1_1,n5233__1_3_1_1_3
n5234__1_3_1_1,n5234__1_3_1_1_3
n5235__1_3_1_1,n5235__1_3_1_1_3
n5238__1_3_1_1,n5238__1_3_1_1_3
n5239__1_3_1_1,n5239__1_3_1_1_3
n5241__1_3_1_1,n5241__1_3_1_1_3
n5242__1_3_1_1,n5242__1_3_1_1_3
n5247__1_3_1_1,n5247__1_3_1_1_3
n5248__1_3_1_1,n5248__1_3_1_1_3
n5251__1_3_1_1,n5251__1_3_1_1_3
n5252__1_3_1_1,n5252__1_3_1_1_3
n5254__1_3_1_1,n5254__1_3_1_1_3
n5256__1_3_1_1,n5256__1_3_1_1_3
n5258__1_3_1_1,n5258__1_3_1_1_3
n5260__1_3_1_1,n5260__1_3_1_1_3
n5262__1_3_1_1,n5262__1_3_1_1_3
n5265__1_3_1_1,n5265__1_3_1_1_3
n5267__1_3_1_1,n5267__1_3_1_1_3
n5269__1_3_1_1,n5269__1_3_1_1_3
n5272__1_3_1_1,n5272__1_3_1_1_3
n5273__1_3_1_1,n5273__1_3_1_1_3
n5274__1_3_1_1,n5274__1_3_1_1_3
n5275__1_3_1_1,n5275__1_3_1_1_3
n5276__1_3_1_1,n5276__1_3_1_1_3
n5277__1_3_1_1,n5277__1_3_1_1_3
n5283__1_3_1_1,n5283__1_3_1_1_3
n5284__1_3_1_1,n5284__1_3_1_1_3
n5285__1_3_1_1,n5285__1_3_1_1_3
n5288__1_3_1_1,n5288__1_3_1_1_3
n5289__1_3_1_1,n5289__1_3_1_1_3
n5291__1_3_1_1,n5291__1_3_1_1_3
n5293__1_3_1_1,n5293__1_3_1_1_3
n5294__1_3_1_1,n5294__1_3_1_1_3
n5296__1_3_1_1,n5296__1_3_1_1_3
n5297__1_3_1_1,n5297__1_3_1_1_3
n5298__1_3_1_1,n5298__1_3_1_1_3
n5300__1_3_1_1,n5300__1_3_1_1_3
n5301__1_3_1_1,n5301__1_3_1_1_3
n5302__1_3_1_1,n5302__1_3_1_1_3
n5305__1_3_1_1,n5305__1_3_1_1_3
n5307__1_3_1_1,n5307__1_3_1_1_3
n5308__1_3_1_1,n5308__1_3_1_1_3
n5310__1_3_1_1,n5310__1_3_1_1_3
n5311__1_3_1_1,n5311__1_3_1_1_3
n5312__1_3_1_1,n5312__1_3_1_1_3
n5315__1_3_1_1,n5315__1_3_1_1_3
n5317__1_3_1_1,n5317__1_3_1_1_3
n5318__1_3_1_1,n5318__1_3_1_1_3
n5319__1_3_1_1,n5319__1_3_1_1_3
n5321__1_3_1_1,n5321__1_3_1_1_3
n5325__1_3_1_1,n5325__1_3_1_1_3
n5332__1_3_1_1,n5332__1_3_1_1_3
n5334__1_3_1_1,n5334__1_3_1_1_3
n5335__1_3_1_1,n5335__1_3_1_1_3
n5336__1_3_1_1,n5336__1_3_1_1_3
n5337__1_3_1_1,n5337__1_3_1_1_3
n5338__1_3_1_1,n5338__1_3_1_1_3
n5340__1_3_1_1,n5340__1_3_1_1_3
n5342__1_3_1_1,n5342__1_3_1_1_3
n5344__1_3_1_1,n5344__1_3_1_1_3
n5345__1_3_1_1,n5345__1_3_1_1_3
n5349__1_3_1_1,n5349__1_3_1_1_3
n5351__1_3_1_1,n5351__1_3_1_1_3
n5353__1_3_1_1,n5353__1_3_1_1_3
n5359__1_3_1_1,n5359__1_3_1_1_3
n5360__1_3_1_1,n5360__1_3_1_1_3
n5363__1_3_1_1,n5363__1_3_1_1_3
n5364__1_3_1_1,n5364__1_3_1_1_3
n5365__1_3_1_1,n5365__1_3_1_1_3
n5367__1_3_1_1,n5367__1_3_1_1_3
n5373__1_3_1_1,n5373__1_3_1_1_3
n5374__1_3_1_1,n5374__1_3_1_1_3
n5375__1_3_1_1,n5375__1_3_1_1_3
n5376__1_3_1_1,n5376__1_3_1_1_3
n5377__1_3_1_1,n5377__1_3_1_1_3
n5378__1_3_1_1,n5378__1_3_1_1_3
n5379__1_3_1_1,n5379__1_3_1_1_3
n5381__1_3_1_1,n5381__1_3_1_1_3
n5387__1_3_1_1,n5387__1_3_1_1_3
n5389__1_3_1_1,n5389__1_3_1_1_3
n5392__1_3_1_1,n5392__1_3_1_1_3
n5393__1_3_1_1,n5393__1_3_1_1_3
n5394__1_3_1_1,n5394__1_3_1_1_3
n5396__1_3_1_1,n5396__1_3_1_1_3
n5399__1_3_1_1,n5399__1_3_1_1_3
n5403__1_3_1_1,n5403__1_3_1_1_3
n5404__1_3_1_1,n5404__1_3_1_1_3
n5405__1_3_1_1,n5405__1_3_1_1_3
n5406__1_3_1_1,n5406__1_3_1_1_3
n5410__1_3_1_1,n5410__1_3_1_1_3
n5411__1_3_1_1,n5411__1_3_1_1_3
n5413__1_3_1_1,n5413__1_3_1_1_3
n5414__1_3_1_1,n5414__1_3_1_1_3
n5416__1_3_1_1,n5416__1_3_1_1_3
n5419__1_3_1_1,n5419__1_3_1_1_3
n5422__1_3_1_1,n5422__1_3_1_1_3
n5425__1_3_1_1,n5425__1_3_1_1_3
n5426__1_3_1_1,n5426__1_3_1_1_3
n5429__1_3_1_1,n5429__1_3_1_1_3
n5430__1_3_1_1,n5430__1_3_1_1_3
n5431__1_3_1_1,n5431__1_3_1_1_3
n5432__1_3_1_1,n5432__1_3_1_1_3
n5433__1_3_1_1,n5433__1_3_1_1_3
n5437__1_3_1_1,n5437__1_3_1_1_3
n5438__1_3_1_1,n5438__1_3_1_1_3
n5439__1_3_1_1,n5439__1_3_1_1_3
n5442__1_3_1_1,n5442__1_3_1_1_3
n5444__1_3_1_1,n5444__1_3_1_1_3
n5445__1_3_1_1,n5445__1_3_1_1_3
n5450__1_3_1_1,n5450__1_3_1_1_3
n5453__1_3_1_1,n5453__1_3_1_1_3
n5454__1_3_1_1,n5454__1_3_1_1_3
n5455__1_3_1_1,n5455__1_3_1_1_3
n5458__1_3_1_1,n5458__1_3_1_1_3
n5459__1_3_1_1,n5459__1_3_1_1_3
n5461__1_3_1_1,n5461__1_3_1_1_3
n5464__1_3_1_1,n5464__1_3_1_1_3
n5468__1_3_1_1,n5468__1_3_1_1_3
n5469__1_3_1_1,n5469__1_3_1_1_3
n5472__1_3_1_1,n5472__1_3_1_1_3
n5473__1_3_1_1,n5473__1_3_1_1_3
n5475__1_3_1_1,n5475__1_3_1_1_3
n5477__1_3_1_1,n5477__1_3_1_1_3
n5478__1_3_1_1,n5478__1_3_1_1_3
n5484__1_3_1_1,n5484__1_3_1_1_3
n5486__1_3_1_1,n5486__1_3_1_1_3
n5488__1_3_1_1,n5488__1_3_1_1_3
n5494__1_3_1_1,n5494__1_3_1_1_3
n5495__1_3_1_1,n5495__1_3_1_1_3
n5501__1_3_1_1,n5501__1_3_1_1_3
n5503__1_3_1_1,n5503__1_3_1_1_3
n5504__1_3_1_1,n5504__1_3_1_1_3
n5506__1_3_1_1,n5506__1_3_1_1_3
n5508__1_3_1_1,n5508__1_3_1_1_3
n5509__1_3_1_1,n5509__1_3_1_1_3
n5511__1_3_1_1,n5511__1_3_1_1_3
n5516__1_3_1_1,n5516__1_3_1_1_3
n5520__1_3_1_1,n5520__1_3_1_1_3
n5521__1_3_1_1,n5521__1_3_1_1_3
n5522__1_3_1_1,n5522__1_3_1_1_3
n5524__1_3_1_1,n5524__1_3_1_1_3
n5529__1_3_1_1,n5529__1_3_1_1_3
n5532__1_3_1_1,n5532__1_3_1_1_3
n5533__1_3_1_1,n5533__1_3_1_1_3
n5535__1_3_1_1,n5535__1_3_1_1_3
n5537__1_3_1_1,n5537__1_3_1_1_3
n5543__1_3_1_1,n5543__1_3_1_1_3
n5544__1_3_1_1,n5544__1_3_1_1_3
n5547__1_3_1_1,n5547__1_3_1_1_3
n5549__1_3_1_1,n5549__1_3_1_1_3
n5551__1_3_1_1,n5551__1_3_1_1_3
n5552__1_3_1_1,n5552__1_3_1_1_3
n5553__1_3_1_1,n5553__1_3_1_1_3
n5555__1_3_1_1,n5555__1_3_1_1_3
n5557__1_3_1_1,n5557__1_3_1_1_3
n5558__1_3_1_1,n5558__1_3_1_1_3
n5560__1_3_1_1,n5560__1_3_1_1_3
n5564__1_3_1_1,n5564__1_3_1_1_3
n5568__1_3_1_1,n5568__1_3_1_1_3
n5569__1_3_1_1,n5569__1_3_1_1_3
n5570__1_3_1_1,n5570__1_3_1_1_3
n5574__1_3_1_1,n5574__1_3_1_1_3
n5576__1_3_1_1,n5576__1_3_1_1_3
n5577__1_3_1_1,n5577__1_3_1_1_3
n5579__1_3_1_1,n5579__1_3_1_1_3
n5580__1_3_1_1,n5580__1_3_1_1_3
n5581__1_3_1_1,n5581__1_3_1_1_3
n5582__1_3_1_1,n5582__1_3_1_1_3
n5583__1_3_1_1,n5583__1_3_1_1_3
n5584__1_3_1_1,n5584__1_3_1_1_3
n5585__1_3_1_1,n5585__1_3_1_1_3
n5587__1_3_1_1,n5587__1_3_1_1_3
n5588__1_3_1_1,n5588__1_3_1_1_3
n5591__1_3_1_1,n5591__1_3_1_1_3
n5592__1_3_1_1,n5592__1_3_1_1_3
n5593__1_3_1_1,n5593__1_3_1_1_3
n5595__1_3_1_1,n5595__1_3_1_1_3
n5596__1_3_1_1,n5596__1_3_1_1_3
n5598__1_3_1_1,n5598__1_3_1_1_3
n5600__1_3_1_1,n5600__1_3_1_1_3
n5608__1_3_1_1,n5608__1_3_1_1_3
n5609__1_3_1_1,n5609__1_3_1_1_3
n5610__1_3_1_1,n5610__1_3_1_1_3
n5611__1_3_1_1,n5611__1_3_1_1_3
n5614__1_3_1_1,n5614__1_3_1_1_3
n5615__1_3_1_1,n5615__1_3_1_1_3
n5617__1_3_1_1,n5617__1_3_1_1_3
n5619__1_3_1_1,n5619__1_3_1_1_3
n5621__1_3_1_1,n5621__1_3_1_1_3
n5622__1_3_1_1,n5622__1_3_1_1_3
n5623__1_3_1_1,n5623__1_3_1_1_3
n5625__1_3_1_1,n5625__1_3_1_1_3
n5629__1_3_1_1,n5629__1_3_1_1_3
n5630__1_3_1_1,n5630__1_3_1_1_3
n5635__1_3_1_1,n5635__1_3_1_1_3
n5636__1_3_1_1,n5636__1_3_1_1_3
n5638__1_3_1_1,n5638__1_3_1_1_3
n5639__1_3_1_1,n5639__1_3_1_1_3
n5641__1_3_1_1,n5641__1_3_1_1_3
n5642__1_3_1_1,n5642__1_3_1_1_3
n5643__1_3_1_1,n5643__1_3_1_1_3
n5645__1_3_1_1,n5645__1_3_1_1_3
n5646__1_3_1_1,n5646__1_3_1_1_3
n5649__1_3_1_1,n5649__1_3_1_1_3
n5650__1_3_1_1,n5650__1_3_1_1_3
n5651__1_3_1_1,n5651__1_3_1_1_3
n5653__1_3_1_1,n5653__1_3_1_1_3
n5656__1_3_1_1,n5656__1_3_1_1_3
n5657__1_3_1_1,n5657__1_3_1_1_3
n5658__1_3_1_1,n5658__1_3_1_1_3
n5659__1_3_1_1,n5659__1_3_1_1_3
n5664__1_3_1_1,n5664__1_3_1_1_3
n5665__1_3_1_1,n5665__1_3_1_1_3
n5666__1_3_1_1,n5666__1_3_1_1_3
n5667__1_3_1_1,n5667__1_3_1_1_3
n5670__1_3_1_1,n5670__1_3_1_1_3
n5677__1_3_1_1,n5677__1_3_1_1_3
n5678__1_3_1_1,n5678__1_3_1_1_3
n5679__1_3_1_1,n5679__1_3_1_1_3
n5681__1_3_1_1,n5681__1_3_1_1_3
n5682__1_3_1_1,n5682__1_3_1_1_3
n5684__1_3_1_1,n5684__1_3_1_1_3
n5685__1_3_1_1,n5685__1_3_1_1_3
n5687__1_3_1_1,n5687__1_3_1_1_3
n5690__1_3_1_1,n5690__1_3_1_1_3
n5693__1_3_1_1,n5693__1_3_1_1_3
n5694__1_3_1_1,n5694__1_3_1_1_3
n5696__1_3_1_1,n5696__1_3_1_1_3
n5697__1_3_1_1,n5697__1_3_1_1_3
n5698__1_3_1_1,n5698__1_3_1_1_3
n5700__1_3_1_1,n5700__1_3_1_1_3
n5702__1_3_1_1,n5702__1_3_1_1_3
n5703__1_3_1_1,n5703__1_3_1_1_3
n5707__1_3_1_1,n5707__1_3_1_1_3
n5709__1_3_1_1,n5709__1_3_1_1_3
n5710__1_3_1_1,n5710__1_3_1_1_3
n5711__1_3_1_1,n5711__1_3_1_1_3
n5712__1_3_1_1,n5712__1_3_1_1_3
n5716__1_3_1_1,n5716__1_3_1_1_3
n5718__1_3_1_1,n5718__1_3_1_1_3
n5719__1_3_1_1,n5719__1_3_1_1_3
n5720__1_3_1_1,n5720__1_3_1_1_3
n5722__1_3_1_1,n5722__1_3_1_1_3
n5724__1_3_1_1,n5724__1_3_1_1_3
n5725__1_3_1_1,n5725__1_3_1_1_3
n5727__1_3_1_1,n5727__1_3_1_1_3
n5731__1_3_1_1,n5731__1_3_1_1_3
n5732__1_3_1_1,n5732__1_3_1_1_3
n5735__1_3_1_1,n5735__1_3_1_1_3
n5736__1_3_1_1,n5736__1_3_1_1_3
n5740__1_3_1_1,n5740__1_3_1_1_3
n5743__1_3_1_1,n5743__1_3_1_1_3
n5744__1_3_1_1,n5744__1_3_1_1_3
n5747__1_3_1_1,n5747__1_3_1_1_3
n5748__1_3_1_1,n5748__1_3_1_1_3
n5750__1_3_1_1,n5750__1_3_1_1_3
n5752__1_3_1_1,n5752__1_3_1_1_3
n5753__1_3_1_1,n5753__1_3_1_1_3
n5755__1_3_1_1,n5755__1_3_1_1_3
n5757__1_3_1_1,n5757__1_3_1_1_3
n5758__1_3_1_1,n5758__1_3_1_1_3
n5759__1_3_1_1,n5759__1_3_1_1_3
n5760__1_3_1_1,n5760__1_3_1_1_3
n5761__1_3_1_1,n5761__1_3_1_1_3
n5762__1_3_1_1,n5762__1_3_1_1_3
n5763__1_3_1_1,n5763__1_3_1_1_3
n5766__1_3_1_1,n5766__1_3_1_1_3
n5774__1_3_1_1,n5774__1_3_1_1_3
n5776__1_3_1_1,n5776__1_3_1_1_3
n5777__1_3_1_1,n5777__1_3_1_1_3
n5778__1_3_1_1,n5778__1_3_1_1_3
n5779__1_3_1_1,n5779__1_3_1_1_3
n5780__1_3_1_1,n5780__1_3_1_1_3
n5782__1_3_1_1,n5782__1_3_1_1_3
n5783__1_3_1_1,n5783__1_3_1_1_3
n5785__1_3_1_1,n5785__1_3_1_1_3
n5787__1_3_1_1,n5787__1_3_1_1_3
n5788__1_3_1_1,n5788__1_3_1_1_3
n5789__1_3_1_1,n5789__1_3_1_1_3
n5790__1_3_1_1,n5790__1_3_1_1_3
n5791__1_3_1_1,n5791__1_3_1_1_3
n5794__1_3_1_1,n5794__1_3_1_1_3
n5795__1_3_1_1,n5795__1_3_1_1_3
n5798__1_3_1_1,n5798__1_3_1_1_3
n5799__1_3_1_1,n5799__1_3_1_1_3
n5801__1_3_1_1,n5801__1_3_1_1_3
n5804__1_3_1_1,n5804__1_3_1_1_3
n5805__1_3_1_1,n5805__1_3_1_1_3
n5806__1_3_1_1,n5806__1_3_1_1_3
n5808__1_3_1_1,n5808__1_3_1_1_3
n5809__1_3_1_1,n5809__1_3_1_1_3
n5810__1_3_1_1,n5810__1_3_1_1_3
n5811__1_3_1_1,n5811__1_3_1_1_3
n5816__1_3_1_1,n5816__1_3_1_1_3
n5818__1_3_1_1,n5818__1_3_1_1_3
n5819__1_3_1_1,n5819__1_3_1_1_3
n5820__1_3_1_1,n5820__1_3_1_1_3
n5821__1_3_1_1,n5821__1_3_1_1_3
n5822__1_3_1_1,n5822__1_3_1_1_3
n5824__1_3_1_1,n5824__1_3_1_1_3
n5826__1_3_1_1,n5826__1_3_1_1_3
n5831__1_3_1_1,n5831__1_3_1_1_3
n5832__1_3_1_1,n5832__1_3_1_1_3
n5833__1_3_1_1,n5833__1_3_1_1_3
n5834__1_3_1_1,n5834__1_3_1_1_3
n5836__1_3_1_1,n5836__1_3_1_1_3
n5839__1_3_1_1,n5839__1_3_1_1_3
n5841__1_3_1_1,n5841__1_3_1_1_3
n5843__1_3_1_1,n5843__1_3_1_1_3
n5844__1_3_1_1,n5844__1_3_1_1_3
n5845__1_3_1_1,n5845__1_3_1_1_3
n5848__1_3_1_1,n5848__1_3_1_1_3
n5852__1_3_1_1,n5852__1_3_1_1_3
n5862__1_3_1_1,n5862__1_3_1_1_3
n5865__1_3_1_1,n5865__1_3_1_1_3
n5868__1_3_1_1,n5868__1_3_1_1_3
n5870__1_3_1_1,n5870__1_3_1_1_3
n5871__1_3_1_1,n5871__1_3_1_1_3
n5872__1_3_1_1,n5872__1_3_1_1_3
n5875__1_3_1_1,n5875__1_3_1_1_3
n5877__1_3_1_1,n5877__1_3_1_1_3
n5879__1_3_1_1,n5879__1_3_1_1_3
n5883__1_3_1_1,n5883__1_3_1_1_3
n5884__1_3_1_1,n5884__1_3_1_1_3
n5888__1_3_1_1,n5888__1_3_1_1_3
n5891__1_3_1_1,n5891__1_3_1_1_3
n5893__1_3_1_1,n5893__1_3_1_1_3
n5894__1_3_1_1,n5894__1_3_1_1_3
n5895__1_3_1_1,n5895__1_3_1_1_3
n5897__1_3_1_1,n5897__1_3_1_1_3
n5898__1_3_1_1,n5898__1_3_1_1_3
n5899__1_3_1_1,n5899__1_3_1_1_3
n5902__1_3_1_1,n5902__1_3_1_1_3
n5907__1_3_1_1,n5907__1_3_1_1_3
n5908__1_3_1_1,n5908__1_3_1_1_3
n5909__1_3_1_1,n5909__1_3_1_1_3
n5912__1_3_1_1,n5912__1_3_1_1_3
n5915__1_3_1_1,n5915__1_3_1_1_3
n5916__1_3_1_1,n5916__1_3_1_1_3
n5917__1_3_1_1,n5917__1_3_1_1_3
n5919__1_3_1_1,n5919__1_3_1_1_3
n5920__1_3_1_1,n5920__1_3_1_1_3
n5921__1_3_1_1,n5921__1_3_1_1_3
n5924__1_3_1_1,n5924__1_3_1_1_3
n5926__1_3_1_1,n5926__1_3_1_1_3
n5927__1_3_1_1,n5927__1_3_1_1_3
n5928__1_3_1_1,n5928__1_3_1_1_3
n5929__1_3_1_1,n5929__1_3_1_1_3
n5933__1_3_1_1,n5933__1_3_1_1_3
n5936__1_3_1_1,n5936__1_3_1_1_3
n5938__1_3_1_1,n5938__1_3_1_1_3
n5939__1_3_1_1,n5939__1_3_1_1_3
n5940__1_3_1_1,n5940__1_3_1_1_3
n5941__1_3_1_1,n5941__1_3_1_1_3
n5942__1_3_1_1,n5942__1_3_1_1_3
n5944__1_3_1_1,n5944__1_3_1_1_3
n5945__1_3_1_1,n5945__1_3_1_1_3
n5947__1_3_1_1,n5947__1_3_1_1_3
n5949__1_3_1_1,n5949__1_3_1_1_3
n5951__1_3_1_1,n5951__1_3_1_1_3
n5952__1_3_1_1,n5952__1_3_1_1_3
n5953__1_3_1_1,n5953__1_3_1_1_3
n5954__1_3_1_1,n5954__1_3_1_1_3
n5957__1_3_1_1,n5957__1_3_1_1_3
n5958__1_3_1_1,n5958__1_3_1_1_3
n5959__1_3_1_1,n5959__1_3_1_1_3
n5960__1_3_1_1,n5960__1_3_1_1_3
n5961__1_3_1_1,n5961__1_3_1_1_3
n5964__1_3_1_1,n5964__1_3_1_1_3
n5965__1_3_1_1,n5965__1_3_1_1_3
n5966__1_3_1_1,n5966__1_3_1_1_3
n5968__1_3_1_1,n5968__1_3_1_1_3
n5969__1_3_1_1,n5969__1_3_1_1_3
n5970__1_3_1_1,n5970__1_3_1_1_3
n5971__1_3_1_1,n5971__1_3_1_1_3
n5972__1_3_1_1,n5972__1_3_1_1_3
n5975__1_3_1_1,n5975__1_3_1_1_3
n5976__1_3_1_1,n5976__1_3_1_1_3
n5977__1_3_1_1,n5977__1_3_1_1_3
n5979__1_3_1_1,n5979__1_3_1_1_3
n5980__1_3_1_1,n5980__1_3_1_1_3
n5983__1_3_1_1,n5983__1_3_1_1_3
n5988__1_3_1_1,n5988__1_3_1_1_3
n5989__1_3_1_1,n5989__1_3_1_1_3
n5991__1_3_1_1,n5991__1_3_1_1_3
n5992__1_3_1_1,n5992__1_3_1_1_3
n5993__1_3_1_1,n5993__1_3_1_1_3
n5994__1_3_1_1,n5994__1_3_1_1_3
n5995__1_3_1_1,n5995__1_3_1_1_3
n5996__1_3_1_1,n5996__1_3_1_1_3
n5999__1_3_1_1,n5999__1_3_1_1_3
n6001__1_3_1_1,n6001__1_3_1_1_3
n6004__1_3_1_1,n6004__1_3_1_1_3
n6005__1_3_1_1,n6005__1_3_1_1_3
n6006__1_3_1_1,n6006__1_3_1_1_3
n6008__1_3_1_1,n6008__1_3_1_1_3
n6009__1_3_1_1,n6009__1_3_1_1_3
n6010__1_3_1_1,n6010__1_3_1_1_3
n6011__1_3_1_1,n6011__1_3_1_1_3
n6012__1_3_1_1,n6012__1_3_1_1_3
n6017__1_3_1_1,n6017__1_3_1_1_3
n6018__1_3_1_1,n6018__1_3_1_1_3
n6020__1_3_1_1,n6020__1_3_1_1_3
n6026__1_3_1_1,n6026__1_3_1_1_3
n6027__1_3_1_1,n6027__1_3_1_1_3
n6031__1_3_1_1,n6031__1_3_1_1_3
n6032__1_3_1_1,n6032__1_3_1_1_3
n6033__1_3_1_1,n6033__1_3_1_1_3
n6034__1_3_1_1,n6034__1_3_1_1_3
n6036__1_3_1_1,n6036__1_3_1_1_3
n6037__1_3_1_1,n6037__1_3_1_1_3
n6041__1_3_1_1,n6041__1_3_1_1_3
n6044__1_3_1_1,n6044__1_3_1_1_3
n6045__1_3_1_1,n6045__1_3_1_1_3
n6046__1_3_1_1,n6046__1_3_1_1_3
n6048__1_3_1_1,n6048__1_3_1_1_3
n6054__1_3_1_1,n6054__1_3_1_1_3
n6055__1_3_1_1,n6055__1_3_1_1_3
n6056__1_3_1_1,n6056__1_3_1_1_3
n6057__1_3_1_1,n6057__1_3_1_1_3
n6058__1_3_1_1,n6058__1_3_1_1_3
n6062__1_3_1_1,n6062__1_3_1_1_3
n6064__1_3_1_1,n6064__1_3_1_1_3
n6065__1_3_1_1,n6065__1_3_1_1_3
n6066__1_3_1_1,n6066__1_3_1_1_3
n6070__1_3_1_1,n6070__1_3_1_1_3
n6071__1_3_1_1,n6071__1_3_1_1_3
n6072__1_3_1_1,n6072__1_3_1_1_3
n6075__1_3_1_1,n6075__1_3_1_1_3
n6077__1_3_1_1,n6077__1_3_1_1_3
n6080__1_3_1_1,n6080__1_3_1_1_3
n6082__1_3_1_1,n6082__1_3_1_1_3
n6085__1_3_1_1,n6085__1_3_1_1_3
n6093__1_3_1_1,n6093__1_3_1_1_3
n6098__1_3_1_1,n6098__1_3_1_1_3
n6100__1_3_1_1,n6100__1_3_1_1_3
n6102__1_3_1_1,n6102__1_3_1_1_3
n6103__1_3_1_1,n6103__1_3_1_1_3
n6104__1_3_1_1,n6104__1_3_1_1_3
n6106__1_3_1_1,n6106__1_3_1_1_3
n6108__1_3_1_1,n6108__1_3_1_1_3
n6114__1_3_1_1,n6114__1_3_1_1_3
n6116__1_3_1_1,n6116__1_3_1_1_3
n6118__1_3_1_1,n6118__1_3_1_1_3
n6119__1_3_1_1,n6119__1_3_1_1_3
n6121__1_3_1_1,n6121__1_3_1_1_3
n6122__1_3_1_1,n6122__1_3_1_1_3
