n56_3_1,n56_3_1_1
n57_3_1,n57_3_1_1
n58_3_1,n58_3_1_1
n59_3_1,n59_3_1_1
n60_3_1,n60_3_1_1
n61_3_1,n61_3_1_1
n62_3_1,n62_3_1_1
n63_3_1,n63_3_1_1
n64_3_1,n64_3_1_1
n65_3_1,n65_3_1_1
n66_3_1,n66_3_1_1
n67_3_1,n67_3_1_1
n68_3_1,n68_3_1_1
n69_3_1,n69_3_1_1
n70_3_1,n70_3_1_1
n71_3_1,n71_3_1_1
n72_3_1,n72_3_1_1
n73_3_1,n73_3_1_1
n74_3_1,n74_3_1_1
n75_3_1,n75_3_1_1
n76_3_1,n76_3_1_1
n77_3_1,n77_3_1_1
n78_3_1,n78_3_1_1
n79_3_1,n79_3_1_1
n80_3_1,n80_3_1_1
n81_3_1,n81_3_1_1
n82_3_1,n82_3_1_1
n83_3_1,n83_3_1_1
n84_3_1,n84_3_1_1
n85_3_1,n85_3_1_1
n86_3_1,n86_3_1_1
n87_3_1,n87_3_1_1
n88_3_1,n88_3_1_1
n89_3_1,n89_3_1_1
n90_3_1,n90_3_1_1
n91_3_1,n91_3_1_1
n92_3_1,n92_3_1_1
n93_3_1,n93_3_1_1
n94_3_1,n94_3_1_1
n95_3_1,n95_3_1_1
n96_3_1,n96_3_1_1
n97_3_1,n97_3_1_1
n98_3_1,n98_3_1_1
n99_3_1,n99_3_1_1
n100_3_1,n100_3_1_1
n101_3_1,n101_3_1_1
n102_3_1,n102_3_1_1
n103_3_1,n103_3_1_1
n104_3_1,n104_3_1_1
n105_3_1,n105_3_1_1
n106_3_1,n106_3_1_1
n107_3_1,n107_3_1_1
n108_3_1,n108_3_1_1
n109_3_1,n109_3_1_1
n110_3_1,n110_3_1_1
n111_3_1,n111_3_1_1
n112_3_1,n112_3_1_1
n113_3_1,n113_3_1_1
n114_3_1,n114_3_1_1
n115_3_1,n115_3_1_1
n116_3_1,n116_3_1_1
n117_3_1,n117_3_1_1
n118_3_1,n118_3_1_1
n119_3_1,n119_3_1_1
n120_3_1,n120_3_1_1
n121_3_1,n121_3_1_1
n122_3_1,n122_3_1_1
n123_3_1,n123_3_1_1
n124_3_1,n124_3_1_1
n125_3_1,n125_3_1_1
n126_3_1,n126_3_1_1
n127_3_1,n127_3_1_1
n128_3_1,n128_3_1_1
n129_3_1,n129_3_1_1
n130_3_1,n130_3_1_1
n131_3_1,n131_3_1_1
n132_3_1,n132_3_1_1
n133_3_1,n133_3_1_1
n134_3_1,n134_3_1_1
n135_3_1,n135_3_1_1
n136_3_1,n136_3_1_1
n137_3_1,n137_3_1_1
n138_3_1,n138_3_1_1
n139_3_1,n139_3_1_1
n140_3_1,n140_3_1_1
n141_3_1,n141_3_1_1
n142_3_1,n142_3_1_1
n143_3_1,n143_3_1_1
n144_3_1,n144_3_1_1
n145_3_1,n145_3_1_1
n146_3_1,n146_3_1_1
n147_3_1,n147_3_1_1
n148_3_1,n148_3_1_1
n149_3_1,n149_3_1_1
n150_3_1,n150_3_1_1
n151_3_1,n151_3_1_1
n152_3_1,n152_3_1_1
n153_3_1,n153_3_1_1
n154_3_1,n154_3_1_1
n155_3_1,n155_3_1_1
n156_3_1,n156_3_1_1
n157_3_1,n157_3_1_1
n158_3_1,n158_3_1_1
n159_3_1,n159_3_1_1
n160_3_1,n160_3_1_1
n161_3_1,n161_3_1_1
n162_3_1,n162_3_1_1
n163_3_1,n163_3_1_1
n164_3_1,n164_3_1_1
n165_3_1,n165_3_1_1
n166_3_1,n166_3_1_1
n167_3_1,n167_3_1_1
n168_3_1,n168_3_1_1
n169_3_1,n169_3_1_1
n170_3_1,n170_3_1_1
n171_3_1,n171_3_1_1
n172_3_1,n172_3_1_1
n173_3_1,n173_3_1_1
n174_3_1,n174_3_1_1
n175_3_1,n175_3_1_1
n176_3_1,n176_3_1_1
n177_3_1,n177_3_1_1
n178_3_1,n178_3_1_1
n179_3_1,n179_3_1_1
n180_3_1,n180_3_1_1
n181_3_1,n181_3_1_1
n182_3_1,n182_3_1_1
n183_3_1,n183_3_1_1
n184_3_1,n184_3_1_1
n185_3_1,n185_3_1_1
n186_3_1,n186_3_1_1
n187_3_1,n187_3_1_1
n188_3_1,n188_3_1_1
n189_3_1,n189_3_1_1
n190_3_1,n190_3_1_1
n191_3_1,n191_3_1_1
n192_3_1,n192_3_1_1
n193_3_1,n193_3_1_1
n194_3_1,n194_3_1_1
n195_3_1,n195_3_1_1
n196_3_1,n196_3_1_1
n197_3_1,n197_3_1_1
n198_3_1,n198_3_1_1
n199_3_1,n199_3_1_1
n200_3_1,n200_3_1_1
n201_3_1,n201_3_1_1
n202_3_1,n202_3_1_1
n203_3_1,n203_3_1_1
n204_3_1,n204_3_1_1
n205_3_1,n205_3_1_1
n206_3_1,n206_3_1_1
n207_3_1,n207_3_1_1
n208_3_1,n208_3_1_1
n209_3_1,n209_3_1_1
n210_3_1,n210_3_1_1
n211_3_1,n211_3_1_1
n212_3_1,n212_3_1_1
n213_3_1,n213_3_1_1
n214_3_1,n214_3_1_1
n215_3_1,n215_3_1_1
n216_3_1,n216_3_1_1
n217_3_1,n217_3_1_1
n218_3_1,n218_3_1_1
n219_3_1,n219_3_1_1
n220_3_1,n220_3_1_1
n221_3_1,n221_3_1_1
n222_3_1,n222_3_1_1
n223_3_1,n223_3_1_1
n224_3_1,n224_3_1_1
n225_3_1,n225_3_1_1
n226_3_1,n226_3_1_1
n227_3_1,n227_3_1_1
n228_3_1,n228_3_1_1
n229_3_1,n229_3_1_1
n230_3_1,n230_3_1_1
n231_3_1,n231_3_1_1
n232_3_1,n232_3_1_1
n233_3_1,n233_3_1_1
n234_3_1,n234_3_1_1
n235_3_1,n235_3_1_1
n236_3_1,n236_3_1_1
n237_3_1,n237_3_1_1
n238_3_1,n238_3_1_1
n239_3_1,n239_3_1_1
n240_3_1,n240_3_1_1
n241_3_1,n241_3_1_1
n242_3_1,n242_3_1_1
n243_3_1,n243_3_1_1
n244_3_1,n244_3_1_1
n245_3_1,n245_3_1_1
n246_3_1,n246_3_1_1
n247_3_1,n247_3_1_1
n248_3_1,n248_3_1_1
n249_3_1,n249_3_1_1
n250_3_1,n250_3_1_1
n251_3_1,n251_3_1_1
n252_3_1,n252_3_1_1
n253_3_1,n253_3_1_1
n254_3_1,n254_3_1_1
n255_3_1,n255_3_1_1
