n2276_3_1_1,n2276_3_1_1_1
n2277_3_1_1,n2277_3_1_1_1
n2278_3_1_1,n2278_3_1_1_1
n2279_3_1_1,n2279_3_1_1_1
n2280_3_1_1,n2280_3_1_1_1
n2281_3_1_1,n2281_3_1_1_1
n2282_3_1_1,n2282_3_1_1_1
n2283_3_1_1,n2283_3_1_1_1
n2284_3_1_1,n2284_3_1_1_1
n2285_3_1_1,n2285_3_1_1_1
n2286_3_1_1,n2286_3_1_1_1
n2287_3_1_1,n2287_3_1_1_1
n2288_3_1_1,n2288_3_1_1_1
n2289_3_1_1,n2289_3_1_1_1
n2290_3_1_1,n2290_3_1_1_1
n2291_3_1_1,n2291_3_1_1_1
n2292_3_1_1,n2292_3_1_1_1
n2293_3_1_1,n2293_3_1_1_1
n2294_3_1_1,n2294_3_1_1_1
n2295_3_1_1,n2295_3_1_1_1
n2296_3_1_1,n2296_3_1_1_1
n2297_3_1_1,n2297_3_1_1_1
n2298_3_1_1,n2298_3_1_1_1
n2299_3_1_1,n2299_3_1_1_1
n2300_3_1_1,n2300_3_1_1_1
n2301_3_1_1,n2301_3_1_1_1
n2302_3_1_1,n2302_3_1_1_1
n2303_3_1_1,n2303_3_1_1_1
n2304_3_1_1,n2304_3_1_1_1
n2305_3_1_1,n2305_3_1_1_1
n2306_3_1_1,n2306_3_1_1_1
n2307_3_1_1,n2307_3_1_1_1
n2308_3_1_1,n2308_3_1_1_1
n2309_3_1_1,n2309_3_1_1_1
n2310_3_1_1,n2310_3_1_1_1
n2311_3_1_1,n2311_3_1_1_1
n2312_3_1_1,n2312_3_1_1_1
n2313_3_1_1,n2313_3_1_1_1
n2314_3_1_1,n2314_3_1_1_1
n2315_3_1_1,n2315_3_1_1_1
n2316_3_1_1,n2316_3_1_1_1
n2317_3_1_1,n2317_3_1_1_1
n2318_3_1_1,n2318_3_1_1_1
n2319_3_1_1,n2319_3_1_1_1
n2320_3_1_1,n2320_3_1_1_1
n2321_3_1_1,n2321_3_1_1_1
n2322_3_1_1,n2322_3_1_1_1
n2323_3_1_1,n2323_3_1_1_1
n2324_3_1_1,n2324_3_1_1_1
n2325_3_1_1,n2325_3_1_1_1
n2326_3_1_1,n2326_3_1_1_1
n2327_3_1_1,n2327_3_1_1_1
n2328_3_1_1,n2328_3_1_1_1
n2329_3_1_1,n2329_3_1_1_1
n2330_3_1_1,n2330_3_1_1_1
n2331_3_1_1,n2331_3_1_1_1
n2332_3_1_1,n2332_3_1_1_1
n2333_3_1_1,n2333_3_1_1_1
n2334_3_1_1,n2334_3_1_1_1
n2335_3_1_1,n2335_3_1_1_1
n2336_3_1_1,n2336_3_1_1_1
n2337_3_1_1,n2337_3_1_1_1
n2338_3_1_1,n2338_3_1_1_1
n2339_3_1_1,n2339_3_1_1_1
n2340_3_1_1,n2340_3_1_1_1
n2341_3_1_1,n2341_3_1_1_1
n2342_3_1_1,n2342_3_1_1_1
n2343_3_1_1,n2343_3_1_1_1
n2344_3_1_1,n2344_3_1_1_1
n2345_3_1_1,n2345_3_1_1_1
n2346_3_1_1,n2346_3_1_1_1
n2347_3_1_1,n2347_3_1_1_1
n2348_3_1_1,n2348_3_1_1_1
n2349_3_1_1,n2349_3_1_1_1
n2350_3_1_1,n2350_3_1_1_1
n2351_3_1_1,n2351_3_1_1_1
n2352_3_1_1,n2352_3_1_1_1
n2353_3_1_1,n2353_3_1_1_1
n2354_3_1_1,n2354_3_1_1_1
n2355_3_1_1,n2355_3_1_1_1
n2356_3_1_1,n2356_3_1_1_1
n2357_3_1_1,n2357_3_1_1_1
n2358_3_1_1,n2358_3_1_1_1
n2359_3_1_1,n2359_3_1_1_1
n2360_3_1_1,n2360_3_1_1_1
n2361_3_1_1,n2361_3_1_1_1
n2362_3_1_1,n2362_3_1_1_1
n2363_3_1_1,n2363_3_1_1_1
n2364_3_1_1,n2364_3_1_1_1
n2365_3_1_1,n2365_3_1_1_1
n2366_3_1_1,n2366_3_1_1_1
n2367_3_1_1,n2367_3_1_1_1
n2368_3_1_1,n2368_3_1_1_1
n2369_3_1_1,n2369_3_1_1_1
n2370_3_1_1,n2370_3_1_1_1
n2371_3_1_1,n2371_3_1_1_1
n2372_3_1_1,n2372_3_1_1_1
n2373_3_1_1,n2373_3_1_1_1
n2374_3_1_1,n2374_3_1_1_1
n2375_3_1_1,n2375_3_1_1_1
