n12_3_1_1_1,n12_3_1_1_1_2
n17_3_1_1_1,n17_3_1_1_1_2
n21_3_1_1_1,n21_3_1_1_1_2
n50_3_1_1_1,n50_3_1_1_1_2
n72_3_1_1_1,n72_3_1_1_1_2
n83_3_1_1_1,n83_3_1_1_1_2
n84_3_1_1_1,n84_3_1_1_1_2
n92_3_1_1_1,n92_3_1_1_1_2
n94_3_1_1_1,n94_3_1_1_1_2
n135_3_1_1_1,n135_3_1_1_1_2
n138_3_1_1_1,n138_3_1_1_1_2
n146_3_1_1_1,n146_3_1_1_1_2
n153_3_1_1_1,n153_3_1_1_1_2
n161_3_1_1_1,n161_3_1_1_1_2
n187_3_1_1_1,n187_3_1_1_1_2
n188_3_1_1_1,n188_3_1_1_1_2
n189_3_1_1_1,n189_3_1_1_1_2
n209_3_1_1_1,n209_3_1_1_1_2
n223_3_1_1_1,n223_3_1_1_1_2
n228_3_1_1_1,n228_3_1_1_1_2
n233_3_1_1_1,n233_3_1_1_1_2
n244_3_1_1_1,n244_3_1_1_1_2
n267_3_1_1_1,n267_3_1_1_1_2
n284_3_1_1_1,n284_3_1_1_1_2
n285_3_1_1_1,n285_3_1_1_1_2
n306_3_1_1_1,n306_3_1_1_1_2
n328_3_1_1_1,n328_3_1_1_1_2
n334_3_1_1_1,n334_3_1_1_1_2
n337_3_1_1_1,n337_3_1_1_1_2
n346_3_1_1_1,n346_3_1_1_1_2
n356_3_1_1_1,n356_3_1_1_1_2
n360_3_1_1_1,n360_3_1_1_1_2
n363_3_1_1_1,n363_3_1_1_1_2
n365_3_1_1_1,n365_3_1_1_1_2
n392_3_1_1_1,n392_3_1_1_1_2
n395_3_1_1_1,n395_3_1_1_1_2
n400_3_1_1_1,n400_3_1_1_1_2
n402_3_1_1_1,n402_3_1_1_1_2
n404_3_1_1_1,n404_3_1_1_1_2
n422_3_1_1_1,n422_3_1_1_1_2
n433_3_1_1_1,n433_3_1_1_1_2
n435_3_1_1_1,n435_3_1_1_1_2
n438_3_1_1_1,n438_3_1_1_1_2
n451_3_1_1_1,n451_3_1_1_1_2
n456_3_1_1_1,n456_3_1_1_1_2
n467_3_1_1_1,n467_3_1_1_1_2
n469_3_1_1_1,n469_3_1_1_1_2
n473_3_1_1_1,n473_3_1_1_1_2
n481_3_1_1_1,n481_3_1_1_1_2
n495_3_1_1_1,n495_3_1_1_1_2
n497_3_1_1_1,n497_3_1_1_1_2
n510_3_1_1_1,n510_3_1_1_1_2
n517_3_1_1_1,n517_3_1_1_1_2
n536_3_1_1_1,n536_3_1_1_1_2
n538_3_1_1_1,n538_3_1_1_1_2
n555_3_1_1_1,n555_3_1_1_1_2
n564_3_1_1_1,n564_3_1_1_1_2
n569_3_1_1_1,n569_3_1_1_1_2
n575_3_1_1_1,n575_3_1_1_1_2
n588_3_1_1_1,n588_3_1_1_1_2
n594_3_1_1_1,n594_3_1_1_1_2
n596_3_1_1_1,n596_3_1_1_1_2
n597_3_1_1_1,n597_3_1_1_1_2
n599_3_1_1_1,n599_3_1_1_1_2
n604_3_1_1_1,n604_3_1_1_1_2
n616_3_1_1_1,n616_3_1_1_1_2
n623_3_1_1_1,n623_3_1_1_1_2
n643_3_1_1_1,n643_3_1_1_1_2
n655_3_1_1_1,n655_3_1_1_1_2
n663_3_1_1_1,n663_3_1_1_1_2
n674_3_1_1_1,n674_3_1_1_1_2
n690_3_1_1_1,n690_3_1_1_1_2
n692_3_1_1_1,n692_3_1_1_1_2
n700_3_1_1_1,n700_3_1_1_1_2
n704_3_1_1_1,n704_3_1_1_1_2
n760_3_1_1_1,n760_3_1_1_1_2
n762_3_1_1_1,n762_3_1_1_1_2
n800_3_1_1_1,n800_3_1_1_1_2
n803_3_1_1_1,n803_3_1_1_1_2
n806_3_1_1_1,n806_3_1_1_1_2
n821_3_1_1_1,n821_3_1_1_1_2
n824_3_1_1_1,n824_3_1_1_1_2
n826_3_1_1_1,n826_3_1_1_1_2
n827_3_1_1_1,n827_3_1_1_1_2
n831_3_1_1_1,n831_3_1_1_1_2
n842_3_1_1_1,n842_3_1_1_1_2
n857_3_1_1_1,n857_3_1_1_1_2
n858_3_1_1_1,n858_3_1_1_1_2
n860_3_1_1_1,n860_3_1_1_1_2
n877_3_1_1_1,n877_3_1_1_1_2
n879_3_1_1_1,n879_3_1_1_1_2
n883_3_1_1_1,n883_3_1_1_1_2
n894_3_1_1_1,n894_3_1_1_1_2
n895_3_1_1_1,n895_3_1_1_1_2
n905_3_1_1_1,n905_3_1_1_1_2
n909_3_1_1_1,n909_3_1_1_1_2
n912_3_1_1_1,n912_3_1_1_1_2
n922_3_1_1_1,n922_3_1_1_1_2
n930_3_1_1_1,n930_3_1_1_1_2
n935_3_1_1_1,n935_3_1_1_1_2
n938_3_1_1_1,n938_3_1_1_1_2
n945_3_1_1_1,n945_3_1_1_1_2
n949_3_1_1_1,n949_3_1_1_1_2
n956_3_1_1_1,n956_3_1_1_1_2
n958_3_1_1_1,n958_3_1_1_1_2
n961_3_1_1_1,n961_3_1_1_1_2
n965_3_1_1_1,n965_3_1_1_1_2
n998_3_1_1_1,n998_3_1_1_1_2
n1008_3_1_1_1,n1008_3_1_1_1_2
n1016_3_1_1_1,n1016_3_1_1_1_2
n1019_3_1_1_1,n1019_3_1_1_1_2
n1035_3_1_1_1,n1035_3_1_1_1_2
n1041_3_1_1_1,n1041_3_1_1_1_2
n1081_3_1_1_1,n1081_3_1_1_1_2
n1098_3_1_1_1,n1098_3_1_1_1_2
n1109_3_1_1_1,n1109_3_1_1_1_2
n1127_3_1_1_1,n1127_3_1_1_1_2
n1144_3_1_1_1,n1144_3_1_1_1_2
n1153_3_1_1_1,n1153_3_1_1_1_2
n1171_3_1_1_1,n1171_3_1_1_1_2
n1182_3_1_1_1,n1182_3_1_1_1_2
n1191_3_1_1_1,n1191_3_1_1_1_2
n1203_3_1_1_1,n1203_3_1_1_1_2
n1204_3_1_1_1,n1204_3_1_1_1_2
n1211_3_1_1_1,n1211_3_1_1_1_2
n1239_3_1_1_1,n1239_3_1_1_1_2
n1254_3_1_1_1,n1254_3_1_1_1_2
n1264_3_1_1_1,n1264_3_1_1_1_2
n1266_3_1_1_1,n1266_3_1_1_1_2
n1269_3_1_1_1,n1269_3_1_1_1_2
n1273_3_1_1_1,n1273_3_1_1_1_2
n1280_3_1_1_1,n1280_3_1_1_1_2
n1298_3_1_1_1,n1298_3_1_1_1_2
n1301_3_1_1_1,n1301_3_1_1_1_2
n1304_3_1_1_1,n1304_3_1_1_1_2
n1319_3_1_1_1,n1319_3_1_1_1_2
n1327_3_1_1_1,n1327_3_1_1_1_2
n1331_3_1_1_1,n1331_3_1_1_1_2
n1342_3_1_1_1,n1342_3_1_1_1_2
n1344_3_1_1_1,n1344_3_1_1_1_2
n1345_3_1_1_1,n1345_3_1_1_1_2
n1348_3_1_1_1,n1348_3_1_1_1_2
n1358_3_1_1_1,n1358_3_1_1_1_2
n1374_3_1_1_1,n1374_3_1_1_1_2
n1386_3_1_1_1,n1386_3_1_1_1_2
n1406_3_1_1_1,n1406_3_1_1_1_2
n1432_3_1_1_1,n1432_3_1_1_1_2
n1436_3_1_1_1,n1436_3_1_1_1_2
n1439_3_1_1_1,n1439_3_1_1_1_2
n1445_3_1_1_1,n1445_3_1_1_1_2
n1448_3_1_1_1,n1448_3_1_1_1_2
n1460_3_1_1_1,n1460_3_1_1_1_2
n1463_3_1_1_1,n1463_3_1_1_1_2
n1465_3_1_1_1,n1465_3_1_1_1_2
n1466_3_1_1_1,n1466_3_1_1_1_2
n1467_3_1_1_1,n1467_3_1_1_1_2
n1470_3_1_1_1,n1470_3_1_1_1_2
n1482_3_1_1_1,n1482_3_1_1_1_2
n1488_3_1_1_1,n1488_3_1_1_1_2
n1495_3_1_1_1,n1495_3_1_1_1_2
n1515_3_1_1_1,n1515_3_1_1_1_2
n1530_3_1_1_1,n1530_3_1_1_1_2
n1542_3_1_1_1,n1542_3_1_1_1_2
n1567_3_1_1_1,n1567_3_1_1_1_2
n1587_3_1_1_1,n1587_3_1_1_1_2
n1598_3_1_1_1,n1598_3_1_1_1_2
n1612_3_1_1_1,n1612_3_1_1_1_2
n1630_3_1_1_1,n1630_3_1_1_1_2
n1633_3_1_1_1,n1633_3_1_1_1_2
n1642_3_1_1_1,n1642_3_1_1_1_2
n1651_3_1_1_1,n1651_3_1_1_1_2
n1653_3_1_1_1,n1653_3_1_1_1_2
n1662_3_1_1_1,n1662_3_1_1_1_2
n1665_3_1_1_1,n1665_3_1_1_1_2
n1666_3_1_1_1,n1666_3_1_1_1_2
n1673_3_1_1_1,n1673_3_1_1_1_2
n1684_3_1_1_1,n1684_3_1_1_1_2
n1708_3_1_1_1,n1708_3_1_1_1_2
n1711_3_1_1_1,n1711_3_1_1_1_2
n1718_3_1_1_1,n1718_3_1_1_1_2
n1730_3_1_1_1,n1730_3_1_1_1_2
n1745_3_1_1_1,n1745_3_1_1_1_2
n1747_3_1_1_1,n1747_3_1_1_1_2
n1754_3_1_1_1,n1754_3_1_1_1_2
n1756_3_1_1_1,n1756_3_1_1_1_2
n1765_3_1_1_1,n1765_3_1_1_1_2
n1767_3_1_1_1,n1767_3_1_1_1_2
n1769_3_1_1_1,n1769_3_1_1_1_2
n1788_3_1_1_1,n1788_3_1_1_1_2
n1798_3_1_1_1,n1798_3_1_1_1_2
n1801_3_1_1_1,n1801_3_1_1_1_2
n1806_3_1_1_1,n1806_3_1_1_1_2
n1814_3_1_1_1,n1814_3_1_1_1_2
n1815_3_1_1_1,n1815_3_1_1_1_2
n1816_3_1_1_1,n1816_3_1_1_1_2
n1840_3_1_1_1,n1840_3_1_1_1_2
n1852_3_1_1_1,n1852_3_1_1_1_2
n1867_3_1_1_1,n1867_3_1_1_1_2
n1872_3_1_1_1,n1872_3_1_1_1_2
n1876_3_1_1_1,n1876_3_1_1_1_2
n1878_3_1_1_1,n1878_3_1_1_1_2
n1880_3_1_1_1,n1880_3_1_1_1_2
n1890_3_1_1_1,n1890_3_1_1_1_2
n1907_3_1_1_1,n1907_3_1_1_1_2
n1916_3_1_1_1,n1916_3_1_1_1_2
n1926_3_1_1_1,n1926_3_1_1_1_2
n1928_3_1_1_1,n1928_3_1_1_1_2
n1950_3_1_1_1,n1950_3_1_1_1_2
n1973_3_1_1_1,n1973_3_1_1_1_2
n1975_3_1_1_1,n1975_3_1_1_1_2
n1977_3_1_1_1,n1977_3_1_1_1_2
n2004_3_1_1_1,n2004_3_1_1_1_2
n2005_3_1_1_1,n2005_3_1_1_1_2
n2013_3_1_1_1,n2013_3_1_1_1_2
n2015_3_1_1_1,n2015_3_1_1_1_2
n2043_3_1_1_1,n2043_3_1_1_1_2
n2044_3_1_1_1,n2044_3_1_1_1_2
n2053_3_1_1_1,n2053_3_1_1_1_2
n2054_3_1_1_1,n2054_3_1_1_1_2
n2058_3_1_1_1,n2058_3_1_1_1_2
n2083_3_1_1_1,n2083_3_1_1_1_2
n2105_3_1_1_1,n2105_3_1_1_1_2
n2120_3_1_1_1,n2120_3_1_1_1_2
n2131_3_1_1_1,n2131_3_1_1_1_2
n2140_3_1_1_1,n2140_3_1_1_1_2
n2151_3_1_1_1,n2151_3_1_1_1_2
n2152_3_1_1_1,n2152_3_1_1_1_2
