n6127_3,n6127_3_1
n6131_3,n6131_3_1
n6137_3,n6137_3_1
n6138_3,n6138_3_1
n6139_3,n6139_3_1
n6142_3,n6142_3_1
n6159_3,n6159_3_1
n6160_3,n6160_3_1
n6161_3,n6161_3_1
n6173_3,n6173_3_1
n6178_3,n6178_3_1
n6181_3,n6181_3_1
n6187_3,n6187_3_1
n6194_3,n6194_3_1
n6195_3,n6195_3_1
n6196_3,n6196_3_1
n6198_3,n6198_3_1
n6200_3,n6200_3_1
n6201_3,n6201_3_1
n6203_3,n6203_3_1
n6210_3,n6210_3_1
n6212_3,n6212_3_1
n6213_3,n6213_3_1
n6217_3,n6217_3_1
n6218_3,n6218_3_1
n6221_3,n6221_3_1
n6227_3,n6227_3_1
n6245_3,n6245_3_1
n6248_3,n6248_3_1
n6253_3,n6253_3_1
n6265_3,n6265_3_1
n6266_3,n6266_3_1
n6275_3,n6275_3_1
n6276_3,n6276_3_1
n6282_3,n6282_3_1
n6284_3,n6284_3_1
n6294_3,n6294_3_1
n6297_3,n6297_3_1
n6299_3,n6299_3_1
n6303_3,n6303_3_1
n6309_3,n6309_3_1
n6315_3,n6315_3_1
n6316_3,n6316_3_1
n6317_3,n6317_3_1
n6319_3,n6319_3_1
n6334_3,n6334_3_1
n6338_3,n6338_3_1
n6343_3,n6343_3_1
n6349_3,n6349_3_1
n6354_3,n6354_3_1
n6355_3,n6355_3_1
n6356_3,n6356_3_1
n6373_3,n6373_3_1
n6378_3,n6378_3_1
n6380_3,n6380_3_1
n6383_3,n6383_3_1
n6395_3,n6395_3_1
n6398_3,n6398_3_1
n6407_3,n6407_3_1
n6414_3,n6414_3_1
n6415_3,n6415_3_1
n6420_3,n6420_3_1
n6424_3,n6424_3_1
n6431_3,n6431_3_1
n6438_3,n6438_3_1
n6442_3,n6442_3_1
n6444_3,n6444_3_1
n6449_3,n6449_3_1
n6459_3,n6459_3_1
n6461_3,n6461_3_1
n6465_3,n6465_3_1
n6474_3,n6474_3_1
n6480_3,n6480_3_1
n6482_3,n6482_3_1
n6491_3,n6491_3_1
n6497_3,n6497_3_1
n6510_3,n6510_3_1
n6516_3,n6516_3_1
n6519_3,n6519_3_1
n6524_3,n6524_3_1
n6526_3,n6526_3_1
n6540_3,n6540_3_1
n6543_3,n6543_3_1
n6545_3,n6545_3_1
n6551_3,n6551_3_1
n6582_3,n6582_3_1
n6592_3,n6592_3_1
n6597_3,n6597_3_1
n6608_3,n6608_3_1
n6614_3,n6614_3_1
n6622_3,n6622_3_1
n6626_3,n6626_3_1
n6630_3,n6630_3_1
n6631_3,n6631_3_1
n6636_3,n6636_3_1
n6637_3,n6637_3_1
n6641_3,n6641_3_1
n6644_3,n6644_3_1
n6669_3,n6669_3_1
n6681_3,n6681_3_1
n6687_3,n6687_3_1
n6689_3,n6689_3_1
n6690_3,n6690_3_1
n6693_3,n6693_3_1
n6698_3,n6698_3_1
n6699_3,n6699_3_1
n6701_3,n6701_3_1
n6709_3,n6709_3_1
n6722_3,n6722_3_1
n6726_3,n6726_3_1
n6730_3,n6730_3_1
n6747_3,n6747_3_1
n6749_3,n6749_3_1
n6774_3,n6774_3_1
n6777_3,n6777_3_1
n6778_3,n6778_3_1
n6788_3,n6788_3_1
n6793_3,n6793_3_1
n6802_3,n6802_3_1
n6803_3,n6803_3_1
n6808_3,n6808_3_1
n6814_3,n6814_3_1
n6825_3,n6825_3_1
n6826_3,n6826_3_1
n6831_3,n6831_3_1
n6854_3,n6854_3_1
n6855_3,n6855_3_1
n6869_3,n6869_3_1
n6872_3,n6872_3_1
n6883_3,n6883_3_1
n6888_3,n6888_3_1
n6889_3,n6889_3_1
n6891_3,n6891_3_1
n6892_3,n6892_3_1
n6902_3,n6902_3_1
n6903_3,n6903_3_1
n6906_3,n6906_3_1
n6913_3,n6913_3_1
n6914_3,n6914_3_1
n6915_3,n6915_3_1
n6920_3,n6920_3_1
n6922_3,n6922_3_1
n6926_3,n6926_3_1
n6929_3,n6929_3_1
n6932_3,n6932_3_1
n6934_3,n6934_3_1
n6939_3,n6939_3_1
n6946_3,n6946_3_1
n6950_3,n6950_3_1
n6958_3,n6958_3_1
n6960_3,n6960_3_1
n6961_3,n6961_3_1
n6964_3,n6964_3_1
n6970_3,n6970_3_1
n6971_3,n6971_3_1
n6977_3,n6977_3_1
n6978_3,n6978_3_1
n6986_3,n6986_3_1
n6987_3,n6987_3_1
n6988_3,n6988_3_1
n6997_3,n6997_3_1
n6999_3,n6999_3_1
n7001_3,n7001_3_1
n7004_3,n7004_3_1
n7007_3,n7007_3_1
n7011_3,n7011_3_1
n7016_3,n7016_3_1
n7021_3,n7021_3_1
n7026_3,n7026_3_1
n7035_3,n7035_3_1
n7036_3,n7036_3_1
n7039_3,n7039_3_1
n7043_3,n7043_3_1
n7047_3,n7047_3_1
n7068_3,n7068_3_1
n7072_3,n7072_3_1
n7078_3,n7078_3_1
n7083_3,n7083_3_1
n7087_3,n7087_3_1
n7092_3,n7092_3_1
n7096_3,n7096_3_1
