n6127_3_1,n6127_3_1_1
n6128_3_1,n6128_3_1_1
n6132_3_1,n6132_3_1_1
n6133_3_1,n6133_3_1_1
n6135_3_1,n6135_3_1_1
n6138_3_1,n6138_3_1_1
n6143_3_1,n6143_3_1_1
n6152_3_1,n6152_3_1_1
n6158_3_1,n6158_3_1_1
n6170_3_1,n6170_3_1_1
n6172_3_1,n6172_3_1_1
n6173_3_1,n6173_3_1_1
n6181_3_1,n6181_3_1_1
n6184_3_1,n6184_3_1_1
n6190_3_1,n6190_3_1_1
n6192_3_1,n6192_3_1_1
n6195_3_1,n6195_3_1_1
n6196_3_1,n6196_3_1_1
n6198_3_1,n6198_3_1_1
n6203_3_1,n6203_3_1_1
n6205_3_1,n6205_3_1_1
n6209_3_1,n6209_3_1_1
n6219_3_1,n6219_3_1_1
n6222_3_1,n6222_3_1_1
n6223_3_1,n6223_3_1_1
n6229_3_1,n6229_3_1_1
n6232_3_1,n6232_3_1_1
n6235_3_1,n6235_3_1_1
n6238_3_1,n6238_3_1_1
n6240_3_1,n6240_3_1_1
n6241_3_1,n6241_3_1_1
n6242_3_1,n6242_3_1_1
n6243_3_1,n6243_3_1_1
n6249_3_1,n6249_3_1_1
n6260_3_1,n6260_3_1_1
n6261_3_1,n6261_3_1_1
n6264_3_1,n6264_3_1_1
n6265_3_1,n6265_3_1_1
n6268_3_1,n6268_3_1_1
n6274_3_1,n6274_3_1_1
n6278_3_1,n6278_3_1_1
n6280_3_1,n6280_3_1_1
n6281_3_1,n6281_3_1_1
n6284_3_1,n6284_3_1_1
n6285_3_1,n6285_3_1_1
n6287_3_1,n6287_3_1_1
n6290_3_1,n6290_3_1_1
n6294_3_1,n6294_3_1_1
n6302_3_1,n6302_3_1_1
n6305_3_1,n6305_3_1_1
n6306_3_1,n6306_3_1_1
n6307_3_1,n6307_3_1_1
n6311_3_1,n6311_3_1_1
n6319_3_1,n6319_3_1_1
n6320_3_1,n6320_3_1_1
n6321_3_1,n6321_3_1_1
n6329_3_1,n6329_3_1_1
n6330_3_1,n6330_3_1_1
n6337_3_1,n6337_3_1_1
n6340_3_1,n6340_3_1_1
n6341_3_1,n6341_3_1_1
n6344_3_1,n6344_3_1_1
n6346_3_1,n6346_3_1_1
n6354_3_1,n6354_3_1_1
n6362_3_1,n6362_3_1_1
n6372_3_1,n6372_3_1_1
n6373_3_1,n6373_3_1_1
n6377_3_1,n6377_3_1_1
n6379_3_1,n6379_3_1_1
n6380_3_1,n6380_3_1_1
n6382_3_1,n6382_3_1_1
n6387_3_1,n6387_3_1_1
n6392_3_1,n6392_3_1_1
n6393_3_1,n6393_3_1_1
n6394_3_1,n6394_3_1_1
n6398_3_1,n6398_3_1_1
n6401_3_1,n6401_3_1_1
n6402_3_1,n6402_3_1_1
n6409_3_1,n6409_3_1_1
n6410_3_1,n6410_3_1_1
n6446_3_1,n6446_3_1_1
n6449_3_1,n6449_3_1_1
n6450_3_1,n6450_3_1_1
n6453_3_1,n6453_3_1_1
n6472_3_1,n6472_3_1_1
n6473_3_1,n6473_3_1_1
n6475_3_1,n6475_3_1_1
n6483_3_1,n6483_3_1_1
n6487_3_1,n6487_3_1_1
n6501_3_1,n6501_3_1_1
n6502_3_1,n6502_3_1_1
n6503_3_1,n6503_3_1_1
n6510_3_1,n6510_3_1_1
n6513_3_1,n6513_3_1_1
n6516_3_1,n6516_3_1_1
n6517_3_1,n6517_3_1_1
n6519_3_1,n6519_3_1_1
n6525_3_1,n6525_3_1_1
n6527_3_1,n6527_3_1_1
n6542_3_1,n6542_3_1_1
n6549_3_1,n6549_3_1_1
n6550_3_1,n6550_3_1_1
n6552_3_1,n6552_3_1_1
n6557_3_1,n6557_3_1_1
n6564_3_1,n6564_3_1_1
n6573_3_1,n6573_3_1_1
n6582_3_1,n6582_3_1_1
n6591_3_1,n6591_3_1_1
n6601_3_1,n6601_3_1_1
n6602_3_1,n6602_3_1_1
n6606_3_1,n6606_3_1_1
n6607_3_1,n6607_3_1_1
n6610_3_1,n6610_3_1_1
n6623_3_1,n6623_3_1_1
n6629_3_1,n6629_3_1_1
n6630_3_1,n6630_3_1_1
n6631_3_1,n6631_3_1_1
n6645_3_1,n6645_3_1_1
n6650_3_1,n6650_3_1_1
n6657_3_1,n6657_3_1_1
n6666_3_1,n6666_3_1_1
n6673_3_1,n6673_3_1_1
n6685_3_1,n6685_3_1_1
n6692_3_1,n6692_3_1_1
n6693_3_1,n6693_3_1_1
n6697_3_1,n6697_3_1_1
n6703_3_1,n6703_3_1_1
n6719_3_1,n6719_3_1_1
n6720_3_1,n6720_3_1_1
n6722_3_1,n6722_3_1_1
n6730_3_1,n6730_3_1_1
n6734_3_1,n6734_3_1_1
n6751_3_1,n6751_3_1_1
n6754_3_1,n6754_3_1_1
n6755_3_1,n6755_3_1_1
n6756_3_1,n6756_3_1_1
n6759_3_1,n6759_3_1_1
n6761_3_1,n6761_3_1_1
n6769_3_1,n6769_3_1_1
n6771_3_1,n6771_3_1_1
n6774_3_1,n6774_3_1_1
n6785_3_1,n6785_3_1_1
n6790_3_1,n6790_3_1_1
n6801_3_1,n6801_3_1_1
n6806_3_1,n6806_3_1_1
n6809_3_1,n6809_3_1_1
n6810_3_1,n6810_3_1_1
n6815_3_1,n6815_3_1_1
n6820_3_1,n6820_3_1_1
n6822_3_1,n6822_3_1_1
n6824_3_1,n6824_3_1_1
n6830_3_1,n6830_3_1_1
n6833_3_1,n6833_3_1_1
n6836_3_1,n6836_3_1_1
n6844_3_1,n6844_3_1_1
n6852_3_1,n6852_3_1_1
n6853_3_1,n6853_3_1_1
n6857_3_1,n6857_3_1_1
n6864_3_1,n6864_3_1_1
n6866_3_1,n6866_3_1_1
n6876_3_1,n6876_3_1_1
n6881_3_1,n6881_3_1_1
n6889_3_1,n6889_3_1_1
n6892_3_1,n6892_3_1_1
n6902_3_1,n6902_3_1_1
n6913_3_1,n6913_3_1_1
n6914_3_1,n6914_3_1_1
n6923_3_1,n6923_3_1_1
n6928_3_1,n6928_3_1_1
n6938_3_1,n6938_3_1_1
n6946_3_1,n6946_3_1_1
n6948_3_1,n6948_3_1_1
n6951_3_1,n6951_3_1_1
n6959_3_1,n6959_3_1_1
n6966_3_1,n6966_3_1_1
n6968_3_1,n6968_3_1_1
n6975_3_1,n6975_3_1_1
n6980_3_1,n6980_3_1_1
n6982_3_1,n6982_3_1_1
n6986_3_1,n6986_3_1_1
n6991_3_1,n6991_3_1_1
n6993_3_1,n6993_3_1_1
n6998_3_1,n6998_3_1_1
n7000_3_1,n7000_3_1_1
n7002_3_1,n7002_3_1_1
n7006_3_1,n7006_3_1_1
n7008_3_1,n7008_3_1_1
n7013_3_1,n7013_3_1_1
n7018_3_1,n7018_3_1_1
n7026_3_1,n7026_3_1_1
n7031_3_1,n7031_3_1_1
n7032_3_1,n7032_3_1_1
n7034_3_1,n7034_3_1_1
n7042_3_1,n7042_3_1_1
n7043_3_1,n7043_3_1_1
n7045_3_1,n7045_3_1_1
n7048_3_1,n7048_3_1_1
n7058_3_1,n7058_3_1_1
n7061_3_1,n7061_3_1_1
n7062_3_1,n7062_3_1_1
n7065_3_1,n7065_3_1_1
n7078_3_1,n7078_3_1_1
n7080_3_1,n7080_3_1_1
n7086_3_1,n7086_3_1_1
n7090_3_1,n7090_3_1_1
n7093_3_1,n7093_3_1_1
