n4926_3,n4926_3_1
n4927_3,n4927_3_1
n4928_3,n4928_3_1
n4929_3,n4929_3_1
n4930_3,n4930_3_1
n4931_3,n4931_3_1
n4932_3,n4932_3_1
n4933_3,n4933_3_1
n4934_3,n4934_3_1
n4935_3,n4935_3_1
n4936_3,n4936_3_1
n4937_3,n4937_3_1
n4938_3,n4938_3_1
n4939_3,n4939_3_1
n4940_3,n4940_3_1
n4941_3,n4941_3_1
n4942_3,n4942_3_1
n4943_3,n4943_3_1
n4944_3,n4944_3_1
n4945_3,n4945_3_1
n4946_3,n4946_3_1
n4947_3,n4947_3_1
n4948_3,n4948_3_1
n4949_3,n4949_3_1
n4950_3,n4950_3_1
n4951_3,n4951_3_1
n4952_3,n4952_3_1
n4953_3,n4953_3_1
n4954_3,n4954_3_1
n4955_3,n4955_3_1
n4956_3,n4956_3_1
n4957_3,n4957_3_1
n4958_3,n4958_3_1
n4959_3,n4959_3_1
n4960_3,n4960_3_1
n4961_3,n4961_3_1
n4962_3,n4962_3_1
n4963_3,n4963_3_1
n4964_3,n4964_3_1
n4965_3,n4965_3_1
n4966_3,n4966_3_1
n4967_3,n4967_3_1
n4968_3,n4968_3_1
n4969_3,n4969_3_1
n4970_3,n4970_3_1
n4971_3,n4971_3_1
n4972_3,n4972_3_1
n4973_3,n4973_3_1
n4974_3,n4974_3_1
n4975_3,n4975_3_1
n4976_3,n4976_3_1
n4977_3,n4977_3_1
n4978_3,n4978_3_1
n4979_3,n4979_3_1
n4980_3,n4980_3_1
n4981_3,n4981_3_1
n4982_3,n4982_3_1
n4983_3,n4983_3_1
n4984_3,n4984_3_1
n4985_3,n4985_3_1
n4986_3,n4986_3_1
n4987_3,n4987_3_1
n4988_3,n4988_3_1
n4989_3,n4989_3_1
n4990_3,n4990_3_1
n4991_3,n4991_3_1
n4992_3,n4992_3_1
n4993_3,n4993_3_1
n4994_3,n4994_3_1
n4995_3,n4995_3_1
n4996_3,n4996_3_1
n4997_3,n4997_3_1
n4998_3,n4998_3_1
n4999_3,n4999_3_1
n5000_3,n5000_3_1
n5001_3,n5001_3_1
n5002_3,n5002_3_1
n5003_3,n5003_3_1
n5004_3,n5004_3_1
n5005_3,n5005_3_1
n5006_3,n5006_3_1
n5007_3,n5007_3_1
n5008_3,n5008_3_1
n5009_3,n5009_3_1
n5010_3,n5010_3_1
n5011_3,n5011_3_1
n5012_3,n5012_3_1
n5013_3,n5013_3_1
n5014_3,n5014_3_1
n5015_3,n5015_3_1
n5016_3,n5016_3_1
n5017_3,n5017_3_1
n5018_3,n5018_3_1
n5019_3,n5019_3_1
n5020_3,n5020_3_1
n5021_3,n5021_3_1
n5022_3,n5022_3_1
n5023_3,n5023_3_1
n5024_3,n5024_3_1
n5025_3,n5025_3_1
n5026_3,n5026_3_1
n5027_3,n5027_3_1
n5028_3,n5028_3_1
n5029_3,n5029_3_1
n5030_3,n5030_3_1
n5031_3,n5031_3_1
n5032_3,n5032_3_1
n5033_3,n5033_3_1
n5034_3,n5034_3_1
n5035_3,n5035_3_1
n5036_3,n5036_3_1
n5037_3,n5037_3_1
n5038_3,n5038_3_1
n5039_3,n5039_3_1
n5040_3,n5040_3_1
n5041_3,n5041_3_1
n5042_3,n5042_3_1
n5043_3,n5043_3_1
n5044_3,n5044_3_1
n5045_3,n5045_3_1
n5046_3,n5046_3_1
n5047_3,n5047_3_1
n5048_3,n5048_3_1
n5049_3,n5049_3_1
n5050_3,n5050_3_1
n5051_3,n5051_3_1
n5052_3,n5052_3_1
n5053_3,n5053_3_1
n5054_3,n5054_3_1
n5055_3,n5055_3_1
n5056_3,n5056_3_1
n5057_3,n5057_3_1
n5058_3,n5058_3_1
n5059_3,n5059_3_1
n5060_3,n5060_3_1
n5061_3,n5061_3_1
n5062_3,n5062_3_1
n5063_3,n5063_3_1
n5064_3,n5064_3_1
n5065_3,n5065_3_1
n5066_3,n5066_3_1
n5067_3,n5067_3_1
n5068_3,n5068_3_1
n5069_3,n5069_3_1
n5070_3,n5070_3_1
n5071_3,n5071_3_1
n5072_3,n5072_3_1
n5073_3,n5073_3_1
n5074_3,n5074_3_1
n5075_3,n5075_3_1
n5076_3,n5076_3_1
n5077_3,n5077_3_1
n5078_3,n5078_3_1
n5079_3,n5079_3_1
n5080_3,n5080_3_1
n5081_3,n5081_3_1
n5082_3,n5082_3_1
n5083_3,n5083_3_1
n5084_3,n5084_3_1
n5085_3,n5085_3_1
n5086_3,n5086_3_1
n5087_3,n5087_3_1
n5088_3,n5088_3_1
n5089_3,n5089_3_1
n5090_3,n5090_3_1
n5091_3,n5091_3_1
n5092_3,n5092_3_1
n5093_3,n5093_3_1
n5094_3,n5094_3_1
n5095_3,n5095_3_1
n5096_3,n5096_3_1
n5097_3,n5097_3_1
n5098_3,n5098_3_1
n5099_3,n5099_3_1
n5100_3,n5100_3_1
n5101_3,n5101_3_1
n5102_3,n5102_3_1
n5103_3,n5103_3_1
n5104_3,n5104_3_1
n5105_3,n5105_3_1
n5106_3,n5106_3_1
n5107_3,n5107_3_1
n5108_3,n5108_3_1
n5109_3,n5109_3_1
n5110_3,n5110_3_1
n5111_3,n5111_3_1
n5112_3,n5112_3_1
n5113_3,n5113_3_1
n5114_3,n5114_3_1
n5115_3,n5115_3_1
n5116_3,n5116_3_1
n5117_3,n5117_3_1
n5118_3,n5118_3_1
n5119_3,n5119_3_1
n5120_3,n5120_3_1
n5121_3,n5121_3_1
n5122_3,n5122_3_1
n5123_3,n5123_3_1
n5124_3,n5124_3_1
n5125_3,n5125_3_1
n5126_3,n5126_3_1
n5127_3,n5127_3_1
n5128_3,n5128_3_1
n5129_3,n5129_3_1
n5130_3,n5130_3_1
n5131_3,n5131_3_1
n5132_3,n5132_3_1
n5133_3,n5133_3_1
n5134_3,n5134_3_1
n5135_3,n5135_3_1
n5136_3,n5136_3_1
n5137_3,n5137_3_1
n5138_3,n5138_3_1
n5139_3,n5139_3_1
n5140_3,n5140_3_1
n5141_3,n5141_3_1
n5142_3,n5142_3_1
n5143_3,n5143_3_1
n5144_3,n5144_3_1
n5145_3,n5145_3_1
n5146_3,n5146_3_1
n5147_3,n5147_3_1
n5148_3,n5148_3_1
n5149_3,n5149_3_1
n5150_3,n5150_3_1
n5151_3,n5151_3_1
n5152_3,n5152_3_1
n5153_3,n5153_3_1
n5154_3,n5154_3_1
n5155_3,n5155_3_1
n5156_3,n5156_3_1
n5157_3,n5157_3_1
n5158_3,n5158_3_1
n5159_3,n5159_3_1
n5160_3,n5160_3_1
n5161_3,n5161_3_1
n5162_3,n5162_3_1
n5163_3,n5163_3_1
n5164_3,n5164_3_1
n5165_3,n5165_3_1
n5166_3,n5166_3_1
n5167_3,n5167_3_1
n5168_3,n5168_3_1
n5169_3,n5169_3_1
n5170_3,n5170_3_1
n5171_3,n5171_3_1
n5172_3,n5172_3_1
n5173_3,n5173_3_1
n5174_3,n5174_3_1
n5175_3,n5175_3_1
n5176_3,n5176_3_1
n5177_3,n5177_3_1
n5178_3,n5178_3_1
n5179_3,n5179_3_1
n5180_3,n5180_3_1
n5181_3,n5181_3_1
n5182_3,n5182_3_1
n5183_3,n5183_3_1
n5184_3,n5184_3_1
n5185_3,n5185_3_1
n5186_3,n5186_3_1
n5187_3,n5187_3_1
n5188_3,n5188_3_1
n5189_3,n5189_3_1
n5190_3,n5190_3_1
n5191_3,n5191_3_1
n5192_3,n5192_3_1
n5193_3,n5193_3_1
n5194_3,n5194_3_1
n5195_3,n5195_3_1
n5196_3,n5196_3_1
n5197_3,n5197_3_1
n5198_3,n5198_3_1
n5199_3,n5199_3_1
n5200_3,n5200_3_1
n5201_3,n5201_3_1
n5202_3,n5202_3_1
n5203_3,n5203_3_1
n5204_3,n5204_3_1
n5205_3,n5205_3_1
n5206_3,n5206_3_1
n5207_3,n5207_3_1
n5208_3,n5208_3_1
n5209_3,n5209_3_1
n5210_3,n5210_3_1
n5211_3,n5211_3_1
n5212_3,n5212_3_1
n5213_3,n5213_3_1
n5214_3,n5214_3_1
n5215_3,n5215_3_1
n5216_3,n5216_3_1
n5217_3,n5217_3_1
n5218_3,n5218_3_1
n5219_3,n5219_3_1
n5220_3,n5220_3_1
n5221_3,n5221_3_1
n5222_3,n5222_3_1
n5223_3,n5223_3_1
n5224_3,n5224_3_1
n5225_3,n5225_3_1
n5226_3,n5226_3_1
n5227_3,n5227_3_1
n5228_3,n5228_3_1
n5229_3,n5229_3_1
n5230_3,n5230_3_1
n5231_3,n5231_3_1
n5232_3,n5232_3_1
n5233_3,n5233_3_1
n5234_3,n5234_3_1
n5235_3,n5235_3_1
n5236_3,n5236_3_1
n5237_3,n5237_3_1
n5238_3,n5238_3_1
n5239_3,n5239_3_1
n5240_3,n5240_3_1
n5241_3,n5241_3_1
n5242_3,n5242_3_1
n5243_3,n5243_3_1
n5244_3,n5244_3_1
n5245_3,n5245_3_1
n5246_3,n5246_3_1
n5247_3,n5247_3_1
n5248_3,n5248_3_1
n5249_3,n5249_3_1
n5250_3,n5250_3_1
n5251_3,n5251_3_1
n5252_3,n5252_3_1
n5253_3,n5253_3_1
n5254_3,n5254_3_1
n5255_3,n5255_3_1
n5256_3,n5256_3_1
n5257_3,n5257_3_1
n5258_3,n5258_3_1
n5259_3,n5259_3_1
n5260_3,n5260_3_1
n5261_3,n5261_3_1
n5262_3,n5262_3_1
n5263_3,n5263_3_1
n5264_3,n5264_3_1
n5265_3,n5265_3_1
n5266_3,n5266_3_1
n5267_3,n5267_3_1
n5268_3,n5268_3_1
n5269_3,n5269_3_1
n5270_3,n5270_3_1
n5271_3,n5271_3_1
n5272_3,n5272_3_1
n5273_3,n5273_3_1
n5274_3,n5274_3_1
n5275_3,n5275_3_1
n5276_3,n5276_3_1
n5277_3,n5277_3_1
n5278_3,n5278_3_1
n5279_3,n5279_3_1
n5280_3,n5280_3_1
n5281_3,n5281_3_1
n5282_3,n5282_3_1
n5283_3,n5283_3_1
n5284_3,n5284_3_1
n5285_3,n5285_3_1
n5286_3,n5286_3_1
n5287_3,n5287_3_1
n5288_3,n5288_3_1
n5289_3,n5289_3_1
n5290_3,n5290_3_1
n5291_3,n5291_3_1
n5292_3,n5292_3_1
n5293_3,n5293_3_1
n5294_3,n5294_3_1
n5295_3,n5295_3_1
n5296_3,n5296_3_1
n5297_3,n5297_3_1
n5298_3,n5298_3_1
n5299_3,n5299_3_1
n5300_3,n5300_3_1
n5301_3,n5301_3_1
n5302_3,n5302_3_1
n5303_3,n5303_3_1
n5304_3,n5304_3_1
n5305_3,n5305_3_1
n5306_3,n5306_3_1
n5307_3,n5307_3_1
n5308_3,n5308_3_1
n5309_3,n5309_3_1
n5310_3,n5310_3_1
n5311_3,n5311_3_1
n5312_3,n5312_3_1
n5313_3,n5313_3_1
n5314_3,n5314_3_1
n5315_3,n5315_3_1
n5316_3,n5316_3_1
n5317_3,n5317_3_1
n5318_3,n5318_3_1
n5319_3,n5319_3_1
n5320_3,n5320_3_1
n5321_3,n5321_3_1
n5322_3,n5322_3_1
n5323_3,n5323_3_1
n5324_3,n5324_3_1
n5325_3,n5325_3_1
n5326_3,n5326_3_1
n5327_3,n5327_3_1
n5328_3,n5328_3_1
n5329_3,n5329_3_1
n5330_3,n5330_3_1
n5331_3,n5331_3_1
n5332_3,n5332_3_1
n5333_3,n5333_3_1
n5334_3,n5334_3_1
n5335_3,n5335_3_1
n5336_3,n5336_3_1
n5337_3,n5337_3_1
n5338_3,n5338_3_1
n5339_3,n5339_3_1
n5340_3,n5340_3_1
n5341_3,n5341_3_1
n5342_3,n5342_3_1
n5343_3,n5343_3_1
n5344_3,n5344_3_1
n5345_3,n5345_3_1
n5346_3,n5346_3_1
n5347_3,n5347_3_1
n5348_3,n5348_3_1
n5349_3,n5349_3_1
n5350_3,n5350_3_1
n5351_3,n5351_3_1
n5352_3,n5352_3_1
n5353_3,n5353_3_1
n5354_3,n5354_3_1
n5355_3,n5355_3_1
n5356_3,n5356_3_1
n5357_3,n5357_3_1
n5358_3,n5358_3_1
n5359_3,n5359_3_1
n5360_3,n5360_3_1
n5361_3,n5361_3_1
n5362_3,n5362_3_1
n5363_3,n5363_3_1
n5364_3,n5364_3_1
n5365_3,n5365_3_1
n5366_3,n5366_3_1
n5367_3,n5367_3_1
n5368_3,n5368_3_1
n5369_3,n5369_3_1
n5370_3,n5370_3_1
n5371_3,n5371_3_1
n5372_3,n5372_3_1
n5373_3,n5373_3_1
n5374_3,n5374_3_1
n5375_3,n5375_3_1
n5376_3,n5376_3_1
n5377_3,n5377_3_1
n5378_3,n5378_3_1
n5379_3,n5379_3_1
n5380_3,n5380_3_1
n5381_3,n5381_3_1
n5382_3,n5382_3_1
n5383_3,n5383_3_1
n5384_3,n5384_3_1
n5385_3,n5385_3_1
n5386_3,n5386_3_1
n5387_3,n5387_3_1
n5388_3,n5388_3_1
n5389_3,n5389_3_1
n5390_3,n5390_3_1
n5391_3,n5391_3_1
n5392_3,n5392_3_1
n5393_3,n5393_3_1
n5394_3,n5394_3_1
n5395_3,n5395_3_1
n5396_3,n5396_3_1
n5397_3,n5397_3_1
n5398_3,n5398_3_1
n5399_3,n5399_3_1
n5400_3,n5400_3_1
n5401_3,n5401_3_1
n5402_3,n5402_3_1
n5403_3,n5403_3_1
n5404_3,n5404_3_1
n5405_3,n5405_3_1
n5406_3,n5406_3_1
n5407_3,n5407_3_1
n5408_3,n5408_3_1
n5409_3,n5409_3_1
n5410_3,n5410_3_1
n5411_3,n5411_3_1
n5412_3,n5412_3_1
n5413_3,n5413_3_1
n5414_3,n5414_3_1
n5415_3,n5415_3_1
n5416_3,n5416_3_1
n5417_3,n5417_3_1
n5418_3,n5418_3_1
n5419_3,n5419_3_1
n5420_3,n5420_3_1
n5421_3,n5421_3_1
n5422_3,n5422_3_1
n5423_3,n5423_3_1
n5424_3,n5424_3_1
n5425_3,n5425_3_1
n5426_3,n5426_3_1
n5427_3,n5427_3_1
n5428_3,n5428_3_1
n5429_3,n5429_3_1
n5430_3,n5430_3_1
n5431_3,n5431_3_1
n5432_3,n5432_3_1
n5433_3,n5433_3_1
n5434_3,n5434_3_1
n5435_3,n5435_3_1
n5436_3,n5436_3_1
n5437_3,n5437_3_1
n5438_3,n5438_3_1
n5439_3,n5439_3_1
n5440_3,n5440_3_1
n5441_3,n5441_3_1
n5442_3,n5442_3_1
n5443_3,n5443_3_1
n5444_3,n5444_3_1
n5445_3,n5445_3_1
n5446_3,n5446_3_1
n5447_3,n5447_3_1
n5448_3,n5448_3_1
n5449_3,n5449_3_1
n5450_3,n5450_3_1
n5451_3,n5451_3_1
n5452_3,n5452_3_1
n5453_3,n5453_3_1
n5454_3,n5454_3_1
n5455_3,n5455_3_1
n5456_3,n5456_3_1
n5457_3,n5457_3_1
n5458_3,n5458_3_1
n5459_3,n5459_3_1
n5460_3,n5460_3_1
n5461_3,n5461_3_1
n5462_3,n5462_3_1
n5463_3,n5463_3_1
n5464_3,n5464_3_1
n5465_3,n5465_3_1
n5466_3,n5466_3_1
n5467_3,n5467_3_1
n5468_3,n5468_3_1
n5469_3,n5469_3_1
n5470_3,n5470_3_1
n5471_3,n5471_3_1
n5472_3,n5472_3_1
n5473_3,n5473_3_1
n5474_3,n5474_3_1
n5475_3,n5475_3_1
n5476_3,n5476_3_1
n5477_3,n5477_3_1
n5478_3,n5478_3_1
n5479_3,n5479_3_1
n5480_3,n5480_3_1
n5481_3,n5481_3_1
n5482_3,n5482_3_1
n5483_3,n5483_3_1
n5484_3,n5484_3_1
n5485_3,n5485_3_1
n5486_3,n5486_3_1
n5487_3,n5487_3_1
n5488_3,n5488_3_1
n5489_3,n5489_3_1
n5490_3,n5490_3_1
n5491_3,n5491_3_1
n5492_3,n5492_3_1
n5493_3,n5493_3_1
n5494_3,n5494_3_1
n5495_3,n5495_3_1
n5496_3,n5496_3_1
n5497_3,n5497_3_1
n5498_3,n5498_3_1
n5499_3,n5499_3_1
n5500_3,n5500_3_1
n5501_3,n5501_3_1
n5502_3,n5502_3_1
n5503_3,n5503_3_1
n5504_3,n5504_3_1
n5505_3,n5505_3_1
n5506_3,n5506_3_1
n5507_3,n5507_3_1
n5508_3,n5508_3_1
n5509_3,n5509_3_1
n5510_3,n5510_3_1
n5511_3,n5511_3_1
n5512_3,n5512_3_1
n5513_3,n5513_3_1
n5514_3,n5514_3_1
n5515_3,n5515_3_1
n5516_3,n5516_3_1
n5517_3,n5517_3_1
n5518_3,n5518_3_1
n5519_3,n5519_3_1
n5520_3,n5520_3_1
n5521_3,n5521_3_1
n5522_3,n5522_3_1
n5523_3,n5523_3_1
n5524_3,n5524_3_1
n5525_3,n5525_3_1
n5526_3,n5526_3_1
n5527_3,n5527_3_1
n5528_3,n5528_3_1
n5529_3,n5529_3_1
n5530_3,n5530_3_1
n5531_3,n5531_3_1
n5532_3,n5532_3_1
n5533_3,n5533_3_1
n5534_3,n5534_3_1
n5535_3,n5535_3_1
n5536_3,n5536_3_1
n5537_3,n5537_3_1
n5538_3,n5538_3_1
n5539_3,n5539_3_1
n5540_3,n5540_3_1
n5541_3,n5541_3_1
n5542_3,n5542_3_1
n5543_3,n5543_3_1
n5544_3,n5544_3_1
n5545_3,n5545_3_1
n5546_3,n5546_3_1
n5547_3,n5547_3_1
n5548_3,n5548_3_1
n5549_3,n5549_3_1
n5550_3,n5550_3_1
n5551_3,n5551_3_1
n5552_3,n5552_3_1
n5553_3,n5553_3_1
n5554_3,n5554_3_1
n5555_3,n5555_3_1
n5556_3,n5556_3_1
n5557_3,n5557_3_1
n5558_3,n5558_3_1
n5559_3,n5559_3_1
n5560_3,n5560_3_1
n5561_3,n5561_3_1
n5562_3,n5562_3_1
n5563_3,n5563_3_1
n5564_3,n5564_3_1
n5565_3,n5565_3_1
n5566_3,n5566_3_1
n5567_3,n5567_3_1
n5568_3,n5568_3_1
n5569_3,n5569_3_1
n5570_3,n5570_3_1
n5571_3,n5571_3_1
n5572_3,n5572_3_1
n5573_3,n5573_3_1
n5574_3,n5574_3_1
n5575_3,n5575_3_1
n5576_3,n5576_3_1
n5577_3,n5577_3_1
n5578_3,n5578_3_1
n5579_3,n5579_3_1
n5580_3,n5580_3_1
n5581_3,n5581_3_1
n5582_3,n5582_3_1
n5583_3,n5583_3_1
n5584_3,n5584_3_1
n5585_3,n5585_3_1
n5586_3,n5586_3_1
n5587_3,n5587_3_1
n5588_3,n5588_3_1
n5589_3,n5589_3_1
n5590_3,n5590_3_1
n5591_3,n5591_3_1
n5592_3,n5592_3_1
n5593_3,n5593_3_1
n5594_3,n5594_3_1
n5595_3,n5595_3_1
n5596_3,n5596_3_1
n5597_3,n5597_3_1
n5598_3,n5598_3_1
n5599_3,n5599_3_1
n5600_3,n5600_3_1
n5601_3,n5601_3_1
n5602_3,n5602_3_1
n5603_3,n5603_3_1
n5604_3,n5604_3_1
n5605_3,n5605_3_1
n5606_3,n5606_3_1
n5607_3,n5607_3_1
n5608_3,n5608_3_1
n5609_3,n5609_3_1
n5610_3,n5610_3_1
n5611_3,n5611_3_1
n5612_3,n5612_3_1
n5613_3,n5613_3_1
n5614_3,n5614_3_1
n5615_3,n5615_3_1
n5616_3,n5616_3_1
n5617_3,n5617_3_1
n5618_3,n5618_3_1
n5619_3,n5619_3_1
n5620_3,n5620_3_1
n5621_3,n5621_3_1
n5622_3,n5622_3_1
n5623_3,n5623_3_1
n5624_3,n5624_3_1
n5625_3,n5625_3_1
n5626_3,n5626_3_1
n5627_3,n5627_3_1
n5628_3,n5628_3_1
n5629_3,n5629_3_1
n5630_3,n5630_3_1
n5631_3,n5631_3_1
n5632_3,n5632_3_1
n5633_3,n5633_3_1
n5634_3,n5634_3_1
n5635_3,n5635_3_1
n5636_3,n5636_3_1
n5637_3,n5637_3_1
n5638_3,n5638_3_1
n5639_3,n5639_3_1
n5640_3,n5640_3_1
n5641_3,n5641_3_1
n5642_3,n5642_3_1
n5643_3,n5643_3_1
n5644_3,n5644_3_1
n5645_3,n5645_3_1
n5646_3,n5646_3_1
n5647_3,n5647_3_1
n5648_3,n5648_3_1
n5649_3,n5649_3_1
n5650_3,n5650_3_1
n5651_3,n5651_3_1
n5652_3,n5652_3_1
n5653_3,n5653_3_1
n5654_3,n5654_3_1
n5655_3,n5655_3_1
n5656_3,n5656_3_1
n5657_3,n5657_3_1
n5658_3,n5658_3_1
n5659_3,n5659_3_1
n5660_3,n5660_3_1
n5661_3,n5661_3_1
n5662_3,n5662_3_1
n5663_3,n5663_3_1
n5664_3,n5664_3_1
n5665_3,n5665_3_1
n5666_3,n5666_3_1
n5667_3,n5667_3_1
n5668_3,n5668_3_1
n5669_3,n5669_3_1
n5670_3,n5670_3_1
n5671_3,n5671_3_1
n5672_3,n5672_3_1
n5673_3,n5673_3_1
n5674_3,n5674_3_1
n5675_3,n5675_3_1
n5676_3,n5676_3_1
n5677_3,n5677_3_1
n5678_3,n5678_3_1
n5679_3,n5679_3_1
n5680_3,n5680_3_1
n5681_3,n5681_3_1
n5682_3,n5682_3_1
n5683_3,n5683_3_1
n5684_3,n5684_3_1
n5685_3,n5685_3_1
n5686_3,n5686_3_1
n5687_3,n5687_3_1
n5688_3,n5688_3_1
n5689_3,n5689_3_1
n5690_3,n5690_3_1
n5691_3,n5691_3_1
n5692_3,n5692_3_1
n5693_3,n5693_3_1
n5694_3,n5694_3_1
n5695_3,n5695_3_1
n5696_3,n5696_3_1
n5697_3,n5697_3_1
n5698_3,n5698_3_1
n5699_3,n5699_3_1
n5700_3,n5700_3_1
n5701_3,n5701_3_1
n5702_3,n5702_3_1
n5703_3,n5703_3_1
n5704_3,n5704_3_1
n5705_3,n5705_3_1
n5706_3,n5706_3_1
n5707_3,n5707_3_1
n5708_3,n5708_3_1
n5709_3,n5709_3_1
n5710_3,n5710_3_1
n5711_3,n5711_3_1
n5712_3,n5712_3_1
n5713_3,n5713_3_1
n5714_3,n5714_3_1
n5715_3,n5715_3_1
n5716_3,n5716_3_1
n5717_3,n5717_3_1
n5718_3,n5718_3_1
n5719_3,n5719_3_1
n5720_3,n5720_3_1
n5721_3,n5721_3_1
n5722_3,n5722_3_1
n5723_3,n5723_3_1
n5724_3,n5724_3_1
n5725_3,n5725_3_1
n5726_3,n5726_3_1
n5727_3,n5727_3_1
n5728_3,n5728_3_1
n5729_3,n5729_3_1
n5730_3,n5730_3_1
n5731_3,n5731_3_1
n5732_3,n5732_3_1
n5733_3,n5733_3_1
n5734_3,n5734_3_1
n5735_3,n5735_3_1
n5736_3,n5736_3_1
n5737_3,n5737_3_1
n5738_3,n5738_3_1
n5739_3,n5739_3_1
n5740_3,n5740_3_1
n5741_3,n5741_3_1
n5742_3,n5742_3_1
n5743_3,n5743_3_1
n5744_3,n5744_3_1
n5745_3,n5745_3_1
n5746_3,n5746_3_1
n5747_3,n5747_3_1
n5748_3,n5748_3_1
n5749_3,n5749_3_1
n5750_3,n5750_3_1
n5751_3,n5751_3_1
n5752_3,n5752_3_1
n5753_3,n5753_3_1
n5754_3,n5754_3_1
n5755_3,n5755_3_1
n5756_3,n5756_3_1
n5757_3,n5757_3_1
n5758_3,n5758_3_1
n5759_3,n5759_3_1
n5760_3,n5760_3_1
n5761_3,n5761_3_1
n5762_3,n5762_3_1
n5763_3,n5763_3_1
n5764_3,n5764_3_1
n5765_3,n5765_3_1
n5766_3,n5766_3_1
n5767_3,n5767_3_1
n5768_3,n5768_3_1
n5769_3,n5769_3_1
n5770_3,n5770_3_1
n5771_3,n5771_3_1
n5772_3,n5772_3_1
n5773_3,n5773_3_1
n5774_3,n5774_3_1
n5775_3,n5775_3_1
n5776_3,n5776_3_1
n5777_3,n5777_3_1
n5778_3,n5778_3_1
n5779_3,n5779_3_1
n5780_3,n5780_3_1
n5781_3,n5781_3_1
n5782_3,n5782_3_1
n5783_3,n5783_3_1
n5784_3,n5784_3_1
n5785_3,n5785_3_1
n5786_3,n5786_3_1
n5787_3,n5787_3_1
n5788_3,n5788_3_1
n5789_3,n5789_3_1
n5790_3,n5790_3_1
n5791_3,n5791_3_1
n5792_3,n5792_3_1
n5793_3,n5793_3_1
n5794_3,n5794_3_1
n5795_3,n5795_3_1
n5796_3,n5796_3_1
n5797_3,n5797_3_1
n5798_3,n5798_3_1
n5799_3,n5799_3_1
n5800_3,n5800_3_1
n5801_3,n5801_3_1
n5802_3,n5802_3_1
n5803_3,n5803_3_1
n5804_3,n5804_3_1
n5805_3,n5805_3_1
n5806_3,n5806_3_1
n5807_3,n5807_3_1
n5808_3,n5808_3_1
n5809_3,n5809_3_1
n5810_3,n5810_3_1
n5811_3,n5811_3_1
n5812_3,n5812_3_1
n5813_3,n5813_3_1
n5814_3,n5814_3_1
n5815_3,n5815_3_1
n5816_3,n5816_3_1
n5817_3,n5817_3_1
n5818_3,n5818_3_1
n5819_3,n5819_3_1
n5820_3,n5820_3_1
n5821_3,n5821_3_1
n5822_3,n5822_3_1
n5823_3,n5823_3_1
n5824_3,n5824_3_1
n5825_3,n5825_3_1
n5826_3,n5826_3_1
n5827_3,n5827_3_1
n5828_3,n5828_3_1
n5829_3,n5829_3_1
n5830_3,n5830_3_1
n5831_3,n5831_3_1
n5832_3,n5832_3_1
n5833_3,n5833_3_1
n5834_3,n5834_3_1
n5835_3,n5835_3_1
n5836_3,n5836_3_1
n5837_3,n5837_3_1
n5838_3,n5838_3_1
n5839_3,n5839_3_1
n5840_3,n5840_3_1
n5841_3,n5841_3_1
n5842_3,n5842_3_1
n5843_3,n5843_3_1
n5844_3,n5844_3_1
n5845_3,n5845_3_1
n5846_3,n5846_3_1
n5847_3,n5847_3_1
n5848_3,n5848_3_1
n5849_3,n5849_3_1
n5850_3,n5850_3_1
n5851_3,n5851_3_1
n5852_3,n5852_3_1
n5853_3,n5853_3_1
n5854_3,n5854_3_1
n5855_3,n5855_3_1
n5856_3,n5856_3_1
n5857_3,n5857_3_1
n5858_3,n5858_3_1
n5859_3,n5859_3_1
n5860_3,n5860_3_1
n5861_3,n5861_3_1
n5862_3,n5862_3_1
n5863_3,n5863_3_1
n5864_3,n5864_3_1
n5865_3,n5865_3_1
n5866_3,n5866_3_1
n5867_3,n5867_3_1
n5868_3,n5868_3_1
n5869_3,n5869_3_1
n5870_3,n5870_3_1
n5871_3,n5871_3_1
n5872_3,n5872_3_1
n5873_3,n5873_3_1
n5874_3,n5874_3_1
n5875_3,n5875_3_1
n5876_3,n5876_3_1
n5877_3,n5877_3_1
n5878_3,n5878_3_1
n5879_3,n5879_3_1
n5880_3,n5880_3_1
n5881_3,n5881_3_1
n5882_3,n5882_3_1
n5883_3,n5883_3_1
n5884_3,n5884_3_1
n5885_3,n5885_3_1
n5886_3,n5886_3_1
n5887_3,n5887_3_1
n5888_3,n5888_3_1
n5889_3,n5889_3_1
n5890_3,n5890_3_1
n5891_3,n5891_3_1
n5892_3,n5892_3_1
n5893_3,n5893_3_1
n5894_3,n5894_3_1
n5895_3,n5895_3_1
n5896_3,n5896_3_1
n5897_3,n5897_3_1
n5898_3,n5898_3_1
n5899_3,n5899_3_1
n5900_3,n5900_3_1
n5901_3,n5901_3_1
n5902_3,n5902_3_1
n5903_3,n5903_3_1
n5904_3,n5904_3_1
n5905_3,n5905_3_1
n5906_3,n5906_3_1
n5907_3,n5907_3_1
n5908_3,n5908_3_1
n5909_3,n5909_3_1
n5910_3,n5910_3_1
n5911_3,n5911_3_1
n5912_3,n5912_3_1
n5913_3,n5913_3_1
n5914_3,n5914_3_1
n5915_3,n5915_3_1
n5916_3,n5916_3_1
n5917_3,n5917_3_1
n5918_3,n5918_3_1
n5919_3,n5919_3_1
n5920_3,n5920_3_1
n5921_3,n5921_3_1
n5922_3,n5922_3_1
n5923_3,n5923_3_1
n5924_3,n5924_3_1
n5925_3,n5925_3_1
n5926_3,n5926_3_1
n5927_3,n5927_3_1
n5928_3,n5928_3_1
n5929_3,n5929_3_1
n5930_3,n5930_3_1
n5931_3,n5931_3_1
n5932_3,n5932_3_1
n5933_3,n5933_3_1
n5934_3,n5934_3_1
n5935_3,n5935_3_1
n5936_3,n5936_3_1
n5937_3,n5937_3_1
n5938_3,n5938_3_1
n5939_3,n5939_3_1
n5940_3,n5940_3_1
n5941_3,n5941_3_1
n5942_3,n5942_3_1
n5943_3,n5943_3_1
n5944_3,n5944_3_1
n5945_3,n5945_3_1
n5946_3,n5946_3_1
n5947_3,n5947_3_1
n5948_3,n5948_3_1
n5949_3,n5949_3_1
n5950_3,n5950_3_1
n5951_3,n5951_3_1
n5952_3,n5952_3_1
n5953_3,n5953_3_1
n5954_3,n5954_3_1
n5955_3,n5955_3_1
n5956_3,n5956_3_1
n5957_3,n5957_3_1
n5958_3,n5958_3_1
n5959_3,n5959_3_1
n5960_3,n5960_3_1
n5961_3,n5961_3_1
n5962_3,n5962_3_1
n5963_3,n5963_3_1
n5964_3,n5964_3_1
n5965_3,n5965_3_1
n5966_3,n5966_3_1
n5967_3,n5967_3_1
n5968_3,n5968_3_1
n5969_3,n5969_3_1
n5970_3,n5970_3_1
n5971_3,n5971_3_1
n5972_3,n5972_3_1
n5973_3,n5973_3_1
n5974_3,n5974_3_1
n5975_3,n5975_3_1
n5976_3,n5976_3_1
n5977_3,n5977_3_1
n5978_3,n5978_3_1
n5979_3,n5979_3_1
n5980_3,n5980_3_1
n5981_3,n5981_3_1
n5982_3,n5982_3_1
n5983_3,n5983_3_1
n5984_3,n5984_3_1
n5985_3,n5985_3_1
n5986_3,n5986_3_1
n5987_3,n5987_3_1
n5988_3,n5988_3_1
n5989_3,n5989_3_1
n5990_3,n5990_3_1
n5991_3,n5991_3_1
n5992_3,n5992_3_1
n5993_3,n5993_3_1
n5994_3,n5994_3_1
n5995_3,n5995_3_1
n5996_3,n5996_3_1
n5997_3,n5997_3_1
n5998_3,n5998_3_1
n5999_3,n5999_3_1
n6000_3,n6000_3_1
n6001_3,n6001_3_1
n6002_3,n6002_3_1
n6003_3,n6003_3_1
n6004_3,n6004_3_1
n6005_3,n6005_3_1
n6006_3,n6006_3_1
n6007_3,n6007_3_1
n6008_3,n6008_3_1
n6009_3,n6009_3_1
n6010_3,n6010_3_1
n6011_3,n6011_3_1
n6012_3,n6012_3_1
n6013_3,n6013_3_1
n6014_3,n6014_3_1
n6015_3,n6015_3_1
n6016_3,n6016_3_1
n6017_3,n6017_3_1
n6018_3,n6018_3_1
n6019_3,n6019_3_1
n6020_3,n6020_3_1
n6021_3,n6021_3_1
n6022_3,n6022_3_1
n6023_3,n6023_3_1
n6024_3,n6024_3_1
n6025_3,n6025_3_1
n6026_3,n6026_3_1
n6027_3,n6027_3_1
n6028_3,n6028_3_1
n6029_3,n6029_3_1
n6030_3,n6030_3_1
n6031_3,n6031_3_1
n6032_3,n6032_3_1
n6033_3,n6033_3_1
n6034_3,n6034_3_1
n6035_3,n6035_3_1
n6036_3,n6036_3_1
n6037_3,n6037_3_1
n6038_3,n6038_3_1
n6039_3,n6039_3_1
n6040_3,n6040_3_1
n6041_3,n6041_3_1
n6042_3,n6042_3_1
n6043_3,n6043_3_1
n6044_3,n6044_3_1
n6045_3,n6045_3_1
n6046_3,n6046_3_1
n6047_3,n6047_3_1
n6048_3,n6048_3_1
n6049_3,n6049_3_1
n6050_3,n6050_3_1
n6051_3,n6051_3_1
n6052_3,n6052_3_1
n6053_3,n6053_3_1
n6054_3,n6054_3_1
n6055_3,n6055_3_1
n6056_3,n6056_3_1
n6057_3,n6057_3_1
n6058_3,n6058_3_1
n6059_3,n6059_3_1
n6060_3,n6060_3_1
n6061_3,n6061_3_1
n6062_3,n6062_3_1
n6063_3,n6063_3_1
n6064_3,n6064_3_1
n6065_3,n6065_3_1
n6066_3,n6066_3_1
n6067_3,n6067_3_1
n6068_3,n6068_3_1
n6069_3,n6069_3_1
n6070_3,n6070_3_1
n6071_3,n6071_3_1
n6072_3,n6072_3_1
n6073_3,n6073_3_1
n6074_3,n6074_3_1
n6075_3,n6075_3_1
n6076_3,n6076_3_1
n6077_3,n6077_3_1
n6078_3,n6078_3_1
n6079_3,n6079_3_1
n6080_3,n6080_3_1
n6081_3,n6081_3_1
n6082_3,n6082_3_1
n6083_3,n6083_3_1
n6084_3,n6084_3_1
n6085_3,n6085_3_1
n6086_3,n6086_3_1
n6087_3,n6087_3_1
n6088_3,n6088_3_1
n6089_3,n6089_3_1
n6090_3,n6090_3_1
n6091_3,n6091_3_1
n6092_3,n6092_3_1
n6093_3,n6093_3_1
n6094_3,n6094_3_1
n6095_3,n6095_3_1
n6096_3,n6096_3_1
n6097_3,n6097_3_1
n6098_3,n6098_3_1
n6099_3,n6099_3_1
n6100_3,n6100_3_1
n6101_3,n6101_3_1
n6102_3,n6102_3_1
n6103_3,n6103_3_1
n6104_3,n6104_3_1
n6105_3,n6105_3_1
n6106_3,n6106_3_1
n6107_3,n6107_3_1
n6108_3,n6108_3_1
n6109_3,n6109_3_1
n6110_3,n6110_3_1
n6111_3,n6111_3_1
n6112_3,n6112_3_1
n6113_3,n6113_3_1
n6114_3,n6114_3_1
n6115_3,n6115_3_1
n6116_3,n6116_3_1
n6117_3,n6117_3_1
n6118_3,n6118_3_1
n6119_3,n6119_3_1
n6120_3,n6120_3_1
n6121_3,n6121_3_1
n6122_3,n6122_3_1
n6123_3,n6123_3_1
n6124_3,n6124_3_1
n6125_3,n6125_3_1
