n2378_3_1_1,n2378_3_1_1_4
n2380_3_1_1,n2380_3_1_1_4
n2387_3_1_1,n2387_3_1_1_4
n2388_3_1_1,n2388_3_1_1_4
n2394_3_1_1,n2394_3_1_1_4
n2396_3_1_1,n2396_3_1_1_4
n2397_3_1_1,n2397_3_1_1_4
n2398_3_1_1,n2398_3_1_1_4
n2399_3_1_1,n2399_3_1_1_4
n2402_3_1_1,n2402_3_1_1_4
n2403_3_1_1,n2403_3_1_1_4
n2404_3_1_1,n2404_3_1_1_4
n2406_3_1_1,n2406_3_1_1_4
n2408_3_1_1,n2408_3_1_1_4
n2412_3_1_1,n2412_3_1_1_4
n2414_3_1_1,n2414_3_1_1_4
n2415_3_1_1,n2415_3_1_1_4
n2417_3_1_1,n2417_3_1_1_4
n2420_3_1_1,n2420_3_1_1_4
n2421_3_1_1,n2421_3_1_1_4
n2422_3_1_1,n2422_3_1_1_4
n2424_3_1_1,n2424_3_1_1_4
n2425_3_1_1,n2425_3_1_1_4
n2426_3_1_1,n2426_3_1_1_4
n2430_3_1_1,n2430_3_1_1_4
n2431_3_1_1,n2431_3_1_1_4
n2432_3_1_1,n2432_3_1_1_4
n2433_3_1_1,n2433_3_1_1_4
n2434_3_1_1,n2434_3_1_1_4
n2437_3_1_1,n2437_3_1_1_4
n2439_3_1_1,n2439_3_1_1_4
n2442_3_1_1,n2442_3_1_1_4
n2445_3_1_1,n2445_3_1_1_4
n2446_3_1_1,n2446_3_1_1_4
n2447_3_1_1,n2447_3_1_1_4
n2448_3_1_1,n2448_3_1_1_4
n2450_3_1_1,n2450_3_1_1_4
n2451_3_1_1,n2451_3_1_1_4
n2452_3_1_1,n2452_3_1_1_4
n2453_3_1_1,n2453_3_1_1_4
n2457_3_1_1,n2457_3_1_1_4
n2461_3_1_1,n2461_3_1_1_4
n2463_3_1_1,n2463_3_1_1_4
n2465_3_1_1,n2465_3_1_1_4
n2466_3_1_1,n2466_3_1_1_4
n2467_3_1_1,n2467_3_1_1_4
n2468_3_1_1,n2468_3_1_1_4
n2469_3_1_1,n2469_3_1_1_4
n2472_3_1_1,n2472_3_1_1_4
n2474_3_1_1,n2474_3_1_1_4
n2476_3_1_1,n2476_3_1_1_4
n2477_3_1_1,n2477_3_1_1_4
n2478_3_1_1,n2478_3_1_1_4
n2479_3_1_1,n2479_3_1_1_4
n2481_3_1_1,n2481_3_1_1_4
n2485_3_1_1,n2485_3_1_1_4
n2486_3_1_1,n2486_3_1_1_4
n2487_3_1_1,n2487_3_1_1_4
n2489_3_1_1,n2489_3_1_1_4
n2493_3_1_1,n2493_3_1_1_4
n2494_3_1_1,n2494_3_1_1_4
n2496_3_1_1,n2496_3_1_1_4
n2498_3_1_1,n2498_3_1_1_4
n2499_3_1_1,n2499_3_1_1_4
n2500_3_1_1,n2500_3_1_1_4
n2502_3_1_1,n2502_3_1_1_4
n2503_3_1_1,n2503_3_1_1_4
n2504_3_1_1,n2504_3_1_1_4
n2505_3_1_1,n2505_3_1_1_4
n2506_3_1_1,n2506_3_1_1_4
n2507_3_1_1,n2507_3_1_1_4
n2511_3_1_1,n2511_3_1_1_4
n2512_3_1_1,n2512_3_1_1_4
n2513_3_1_1,n2513_3_1_1_4
n2515_3_1_1,n2515_3_1_1_4
n2516_3_1_1,n2516_3_1_1_4
n2517_3_1_1,n2517_3_1_1_4
n2518_3_1_1,n2518_3_1_1_4
n2519_3_1_1,n2519_3_1_1_4
n2520_3_1_1,n2520_3_1_1_4
n2523_3_1_1,n2523_3_1_1_4
n2525_3_1_1,n2525_3_1_1_4
n2530_3_1_1,n2530_3_1_1_4
n2532_3_1_1,n2532_3_1_1_4
n2533_3_1_1,n2533_3_1_1_4
n2534_3_1_1,n2534_3_1_1_4
n2537_3_1_1,n2537_3_1_1_4
n2539_3_1_1,n2539_3_1_1_4
n2540_3_1_1,n2540_3_1_1_4
n2542_3_1_1,n2542_3_1_1_4
n2543_3_1_1,n2543_3_1_1_4
n2544_3_1_1,n2544_3_1_1_4
n2545_3_1_1,n2545_3_1_1_4
n2546_3_1_1,n2546_3_1_1_4
n2547_3_1_1,n2547_3_1_1_4
n2549_3_1_1,n2549_3_1_1_4
n2554_3_1_1,n2554_3_1_1_4
n2555_3_1_1,n2555_3_1_1_4
n2558_3_1_1,n2558_3_1_1_4
n2559_3_1_1,n2559_3_1_1_4
n2561_3_1_1,n2561_3_1_1_4
n2562_3_1_1,n2562_3_1_1_4
n2563_3_1_1,n2563_3_1_1_4
n2565_3_1_1,n2565_3_1_1_4
n2570_3_1_1,n2570_3_1_1_4
n2571_3_1_1,n2571_3_1_1_4
n2572_3_1_1,n2572_3_1_1_4
n2573_3_1_1,n2573_3_1_1_4
n2578_3_1_1,n2578_3_1_1_4
n2581_3_1_1,n2581_3_1_1_4
n2584_3_1_1,n2584_3_1_1_4
n2586_3_1_1,n2586_3_1_1_4
n2587_3_1_1,n2587_3_1_1_4
n2589_3_1_1,n2589_3_1_1_4
n2590_3_1_1,n2590_3_1_1_4
n2592_3_1_1,n2592_3_1_1_4
n2594_3_1_1,n2594_3_1_1_4
n2595_3_1_1,n2595_3_1_1_4
n2596_3_1_1,n2596_3_1_1_4
n2597_3_1_1,n2597_3_1_1_4
n2599_3_1_1,n2599_3_1_1_4
n2600_3_1_1,n2600_3_1_1_4
n2602_3_1_1,n2602_3_1_1_4
n2605_3_1_1,n2605_3_1_1_4
n2607_3_1_1,n2607_3_1_1_4
n2608_3_1_1,n2608_3_1_1_4
n2610_3_1_1,n2610_3_1_1_4
n2615_3_1_1,n2615_3_1_1_4
n2616_3_1_1,n2616_3_1_1_4
n2620_3_1_1,n2620_3_1_1_4
n2622_3_1_1,n2622_3_1_1_4
n2623_3_1_1,n2623_3_1_1_4
n2624_3_1_1,n2624_3_1_1_4
n2625_3_1_1,n2625_3_1_1_4
n2626_3_1_1,n2626_3_1_1_4
n2627_3_1_1,n2627_3_1_1_4
n2629_3_1_1,n2629_3_1_1_4
n2632_3_1_1,n2632_3_1_1_4
n2634_3_1_1,n2634_3_1_1_4
n2635_3_1_1,n2635_3_1_1_4
n2637_3_1_1,n2637_3_1_1_4
n2642_3_1_1,n2642_3_1_1_4
n2645_3_1_1,n2645_3_1_1_4
n2646_3_1_1,n2646_3_1_1_4
n2647_3_1_1,n2647_3_1_1_4
n2648_3_1_1,n2648_3_1_1_4
n2650_3_1_1,n2650_3_1_1_4
n2651_3_1_1,n2651_3_1_1_4
n2653_3_1_1,n2653_3_1_1_4
n2656_3_1_1,n2656_3_1_1_4
n2659_3_1_1,n2659_3_1_1_4
n2661_3_1_1,n2661_3_1_1_4
n2666_3_1_1,n2666_3_1_1_4
n2667_3_1_1,n2667_3_1_1_4
n2668_3_1_1,n2668_3_1_1_4
n2670_3_1_1,n2670_3_1_1_4
n2673_3_1_1,n2673_3_1_1_4
n2675_3_1_1,n2675_3_1_1_4
n2676_3_1_1,n2676_3_1_1_4
n2677_3_1_1,n2677_3_1_1_4
n2678_3_1_1,n2678_3_1_1_4
n2680_3_1_1,n2680_3_1_1_4
n2681_3_1_1,n2681_3_1_1_4
n2682_3_1_1,n2682_3_1_1_4
n2683_3_1_1,n2683_3_1_1_4
n2687_3_1_1,n2687_3_1_1_4
n2688_3_1_1,n2688_3_1_1_4
n2689_3_1_1,n2689_3_1_1_4
n2690_3_1_1,n2690_3_1_1_4
n2693_3_1_1,n2693_3_1_1_4
n2694_3_1_1,n2694_3_1_1_4
n2695_3_1_1,n2695_3_1_1_4
n2697_3_1_1,n2697_3_1_1_4
n2698_3_1_1,n2698_3_1_1_4
n2700_3_1_1,n2700_3_1_1_4
n2701_3_1_1,n2701_3_1_1_4
n2702_3_1_1,n2702_3_1_1_4
n2707_3_1_1,n2707_3_1_1_4
n2710_3_1_1,n2710_3_1_1_4
n2714_3_1_1,n2714_3_1_1_4
n2717_3_1_1,n2717_3_1_1_4
n2718_3_1_1,n2718_3_1_1_4
n2720_3_1_1,n2720_3_1_1_4
n2721_3_1_1,n2721_3_1_1_4
n2722_3_1_1,n2722_3_1_1_4
n2723_3_1_1,n2723_3_1_1_4
n2728_3_1_1,n2728_3_1_1_4
n2734_3_1_1,n2734_3_1_1_4
n2738_3_1_1,n2738_3_1_1_4
n2740_3_1_1,n2740_3_1_1_4
n2742_3_1_1,n2742_3_1_1_4
n2745_3_1_1,n2745_3_1_1_4
n2746_3_1_1,n2746_3_1_1_4
n2747_3_1_1,n2747_3_1_1_4
n2749_3_1_1,n2749_3_1_1_4
n2750_3_1_1,n2750_3_1_1_4
n2754_3_1_1,n2754_3_1_1_4
n2756_3_1_1,n2756_3_1_1_4
n2759_3_1_1,n2759_3_1_1_4
n2761_3_1_1,n2761_3_1_1_4
n2763_3_1_1,n2763_3_1_1_4
n2764_3_1_1,n2764_3_1_1_4
n2769_3_1_1,n2769_3_1_1_4
n2771_3_1_1,n2771_3_1_1_4
n2772_3_1_1,n2772_3_1_1_4
n2774_3_1_1,n2774_3_1_1_4
n2775_3_1_1,n2775_3_1_1_4
n2777_3_1_1,n2777_3_1_1_4
n2779_3_1_1,n2779_3_1_1_4
n2780_3_1_1,n2780_3_1_1_4
n2781_3_1_1,n2781_3_1_1_4
n2782_3_1_1,n2782_3_1_1_4
n2788_3_1_1,n2788_3_1_1_4
n2789_3_1_1,n2789_3_1_1_4
n2791_3_1_1,n2791_3_1_1_4
n2796_3_1_1,n2796_3_1_1_4
n2798_3_1_1,n2798_3_1_1_4
n2801_3_1_1,n2801_3_1_1_4
n2802_3_1_1,n2802_3_1_1_4
n2804_3_1_1,n2804_3_1_1_4
n2805_3_1_1,n2805_3_1_1_4
n2806_3_1_1,n2806_3_1_1_4
n2808_3_1_1,n2808_3_1_1_4
n2809_3_1_1,n2809_3_1_1_4
n2813_3_1_1,n2813_3_1_1_4
n2816_3_1_1,n2816_3_1_1_4
n2817_3_1_1,n2817_3_1_1_4
n2819_3_1_1,n2819_3_1_1_4
n2820_3_1_1,n2820_3_1_1_4
n2821_3_1_1,n2821_3_1_1_4
n2824_3_1_1,n2824_3_1_1_4
n2825_3_1_1,n2825_3_1_1_4
n2826_3_1_1,n2826_3_1_1_4
n2828_3_1_1,n2828_3_1_1_4
n2829_3_1_1,n2829_3_1_1_4
n2830_3_1_1,n2830_3_1_1_4
n2831_3_1_1,n2831_3_1_1_4
n2833_3_1_1,n2833_3_1_1_4
n2834_3_1_1,n2834_3_1_1_4
n2835_3_1_1,n2835_3_1_1_4
n2838_3_1_1,n2838_3_1_1_4
n2840_3_1_1,n2840_3_1_1_4
n2842_3_1_1,n2842_3_1_1_4
n2844_3_1_1,n2844_3_1_1_4
n2847_3_1_1,n2847_3_1_1_4
n2848_3_1_1,n2848_3_1_1_4
n2851_3_1_1,n2851_3_1_1_4
n2852_3_1_1,n2852_3_1_1_4
n2853_3_1_1,n2853_3_1_1_4
n2856_3_1_1,n2856_3_1_1_4
n2859_3_1_1,n2859_3_1_1_4
n2860_3_1_1,n2860_3_1_1_4
n2863_3_1_1,n2863_3_1_1_4
n2864_3_1_1,n2864_3_1_1_4
n2865_3_1_1,n2865_3_1_1_4
n2866_3_1_1,n2866_3_1_1_4
n2867_3_1_1,n2867_3_1_1_4
n2868_3_1_1,n2868_3_1_1_4
n2869_3_1_1,n2869_3_1_1_4
n2870_3_1_1,n2870_3_1_1_4
n2872_3_1_1,n2872_3_1_1_4
n2874_3_1_1,n2874_3_1_1_4
n2875_3_1_1,n2875_3_1_1_4
n2878_3_1_1,n2878_3_1_1_4
n2880_3_1_1,n2880_3_1_1_4
n2882_3_1_1,n2882_3_1_1_4
n2884_3_1_1,n2884_3_1_1_4
n2886_3_1_1,n2886_3_1_1_4
n2887_3_1_1,n2887_3_1_1_4
n2889_3_1_1,n2889_3_1_1_4
n2893_3_1_1,n2893_3_1_1_4
n2894_3_1_1,n2894_3_1_1_4
n2899_3_1_1,n2899_3_1_1_4
n2901_3_1_1,n2901_3_1_1_4
n2902_3_1_1,n2902_3_1_1_4
n2904_3_1_1,n2904_3_1_1_4
n2908_3_1_1,n2908_3_1_1_4
n2909_3_1_1,n2909_3_1_1_4
n2910_3_1_1,n2910_3_1_1_4
n2916_3_1_1,n2916_3_1_1_4
n2917_3_1_1,n2917_3_1_1_4
n2918_3_1_1,n2918_3_1_1_4
n2920_3_1_1,n2920_3_1_1_4
n2922_3_1_1,n2922_3_1_1_4
n2926_3_1_1,n2926_3_1_1_4
n2928_3_1_1,n2928_3_1_1_4
n2929_3_1_1,n2929_3_1_1_4
n2930_3_1_1,n2930_3_1_1_4
n2931_3_1_1,n2931_3_1_1_4
n2932_3_1_1,n2932_3_1_1_4
n2934_3_1_1,n2934_3_1_1_4
n2937_3_1_1,n2937_3_1_1_4
n2942_3_1_1,n2942_3_1_1_4
n2945_3_1_1,n2945_3_1_1_4
n2946_3_1_1,n2946_3_1_1_4
n2947_3_1_1,n2947_3_1_1_4
n2949_3_1_1,n2949_3_1_1_4
n2950_3_1_1,n2950_3_1_1_4
n2952_3_1_1,n2952_3_1_1_4
n2953_3_1_1,n2953_3_1_1_4
n2954_3_1_1,n2954_3_1_1_4
n2959_3_1_1,n2959_3_1_1_4
n2962_3_1_1,n2962_3_1_1_4
n2963_3_1_1,n2963_3_1_1_4
n2964_3_1_1,n2964_3_1_1_4
n2970_3_1_1,n2970_3_1_1_4
n2971_3_1_1,n2971_3_1_1_4
n2972_3_1_1,n2972_3_1_1_4
n2975_3_1_1,n2975_3_1_1_4
n2978_3_1_1,n2978_3_1_1_4
n2982_3_1_1,n2982_3_1_1_4
n2983_3_1_1,n2983_3_1_1_4
n2984_3_1_1,n2984_3_1_1_4
n2985_3_1_1,n2985_3_1_1_4
n2987_3_1_1,n2987_3_1_1_4
n2989_3_1_1,n2989_3_1_1_4
n2990_3_1_1,n2990_3_1_1_4
n2991_3_1_1,n2991_3_1_1_4
n2992_3_1_1,n2992_3_1_1_4
n2996_3_1_1,n2996_3_1_1_4
n3000_3_1_1,n3000_3_1_1_4
n3002_3_1_1,n3002_3_1_1_4
n3005_3_1_1,n3005_3_1_1_4
n3007_3_1_1,n3007_3_1_1_4
n3009_3_1_1,n3009_3_1_1_4
n3012_3_1_1,n3012_3_1_1_4
n3013_3_1_1,n3013_3_1_1_4
n3015_3_1_1,n3015_3_1_1_4
n3016_3_1_1,n3016_3_1_1_4
n3020_3_1_1,n3020_3_1_1_4
n3022_3_1_1,n3022_3_1_1_4
n3024_3_1_1,n3024_3_1_1_4
n3025_3_1_1,n3025_3_1_1_4
n3028_3_1_1,n3028_3_1_1_4
n3029_3_1_1,n3029_3_1_1_4
n3032_3_1_1,n3032_3_1_1_4
n3033_3_1_1,n3033_3_1_1_4
n3034_3_1_1,n3034_3_1_1_4
n3037_3_1_1,n3037_3_1_1_4
n3039_3_1_1,n3039_3_1_1_4
n3040_3_1_1,n3040_3_1_1_4
n3044_3_1_1,n3044_3_1_1_4
n3050_3_1_1,n3050_3_1_1_4
n3051_3_1_1,n3051_3_1_1_4
n3052_3_1_1,n3052_3_1_1_4
n3053_3_1_1,n3053_3_1_1_4
n3054_3_1_1,n3054_3_1_1_4
n3061_3_1_1,n3061_3_1_1_4
n3062_3_1_1,n3062_3_1_1_4
n3067_3_1_1,n3067_3_1_1_4
n3068_3_1_1,n3068_3_1_1_4
n3072_3_1_1,n3072_3_1_1_4
n3073_3_1_1,n3073_3_1_1_4
n3074_3_1_1,n3074_3_1_1_4
n3077_3_1_1,n3077_3_1_1_4
n3078_3_1_1,n3078_3_1_1_4
n3080_3_1_1,n3080_3_1_1_4
n3083_3_1_1,n3083_3_1_1_4
n3084_3_1_1,n3084_3_1_1_4
n3085_3_1_1,n3085_3_1_1_4
n3091_3_1_1,n3091_3_1_1_4
n3092_3_1_1,n3092_3_1_1_4
n3093_3_1_1,n3093_3_1_1_4
n3096_3_1_1,n3096_3_1_1_4
n3100_3_1_1,n3100_3_1_1_4
n3103_3_1_1,n3103_3_1_1_4
n3105_3_1_1,n3105_3_1_1_4
n3108_3_1_1,n3108_3_1_1_4
n3109_3_1_1,n3109_3_1_1_4
n3111_3_1_1,n3111_3_1_1_4
n3112_3_1_1,n3112_3_1_1_4
n3113_3_1_1,n3113_3_1_1_4
n3116_3_1_1,n3116_3_1_1_4
n3117_3_1_1,n3117_3_1_1_4
n3118_3_1_1,n3118_3_1_1_4
n3119_3_1_1,n3119_3_1_1_4
n3120_3_1_1,n3120_3_1_1_4
n3124_3_1_1,n3124_3_1_1_4
n3127_3_1_1,n3127_3_1_1_4
n3132_3_1_1,n3132_3_1_1_4
n3135_3_1_1,n3135_3_1_1_4
n3137_3_1_1,n3137_3_1_1_4
n3138_3_1_1,n3138_3_1_1_4
n3142_3_1_1,n3142_3_1_1_4
n3143_3_1_1,n3143_3_1_1_4
n3145_3_1_1,n3145_3_1_1_4
n3147_3_1_1,n3147_3_1_1_4
n3148_3_1_1,n3148_3_1_1_4
n3150_3_1_1,n3150_3_1_1_4
n3153_3_1_1,n3153_3_1_1_4
n3154_3_1_1,n3154_3_1_1_4
n3158_3_1_1,n3158_3_1_1_4
n3159_3_1_1,n3159_3_1_1_4
n3164_3_1_1,n3164_3_1_1_4
n3165_3_1_1,n3165_3_1_1_4
n3169_3_1_1,n3169_3_1_1_4
n3170_3_1_1,n3170_3_1_1_4
n3171_3_1_1,n3171_3_1_1_4
n3174_3_1_1,n3174_3_1_1_4
n3179_3_1_1,n3179_3_1_1_4
n3181_3_1_1,n3181_3_1_1_4
n3182_3_1_1,n3182_3_1_1_4
n3183_3_1_1,n3183_3_1_1_4
n3184_3_1_1,n3184_3_1_1_4
n3187_3_1_1,n3187_3_1_1_4
n3190_3_1_1,n3190_3_1_1_4
n3191_3_1_1,n3191_3_1_1_4
n3192_3_1_1,n3192_3_1_1_4
n3193_3_1_1,n3193_3_1_1_4
n3194_3_1_1,n3194_3_1_1_4
n3195_3_1_1,n3195_3_1_1_4
n3196_3_1_1,n3196_3_1_1_4
n3199_3_1_1,n3199_3_1_1_4
n3200_3_1_1,n3200_3_1_1_4
n3202_3_1_1,n3202_3_1_1_4
n3204_3_1_1,n3204_3_1_1_4
n3207_3_1_1,n3207_3_1_1_4
n3209_3_1_1,n3209_3_1_1_4
n3210_3_1_1,n3210_3_1_1_4
n3211_3_1_1,n3211_3_1_1_4
n3212_3_1_1,n3212_3_1_1_4
n3214_3_1_1,n3214_3_1_1_4
n3215_3_1_1,n3215_3_1_1_4
n3216_3_1_1,n3216_3_1_1_4
n3217_3_1_1,n3217_3_1_1_4
n3219_3_1_1,n3219_3_1_1_4
n3220_3_1_1,n3220_3_1_1_4
n3221_3_1_1,n3221_3_1_1_4
n3224_3_1_1,n3224_3_1_1_4
n3228_3_1_1,n3228_3_1_1_4
n3233_3_1_1,n3233_3_1_1_4
n3234_3_1_1,n3234_3_1_1_4
n3240_3_1_1,n3240_3_1_1_4
n3242_3_1_1,n3242_3_1_1_4
n3243_3_1_1,n3243_3_1_1_4
n3245_3_1_1,n3245_3_1_1_4
n3249_3_1_1,n3249_3_1_1_4
n3252_3_1_1,n3252_3_1_1_4
n3254_3_1_1,n3254_3_1_1_4
n3255_3_1_1,n3255_3_1_1_4
n3256_3_1_1,n3256_3_1_1_4
n3257_3_1_1,n3257_3_1_1_4
n3258_3_1_1,n3258_3_1_1_4
n3261_3_1_1,n3261_3_1_1_4
n3262_3_1_1,n3262_3_1_1_4
n3264_3_1_1,n3264_3_1_1_4
n3265_3_1_1,n3265_3_1_1_4
n3266_3_1_1,n3266_3_1_1_4
n3270_3_1_1,n3270_3_1_1_4
n3273_3_1_1,n3273_3_1_1_4
n3275_3_1_1,n3275_3_1_1_4
n3279_3_1_1,n3279_3_1_1_4
n3280_3_1_1,n3280_3_1_1_4
n3281_3_1_1,n3281_3_1_1_4
n3283_3_1_1,n3283_3_1_1_4
n3287_3_1_1,n3287_3_1_1_4
n3288_3_1_1,n3288_3_1_1_4
n3290_3_1_1,n3290_3_1_1_4
n3291_3_1_1,n3291_3_1_1_4
n3292_3_1_1,n3292_3_1_1_4
n3293_3_1_1,n3293_3_1_1_4
n3296_3_1_1,n3296_3_1_1_4
n3297_3_1_1,n3297_3_1_1_4
n3298_3_1_1,n3298_3_1_1_4
n3301_3_1_1,n3301_3_1_1_4
n3302_3_1_1,n3302_3_1_1_4
n3303_3_1_1,n3303_3_1_1_4
n3304_3_1_1,n3304_3_1_1_4
n3307_3_1_1,n3307_3_1_1_4
n3308_3_1_1,n3308_3_1_1_4
n3311_3_1_1,n3311_3_1_1_4
n3314_3_1_1,n3314_3_1_1_4
n3315_3_1_1,n3315_3_1_1_4
n3316_3_1_1,n3316_3_1_1_4
n3320_3_1_1,n3320_3_1_1_4
n3323_3_1_1,n3323_3_1_1_4
n3325_3_1_1,n3325_3_1_1_4
n3327_3_1_1,n3327_3_1_1_4
n3329_3_1_1,n3329_3_1_1_4
n3330_3_1_1,n3330_3_1_1_4
n3331_3_1_1,n3331_3_1_1_4
n3333_3_1_1,n3333_3_1_1_4
n3335_3_1_1,n3335_3_1_1_4
n3336_3_1_1,n3336_3_1_1_4
n3337_3_1_1,n3337_3_1_1_4
n3338_3_1_1,n3338_3_1_1_4
n3339_3_1_1,n3339_3_1_1_4
n3341_3_1_1,n3341_3_1_1_4
n3343_3_1_1,n3343_3_1_1_4
n3350_3_1_1,n3350_3_1_1_4
n3351_3_1_1,n3351_3_1_1_4
n3353_3_1_1,n3353_3_1_1_4
n3355_3_1_1,n3355_3_1_1_4
n3356_3_1_1,n3356_3_1_1_4
n3358_3_1_1,n3358_3_1_1_4
n3359_3_1_1,n3359_3_1_1_4
n3360_3_1_1,n3360_3_1_1_4
n3362_3_1_1,n3362_3_1_1_4
n3363_3_1_1,n3363_3_1_1_4
n3364_3_1_1,n3364_3_1_1_4
n3367_3_1_1,n3367_3_1_1_4
n3368_3_1_1,n3368_3_1_1_4
n3370_3_1_1,n3370_3_1_1_4
n3371_3_1_1,n3371_3_1_1_4
n3373_3_1_1,n3373_3_1_1_4
n3381_3_1_1,n3381_3_1_1_4
n3382_3_1_1,n3382_3_1_1_4
n3388_3_1_1,n3388_3_1_1_4
n3390_3_1_1,n3390_3_1_1_4
n3391_3_1_1,n3391_3_1_1_4
n3393_3_1_1,n3393_3_1_1_4
n3395_3_1_1,n3395_3_1_1_4
n3396_3_1_1,n3396_3_1_1_4
n3398_3_1_1,n3398_3_1_1_4
n3399_3_1_1,n3399_3_1_1_4
n3401_3_1_1,n3401_3_1_1_4
n3402_3_1_1,n3402_3_1_1_4
n3404_3_1_1,n3404_3_1_1_4
n3405_3_1_1,n3405_3_1_1_4
n3407_3_1_1,n3407_3_1_1_4
n3410_3_1_1,n3410_3_1_1_4
n3411_3_1_1,n3411_3_1_1_4
n3413_3_1_1,n3413_3_1_1_4
n3415_3_1_1,n3415_3_1_1_4
n3416_3_1_1,n3416_3_1_1_4
n3418_3_1_1,n3418_3_1_1_4
n3420_3_1_1,n3420_3_1_1_4
n3421_3_1_1,n3421_3_1_1_4
n3424_3_1_1,n3424_3_1_1_4
n3425_3_1_1,n3425_3_1_1_4
n3427_3_1_1,n3427_3_1_1_4
n3428_3_1_1,n3428_3_1_1_4
n3430_3_1_1,n3430_3_1_1_4
n3434_3_1_1,n3434_3_1_1_4
n3436_3_1_1,n3436_3_1_1_4
n3440_3_1_1,n3440_3_1_1_4
n3442_3_1_1,n3442_3_1_1_4
n3446_3_1_1,n3446_3_1_1_4
n3447_3_1_1,n3447_3_1_1_4
n3450_3_1_1,n3450_3_1_1_4
n3452_3_1_1,n3452_3_1_1_4
n3456_3_1_1,n3456_3_1_1_4
n3458_3_1_1,n3458_3_1_1_4
n3459_3_1_1,n3459_3_1_1_4
n3461_3_1_1,n3461_3_1_1_4
n3465_3_1_1,n3465_3_1_1_4
n3466_3_1_1,n3466_3_1_1_4
n3467_3_1_1,n3467_3_1_1_4
n3469_3_1_1,n3469_3_1_1_4
n3474_3_1_1,n3474_3_1_1_4
n3475_3_1_1,n3475_3_1_1_4
n3478_3_1_1,n3478_3_1_1_4
n3480_3_1_1,n3480_3_1_1_4
n3482_3_1_1,n3482_3_1_1_4
n3484_3_1_1,n3484_3_1_1_4
n3485_3_1_1,n3485_3_1_1_4
n3487_3_1_1,n3487_3_1_1_4
n3492_3_1_1,n3492_3_1_1_4
n3494_3_1_1,n3494_3_1_1_4
n3497_3_1_1,n3497_3_1_1_4
n3499_3_1_1,n3499_3_1_1_4
n3500_3_1_1,n3500_3_1_1_4
n3502_3_1_1,n3502_3_1_1_4
n3504_3_1_1,n3504_3_1_1_4
n3505_3_1_1,n3505_3_1_1_4
n3507_3_1_1,n3507_3_1_1_4
n3509_3_1_1,n3509_3_1_1_4
n3512_3_1_1,n3512_3_1_1_4
n3514_3_1_1,n3514_3_1_1_4
n3516_3_1_1,n3516_3_1_1_4
n3518_3_1_1,n3518_3_1_1_4
n3521_3_1_1,n3521_3_1_1_4
n3526_3_1_1,n3526_3_1_1_4
n3527_3_1_1,n3527_3_1_1_4
n3528_3_1_1,n3528_3_1_1_4
n3532_3_1_1,n3532_3_1_1_4
n3535_3_1_1,n3535_3_1_1_4
n3536_3_1_1,n3536_3_1_1_4
n3537_3_1_1,n3537_3_1_1_4
n3539_3_1_1,n3539_3_1_1_4
n3541_3_1_1,n3541_3_1_1_4
n3542_3_1_1,n3542_3_1_1_4
n3543_3_1_1,n3543_3_1_1_4
n3545_3_1_1,n3545_3_1_1_4
n3546_3_1_1,n3546_3_1_1_4
n3548_3_1_1,n3548_3_1_1_4
n3551_3_1_1,n3551_3_1_1_4
n3553_3_1_1,n3553_3_1_1_4
n3556_3_1_1,n3556_3_1_1_4
n3557_3_1_1,n3557_3_1_1_4
n3558_3_1_1,n3558_3_1_1_4
n3559_3_1_1,n3559_3_1_1_4
n3560_3_1_1,n3560_3_1_1_4
n3562_3_1_1,n3562_3_1_1_4
n3563_3_1_1,n3563_3_1_1_4
n3564_3_1_1,n3564_3_1_1_4
n3566_3_1_1,n3566_3_1_1_4
n3567_3_1_1,n3567_3_1_1_4
n3569_3_1_1,n3569_3_1_1_4
n3571_3_1_1,n3571_3_1_1_4
n3572_3_1_1,n3572_3_1_1_4
n3573_3_1_1,n3573_3_1_1_4
n3575_3_1_1,n3575_3_1_1_4
n3577_3_1_1,n3577_3_1_1_4
n3579_3_1_1,n3579_3_1_1_4
n3580_3_1_1,n3580_3_1_1_4
n3581_3_1_1,n3581_3_1_1_4
n3582_3_1_1,n3582_3_1_1_4
n3583_3_1_1,n3583_3_1_1_4
n3584_3_1_1,n3584_3_1_1_4
n3588_3_1_1,n3588_3_1_1_4
n3590_3_1_1,n3590_3_1_1_4
n3596_3_1_1,n3596_3_1_1_4
n3601_3_1_1,n3601_3_1_1_4
n3606_3_1_1,n3606_3_1_1_4
n3610_3_1_1,n3610_3_1_1_4
n3612_3_1_1,n3612_3_1_1_4
n3613_3_1_1,n3613_3_1_1_4
n3614_3_1_1,n3614_3_1_1_4
n3616_3_1_1,n3616_3_1_1_4
n3617_3_1_1,n3617_3_1_1_4
n3618_3_1_1,n3618_3_1_1_4
n3621_3_1_1,n3621_3_1_1_4
n3623_3_1_1,n3623_3_1_1_4
n3626_3_1_1,n3626_3_1_1_4
n3627_3_1_1,n3627_3_1_1_4
n3630_3_1_1,n3630_3_1_1_4
n3631_3_1_1,n3631_3_1_1_4
n3632_3_1_1,n3632_3_1_1_4
n3634_3_1_1,n3634_3_1_1_4
n3635_3_1_1,n3635_3_1_1_4
n3638_3_1_1,n3638_3_1_1_4
n3641_3_1_1,n3641_3_1_1_4
n3642_3_1_1,n3642_3_1_1_4
n3644_3_1_1,n3644_3_1_1_4
n3646_3_1_1,n3646_3_1_1_4
n3647_3_1_1,n3647_3_1_1_4
n3648_3_1_1,n3648_3_1_1_4
n3649_3_1_1,n3649_3_1_1_4
n3650_3_1_1,n3650_3_1_1_4
n3651_3_1_1,n3651_3_1_1_4
n3652_3_1_1,n3652_3_1_1_4
n3653_3_1_1,n3653_3_1_1_4
n3654_3_1_1,n3654_3_1_1_4
n3657_3_1_1,n3657_3_1_1_4
n3659_3_1_1,n3659_3_1_1_4
n3661_3_1_1,n3661_3_1_1_4
n3662_3_1_1,n3662_3_1_1_4
n3665_3_1_1,n3665_3_1_1_4
n3668_3_1_1,n3668_3_1_1_4
n3671_3_1_1,n3671_3_1_1_4
n3672_3_1_1,n3672_3_1_1_4
n3673_3_1_1,n3673_3_1_1_4
n3674_3_1_1,n3674_3_1_1_4
n3676_3_1_1,n3676_3_1_1_4
n3677_3_1_1,n3677_3_1_1_4
n3681_3_1_1,n3681_3_1_1_4
n3682_3_1_1,n3682_3_1_1_4
n3683_3_1_1,n3683_3_1_1_4
n3684_3_1_1,n3684_3_1_1_4
n3685_3_1_1,n3685_3_1_1_4
n3688_3_1_1,n3688_3_1_1_4
n3692_3_1_1,n3692_3_1_1_4
n3693_3_1_1,n3693_3_1_1_4
n3695_3_1_1,n3695_3_1_1_4
n3697_3_1_1,n3697_3_1_1_4
n3698_3_1_1,n3698_3_1_1_4
n3699_3_1_1,n3699_3_1_1_4
n3701_3_1_1,n3701_3_1_1_4
n3702_3_1_1,n3702_3_1_1_4
n3703_3_1_1,n3703_3_1_1_4
n3704_3_1_1,n3704_3_1_1_4
n3707_3_1_1,n3707_3_1_1_4
n3708_3_1_1,n3708_3_1_1_4
n3709_3_1_1,n3709_3_1_1_4
n3710_3_1_1,n3710_3_1_1_4
n3713_3_1_1,n3713_3_1_1_4
n3715_3_1_1,n3715_3_1_1_4
n3717_3_1_1,n3717_3_1_1_4
n3718_3_1_1,n3718_3_1_1_4
n3719_3_1_1,n3719_3_1_1_4
n3721_3_1_1,n3721_3_1_1_4
n3722_3_1_1,n3722_3_1_1_4
n3723_3_1_1,n3723_3_1_1_4
n3727_3_1_1,n3727_3_1_1_4
n3728_3_1_1,n3728_3_1_1_4
n3729_3_1_1,n3729_3_1_1_4
n3730_3_1_1,n3730_3_1_1_4
n3731_3_1_1,n3731_3_1_1_4
n3736_3_1_1,n3736_3_1_1_4
n3737_3_1_1,n3737_3_1_1_4
n3738_3_1_1,n3738_3_1_1_4
n3739_3_1_1,n3739_3_1_1_4
n3742_3_1_1,n3742_3_1_1_4
n3743_3_1_1,n3743_3_1_1_4
n3745_3_1_1,n3745_3_1_1_4
n3746_3_1_1,n3746_3_1_1_4
n3747_3_1_1,n3747_3_1_1_4
n3748_3_1_1,n3748_3_1_1_4
n3750_3_1_1,n3750_3_1_1_4
n3752_3_1_1,n3752_3_1_1_4
n3759_3_1_1,n3759_3_1_1_4
n3762_3_1_1,n3762_3_1_1_4
n3765_3_1_1,n3765_3_1_1_4
n3767_3_1_1,n3767_3_1_1_4
n3769_3_1_1,n3769_3_1_1_4
n3770_3_1_1,n3770_3_1_1_4
n3774_3_1_1,n3774_3_1_1_4
n3776_3_1_1,n3776_3_1_1_4
n3779_3_1_1,n3779_3_1_1_4
n3780_3_1_1,n3780_3_1_1_4
n3782_3_1_1,n3782_3_1_1_4
n3786_3_1_1,n3786_3_1_1_4
n3788_3_1_1,n3788_3_1_1_4
n3795_3_1_1,n3795_3_1_1_4
n3796_3_1_1,n3796_3_1_1_4
n3797_3_1_1,n3797_3_1_1_4
n3799_3_1_1,n3799_3_1_1_4
n3800_3_1_1,n3800_3_1_1_4
n3802_3_1_1,n3802_3_1_1_4
n3803_3_1_1,n3803_3_1_1_4
n3804_3_1_1,n3804_3_1_1_4
n3805_3_1_1,n3805_3_1_1_4
n3807_3_1_1,n3807_3_1_1_4
n3809_3_1_1,n3809_3_1_1_4
n3811_3_1_1,n3811_3_1_1_4
n3813_3_1_1,n3813_3_1_1_4
n3815_3_1_1,n3815_3_1_1_4
n3817_3_1_1,n3817_3_1_1_4
n3818_3_1_1,n3818_3_1_1_4
n3819_3_1_1,n3819_3_1_1_4
n3822_3_1_1,n3822_3_1_1_4
n3823_3_1_1,n3823_3_1_1_4
n3825_3_1_1,n3825_3_1_1_4
n3826_3_1_1,n3826_3_1_1_4
n3827_3_1_1,n3827_3_1_1_4
n3828_3_1_1,n3828_3_1_1_4
n3829_3_1_1,n3829_3_1_1_4
n3830_3_1_1,n3830_3_1_1_4
n3831_3_1_1,n3831_3_1_1_4
n3836_3_1_1,n3836_3_1_1_4
n3837_3_1_1,n3837_3_1_1_4
n3840_3_1_1,n3840_3_1_1_4
n3843_3_1_1,n3843_3_1_1_4
n3845_3_1_1,n3845_3_1_1_4
n3846_3_1_1,n3846_3_1_1_4
n3847_3_1_1,n3847_3_1_1_4
n3848_3_1_1,n3848_3_1_1_4
n3849_3_1_1,n3849_3_1_1_4
n3855_3_1_1,n3855_3_1_1_4
n3856_3_1_1,n3856_3_1_1_4
n3857_3_1_1,n3857_3_1_1_4
n3859_3_1_1,n3859_3_1_1_4
n3865_3_1_1,n3865_3_1_1_4
n3866_3_1_1,n3866_3_1_1_4
n3867_3_1_1,n3867_3_1_1_4
n3870_3_1_1,n3870_3_1_1_4
n3873_3_1_1,n3873_3_1_1_4
n3874_3_1_1,n3874_3_1_1_4
n3876_3_1_1,n3876_3_1_1_4
n3877_3_1_1,n3877_3_1_1_4
n3878_3_1_1,n3878_3_1_1_4
n3879_3_1_1,n3879_3_1_1_4
n3881_3_1_1,n3881_3_1_1_4
n3882_3_1_1,n3882_3_1_1_4
n3883_3_1_1,n3883_3_1_1_4
n3884_3_1_1,n3884_3_1_1_4
n3887_3_1_1,n3887_3_1_1_4
n3890_3_1_1,n3890_3_1_1_4
n3892_3_1_1,n3892_3_1_1_4
n3895_3_1_1,n3895_3_1_1_4
n3899_3_1_1,n3899_3_1_1_4
n3901_3_1_1,n3901_3_1_1_4
n3902_3_1_1,n3902_3_1_1_4
n3905_3_1_1,n3905_3_1_1_4
n3907_3_1_1,n3907_3_1_1_4
n3908_3_1_1,n3908_3_1_1_4
n3909_3_1_1,n3909_3_1_1_4
n3910_3_1_1,n3910_3_1_1_4
n3912_3_1_1,n3912_3_1_1_4
n3913_3_1_1,n3913_3_1_1_4
n3914_3_1_1,n3914_3_1_1_4
n3916_3_1_1,n3916_3_1_1_4
n3918_3_1_1,n3918_3_1_1_4
n3919_3_1_1,n3919_3_1_1_4
n3921_3_1_1,n3921_3_1_1_4
n3923_3_1_1,n3923_3_1_1_4
n3924_3_1_1,n3924_3_1_1_4
n3927_3_1_1,n3927_3_1_1_4
n3932_3_1_1,n3932_3_1_1_4
n3934_3_1_1,n3934_3_1_1_4
n3937_3_1_1,n3937_3_1_1_4
n3938_3_1_1,n3938_3_1_1_4
n3940_3_1_1,n3940_3_1_1_4
n3943_3_1_1,n3943_3_1_1_4
n3944_3_1_1,n3944_3_1_1_4
n3945_3_1_1,n3945_3_1_1_4
n3951_3_1_1,n3951_3_1_1_4
n3952_3_1_1,n3952_3_1_1_4
n3953_3_1_1,n3953_3_1_1_4
n3954_3_1_1,n3954_3_1_1_4
n3955_3_1_1,n3955_3_1_1_4
n3958_3_1_1,n3958_3_1_1_4
n3959_3_1_1,n3959_3_1_1_4
n3961_3_1_1,n3961_3_1_1_4
n3963_3_1_1,n3963_3_1_1_4
n3964_3_1_1,n3964_3_1_1_4
n3966_3_1_1,n3966_3_1_1_4
n3967_3_1_1,n3967_3_1_1_4
n3970_3_1_1,n3970_3_1_1_4
n3971_3_1_1,n3971_3_1_1_4
n3972_3_1_1,n3972_3_1_1_4
n3976_3_1_1,n3976_3_1_1_4
n3978_3_1_1,n3978_3_1_1_4
n3980_3_1_1,n3980_3_1_1_4
n3982_3_1_1,n3982_3_1_1_4
n3984_3_1_1,n3984_3_1_1_4
n3985_3_1_1,n3985_3_1_1_4
n3986_3_1_1,n3986_3_1_1_4
n3990_3_1_1,n3990_3_1_1_4
n3992_3_1_1,n3992_3_1_1_4
n3994_3_1_1,n3994_3_1_1_4
n3996_3_1_1,n3996_3_1_1_4
n3998_3_1_1,n3998_3_1_1_4
n4001_3_1_1,n4001_3_1_1_4
n4004_3_1_1,n4004_3_1_1_4
n4006_3_1_1,n4006_3_1_1_4
n4007_3_1_1,n4007_3_1_1_4
n4009_3_1_1,n4009_3_1_1_4
n4010_3_1_1,n4010_3_1_1_4
n4013_3_1_1,n4013_3_1_1_4
n4014_3_1_1,n4014_3_1_1_4
n4015_3_1_1,n4015_3_1_1_4
n4018_3_1_1,n4018_3_1_1_4
n4020_3_1_1,n4020_3_1_1_4
n4022_3_1_1,n4022_3_1_1_4
n4024_3_1_1,n4024_3_1_1_4
n4025_3_1_1,n4025_3_1_1_4
n4026_3_1_1,n4026_3_1_1_4
n4028_3_1_1,n4028_3_1_1_4
n4030_3_1_1,n4030_3_1_1_4
n4032_3_1_1,n4032_3_1_1_4
n4035_3_1_1,n4035_3_1_1_4
n4036_3_1_1,n4036_3_1_1_4
n4038_3_1_1,n4038_3_1_1_4
n4039_3_1_1,n4039_3_1_1_4
n4040_3_1_1,n4040_3_1_1_4
n4042_3_1_1,n4042_3_1_1_4
n4044_3_1_1,n4044_3_1_1_4
n4047_3_1_1,n4047_3_1_1_4
n4048_3_1_1,n4048_3_1_1_4
n4051_3_1_1,n4051_3_1_1_4
n4052_3_1_1,n4052_3_1_1_4
n4054_3_1_1,n4054_3_1_1_4
n4055_3_1_1,n4055_3_1_1_4
n4057_3_1_1,n4057_3_1_1_4
n4058_3_1_1,n4058_3_1_1_4
n4060_3_1_1,n4060_3_1_1_4
n4061_3_1_1,n4061_3_1_1_4
n4065_3_1_1,n4065_3_1_1_4
n4068_3_1_1,n4068_3_1_1_4
n4072_3_1_1,n4072_3_1_1_4
n4073_3_1_1,n4073_3_1_1_4
n4075_3_1_1,n4075_3_1_1_4
n4076_3_1_1,n4076_3_1_1_4
n4078_3_1_1,n4078_3_1_1_4
n4080_3_1_1,n4080_3_1_1_4
n4081_3_1_1,n4081_3_1_1_4
n4082_3_1_1,n4082_3_1_1_4
n4085_3_1_1,n4085_3_1_1_4
n4086_3_1_1,n4086_3_1_1_4
n4087_3_1_1,n4087_3_1_1_4
n4089_3_1_1,n4089_3_1_1_4
n4090_3_1_1,n4090_3_1_1_4
n4091_3_1_1,n4091_3_1_1_4
n4095_3_1_1,n4095_3_1_1_4
n4096_3_1_1,n4096_3_1_1_4
n4102_3_1_1,n4102_3_1_1_4
n4103_3_1_1,n4103_3_1_1_4
n4108_3_1_1,n4108_3_1_1_4
n4109_3_1_1,n4109_3_1_1_4
n4113_3_1_1,n4113_3_1_1_4
n4115_3_1_1,n4115_3_1_1_4
n4117_3_1_1,n4117_3_1_1_4
n4118_3_1_1,n4118_3_1_1_4
n4119_3_1_1,n4119_3_1_1_4
n4121_3_1_1,n4121_3_1_1_4
n4123_3_1_1,n4123_3_1_1_4
n4124_3_1_1,n4124_3_1_1_4
n4125_3_1_1,n4125_3_1_1_4
n4126_3_1_1,n4126_3_1_1_4
n4127_3_1_1,n4127_3_1_1_4
n4128_3_1_1,n4128_3_1_1_4
n4131_3_1_1,n4131_3_1_1_4
n4132_3_1_1,n4132_3_1_1_4
n4133_3_1_1,n4133_3_1_1_4
n4134_3_1_1,n4134_3_1_1_4
n4136_3_1_1,n4136_3_1_1_4
n4137_3_1_1,n4137_3_1_1_4
n4140_3_1_1,n4140_3_1_1_4
n4142_3_1_1,n4142_3_1_1_4
n4143_3_1_1,n4143_3_1_1_4
n4144_3_1_1,n4144_3_1_1_4
n4145_3_1_1,n4145_3_1_1_4
n4146_3_1_1,n4146_3_1_1_4
n4151_3_1_1,n4151_3_1_1_4
n4153_3_1_1,n4153_3_1_1_4
n4156_3_1_1,n4156_3_1_1_4
n4160_3_1_1,n4160_3_1_1_4
n4163_3_1_1,n4163_3_1_1_4
n4165_3_1_1,n4165_3_1_1_4
n4168_3_1_1,n4168_3_1_1_4
n4169_3_1_1,n4169_3_1_1_4
n4170_3_1_1,n4170_3_1_1_4
n4173_3_1_1,n4173_3_1_1_4
n4175_3_1_1,n4175_3_1_1_4
n4176_3_1_1,n4176_3_1_1_4
n4177_3_1_1,n4177_3_1_1_4
n4182_3_1_1,n4182_3_1_1_4
n4186_3_1_1,n4186_3_1_1_4
n4190_3_1_1,n4190_3_1_1_4
n4191_3_1_1,n4191_3_1_1_4
n4193_3_1_1,n4193_3_1_1_4
n4199_3_1_1,n4199_3_1_1_4
n4200_3_1_1,n4200_3_1_1_4
n4203_3_1_1,n4203_3_1_1_4
n4206_3_1_1,n4206_3_1_1_4
n4207_3_1_1,n4207_3_1_1_4
n4208_3_1_1,n4208_3_1_1_4
n4211_3_1_1,n4211_3_1_1_4
n4212_3_1_1,n4212_3_1_1_4
n4217_3_1_1,n4217_3_1_1_4
n4220_3_1_1,n4220_3_1_1_4
n4221_3_1_1,n4221_3_1_1_4
n4223_3_1_1,n4223_3_1_1_4
n4225_3_1_1,n4225_3_1_1_4
n4231_3_1_1,n4231_3_1_1_4
n4234_3_1_1,n4234_3_1_1_4
n4235_3_1_1,n4235_3_1_1_4
n4236_3_1_1,n4236_3_1_1_4
n4237_3_1_1,n4237_3_1_1_4
n4239_3_1_1,n4239_3_1_1_4
n4240_3_1_1,n4240_3_1_1_4
n4243_3_1_1,n4243_3_1_1_4
n4245_3_1_1,n4245_3_1_1_4
n4250_3_1_1,n4250_3_1_1_4
n4251_3_1_1,n4251_3_1_1_4
n4256_3_1_1,n4256_3_1_1_4
n4257_3_1_1,n4257_3_1_1_4
n4260_3_1_1,n4260_3_1_1_4
n4261_3_1_1,n4261_3_1_1_4
n4263_3_1_1,n4263_3_1_1_4
n4264_3_1_1,n4264_3_1_1_4
n4265_3_1_1,n4265_3_1_1_4
n4267_3_1_1,n4267_3_1_1_4
n4271_3_1_1,n4271_3_1_1_4
n4273_3_1_1,n4273_3_1_1_4
n4274_3_1_1,n4274_3_1_1_4
n4277_3_1_1,n4277_3_1_1_4
n4280_3_1_1,n4280_3_1_1_4
n4281_3_1_1,n4281_3_1_1_4
n4285_3_1_1,n4285_3_1_1_4
n4288_3_1_1,n4288_3_1_1_4
n4290_3_1_1,n4290_3_1_1_4
n4291_3_1_1,n4291_3_1_1_4
n4292_3_1_1,n4292_3_1_1_4
n4293_3_1_1,n4293_3_1_1_4
n4294_3_1_1,n4294_3_1_1_4
n4295_3_1_1,n4295_3_1_1_4
n4298_3_1_1,n4298_3_1_1_4
n4302_3_1_1,n4302_3_1_1_4
n4305_3_1_1,n4305_3_1_1_4
n4306_3_1_1,n4306_3_1_1_4
n4308_3_1_1,n4308_3_1_1_4
n4309_3_1_1,n4309_3_1_1_4
n4311_3_1_1,n4311_3_1_1_4
n4313_3_1_1,n4313_3_1_1_4
n4314_3_1_1,n4314_3_1_1_4
n4318_3_1_1,n4318_3_1_1_4
n4321_3_1_1,n4321_3_1_1_4
n4322_3_1_1,n4322_3_1_1_4
n4323_3_1_1,n4323_3_1_1_4
n4324_3_1_1,n4324_3_1_1_4
n4325_3_1_1,n4325_3_1_1_4
n4326_3_1_1,n4326_3_1_1_4
n4327_3_1_1,n4327_3_1_1_4
n4328_3_1_1,n4328_3_1_1_4
n4330_3_1_1,n4330_3_1_1_4
n4333_3_1_1,n4333_3_1_1_4
n4336_3_1_1,n4336_3_1_1_4
n4338_3_1_1,n4338_3_1_1_4
n4340_3_1_1,n4340_3_1_1_4
n4341_3_1_1,n4341_3_1_1_4
n4343_3_1_1,n4343_3_1_1_4
n4344_3_1_1,n4344_3_1_1_4
n4345_3_1_1,n4345_3_1_1_4
n4346_3_1_1,n4346_3_1_1_4
n4348_3_1_1,n4348_3_1_1_4
n4351_3_1_1,n4351_3_1_1_4
n4352_3_1_1,n4352_3_1_1_4
n4355_3_1_1,n4355_3_1_1_4
n4360_3_1_1,n4360_3_1_1_4
n4362_3_1_1,n4362_3_1_1_4
n4364_3_1_1,n4364_3_1_1_4
n4365_3_1_1,n4365_3_1_1_4
n4370_3_1_1,n4370_3_1_1_4
n4371_3_1_1,n4371_3_1_1_4
n4375_3_1_1,n4375_3_1_1_4
n4381_3_1_1,n4381_3_1_1_4
n4384_3_1_1,n4384_3_1_1_4
n4385_3_1_1,n4385_3_1_1_4
n4386_3_1_1,n4386_3_1_1_4
n4387_3_1_1,n4387_3_1_1_4
n4388_3_1_1,n4388_3_1_1_4
n4390_3_1_1,n4390_3_1_1_4
n4391_3_1_1,n4391_3_1_1_4
n4394_3_1_1,n4394_3_1_1_4
n4395_3_1_1,n4395_3_1_1_4
n4399_3_1_1,n4399_3_1_1_4
n4400_3_1_1,n4400_3_1_1_4
n4402_3_1_1,n4402_3_1_1_4
n4404_3_1_1,n4404_3_1_1_4
n4405_3_1_1,n4405_3_1_1_4
n4406_3_1_1,n4406_3_1_1_4
n4407_3_1_1,n4407_3_1_1_4
n4410_3_1_1,n4410_3_1_1_4
n4414_3_1_1,n4414_3_1_1_4
n4417_3_1_1,n4417_3_1_1_4
n4419_3_1_1,n4419_3_1_1_4
n4420_3_1_1,n4420_3_1_1_4
n4425_3_1_1,n4425_3_1_1_4
n4427_3_1_1,n4427_3_1_1_4
n4429_3_1_1,n4429_3_1_1_4
n4433_3_1_1,n4433_3_1_1_4
n4437_3_1_1,n4437_3_1_1_4
n4439_3_1_1,n4439_3_1_1_4
n4440_3_1_1,n4440_3_1_1_4
n4442_3_1_1,n4442_3_1_1_4
n4445_3_1_1,n4445_3_1_1_4
n4448_3_1_1,n4448_3_1_1_4
n4451_3_1_1,n4451_3_1_1_4
n4453_3_1_1,n4453_3_1_1_4
n4456_3_1_1,n4456_3_1_1_4
n4457_3_1_1,n4457_3_1_1_4
n4459_3_1_1,n4459_3_1_1_4
n4460_3_1_1,n4460_3_1_1_4
n4461_3_1_1,n4461_3_1_1_4
n4464_3_1_1,n4464_3_1_1_4
n4465_3_1_1,n4465_3_1_1_4
n4466_3_1_1,n4466_3_1_1_4
n4467_3_1_1,n4467_3_1_1_4
n4468_3_1_1,n4468_3_1_1_4
n4469_3_1_1,n4469_3_1_1_4
n4471_3_1_1,n4471_3_1_1_4
n4476_3_1_1,n4476_3_1_1_4
n4478_3_1_1,n4478_3_1_1_4
n4482_3_1_1,n4482_3_1_1_4
n4485_3_1_1,n4485_3_1_1_4
n4487_3_1_1,n4487_3_1_1_4
n4491_3_1_1,n4491_3_1_1_4
n4494_3_1_1,n4494_3_1_1_4
n4496_3_1_1,n4496_3_1_1_4
n4498_3_1_1,n4498_3_1_1_4
n4499_3_1_1,n4499_3_1_1_4
n4501_3_1_1,n4501_3_1_1_4
n4502_3_1_1,n4502_3_1_1_4
n4506_3_1_1,n4506_3_1_1_4
n4508_3_1_1,n4508_3_1_1_4
n4511_3_1_1,n4511_3_1_1_4
n4513_3_1_1,n4513_3_1_1_4
n4515_3_1_1,n4515_3_1_1_4
n4517_3_1_1,n4517_3_1_1_4
n4518_3_1_1,n4518_3_1_1_4
n4521_3_1_1,n4521_3_1_1_4
n4522_3_1_1,n4522_3_1_1_4
n4523_3_1_1,n4523_3_1_1_4
n4524_3_1_1,n4524_3_1_1_4
n4525_3_1_1,n4525_3_1_1_4
n4527_3_1_1,n4527_3_1_1_4
n4529_3_1_1,n4529_3_1_1_4
n4530_3_1_1,n4530_3_1_1_4
n4534_3_1_1,n4534_3_1_1_4
n4535_3_1_1,n4535_3_1_1_4
n4538_3_1_1,n4538_3_1_1_4
n4542_3_1_1,n4542_3_1_1_4
n4547_3_1_1,n4547_3_1_1_4
n4548_3_1_1,n4548_3_1_1_4
n4549_3_1_1,n4549_3_1_1_4
n4552_3_1_1,n4552_3_1_1_4
n4556_3_1_1,n4556_3_1_1_4
n4557_3_1_1,n4557_3_1_1_4
n4558_3_1_1,n4558_3_1_1_4
n4563_3_1_1,n4563_3_1_1_4
n4566_3_1_1,n4566_3_1_1_4
n4567_3_1_1,n4567_3_1_1_4
n4568_3_1_1,n4568_3_1_1_4
n4569_3_1_1,n4569_3_1_1_4
n4573_3_1_1,n4573_3_1_1_4
n4575_3_1_1,n4575_3_1_1_4
n4580_3_1_1,n4580_3_1_1_4
n4582_3_1_1,n4582_3_1_1_4
n4583_3_1_1,n4583_3_1_1_4
n4584_3_1_1,n4584_3_1_1_4
n4585_3_1_1,n4585_3_1_1_4
n4586_3_1_1,n4586_3_1_1_4
n4588_3_1_1,n4588_3_1_1_4
n4589_3_1_1,n4589_3_1_1_4
n4590_3_1_1,n4590_3_1_1_4
n4591_3_1_1,n4591_3_1_1_4
n4595_3_1_1,n4595_3_1_1_4
n4598_3_1_1,n4598_3_1_1_4
n4599_3_1_1,n4599_3_1_1_4
n4600_3_1_1,n4600_3_1_1_4
n4601_3_1_1,n4601_3_1_1_4
n4602_3_1_1,n4602_3_1_1_4
n4603_3_1_1,n4603_3_1_1_4
n4604_3_1_1,n4604_3_1_1_4
n4605_3_1_1,n4605_3_1_1_4
n4607_3_1_1,n4607_3_1_1_4
n4608_3_1_1,n4608_3_1_1_4
n4610_3_1_1,n4610_3_1_1_4
n4613_3_1_1,n4613_3_1_1_4
n4616_3_1_1,n4616_3_1_1_4
n4619_3_1_1,n4619_3_1_1_4
n4620_3_1_1,n4620_3_1_1_4
n4624_3_1_1,n4624_3_1_1_4
n4625_3_1_1,n4625_3_1_1_4
n4627_3_1_1,n4627_3_1_1_4
n4628_3_1_1,n4628_3_1_1_4
n4630_3_1_1,n4630_3_1_1_4
n4632_3_1_1,n4632_3_1_1_4
n4637_3_1_1,n4637_3_1_1_4
n4639_3_1_1,n4639_3_1_1_4
n4642_3_1_1,n4642_3_1_1_4
n4643_3_1_1,n4643_3_1_1_4
n4645_3_1_1,n4645_3_1_1_4
n4648_3_1_1,n4648_3_1_1_4
n4649_3_1_1,n4649_3_1_1_4
n4651_3_1_1,n4651_3_1_1_4
n4652_3_1_1,n4652_3_1_1_4
n4659_3_1_1,n4659_3_1_1_4
n4661_3_1_1,n4661_3_1_1_4
n4667_3_1_1,n4667_3_1_1_4
n4669_3_1_1,n4669_3_1_1_4
n4672_3_1_1,n4672_3_1_1_4
n4673_3_1_1,n4673_3_1_1_4
n4677_3_1_1,n4677_3_1_1_4
n4678_3_1_1,n4678_3_1_1_4
n4686_3_1_1,n4686_3_1_1_4
n4688_3_1_1,n4688_3_1_1_4
n4693_3_1_1,n4693_3_1_1_4
n4694_3_1_1,n4694_3_1_1_4
n4695_3_1_1,n4695_3_1_1_4
n4696_3_1_1,n4696_3_1_1_4
n4697_3_1_1,n4697_3_1_1_4
n4702_3_1_1,n4702_3_1_1_4
n4703_3_1_1,n4703_3_1_1_4
n4706_3_1_1,n4706_3_1_1_4
n4710_3_1_1,n4710_3_1_1_4
n4713_3_1_1,n4713_3_1_1_4
n4716_3_1_1,n4716_3_1_1_4
n4719_3_1_1,n4719_3_1_1_4
n4720_3_1_1,n4720_3_1_1_4
n4722_3_1_1,n4722_3_1_1_4
n4726_3_1_1,n4726_3_1_1_4
n4731_3_1_1,n4731_3_1_1_4
n4732_3_1_1,n4732_3_1_1_4
n4736_3_1_1,n4736_3_1_1_4
n4737_3_1_1,n4737_3_1_1_4
n4739_3_1_1,n4739_3_1_1_4
n4740_3_1_1,n4740_3_1_1_4
n4741_3_1_1,n4741_3_1_1_4
n4744_3_1_1,n4744_3_1_1_4
n4745_3_1_1,n4745_3_1_1_4
n4749_3_1_1,n4749_3_1_1_4
n4750_3_1_1,n4750_3_1_1_4
n4752_3_1_1,n4752_3_1_1_4
n4755_3_1_1,n4755_3_1_1_4
n4756_3_1_1,n4756_3_1_1_4
n4758_3_1_1,n4758_3_1_1_4
n4761_3_1_1,n4761_3_1_1_4
n4763_3_1_1,n4763_3_1_1_4
n4765_3_1_1,n4765_3_1_1_4
n4766_3_1_1,n4766_3_1_1_4
n4769_3_1_1,n4769_3_1_1_4
n4770_3_1_1,n4770_3_1_1_4
n4773_3_1_1,n4773_3_1_1_4
n4774_3_1_1,n4774_3_1_1_4
n4775_3_1_1,n4775_3_1_1_4
n4776_3_1_1,n4776_3_1_1_4
n4777_3_1_1,n4777_3_1_1_4
n4778_3_1_1,n4778_3_1_1_4
n4780_3_1_1,n4780_3_1_1_4
n4782_3_1_1,n4782_3_1_1_4
n4785_3_1_1,n4785_3_1_1_4
n4786_3_1_1,n4786_3_1_1_4
n4787_3_1_1,n4787_3_1_1_4
n4788_3_1_1,n4788_3_1_1_4
n4789_3_1_1,n4789_3_1_1_4
n4791_3_1_1,n4791_3_1_1_4
n4799_3_1_1,n4799_3_1_1_4
n4800_3_1_1,n4800_3_1_1_4
n4801_3_1_1,n4801_3_1_1_4
n4803_3_1_1,n4803_3_1_1_4
n4806_3_1_1,n4806_3_1_1_4
n4808_3_1_1,n4808_3_1_1_4
n4811_3_1_1,n4811_3_1_1_4
n4812_3_1_1,n4812_3_1_1_4
n4821_3_1_1,n4821_3_1_1_4
n4822_3_1_1,n4822_3_1_1_4
n4823_3_1_1,n4823_3_1_1_4
n4826_3_1_1,n4826_3_1_1_4
n4827_3_1_1,n4827_3_1_1_4
n4829_3_1_1,n4829_3_1_1_4
n4833_3_1_1,n4833_3_1_1_4
n4834_3_1_1,n4834_3_1_1_4
n4841_3_1_1,n4841_3_1_1_4
n4842_3_1_1,n4842_3_1_1_4
n4845_3_1_1,n4845_3_1_1_4
n4850_3_1_1,n4850_3_1_1_4
n4853_3_1_1,n4853_3_1_1_4
n4854_3_1_1,n4854_3_1_1_4
n4856_3_1_1,n4856_3_1_1_4
n4858_3_1_1,n4858_3_1_1_4
n4859_3_1_1,n4859_3_1_1_4
n4860_3_1_1,n4860_3_1_1_4
n4862_3_1_1,n4862_3_1_1_4
n4865_3_1_1,n4865_3_1_1_4
n4866_3_1_1,n4866_3_1_1_4
n4867_3_1_1,n4867_3_1_1_4
n4868_3_1_1,n4868_3_1_1_4
n4870_3_1_1,n4870_3_1_1_4
n4871_3_1_1,n4871_3_1_1_4
n4874_3_1_1,n4874_3_1_1_4
n4875_3_1_1,n4875_3_1_1_4
n4876_3_1_1,n4876_3_1_1_4
n4877_3_1_1,n4877_3_1_1_4
n4883_3_1_1,n4883_3_1_1_4
n4884_3_1_1,n4884_3_1_1_4
n4888_3_1_1,n4888_3_1_1_4
n4890_3_1_1,n4890_3_1_1_4
n4891_3_1_1,n4891_3_1_1_4
n4892_3_1_1,n4892_3_1_1_4
n4893_3_1_1,n4893_3_1_1_4
n4895_3_1_1,n4895_3_1_1_4
n4896_3_1_1,n4896_3_1_1_4
n4897_3_1_1,n4897_3_1_1_4
n4899_3_1_1,n4899_3_1_1_4
n4900_3_1_1,n4900_3_1_1_4
n4901_3_1_1,n4901_3_1_1_4
n4903_3_1_1,n4903_3_1_1_4
n4905_3_1_1,n4905_3_1_1_4
n4906_3_1_1,n4906_3_1_1_4
n4907_3_1_1,n4907_3_1_1_4
n4908_3_1_1,n4908_3_1_1_4
n4910_3_1_1,n4910_3_1_1_4
n4917_3_1_1,n4917_3_1_1_4
n4918_3_1_1,n4918_3_1_1_4
n4920_3_1_1,n4920_3_1_1_4
n4921_3_1_1,n4921_3_1_1_4
n4923_3_1_1,n4923_3_1_1_4
n4924_3_1_1,n4924_3_1_1_4
n4925_3_1_1,n4925_3_1_1_4
