n2376_3_1_1_4,n2376_3_1_1_4_4
n2379_3_1_1_4,n2379_3_1_1_4_4
n2383_3_1_1_4,n2383_3_1_1_4_4
n2394_3_1_1_5,n2394_3_1_1_5_4
n2401_3_1_1_4,n2401_3_1_1_4_4
n2404_3_1_1_5,n2404_3_1_1_5_4
n2405_3_1_1_4,n2405_3_1_1_4_4
n2406_3_1_1_5,n2406_3_1_1_5_4
n2408_3_1_1_5,n2408_3_1_1_5_4
n2409_3_1_1_4,n2409_3_1_1_4_4
n2414_3_1_1_5,n2414_3_1_1_5_4
n2415_3_1_1_5,n2415_3_1_1_5_4
n2417_3_1_1_5,n2417_3_1_1_5_4
n2418_3_1_1_4,n2418_3_1_1_4_4
n2420_3_1_1_5,n2420_3_1_1_5_4
n2422_3_1_1_5,n2422_3_1_1_5_4
n2435_3_1_1_4,n2435_3_1_1_4_4
n2436_3_1_1_4,n2436_3_1_1_4_4
n2442_3_1_1_5,n2442_3_1_1_5_4
n2443_3_1_1_4,n2443_3_1_1_4_4
n2450_3_1_1_5,n2450_3_1_1_5_4
n2451_3_1_1_5,n2451_3_1_1_5_4
n2460_3_1_1_4,n2460_3_1_1_4_4
n2463_3_1_1_5,n2463_3_1_1_5_4
n2465_3_1_1_5,n2465_3_1_1_5_4
n2468_3_1_1_5,n2468_3_1_1_5_4
n2469_3_1_1_5,n2469_3_1_1_5_4
n2471_3_1_1_4,n2471_3_1_1_4_4
n2478_3_1_1_5,n2478_3_1_1_5_4
n2485_3_1_1_5,n2485_3_1_1_5_4
n2489_3_1_1_5,n2489_3_1_1_5_4
n2491_3_1_1_4,n2491_3_1_1_4_4
n2493_3_1_1_5,n2493_3_1_1_5_4
n2504_3_1_1_5,n2504_3_1_1_5_4
n2508_3_1_1_4,n2508_3_1_1_4_4
n2509_3_1_1_4,n2509_3_1_1_4_4
n2517_3_1_1_5,n2517_3_1_1_5_4
n2518_3_1_1_5,n2518_3_1_1_5_4
n2520_3_1_1_5,n2520_3_1_1_5_4
n2525_3_1_1_5,n2525_3_1_1_5_4
n2526_3_1_1_4,n2526_3_1_1_4_4
n2541_3_1_1_4,n2541_3_1_1_4_4
n2547_3_1_1_5,n2547_3_1_1_5_4
n2552_3_1_1_4,n2552_3_1_1_4_4
n2555_3_1_1_5,n2555_3_1_1_5_4
n2557_3_1_1_4,n2557_3_1_1_4_4
n2560_3_1_1_4,n2560_3_1_1_4_4
n2564_3_1_1_4,n2564_3_1_1_4_4
n2570_3_1_1_5,n2570_3_1_1_5_4
n2571_3_1_1_5,n2571_3_1_1_5_4
n2573_3_1_1_5,n2573_3_1_1_5_4
n2575_3_1_1_4,n2575_3_1_1_4_4
n2580_3_1_1_4,n2580_3_1_1_4_4
n2592_3_1_1_5,n2592_3_1_1_5_4
n2597_3_1_1_5,n2597_3_1_1_5_4
n2608_3_1_1_5,n2608_3_1_1_5_4
n2609_3_1_1_4,n2609_3_1_1_4_4
n2610_3_1_1_5,n2610_3_1_1_5_4
n2617_3_1_1_4,n2617_3_1_1_4_4
n2621_3_1_1_4,n2621_3_1_1_4_4
n2629_3_1_1_5,n2629_3_1_1_5_4
n2631_3_1_1_4,n2631_3_1_1_4_4
n2632_3_1_1_5,n2632_3_1_1_5_4
n2634_3_1_1_5,n2634_3_1_1_5_4
n2647_3_1_1_5,n2647_3_1_1_5_4
n2658_3_1_1_4,n2658_3_1_1_4_4
n2668_3_1_1_5,n2668_3_1_1_5_4
n2670_3_1_1_5,n2670_3_1_1_5_4
n2674_3_1_1_4,n2674_3_1_1_4_4
n2676_3_1_1_5,n2676_3_1_1_5_4
n2679_3_1_1_4,n2679_3_1_1_4_4
n2684_3_1_1_4,n2684_3_1_1_4_4
n2687_3_1_1_5,n2687_3_1_1_5_4
n2689_3_1_1_5,n2689_3_1_1_5_4
n2690_3_1_1_5,n2690_3_1_1_5_4
n2693_3_1_1_5,n2693_3_1_1_5_4
n2694_3_1_1_5,n2694_3_1_1_5_4
n2695_3_1_1_5,n2695_3_1_1_5_4
n2698_3_1_1_5,n2698_3_1_1_5_4
n2699_3_1_1_4,n2699_3_1_1_4_4
n2703_3_1_1_4,n2703_3_1_1_4_4
n2707_3_1_1_5,n2707_3_1_1_5_4
n2713_3_1_1_4,n2713_3_1_1_4_4
n2717_3_1_1_5,n2717_3_1_1_5_4
n2718_3_1_1_5,n2718_3_1_1_5_4
n2722_3_1_1_5,n2722_3_1_1_5_4
n2736_3_1_1_4,n2736_3_1_1_4_4
n2737_3_1_1_4,n2737_3_1_1_4_4
n2739_3_1_1_4,n2739_3_1_1_4_4
n2741_3_1_1_4,n2741_3_1_1_4_4
n2746_3_1_1_5,n2746_3_1_1_5_4
n2752_3_1_1_4,n2752_3_1_1_4_4
n2753_3_1_1_4,n2753_3_1_1_4_4
n2756_3_1_1_5,n2756_3_1_1_5_4
n2757_3_1_1_4,n2757_3_1_1_4_4
n2758_3_1_1_4,n2758_3_1_1_4_4
n2762_3_1_1_4,n2762_3_1_1_4_4
n2764_3_1_1_5,n2764_3_1_1_5_4
n2772_3_1_1_5,n2772_3_1_1_5_4
n2774_3_1_1_5,n2774_3_1_1_5_4
n2789_3_1_1_5,n2789_3_1_1_5_4
n2793_3_1_1_4,n2793_3_1_1_4_4
n2796_3_1_1_5,n2796_3_1_1_5_4
n2802_3_1_1_5,n2802_3_1_1_5_4
n2804_3_1_1_5,n2804_3_1_1_5_4
n2811_3_1_1_4,n2811_3_1_1_4_4
n2812_3_1_1_4,n2812_3_1_1_4_4
n2815_3_1_1_4,n2815_3_1_1_4_4
n2819_3_1_1_5,n2819_3_1_1_5_4
n2820_3_1_1_5,n2820_3_1_1_5_4
n2824_3_1_1_5,n2824_3_1_1_5_4
n2827_3_1_1_4,n2827_3_1_1_4_4
n2830_3_1_1_5,n2830_3_1_1_5_4
n2831_3_1_1_5,n2831_3_1_1_5_4
n2834_3_1_1_5,n2834_3_1_1_5_4
n2838_3_1_1_5,n2838_3_1_1_5_4
n2839_3_1_1_4,n2839_3_1_1_4_4
n2841_3_1_1_4,n2841_3_1_1_4_4
n2846_3_1_1_4,n2846_3_1_1_4_4
n2869_3_1_1_5,n2869_3_1_1_5_4
n2873_3_1_1_4,n2873_3_1_1_4_4
n2880_3_1_1_5,n2880_3_1_1_5_4
n2883_3_1_1_4,n2883_3_1_1_4_4
n2890_3_1_1_4,n2890_3_1_1_4_4
n2891_3_1_1_4,n2891_3_1_1_4_4
n2893_3_1_1_5,n2893_3_1_1_5_4
n2895_3_1_1_4,n2895_3_1_1_4_4
n2896_3_1_1_4,n2896_3_1_1_4_4
n2901_3_1_1_5,n2901_3_1_1_5_4
n2903_3_1_1_4,n2903_3_1_1_4_4
n2904_3_1_1_5,n2904_3_1_1_5_4
n2906_3_1_1_4,n2906_3_1_1_4_4
n2914_3_1_1_4,n2914_3_1_1_4_4
n2923_3_1_1_4,n2923_3_1_1_4_4
n2924_3_1_1_4,n2924_3_1_1_4_4
n2925_3_1_1_4,n2925_3_1_1_4_4
n2936_3_1_1_4,n2936_3_1_1_4_4
n2937_3_1_1_5,n2937_3_1_1_5_4
n2940_3_1_1_4,n2940_3_1_1_4_4
n2942_3_1_1_5,n2942_3_1_1_5_4
n2946_3_1_1_5,n2946_3_1_1_5_4
n2948_3_1_1_4,n2948_3_1_1_4_4
n2958_3_1_1_4,n2958_3_1_1_4_4
n2963_3_1_1_5,n2963_3_1_1_5_4
n2974_3_1_1_4,n2974_3_1_1_4_4
n2976_3_1_1_4,n2976_3_1_1_4_4
n2980_3_1_1_4,n2980_3_1_1_4_4
n2982_3_1_1_5,n2982_3_1_1_5_4
n2990_3_1_1_5,n2990_3_1_1_5_4
n2994_3_1_1_4,n2994_3_1_1_4_4
n2998_3_1_1_4,n2998_3_1_1_4_4
n3003_3_1_1_4,n3003_3_1_1_4_4
n3005_3_1_1_5,n3005_3_1_1_5_4
n3011_3_1_1_4,n3011_3_1_1_4_4
n3014_3_1_1_4,n3014_3_1_1_4_4
n3019_3_1_1_4,n3019_3_1_1_4_4
n3025_3_1_1_5,n3025_3_1_1_5_4
n3028_3_1_1_5,n3028_3_1_1_5_4
n3029_3_1_1_5,n3029_3_1_1_5_4
n3030_3_1_1_4,n3030_3_1_1_4_4
n3034_3_1_1_5,n3034_3_1_1_5_4
n3053_3_1_1_5,n3053_3_1_1_5_4
n3055_3_1_1_4,n3055_3_1_1_4_4
n3057_3_1_1_4,n3057_3_1_1_4_4
n3059_3_1_1_4,n3059_3_1_1_4_4
n3067_3_1_1_5,n3067_3_1_1_5_4
n3069_3_1_1_4,n3069_3_1_1_4_4
n3070_3_1_1_4,n3070_3_1_1_4_4
n3071_3_1_1_4,n3071_3_1_1_4_4
n3074_3_1_1_5,n3074_3_1_1_5_4
n3081_3_1_1_4,n3081_3_1_1_4_4
n3086_3_1_1_4,n3086_3_1_1_4_4
n3087_3_1_1_4,n3087_3_1_1_4_4
n3088_3_1_1_4,n3088_3_1_1_4_4
n3089_3_1_1_4,n3089_3_1_1_4_4
n3100_3_1_1_5,n3100_3_1_1_5_4
n3106_3_1_1_4,n3106_3_1_1_4_4
n3108_3_1_1_5,n3108_3_1_1_5_4
n3113_3_1_1_5,n3113_3_1_1_5_4
n3114_3_1_1_4,n3114_3_1_1_4_4
n3116_3_1_1_5,n3116_3_1_1_5_4
n3123_3_1_1_4,n3123_3_1_1_4_4
n3135_3_1_1_5,n3135_3_1_1_5_4
n3136_3_1_1_4,n3136_3_1_1_4_4
n3140_3_1_1_4,n3140_3_1_1_4_4
n3141_3_1_1_4,n3141_3_1_1_4_4
n3149_3_1_1_4,n3149_3_1_1_4_4
n3155_3_1_1_4,n3155_3_1_1_4_4
n3157_3_1_1_4,n3157_3_1_1_4_4
n3158_3_1_1_5,n3158_3_1_1_5_4
n3159_3_1_1_5,n3159_3_1_1_5_4
n3165_3_1_1_5,n3165_3_1_1_5_4
n3172_3_1_1_4,n3172_3_1_1_4_4
n3176_3_1_1_4,n3176_3_1_1_4_4
n3181_3_1_1_5,n3181_3_1_1_5_4
n3184_3_1_1_5,n3184_3_1_1_5_4
n3187_3_1_1_5,n3187_3_1_1_5_4
n3188_3_1_1_4,n3188_3_1_1_4_4
n3192_3_1_1_5,n3192_3_1_1_5_4
n3193_3_1_1_5,n3193_3_1_1_5_4
n3196_3_1_1_5,n3196_3_1_1_5_4
n3200_3_1_1_5,n3200_3_1_1_5_4
n3203_3_1_1_4,n3203_3_1_1_4_4
n3204_3_1_1_5,n3204_3_1_1_5_4
n3205_3_1_1_4,n3205_3_1_1_4_4
n3207_3_1_1_5,n3207_3_1_1_5_4
n3208_3_1_1_4,n3208_3_1_1_4_4
n3212_3_1_1_5,n3212_3_1_1_5_4
n3217_3_1_1_5,n3217_3_1_1_5_4
n3224_3_1_1_5,n3224_3_1_1_5_4
n3226_3_1_1_4,n3226_3_1_1_4_4
n3231_3_1_1_4,n3231_3_1_1_4_4
n3232_3_1_1_4,n3232_3_1_1_4_4
n3239_3_1_1_4,n3239_3_1_1_4_4
n3240_3_1_1_5,n3240_3_1_1_5_4
n3242_3_1_1_5,n3242_3_1_1_5_4
n3245_3_1_1_5,n3245_3_1_1_5_4
n3247_3_1_1_4,n3247_3_1_1_4_4
n3249_3_1_1_5,n3249_3_1_1_5_4
n3252_3_1_1_5,n3252_3_1_1_5_4
n3253_3_1_1_4,n3253_3_1_1_4_4
n3260_3_1_1_4,n3260_3_1_1_4_4
n3273_3_1_1_5,n3273_3_1_1_5_4
n3287_3_1_1_5,n3287_3_1_1_5_4
n3290_3_1_1_5,n3290_3_1_1_5_4
n3291_3_1_1_5,n3291_3_1_1_5_4
n3296_3_1_1_5,n3296_3_1_1_5_4
n3298_3_1_1_5,n3298_3_1_1_5_4
n3301_3_1_1_5,n3301_3_1_1_5_4
n3304_3_1_1_5,n3304_3_1_1_5_4
n3306_3_1_1_4,n3306_3_1_1_4_4
n3309_3_1_1_4,n3309_3_1_1_4_4
n3314_3_1_1_5,n3314_3_1_1_5_4
n3318_3_1_1_4,n3318_3_1_1_4_4
n3337_3_1_1_5,n3337_3_1_1_5_4
n3341_3_1_1_5,n3341_3_1_1_5_4
n3345_3_1_1_4,n3345_3_1_1_4_4
n3350_3_1_1_5,n3350_3_1_1_5_4
n3355_3_1_1_5,n3355_3_1_1_5_4
n3358_3_1_1_5,n3358_3_1_1_5_4
n3361_3_1_1_4,n3361_3_1_1_4_4
n3363_3_1_1_5,n3363_3_1_1_5_4
n3364_3_1_1_5,n3364_3_1_1_5_4
n3367_3_1_1_5,n3367_3_1_1_5_4
n3370_3_1_1_5,n3370_3_1_1_5_4
n3375_3_1_1_4,n3375_3_1_1_4_4
n3381_3_1_1_5,n3381_3_1_1_5_4
n3383_3_1_1_4,n3383_3_1_1_4_4
n3387_3_1_1_4,n3387_3_1_1_4_4
n3391_3_1_1_5,n3391_3_1_1_5_4
n3392_3_1_1_4,n3392_3_1_1_4_4
n3393_3_1_1_5,n3393_3_1_1_5_4
n3397_3_1_1_4,n3397_3_1_1_4_4
n3398_3_1_1_5,n3398_3_1_1_5_4
n3399_3_1_1_5,n3399_3_1_1_5_4
n3405_3_1_1_5,n3405_3_1_1_5_4
n3407_3_1_1_5,n3407_3_1_1_5_4
n3409_3_1_1_4,n3409_3_1_1_4_4
n3419_3_1_1_4,n3419_3_1_1_4_4
n3421_3_1_1_5,n3421_3_1_1_5_4
n3426_3_1_1_4,n3426_3_1_1_4_4
n3434_3_1_1_5,n3434_3_1_1_5_4
n3437_3_1_1_4,n3437_3_1_1_4_4
n3456_3_1_1_5,n3456_3_1_1_5_4
n3461_3_1_1_5,n3461_3_1_1_5_4
n3462_3_1_1_4,n3462_3_1_1_4_4
n3464_3_1_1_4,n3464_3_1_1_4_4
n3471_3_1_1_4,n3471_3_1_1_4_4
n3474_3_1_1_5,n3474_3_1_1_5_4
n3476_3_1_1_4,n3476_3_1_1_4_4
n3480_3_1_1_5,n3480_3_1_1_5_4
n3485_3_1_1_5,n3485_3_1_1_5_4
n3490_3_1_1_4,n3490_3_1_1_4_4
n3492_3_1_1_5,n3492_3_1_1_5_4
n3498_3_1_1_4,n3498_3_1_1_4_4
n3500_3_1_1_5,n3500_3_1_1_5_4
n3501_3_1_1_4,n3501_3_1_1_4_4
n3508_3_1_1_4,n3508_3_1_1_4_4
n3510_3_1_1_4,n3510_3_1_1_4_4
n3511_3_1_1_4,n3511_3_1_1_4_4
n3518_3_1_1_5,n3518_3_1_1_5_4
n3525_3_1_1_4,n3525_3_1_1_4_4
n3531_3_1_1_4,n3531_3_1_1_4_4
n3536_3_1_1_5,n3536_3_1_1_5_4
n3537_3_1_1_5,n3537_3_1_1_5_4
n3538_3_1_1_4,n3538_3_1_1_4_4
n3539_3_1_1_5,n3539_3_1_1_5_4
n3546_3_1_1_5,n3546_3_1_1_5_4
n3547_3_1_1_4,n3547_3_1_1_4_4
n3549_3_1_1_4,n3549_3_1_1_4_4
n3553_3_1_1_5,n3553_3_1_1_5_4
n3558_3_1_1_5,n3558_3_1_1_5_4
n3560_3_1_1_5,n3560_3_1_1_5_4
n3564_3_1_1_5,n3564_3_1_1_5_4
n3567_3_1_1_5,n3567_3_1_1_5_4
n3570_3_1_1_4,n3570_3_1_1_4_4
n3573_3_1_1_5,n3573_3_1_1_5_4
n3585_3_1_1_4,n3585_3_1_1_4_4
n3596_3_1_1_5,n3596_3_1_1_5_4
n3599_3_1_1_4,n3599_3_1_1_4_4
n3604_3_1_1_4,n3604_3_1_1_4_4
n3610_3_1_1_5,n3610_3_1_1_5_4
n3614_3_1_1_5,n3614_3_1_1_5_4
n3623_3_1_1_5,n3623_3_1_1_5_4
n3624_3_1_1_4,n3624_3_1_1_4_4
n3636_3_1_1_4,n3636_3_1_1_4_4
n3637_3_1_1_4,n3637_3_1_1_4_4
n3642_3_1_1_5,n3642_3_1_1_5_4
n3648_3_1_1_5,n3648_3_1_1_5_4
n3650_3_1_1_5,n3650_3_1_1_5_4
n3652_3_1_1_5,n3652_3_1_1_5_4
n3653_3_1_1_5,n3653_3_1_1_5_4
n3663_3_1_1_4,n3663_3_1_1_4_4
n3669_3_1_1_4,n3669_3_1_1_4_4
n3674_3_1_1_5,n3674_3_1_1_5_4
n3675_3_1_1_4,n3675_3_1_1_4_4
n3682_3_1_1_5,n3682_3_1_1_5_4
n3685_3_1_1_5,n3685_3_1_1_5_4
n3688_3_1_1_5,n3688_3_1_1_5_4
n3703_3_1_1_5,n3703_3_1_1_5_4
n3706_3_1_1_4,n3706_3_1_1_4_4
n3713_3_1_1_5,n3713_3_1_1_5_4
n3715_3_1_1_5,n3715_3_1_1_5_4
n3717_3_1_1_5,n3717_3_1_1_5_4
n3718_3_1_1_5,n3718_3_1_1_5_4
n3719_3_1_1_5,n3719_3_1_1_5_4
n3720_3_1_1_4,n3720_3_1_1_4_4
n3729_3_1_1_5,n3729_3_1_1_5_4
n3734_3_1_1_4,n3734_3_1_1_4_4
n3735_3_1_1_4,n3735_3_1_1_4_4
n3737_3_1_1_5,n3737_3_1_1_5_4
n3738_3_1_1_5,n3738_3_1_1_5_4
n3739_3_1_1_5,n3739_3_1_1_5_4
n3742_3_1_1_5,n3742_3_1_1_5_4
n3743_3_1_1_5,n3743_3_1_1_5_4
n3744_3_1_1_4,n3744_3_1_1_4_4
n3747_3_1_1_5,n3747_3_1_1_5_4
n3748_3_1_1_5,n3748_3_1_1_5_4
n3749_3_1_1_4,n3749_3_1_1_4_4
n3753_3_1_1_4,n3753_3_1_1_4_4
n3755_3_1_1_4,n3755_3_1_1_4_4
n3759_3_1_1_5,n3759_3_1_1_5_4
n3761_3_1_1_4,n3761_3_1_1_4_4
n3765_3_1_1_5,n3765_3_1_1_5_4
n3766_3_1_1_4,n3766_3_1_1_4_4
n3770_3_1_1_5,n3770_3_1_1_5_4
n3780_3_1_1_5,n3780_3_1_1_5_4
n3781_3_1_1_4,n3781_3_1_1_4_4
n3782_3_1_1_5,n3782_3_1_1_5_4
n3783_3_1_1_4,n3783_3_1_1_4_4
n3784_3_1_1_4,n3784_3_1_1_4_4
n3787_3_1_1_4,n3787_3_1_1_4_4
n3790_3_1_1_4,n3790_3_1_1_4_4
n3797_3_1_1_5,n3797_3_1_1_5_4
n3798_3_1_1_4,n3798_3_1_1_4_4
n3806_3_1_1_4,n3806_3_1_1_4_4
n3807_3_1_1_5,n3807_3_1_1_5_4
n3812_3_1_1_4,n3812_3_1_1_4_4
n3817_3_1_1_5,n3817_3_1_1_5_4
n3818_3_1_1_5,n3818_3_1_1_5_4
n3824_3_1_1_4,n3824_3_1_1_4_4
n3831_3_1_1_5,n3831_3_1_1_5_4
n3847_3_1_1_5,n3847_3_1_1_5_4
n3849_3_1_1_5,n3849_3_1_1_5_4
n3852_3_1_1_4,n3852_3_1_1_4_4
n3855_3_1_1_5,n3855_3_1_1_5_4
n3859_3_1_1_5,n3859_3_1_1_5_4
n3862_3_1_1_4,n3862_3_1_1_4_4
n3869_3_1_1_4,n3869_3_1_1_4_4
n3873_3_1_1_5,n3873_3_1_1_5_4
n3876_3_1_1_5,n3876_3_1_1_5_4
n3879_3_1_1_5,n3879_3_1_1_5_4
n3881_3_1_1_5,n3881_3_1_1_5_4
n3883_3_1_1_5,n3883_3_1_1_5_4
n3888_3_1_1_4,n3888_3_1_1_4_4
n3889_3_1_1_4,n3889_3_1_1_4_4
n3914_3_1_1_5,n3914_3_1_1_5_4
n3916_3_1_1_5,n3916_3_1_1_5_4
n3919_3_1_1_5,n3919_3_1_1_5_4
n3925_3_1_1_4,n3925_3_1_1_4_4
n3933_3_1_1_4,n3933_3_1_1_4_4
n3939_3_1_1_4,n3939_3_1_1_4_4
n3947_3_1_1_4,n3947_3_1_1_4_4
n3949_3_1_1_4,n3949_3_1_1_4_4
n3958_3_1_1_5,n3958_3_1_1_5_4
n3963_3_1_1_5,n3963_3_1_1_5_4
n3967_3_1_1_5,n3967_3_1_1_5_4
n3968_3_1_1_4,n3968_3_1_1_4_4
n3986_3_1_1_5,n3986_3_1_1_5_4
n3988_3_1_1_4,n3988_3_1_1_4_4
n3992_3_1_1_5,n3992_3_1_1_5_4
n3996_3_1_1_5,n3996_3_1_1_5_4
n3997_3_1_1_4,n3997_3_1_1_4_4
n4000_3_1_1_4,n4000_3_1_1_4_4
n4002_3_1_1_4,n4002_3_1_1_4_4
n4008_3_1_1_4,n4008_3_1_1_4_4
n4013_3_1_1_5,n4013_3_1_1_5_4
n4015_3_1_1_5,n4015_3_1_1_5_4
n4017_3_1_1_4,n4017_3_1_1_4_4
n4019_3_1_1_4,n4019_3_1_1_4_4
n4020_3_1_1_5,n4020_3_1_1_5_4
n4022_3_1_1_5,n4022_3_1_1_5_4
n4024_3_1_1_5,n4024_3_1_1_5_4
n4026_3_1_1_5,n4026_3_1_1_5_4
n4031_3_1_1_4,n4031_3_1_1_4_4
n4032_3_1_1_5,n4032_3_1_1_5_4
n4033_3_1_1_4,n4033_3_1_1_4_4
n4035_3_1_1_5,n4035_3_1_1_5_4
n4036_3_1_1_5,n4036_3_1_1_5_4
n4037_3_1_1_4,n4037_3_1_1_4_4
n4040_3_1_1_5,n4040_3_1_1_5_4
n4046_3_1_1_4,n4046_3_1_1_4_4
n4047_3_1_1_5,n4047_3_1_1_5_4
n4050_3_1_1_4,n4050_3_1_1_4_4
n4056_3_1_1_4,n4056_3_1_1_4_4
n4057_3_1_1_5,n4057_3_1_1_5_4
n4061_3_1_1_5,n4061_3_1_1_5_4
n4075_3_1_1_5,n4075_3_1_1_5_4
n4077_3_1_1_4,n4077_3_1_1_4_4
n4082_3_1_1_5,n4082_3_1_1_5_4
n4083_3_1_1_4,n4083_3_1_1_4_4
n4084_3_1_1_4,n4084_3_1_1_4_4
n4088_3_1_1_4,n4088_3_1_1_4_4
n4090_3_1_1_5,n4090_3_1_1_5_4
n4091_3_1_1_5,n4091_3_1_1_5_4
n4095_3_1_1_5,n4095_3_1_1_5_4
n4096_3_1_1_5,n4096_3_1_1_5_4
n4104_3_1_1_4,n4104_3_1_1_4_4
n4113_3_1_1_5,n4113_3_1_1_5_4
n4115_3_1_1_5,n4115_3_1_1_5_4
n4117_3_1_1_5,n4117_3_1_1_5_4
n4125_3_1_1_5,n4125_3_1_1_5_4
n4136_3_1_1_5,n4136_3_1_1_5_4
n4141_3_1_1_4,n4141_3_1_1_4_4
n4142_3_1_1_5,n4142_3_1_1_5_4
n4156_3_1_1_5,n4156_3_1_1_5_4
n4160_3_1_1_5,n4160_3_1_1_5_4
n4165_3_1_1_5,n4165_3_1_1_5_4
n4166_3_1_1_4,n4166_3_1_1_4_4
n4178_3_1_1_4,n4178_3_1_1_4_4
n4186_3_1_1_5,n4186_3_1_1_5_4
n4188_3_1_1_4,n4188_3_1_1_4_4
n4191_3_1_1_5,n4191_3_1_1_5_4
n4200_3_1_1_5,n4200_3_1_1_5_4
n4202_3_1_1_4,n4202_3_1_1_4_4
n4206_3_1_1_5,n4206_3_1_1_5_4
n4208_3_1_1_5,n4208_3_1_1_5_4
n4209_3_1_1_4,n4209_3_1_1_4_4
n4212_3_1_1_5,n4212_3_1_1_5_4
n4218_3_1_1_4,n4218_3_1_1_4_4
n4225_3_1_1_5,n4225_3_1_1_5_4
n4228_3_1_1_4,n4228_3_1_1_4_4
n4231_3_1_1_5,n4231_3_1_1_5_4
n4240_3_1_1_5,n4240_3_1_1_5_4
n4241_3_1_1_4,n4241_3_1_1_4_4
n4251_3_1_1_5,n4251_3_1_1_5_4
n4259_3_1_1_4,n4259_3_1_1_4_4
n4262_3_1_1_4,n4262_3_1_1_4_4
n4264_3_1_1_5,n4264_3_1_1_5_4
n4271_3_1_1_5,n4271_3_1_1_5_4
n4273_3_1_1_5,n4273_3_1_1_5_4
n4277_3_1_1_5,n4277_3_1_1_5_4
n4278_3_1_1_4,n4278_3_1_1_4_4
n4281_3_1_1_5,n4281_3_1_1_5_4
n4282_3_1_1_4,n4282_3_1_1_4_4
n4283_3_1_1_4,n4283_3_1_1_4_4
n4296_3_1_1_4,n4296_3_1_1_4_4
n4297_3_1_1_4,n4297_3_1_1_4_4
n4298_3_1_1_5,n4298_3_1_1_5_4
n4304_3_1_1_4,n4304_3_1_1_4_4
n4306_3_1_1_5,n4306_3_1_1_5_4
n4312_3_1_1_4,n4312_3_1_1_4_4
n4315_3_1_1_4,n4315_3_1_1_4_4
n4317_3_1_1_4,n4317_3_1_1_4_4
n4318_3_1_1_5,n4318_3_1_1_5_4
n4320_3_1_1_4,n4320_3_1_1_4_4
n4321_3_1_1_5,n4321_3_1_1_5_4
n4323_3_1_1_5,n4323_3_1_1_5_4
n4328_3_1_1_5,n4328_3_1_1_5_4
n4329_3_1_1_4,n4329_3_1_1_4_4
n4347_3_1_1_4,n4347_3_1_1_4_4
n4348_3_1_1_5,n4348_3_1_1_5_4
n4350_3_1_1_4,n4350_3_1_1_4_4
n4354_3_1_1_4,n4354_3_1_1_4_4
n4360_3_1_1_5,n4360_3_1_1_5_4
n4370_3_1_1_5,n4370_3_1_1_5_4
n4371_3_1_1_5,n4371_3_1_1_5_4
n4374_3_1_1_4,n4374_3_1_1_4_4
n4377_3_1_1_4,n4377_3_1_1_4_4
n4386_3_1_1_5,n4386_3_1_1_5_4
n4388_3_1_1_5,n4388_3_1_1_5_4
n4390_3_1_1_5,n4390_3_1_1_5_4
n4391_3_1_1_5,n4391_3_1_1_5_4
n4392_3_1_1_4,n4392_3_1_1_4_4
n4395_3_1_1_5,n4395_3_1_1_5_4
n4400_3_1_1_5,n4400_3_1_1_5_4
n4405_3_1_1_5,n4405_3_1_1_5_4
n4407_3_1_1_5,n4407_3_1_1_5_4
n4411_3_1_1_4,n4411_3_1_1_4_4
n4414_3_1_1_5,n4414_3_1_1_5_4
n4415_3_1_1_4,n4415_3_1_1_4_4
n4432_3_1_1_4,n4432_3_1_1_4_4
n4433_3_1_1_5,n4433_3_1_1_5_4
n4435_3_1_1_4,n4435_3_1_1_4_4
n4438_3_1_1_4,n4438_3_1_1_4_4
n4442_3_1_1_5,n4442_3_1_1_5_4
n4445_3_1_1_5,n4445_3_1_1_5_4
n4447_3_1_1_4,n4447_3_1_1_4_4
n4453_3_1_1_5,n4453_3_1_1_5_4
n4456_3_1_1_5,n4456_3_1_1_5_4
n4457_3_1_1_5,n4457_3_1_1_5_4
n4463_3_1_1_4,n4463_3_1_1_4_4
n4466_3_1_1_5,n4466_3_1_1_5_4
n4467_3_1_1_5,n4467_3_1_1_5_4
n4468_3_1_1_5,n4468_3_1_1_5_4
n4470_3_1_1_4,n4470_3_1_1_4_4
n4473_3_1_1_4,n4473_3_1_1_4_4
n4475_3_1_1_4,n4475_3_1_1_4_4
n4478_3_1_1_5,n4478_3_1_1_5_4
n4485_3_1_1_5,n4485_3_1_1_5_4
n4494_3_1_1_5,n4494_3_1_1_5_4
n4496_3_1_1_5,n4496_3_1_1_5_4
n4500_3_1_1_4,n4500_3_1_1_4_4
n4507_3_1_1_4,n4507_3_1_1_4_4
n4513_3_1_1_5,n4513_3_1_1_5_4
n4518_3_1_1_5,n4518_3_1_1_5_4
n4522_3_1_1_5,n4522_3_1_1_5_4
n4525_3_1_1_5,n4525_3_1_1_5_4
n4536_3_1_1_4,n4536_3_1_1_4_4
n4544_3_1_1_4,n4544_3_1_1_4_4
n4546_3_1_1_4,n4546_3_1_1_4_4
n4549_3_1_1_5,n4549_3_1_1_5_4
n4563_3_1_1_5,n4563_3_1_1_5_4
n4568_3_1_1_5,n4568_3_1_1_5_4
n4569_3_1_1_5,n4569_3_1_1_5_4
n4573_3_1_1_5,n4573_3_1_1_5_4
n4576_3_1_1_4,n4576_3_1_1_4_4
n4580_3_1_1_5,n4580_3_1_1_5_4
n4581_3_1_1_4,n4581_3_1_1_4_4
n4588_3_1_1_5,n4588_3_1_1_5_4
n4595_3_1_1_5,n4595_3_1_1_5_4
n4603_3_1_1_5,n4603_3_1_1_5_4
n4606_3_1_1_4,n4606_3_1_1_4_4
n4612_3_1_1_4,n4612_3_1_1_4_4
n4614_3_1_1_4,n4614_3_1_1_4_4
n4615_3_1_1_4,n4615_3_1_1_4_4
n4617_3_1_1_4,n4617_3_1_1_4_4
n4627_3_1_1_5,n4627_3_1_1_5_4
n4641_3_1_1_4,n4641_3_1_1_4_4
n4642_3_1_1_5,n4642_3_1_1_5_4
n4653_3_1_1_4,n4653_3_1_1_4_4
n4658_3_1_1_4,n4658_3_1_1_4_4
n4660_3_1_1_4,n4660_3_1_1_4_4
n4668_3_1_1_4,n4668_3_1_1_4_4
n4670_3_1_1_4,n4670_3_1_1_4_4
n4676_3_1_1_4,n4676_3_1_1_4_4
n4683_3_1_1_4,n4683_3_1_1_4_4
n4686_3_1_1_5,n4686_3_1_1_5_4
n4694_3_1_1_5,n4694_3_1_1_5_4
n4707_3_1_1_4,n4707_3_1_1_4_4
n4710_3_1_1_5,n4710_3_1_1_5_4
n4715_3_1_1_4,n4715_3_1_1_4_4
n4718_3_1_1_4,n4718_3_1_1_4_4
n4722_3_1_1_5,n4722_3_1_1_5_4
n4726_3_1_1_5,n4726_3_1_1_5_4
n4735_3_1_1_4,n4735_3_1_1_4_4
n4737_3_1_1_5,n4737_3_1_1_5_4
n4738_3_1_1_4,n4738_3_1_1_4_4
n4739_3_1_1_5,n4739_3_1_1_5_4
n4740_3_1_1_5,n4740_3_1_1_5_4
n4748_3_1_1_4,n4748_3_1_1_4_4
n4750_3_1_1_5,n4750_3_1_1_5_4
n4752_3_1_1_5,n4752_3_1_1_5_4
n4753_3_1_1_4,n4753_3_1_1_4_4
n4756_3_1_1_5,n4756_3_1_1_5_4
n4758_3_1_1_5,n4758_3_1_1_5_4
n4774_3_1_1_5,n4774_3_1_1_5_4
n4778_3_1_1_5,n4778_3_1_1_5_4
n4779_3_1_1_4,n4779_3_1_1_4_4
n4785_3_1_1_5,n4785_3_1_1_5_4
n4792_3_1_1_4,n4792_3_1_1_4_4
n4794_3_1_1_4,n4794_3_1_1_4_4
n4797_3_1_1_4,n4797_3_1_1_4_4
n4798_3_1_1_4,n4798_3_1_1_4_4
n4800_3_1_1_5,n4800_3_1_1_5_4
n4803_3_1_1_5,n4803_3_1_1_5_4
n4804_3_1_1_4,n4804_3_1_1_4_4
n4808_3_1_1_5,n4808_3_1_1_5_4
n4812_3_1_1_5,n4812_3_1_1_5_4
n4821_3_1_1_5,n4821_3_1_1_5_4
n4822_3_1_1_5,n4822_3_1_1_5_4
n4835_3_1_1_4,n4835_3_1_1_4_4
n4836_3_1_1_4,n4836_3_1_1_4_4
n4839_3_1_1_4,n4839_3_1_1_4_4
n4847_3_1_1_4,n4847_3_1_1_4_4
n4850_3_1_1_5,n4850_3_1_1_5_4
n4852_3_1_1_4,n4852_3_1_1_4_4
n4856_3_1_1_5,n4856_3_1_1_5_4
n4857_3_1_1_4,n4857_3_1_1_4_4
n4861_3_1_1_4,n4861_3_1_1_4_4
n4863_3_1_1_4,n4863_3_1_1_4_4
n4868_3_1_1_5,n4868_3_1_1_5_4
n4870_3_1_1_5,n4870_3_1_1_5_4
n4887_3_1_1_4,n4887_3_1_1_4_4
n4892_3_1_1_5,n4892_3_1_1_5_4
n4894_3_1_1_4,n4894_3_1_1_4_4
n4898_3_1_1_4,n4898_3_1_1_4_4
n4913_3_1_1_4,n4913_3_1_1_4_4
n4917_3_1_1_5,n4917_3_1_1_5_4
n4921_3_1_1_5,n4921_3_1_1_5_4
n4923_3_1_1_5,n4923_3_1_1_5_4
