n1_3_1,n1_3_1_1
n4_3_1,n4_3_1_1
n7_3_1,n7_3_1_1
n12_3_1,n12_3_1_1
n19_3_1,n19_3_1_1
n22_3_1,n22_3_1_1
n25_3_1,n25_3_1_1
n26_3_1,n26_3_1_1
n30_3_1,n30_3_1_1
n31_3_1,n31_3_1_1
n32_3_1,n32_3_1_1
n34_3_1,n34_3_1_1
n40_3_1,n40_3_1_1
n43_3_1,n43_3_1_1
n45_3_1,n45_3_1_1
n49_3_1,n49_3_1_1
n55_3_1,n55_3_1_1
