n2176_3_1,n2176_3_1_1
n2179_3_1,n2179_3_1_1
n2190_3_1,n2190_3_1_1
n2198_3_1,n2198_3_1_1
n2216_3_1,n2216_3_1_1
n2217_3_1,n2217_3_1_1
n2218_3_1,n2218_3_1_1
n2225_3_1,n2225_3_1_1
n2253_3_1,n2253_3_1_1
n2256_3_1,n2256_3_1_1
