n6144_3_1,n6144_3_1_1
n6150_3_1,n6150_3_1_1
n6160_3_1,n6160_3_1_1
n6165_3_1,n6165_3_1_1
n6168_3_1,n6168_3_1_1
n6169_3_1,n6169_3_1_1
n6177_3_1,n6177_3_1_1
n6180_3_1,n6180_3_1_1
n6187_3_1,n6187_3_1_1
n6188_3_1,n6188_3_1_1
n6197_3_1,n6197_3_1_1
n6206_3_1,n6206_3_1_1
n6207_3_1,n6207_3_1_1
n6208_3_1,n6208_3_1_1
n6210_3_1,n6210_3_1_1
n6212_3_1,n6212_3_1_1
n6215_3_1,n6215_3_1_1
n6226_3_1,n6226_3_1_1
n6231_3_1,n6231_3_1_1
n6233_3_1,n6233_3_1_1
n6248_3_1,n6248_3_1_1
n6256_3_1,n6256_3_1_1
n6259_3_1,n6259_3_1_1
n6271_3_1,n6271_3_1_1
n6276_3_1,n6276_3_1_1
n6282_3_1,n6282_3_1_1
n6293_3_1,n6293_3_1_1
n6295_3_1,n6295_3_1_1
n6296_3_1,n6296_3_1_1
n6299_3_1,n6299_3_1_1
n6308_3_1,n6308_3_1_1
n6312_3_1,n6312_3_1_1
n6313_3_1,n6313_3_1_1
n6316_3_1,n6316_3_1_1
n6326_3_1,n6326_3_1_1
n6335_3_1,n6335_3_1_1
n6338_3_1,n6338_3_1_1
n6349_3_1,n6349_3_1_1
n6358_3_1,n6358_3_1_1
n6363_3_1,n6363_3_1_1
n6370_3_1,n6370_3_1_1
n6374_3_1,n6374_3_1_1
n6375_3_1,n6375_3_1_1
n6389_3_1,n6389_3_1_1
n6399_3_1,n6399_3_1_1
n6403_3_1,n6403_3_1_1
n6406_3_1,n6406_3_1_1
n6415_3_1,n6415_3_1_1
n6416_3_1,n6416_3_1_1
n6417_3_1,n6417_3_1_1
n6418_3_1,n6418_3_1_1
n6422_3_1,n6422_3_1_1
n6425_3_1,n6425_3_1_1
n6428_3_1,n6428_3_1_1
n6429_3_1,n6429_3_1_1
n6430_3_1,n6430_3_1_1
n6431_3_1,n6431_3_1_1
n6433_3_1,n6433_3_1_1
n6436_3_1,n6436_3_1_1
n6439_3_1,n6439_3_1_1
n6445_3_1,n6445_3_1_1
n6454_3_1,n6454_3_1_1
n6460_3_1,n6460_3_1_1
n6468_3_1,n6468_3_1_1
n6469_3_1,n6469_3_1_1
n6470_3_1,n6470_3_1_1
n6508_3_1,n6508_3_1_1
n6509_3_1,n6509_3_1_1
n6511_3_1,n6511_3_1_1
n6520_3_1,n6520_3_1_1
n6523_3_1,n6523_3_1_1
n6531_3_1,n6531_3_1_1
n6540_3_1,n6540_3_1_1
n6546_3_1,n6546_3_1_1
n6547_3_1,n6547_3_1_1
n6548_3_1,n6548_3_1_1
n6551_3_1,n6551_3_1_1
n6560_3_1,n6560_3_1_1
n6568_3_1,n6568_3_1_1
n6576_3_1,n6576_3_1_1
n6578_3_1,n6578_3_1_1
n6579_3_1,n6579_3_1_1
n6581_3_1,n6581_3_1_1
n6584_3_1,n6584_3_1_1
n6586_3_1,n6586_3_1_1
n6589_3_1,n6589_3_1_1
n6592_3_1,n6592_3_1_1
n6593_3_1,n6593_3_1_1
n6600_3_1,n6600_3_1_1
n6608_3_1,n6608_3_1_1
n6611_3_1,n6611_3_1_1
n6628_3_1,n6628_3_1_1
n6640_3_1,n6640_3_1_1
n6642_3_1,n6642_3_1_1
n6646_3_1,n6646_3_1_1
n6659_3_1,n6659_3_1_1
n6661_3_1,n6661_3_1_1
n6664_3_1,n6664_3_1_1
n6665_3_1,n6665_3_1_1
n6669_3_1,n6669_3_1_1
n6678_3_1,n6678_3_1_1
n6682_3_1,n6682_3_1_1
n6684_3_1,n6684_3_1_1
n6695_3_1,n6695_3_1_1
n6700_3_1,n6700_3_1_1
n6701_3_1,n6701_3_1_1
n6704_3_1,n6704_3_1_1
n6705_3_1,n6705_3_1_1
n6707_3_1,n6707_3_1_1
n6711_3_1,n6711_3_1_1
n6714_3_1,n6714_3_1_1
n6715_3_1,n6715_3_1_1
n6717_3_1,n6717_3_1_1
n6724_3_1,n6724_3_1_1
n6732_3_1,n6732_3_1_1
n6737_3_1,n6737_3_1_1
n6742_3_1,n6742_3_1_1
n6745_3_1,n6745_3_1_1
n6748_3_1,n6748_3_1_1
n6749_3_1,n6749_3_1_1
n6753_3_1,n6753_3_1_1
n6758_3_1,n6758_3_1_1
n6766_3_1,n6766_3_1_1
n6770_3_1,n6770_3_1_1
n6779_3_1,n6779_3_1_1
n6781_3_1,n6781_3_1_1
n6782_3_1,n6782_3_1_1
n6783_3_1,n6783_3_1_1
n6788_3_1,n6788_3_1_1
n6789_3_1,n6789_3_1_1
n6792_3_1,n6792_3_1_1
n6794_3_1,n6794_3_1_1
n6798_3_1,n6798_3_1_1
n6800_3_1,n6800_3_1_1
n6802_3_1,n6802_3_1_1
n6805_3_1,n6805_3_1_1
n6812_3_1,n6812_3_1_1
n6813_3_1,n6813_3_1_1
n6814_3_1,n6814_3_1_1
n6819_3_1,n6819_3_1_1
n6823_3_1,n6823_3_1_1
n6843_3_1,n6843_3_1_1
n6846_3_1,n6846_3_1_1
n6849_3_1,n6849_3_1_1
n6863_3_1,n6863_3_1_1
n6867_3_1,n6867_3_1_1
n6868_3_1,n6868_3_1_1
n6871_3_1,n6871_3_1_1
n6873_3_1,n6873_3_1_1
n6883_3_1,n6883_3_1_1
n6884_3_1,n6884_3_1_1
n6885_3_1,n6885_3_1_1
n6887_3_1,n6887_3_1_1
n6896_3_1,n6896_3_1_1
n6901_3_1,n6901_3_1_1
n6904_3_1,n6904_3_1_1
n6905_3_1,n6905_3_1_1
n6906_3_1,n6906_3_1_1
n6929_3_1,n6929_3_1_1
n6930_3_1,n6930_3_1_1
n6933_3_1,n6933_3_1_1
n6934_3_1,n6934_3_1_1
n6937_3_1,n6937_3_1_1
n6947_3_1,n6947_3_1_1
n6952_3_1,n6952_3_1_1
n6954_3_1,n6954_3_1_1
n6956_3_1,n6956_3_1_1
n6964_3_1,n6964_3_1_1
n6965_3_1,n6965_3_1_1
n6971_3_1,n6971_3_1_1
n6972_3_1,n6972_3_1_1
n6976_3_1,n6976_3_1_1
n6978_3_1,n6978_3_1_1
n6981_3_1,n6981_3_1_1
n6983_3_1,n6983_3_1_1
n6989_3_1,n6989_3_1_1
n6992_3_1,n6992_3_1_1
n7005_3_1,n7005_3_1_1
n7011_3_1,n7011_3_1_1
n7012_3_1,n7012_3_1_1
n7020_3_1,n7020_3_1_1
n7025_3_1,n7025_3_1_1
n7027_3_1,n7027_3_1_1
n7037_3_1,n7037_3_1_1
n7047_3_1,n7047_3_1_1
n7050_3_1,n7050_3_1_1
n7053_3_1,n7053_3_1_1
n7054_3_1,n7054_3_1_1
n7067_3_1,n7067_3_1_1
n7069_3_1,n7069_3_1_1
n7072_3_1,n7072_3_1_1
n7073_3_1,n7073_3_1_1
n7079_3_1,n7079_3_1_1
n7081_3_1,n7081_3_1_1
n7082_3_1,n7082_3_1_1
n7083_3_1,n7083_3_1_1
n7091_3_1,n7091_3_1_1
n7098_3_1,n7098_3_1_1
n7099_3_1,n7099_3_1_1
n7100_3_1,n7100_3_1_1
