n4_3_1_1,n4_3_1_1_1
n8_3_1_1,n8_3_1_1_1
n12_3_1_1,n12_3_1_1_1
n15_3_1_1,n15_3_1_1_1
n25_3_1_1,n25_3_1_1_1
n28_3_1_1,n28_3_1_1_1
n30_3_1_1,n30_3_1_1_1
n44_3_1_1,n44_3_1_1_1
n46_3_1_1,n46_3_1_1_1
n48_3_1_1,n48_3_1_1_1
n67_3_1_1,n67_3_1_1_1
n70_3_1_1,n70_3_1_1_1
n73_3_1_1,n73_3_1_1_1
n81_3_1_1,n81_3_1_1_1
n82_3_1_1,n82_3_1_1_1
n84_3_1_1,n84_3_1_1_1
n85_3_1_1,n85_3_1_1_1
n86_3_1_1,n86_3_1_1_1
n93_3_1_1,n93_3_1_1_1
n94_3_1_1,n94_3_1_1_1
n96_3_1_1,n96_3_1_1_1
n98_3_1_1,n98_3_1_1_1
n101_3_1_1,n101_3_1_1_1
n105_3_1_1,n105_3_1_1_1
n112_3_1_1,n112_3_1_1_1
n124_3_1_1,n124_3_1_1_1
n125_3_1_1,n125_3_1_1_1
n139_3_1_1,n139_3_1_1_1
n143_3_1_1,n143_3_1_1_1
n145_3_1_1,n145_3_1_1_1
n147_3_1_1,n147_3_1_1_1
n152_3_1_1,n152_3_1_1_1
n153_3_1_1,n153_3_1_1_1
n156_3_1_1,n156_3_1_1_1
n163_3_1_1,n163_3_1_1_1
n165_3_1_1,n165_3_1_1_1
n173_3_1_1,n173_3_1_1_1
n174_3_1_1,n174_3_1_1_1
n179_3_1_1,n179_3_1_1_1
n180_3_1_1,n180_3_1_1_1
n184_3_1_1,n184_3_1_1_1
n195_3_1_1,n195_3_1_1_1
n199_3_1_1,n199_3_1_1_1
n202_3_1_1,n202_3_1_1_1
n203_3_1_1,n203_3_1_1_1
n204_3_1_1,n204_3_1_1_1
n206_3_1_1,n206_3_1_1_1
n208_3_1_1,n208_3_1_1_1
n217_3_1_1,n217_3_1_1_1
n219_3_1_1,n219_3_1_1_1
n236_3_1_1,n236_3_1_1_1
n239_3_1_1,n239_3_1_1_1
n245_3_1_1,n245_3_1_1_1
n248_3_1_1,n248_3_1_1_1
n251_3_1_1,n251_3_1_1_1
n252_3_1_1,n252_3_1_1_1
n253_3_1_1,n253_3_1_1_1
n255_3_1_1,n255_3_1_1_1
n260_3_1_1,n260_3_1_1_1
n261_3_1_1,n261_3_1_1_1
n262_3_1_1,n262_3_1_1_1
n263_3_1_1,n263_3_1_1_1
n268_3_1_1,n268_3_1_1_1
n272_3_1_1,n272_3_1_1_1
n282_3_1_1,n282_3_1_1_1
n289_3_1_1,n289_3_1_1_1
n290_3_1_1,n290_3_1_1_1
n292_3_1_1,n292_3_1_1_1
n294_3_1_1,n294_3_1_1_1
n296_3_1_1,n296_3_1_1_1
n300_3_1_1,n300_3_1_1_1
n306_3_1_1,n306_3_1_1_1
n307_3_1_1,n307_3_1_1_1
n317_3_1_1,n317_3_1_1_1
n325_3_1_1,n325_3_1_1_1
n328_3_1_1,n328_3_1_1_1
n329_3_1_1,n329_3_1_1_1
n341_3_1_1,n341_3_1_1_1
n348_3_1_1,n348_3_1_1_1
n350_3_1_1,n350_3_1_1_1
n352_3_1_1,n352_3_1_1_1
n357_3_1_1,n357_3_1_1_1
n367_3_1_1,n367_3_1_1_1
n374_3_1_1,n374_3_1_1_1
n375_3_1_1,n375_3_1_1_1
n376_3_1_1,n376_3_1_1_1
n378_3_1_1,n378_3_1_1_1
n389_3_1_1,n389_3_1_1_1
n392_3_1_1,n392_3_1_1_1
n397_3_1_1,n397_3_1_1_1
n399_3_1_1,n399_3_1_1_1
n405_3_1_1,n405_3_1_1_1
n412_3_1_1,n412_3_1_1_1
n414_3_1_1,n414_3_1_1_1
n423_3_1_1,n423_3_1_1_1
n424_3_1_1,n424_3_1_1_1
n429_3_1_1,n429_3_1_1_1
n430_3_1_1,n430_3_1_1_1
n431_3_1_1,n431_3_1_1_1
n432_3_1_1,n432_3_1_1_1
n436_3_1_1,n436_3_1_1_1
n437_3_1_1,n437_3_1_1_1
n442_3_1_1,n442_3_1_1_1
n448_3_1_1,n448_3_1_1_1
n453_3_1_1,n453_3_1_1_1
n455_3_1_1,n455_3_1_1_1
n461_3_1_1,n461_3_1_1_1
n463_3_1_1,n463_3_1_1_1
n478_3_1_1,n478_3_1_1_1
n480_3_1_1,n480_3_1_1_1
n485_3_1_1,n485_3_1_1_1
n487_3_1_1,n487_3_1_1_1
n494_3_1_1,n494_3_1_1_1
n495_3_1_1,n495_3_1_1_1
n502_3_1_1,n502_3_1_1_1
n508_3_1_1,n508_3_1_1_1
n530_3_1_1,n530_3_1_1_1
n540_3_1_1,n540_3_1_1_1
n541_3_1_1,n541_3_1_1_1
n542_3_1_1,n542_3_1_1_1
n548_3_1_1,n548_3_1_1_1
n565_3_1_1,n565_3_1_1_1
n567_3_1_1,n567_3_1_1_1
n571_3_1_1,n571_3_1_1_1
n572_3_1_1,n572_3_1_1_1
n575_3_1_1,n575_3_1_1_1
n577_3_1_1,n577_3_1_1_1
n595_3_1_1,n595_3_1_1_1
n604_3_1_1,n604_3_1_1_1
n613_3_1_1,n613_3_1_1_1
n622_3_1_1,n622_3_1_1_1
n625_3_1_1,n625_3_1_1_1
n627_3_1_1,n627_3_1_1_1
n643_3_1_1,n643_3_1_1_1
n644_3_1_1,n644_3_1_1_1
n645_3_1_1,n645_3_1_1_1
n647_3_1_1,n647_3_1_1_1
n655_3_1_1,n655_3_1_1_1
n656_3_1_1,n656_3_1_1_1
n659_3_1_1,n659_3_1_1_1
n673_3_1_1,n673_3_1_1_1
n675_3_1_1,n675_3_1_1_1
n676_3_1_1,n676_3_1_1_1
n684_3_1_1,n684_3_1_1_1
n689_3_1_1,n689_3_1_1_1
n696_3_1_1,n696_3_1_1_1
n701_3_1_1,n701_3_1_1_1
n707_3_1_1,n707_3_1_1_1
n709_3_1_1,n709_3_1_1_1
n712_3_1_1,n712_3_1_1_1
n717_3_1_1,n717_3_1_1_1
n719_3_1_1,n719_3_1_1_1
n725_3_1_1,n725_3_1_1_1
n730_3_1_1,n730_3_1_1_1
n733_3_1_1,n733_3_1_1_1
n748_3_1_1,n748_3_1_1_1
n754_3_1_1,n754_3_1_1_1
n755_3_1_1,n755_3_1_1_1
n756_3_1_1,n756_3_1_1_1
n758_3_1_1,n758_3_1_1_1
n761_3_1_1,n761_3_1_1_1
n766_3_1_1,n766_3_1_1_1
n767_3_1_1,n767_3_1_1_1
n782_3_1_1,n782_3_1_1_1
n786_3_1_1,n786_3_1_1_1
n789_3_1_1,n789_3_1_1_1
n791_3_1_1,n791_3_1_1_1
n794_3_1_1,n794_3_1_1_1
n798_3_1_1,n798_3_1_1_1
n805_3_1_1,n805_3_1_1_1
n806_3_1_1,n806_3_1_1_1
n807_3_1_1,n807_3_1_1_1
n809_3_1_1,n809_3_1_1_1
n812_3_1_1,n812_3_1_1_1
n813_3_1_1,n813_3_1_1_1
n817_3_1_1,n817_3_1_1_1
n828_3_1_1,n828_3_1_1_1
n834_3_1_1,n834_3_1_1_1
n836_3_1_1,n836_3_1_1_1
n839_3_1_1,n839_3_1_1_1
n848_3_1_1,n848_3_1_1_1
n850_3_1_1,n850_3_1_1_1
n852_3_1_1,n852_3_1_1_1
n856_3_1_1,n856_3_1_1_1
n863_3_1_1,n863_3_1_1_1
n871_3_1_1,n871_3_1_1_1
n878_3_1_1,n878_3_1_1_1
n886_3_1_1,n886_3_1_1_1
n889_3_1_1,n889_3_1_1_1
n896_3_1_1,n896_3_1_1_1
n897_3_1_1,n897_3_1_1_1
n918_3_1_1,n918_3_1_1_1
n923_3_1_1,n923_3_1_1_1
n929_3_1_1,n929_3_1_1_1
n938_3_1_1,n938_3_1_1_1
n939_3_1_1,n939_3_1_1_1
n942_3_1_1,n942_3_1_1_1
n961_3_1_1,n961_3_1_1_1
n962_3_1_1,n962_3_1_1_1
n965_3_1_1,n965_3_1_1_1
n966_3_1_1,n966_3_1_1_1
n972_3_1_1,n972_3_1_1_1
n975_3_1_1,n975_3_1_1_1
n976_3_1_1,n976_3_1_1_1
n977_3_1_1,n977_3_1_1_1
n981_3_1_1,n981_3_1_1_1
n982_3_1_1,n982_3_1_1_1
n985_3_1_1,n985_3_1_1_1
n992_3_1_1,n992_3_1_1_1
n994_3_1_1,n994_3_1_1_1
n1011_3_1_1,n1011_3_1_1_1
n1021_3_1_1,n1021_3_1_1_1
n1032_3_1_1,n1032_3_1_1_1
n1040_3_1_1,n1040_3_1_1_1
n1052_3_1_1,n1052_3_1_1_1
n1057_3_1_1,n1057_3_1_1_1
n1059_3_1_1,n1059_3_1_1_1
n1075_3_1_1,n1075_3_1_1_1
n1078_3_1_1,n1078_3_1_1_1
n1083_3_1_1,n1083_3_1_1_1
n1084_3_1_1,n1084_3_1_1_1
n1085_3_1_1,n1085_3_1_1_1
n1097_3_1_1,n1097_3_1_1_1
n1106_3_1_1,n1106_3_1_1_1
n1107_3_1_1,n1107_3_1_1_1
n1108_3_1_1,n1108_3_1_1_1
n1110_3_1_1,n1110_3_1_1_1
n1113_3_1_1,n1113_3_1_1_1
n1119_3_1_1,n1119_3_1_1_1
n1123_3_1_1,n1123_3_1_1_1
n1127_3_1_1,n1127_3_1_1_1
n1134_3_1_1,n1134_3_1_1_1
n1136_3_1_1,n1136_3_1_1_1
n1137_3_1_1,n1137_3_1_1_1
n1140_3_1_1,n1140_3_1_1_1
n1142_3_1_1,n1142_3_1_1_1
n1155_3_1_1,n1155_3_1_1_1
n1156_3_1_1,n1156_3_1_1_1
n1161_3_1_1,n1161_3_1_1_1
n1170_3_1_1,n1170_3_1_1_1
n1172_3_1_1,n1172_3_1_1_1
n1173_3_1_1,n1173_3_1_1_1
n1174_3_1_1,n1174_3_1_1_1
n1177_3_1_1,n1177_3_1_1_1
n1190_3_1_1,n1190_3_1_1_1
n1191_3_1_1,n1191_3_1_1_1
n1199_3_1_1,n1199_3_1_1_1
n1220_3_1_1,n1220_3_1_1_1
n1222_3_1_1,n1222_3_1_1_1
n1230_3_1_1,n1230_3_1_1_1
n1239_3_1_1,n1239_3_1_1_1
n1248_3_1_1,n1248_3_1_1_1
n1255_3_1_1,n1255_3_1_1_1
n1256_3_1_1,n1256_3_1_1_1
n1260_3_1_1,n1260_3_1_1_1
n1262_3_1_1,n1262_3_1_1_1
n1266_3_1_1,n1266_3_1_1_1
n1267_3_1_1,n1267_3_1_1_1
n1268_3_1_1,n1268_3_1_1_1
n1276_3_1_1,n1276_3_1_1_1
n1284_3_1_1,n1284_3_1_1_1
n1293_3_1_1,n1293_3_1_1_1
n1294_3_1_1,n1294_3_1_1_1
n1302_3_1_1,n1302_3_1_1_1
n1306_3_1_1,n1306_3_1_1_1
n1310_3_1_1,n1310_3_1_1_1
n1324_3_1_1,n1324_3_1_1_1
n1333_3_1_1,n1333_3_1_1_1
n1339_3_1_1,n1339_3_1_1_1
n1341_3_1_1,n1341_3_1_1_1
n1344_3_1_1,n1344_3_1_1_1
n1345_3_1_1,n1345_3_1_1_1
n1347_3_1_1,n1347_3_1_1_1
n1351_3_1_1,n1351_3_1_1_1
n1360_3_1_1,n1360_3_1_1_1
n1366_3_1_1,n1366_3_1_1_1
n1371_3_1_1,n1371_3_1_1_1
n1372_3_1_1,n1372_3_1_1_1
n1374_3_1_1,n1374_3_1_1_1
n1389_3_1_1,n1389_3_1_1_1
n1401_3_1_1,n1401_3_1_1_1
n1405_3_1_1,n1405_3_1_1_1
n1409_3_1_1,n1409_3_1_1_1
n1421_3_1_1,n1421_3_1_1_1
n1423_3_1_1,n1423_3_1_1_1
n1429_3_1_1,n1429_3_1_1_1
n1433_3_1_1,n1433_3_1_1_1
n1437_3_1_1,n1437_3_1_1_1
n1439_3_1_1,n1439_3_1_1_1
n1456_3_1_1,n1456_3_1_1_1
n1463_3_1_1,n1463_3_1_1_1
n1471_3_1_1,n1471_3_1_1_1
n1474_3_1_1,n1474_3_1_1_1
n1479_3_1_1,n1479_3_1_1_1
n1484_3_1_1,n1484_3_1_1_1
n1491_3_1_1,n1491_3_1_1_1
n1496_3_1_1,n1496_3_1_1_1
n1500_3_1_1,n1500_3_1_1_1
n1504_3_1_1,n1504_3_1_1_1
n1508_3_1_1,n1508_3_1_1_1
n1512_3_1_1,n1512_3_1_1_1
n1519_3_1_1,n1519_3_1_1_1
n1520_3_1_1,n1520_3_1_1_1
n1529_3_1_1,n1529_3_1_1_1
n1537_3_1_1,n1537_3_1_1_1
n1541_3_1_1,n1541_3_1_1_1
n1546_3_1_1,n1546_3_1_1_1
n1555_3_1_1,n1555_3_1_1_1
n1568_3_1_1,n1568_3_1_1_1
n1570_3_1_1,n1570_3_1_1_1
n1576_3_1_1,n1576_3_1_1_1
n1577_3_1_1,n1577_3_1_1_1
n1590_3_1_1,n1590_3_1_1_1
n1592_3_1_1,n1592_3_1_1_1
n1593_3_1_1,n1593_3_1_1_1
n1594_3_1_1,n1594_3_1_1_1
n1609_3_1_1,n1609_3_1_1_1
n1610_3_1_1,n1610_3_1_1_1
n1623_3_1_1,n1623_3_1_1_1
n1628_3_1_1,n1628_3_1_1_1
n1633_3_1_1,n1633_3_1_1_1
n1635_3_1_1,n1635_3_1_1_1
n1641_3_1_1,n1641_3_1_1_1
n1660_3_1_1,n1660_3_1_1_1
n1662_3_1_1,n1662_3_1_1_1
n1663_3_1_1,n1663_3_1_1_1
n1675_3_1_1,n1675_3_1_1_1
n1679_3_1_1,n1679_3_1_1_1
n1681_3_1_1,n1681_3_1_1_1
n1682_3_1_1,n1682_3_1_1_1
n1685_3_1_1,n1685_3_1_1_1
n1690_3_1_1,n1690_3_1_1_1
n1709_3_1_1,n1709_3_1_1_1
n1713_3_1_1,n1713_3_1_1_1
n1715_3_1_1,n1715_3_1_1_1
n1727_3_1_1,n1727_3_1_1_1
n1729_3_1_1,n1729_3_1_1_1
n1732_3_1_1,n1732_3_1_1_1
n1735_3_1_1,n1735_3_1_1_1
n1755_3_1_1,n1755_3_1_1_1
n1777_3_1_1,n1777_3_1_1_1
n1787_3_1_1,n1787_3_1_1_1
n1789_3_1_1,n1789_3_1_1_1
n1793_3_1_1,n1793_3_1_1_1
n1798_3_1_1,n1798_3_1_1_1
n1811_3_1_1,n1811_3_1_1_1
n1824_3_1_1,n1824_3_1_1_1
n1830_3_1_1,n1830_3_1_1_1
n1836_3_1_1,n1836_3_1_1_1
n1855_3_1_1,n1855_3_1_1_1
n1859_3_1_1,n1859_3_1_1_1
n1862_3_1_1,n1862_3_1_1_1
n1864_3_1_1,n1864_3_1_1_1
n1871_3_1_1,n1871_3_1_1_1
n1873_3_1_1,n1873_3_1_1_1
n1874_3_1_1,n1874_3_1_1_1
n1882_3_1_1,n1882_3_1_1_1
n1884_3_1_1,n1884_3_1_1_1
n1915_3_1_1,n1915_3_1_1_1
n1916_3_1_1,n1916_3_1_1_1
n1925_3_1_1,n1925_3_1_1_1
n1926_3_1_1,n1926_3_1_1_1
n1927_3_1_1,n1927_3_1_1_1
n1937_3_1_1,n1937_3_1_1_1
n1938_3_1_1,n1938_3_1_1_1
n1941_3_1_1,n1941_3_1_1_1
n1948_3_1_1,n1948_3_1_1_1
n1957_3_1_1,n1957_3_1_1_1
n1961_3_1_1,n1961_3_1_1_1
n1963_3_1_1,n1963_3_1_1_1
n1971_3_1_1,n1971_3_1_1_1
n1972_3_1_1,n1972_3_1_1_1
n1978_3_1_1,n1978_3_1_1_1
n1981_3_1_1,n1981_3_1_1_1
n1983_3_1_1,n1983_3_1_1_1
n1986_3_1_1,n1986_3_1_1_1
n1989_3_1_1,n1989_3_1_1_1
n1992_3_1_1,n1992_3_1_1_1
n1993_3_1_1,n1993_3_1_1_1
n1998_3_1_1,n1998_3_1_1_1
n2001_3_1_1,n2001_3_1_1_1
n2003_3_1_1,n2003_3_1_1_1
n2004_3_1_1,n2004_3_1_1_1
n2008_3_1_1,n2008_3_1_1_1
n2011_3_1_1,n2011_3_1_1_1
n2012_3_1_1,n2012_3_1_1_1
n2018_3_1_1,n2018_3_1_1_1
n2019_3_1_1,n2019_3_1_1_1
n2028_3_1_1,n2028_3_1_1_1
n2029_3_1_1,n2029_3_1_1_1
n2035_3_1_1,n2035_3_1_1_1
n2040_3_1_1,n2040_3_1_1_1
n2044_3_1_1,n2044_3_1_1_1
n2045_3_1_1,n2045_3_1_1_1
n2048_3_1_1,n2048_3_1_1_1
n2053_3_1_1,n2053_3_1_1_1
n2059_3_1_1,n2059_3_1_1_1
n2069_3_1_1,n2069_3_1_1_1
n2079_3_1_1,n2079_3_1_1_1
n2083_3_1_1,n2083_3_1_1_1
n2084_3_1_1,n2084_3_1_1_1
n2088_3_1_1,n2088_3_1_1_1
n2100_3_1_1,n2100_3_1_1_1
n2103_3_1_1,n2103_3_1_1_1
n2104_3_1_1,n2104_3_1_1_1
n2107_3_1_1,n2107_3_1_1_1
n2109_3_1_1,n2109_3_1_1_1
n2110_3_1_1,n2110_3_1_1_1
n2117_3_1_1,n2117_3_1_1_1
n2128_3_1_1,n2128_3_1_1_1
n2130_3_1_1,n2130_3_1_1_1
n2136_3_1_1,n2136_3_1_1_1
n2140_3_1_1,n2140_3_1_1_1
n2141_3_1_1,n2141_3_1_1_1
n2146_3_1_1,n2146_3_1_1_1
n2147_3_1_1,n2147_3_1_1_1
n2150_3_1_1,n2150_3_1_1_1
n2156_3_1_1,n2156_3_1_1_1
n2161_3_1_1,n2161_3_1_1_1
n2170_3_1_1,n2170_3_1_1_1
n2171_3_1_1,n2171_3_1_1_1
