n2380_3_1_1,n2380_3_1_1_6
n2383_3_1_1,n2383_3_1_1_5
n2384_3_1_1,n2384_3_1_1_6
n2399_3_1_1,n2399_3_1_1_8
n2419_3_1_1,n2419_3_1_1_4
n2429_3_1_1,n2429_3_1_1_5
n2436_3_1_1,n2436_3_1_1_6
n2443_3_1_1,n2443_3_1_1_6
n2449_3_1_1,n2449_3_1_1_6
n2454_3_1_1,n2454_3_1_1_4
n2466_3_1_1,n2466_3_1_1_7
n2478_3_1_1,n2478_3_1_1_7
n2480_3_1_1,n2480_3_1_1_6
n2495_3_1_1,n2495_3_1_1_4
n2505_3_1_1,n2505_3_1_1_7
n2508_3_1_1,n2508_3_1_1_6
n2528_3_1_1,n2528_3_1_1_5
n2548_3_1_1,n2548_3_1_1_6
n2549_3_1_1,n2549_3_1_1_5
n2550_3_1_1,n2550_3_1_1_4
n2560_3_1_1,n2560_3_1_1_6
n2574_3_1_1,n2574_3_1_1_6
n2591_3_1_1,n2591_3_1_1_5
n2604_3_1_1,n2604_3_1_1_5
n2608_3_1_1,n2608_3_1_1_7
n2611_3_1_1,n2611_3_1_1_5
n2613_3_1_1,n2613_3_1_1_6
n2641_3_1_1,n2641_3_1_1_4
n2645_3_1_1,n2645_3_1_1_8
n2653_3_1_1,n2653_3_1_1_6
n2661_3_1_1,n2661_3_1_1_6
n2672_3_1_1,n2672_3_1_1_4
n2681_3_1_1,n2681_3_1_1_5
n2684_3_1_1,n2684_3_1_1_6
n2688_3_1_1,n2688_3_1_1_6
n2693_3_1_1,n2693_3_1_1_7
n2698_3_1_1,n2698_3_1_1_7
n2750_3_1_1,n2750_3_1_1_7
n2764_3_1_1,n2764_3_1_1_6
n2769_3_1_1,n2769_3_1_1_6
n2778_3_1_1,n2778_3_1_1_4
n2781_3_1_1,n2781_3_1_1_6
n2786_3_1_1,n2786_3_1_1_5
n2787_3_1_1,n2787_3_1_1_5
n2792_3_1_1,n2792_3_1_1_6
n2801_3_1_1,n2801_3_1_1_6
n2806_3_1_1,n2806_3_1_1_6
n2820_3_1_1,n2820_3_1_1_6
n2829_3_1_1,n2829_3_1_1_6
n2830_3_1_1,n2830_3_1_1_6
n2844_3_1_1,n2844_3_1_1_6
n2850_3_1_1,n2850_3_1_1_5
n2861_3_1_1,n2861_3_1_1_5
n2877_3_1_1,n2877_3_1_1_6
n2878_3_1_1,n2878_3_1_1_6
n2885_3_1_1,n2885_3_1_1_6
n2887_3_1_1,n2887_3_1_1_5
n2895_3_1_1,n2895_3_1_1_6
n2900_3_1_1,n2900_3_1_1_5
n2921_3_1_1,n2921_3_1_1_6
n2922_3_1_1,n2922_3_1_1_7
n2958_3_1_1,n2958_3_1_1_6
n2964_3_1_1,n2964_3_1_1_7
n2971_3_1_1,n2971_3_1_1_7
n2977_3_1_1,n2977_3_1_1_5
n2981_3_1_1,n2981_3_1_1_4
n2987_3_1_1,n2987_3_1_1_7
n2990_3_1_1,n2990_3_1_1_6
n3005_3_1_1,n3005_3_1_1_7
n3012_3_1_1,n3012_3_1_1_6
n3014_3_1_1,n3014_3_1_1_5
n3019_3_1_1,n3019_3_1_1_7
n3022_3_1_1,n3022_3_1_1_6
n3053_3_1_1,n3053_3_1_1_8
n3056_3_1_1,n3056_3_1_1_4
n3077_3_1_1,n3077_3_1_1_5
n3103_3_1_1,n3103_3_1_1_6
n3107_3_1_1,n3107_3_1_1_5
n3109_3_1_1,n3109_3_1_1_6
n3124_3_1_1,n3124_3_1_1_5
n3126_3_1_1,n3126_3_1_1_5
n3141_3_1_1,n3141_3_1_1_7
n3160_3_1_1,n3160_3_1_1_6
n3181_3_1_1,n3181_3_1_1_7
n3202_3_1_1,n3202_3_1_1_6
n3222_3_1_1,n3222_3_1_1_6
n3239_3_1_1,n3239_3_1_1_5
n3241_3_1_1,n3241_3_1_1_6
n3246_3_1_1,n3246_3_1_1_5
n3248_3_1_1,n3248_3_1_1_6
n3258_3_1_1,n3258_3_1_1_8
n3265_3_1_1,n3265_3_1_1_7
n3269_3_1_1,n3269_3_1_1_6
n3283_3_1_1,n3283_3_1_1_7
n3285_3_1_1,n3285_3_1_1_5
n3307_3_1_1,n3307_3_1_1_7
n3331_3_1_1,n3331_3_1_1_7
n3335_3_1_1,n3335_3_1_1_5
n3337_3_1_1,n3337_3_1_1_8
n3360_3_1_1,n3360_3_1_1_6
n3362_3_1_1,n3362_3_1_1_6
n3369_3_1_1,n3369_3_1_1_4
n3390_3_1_1,n3390_3_1_1_8
n3395_3_1_1,n3395_3_1_1_6
n3397_3_1_1,n3397_3_1_1_6
n3398_3_1_1,n3398_3_1_1_6
n3412_3_1_1,n3412_3_1_1_7
n3422_3_1_1,n3422_3_1_1_5
n3443_3_1_1,n3443_3_1_1_4
n3451_3_1_1,n3451_3_1_1_7
n3459_3_1_1,n3459_3_1_1_6
n3460_3_1_1,n3460_3_1_1_5
n3464_3_1_1,n3464_3_1_1_6
n3480_3_1_1,n3480_3_1_1_8
n3483_3_1_1,n3483_3_1_1_5
n3486_3_1_1,n3486_3_1_1_5
n3489_3_1_1,n3489_3_1_1_4
n3494_3_1_1,n3494_3_1_1_6
n3497_3_1_1,n3497_3_1_1_5
n3527_3_1_1,n3527_3_1_1_6
n3537_3_1_1,n3537_3_1_1_7
n3552_3_1_1,n3552_3_1_1_6
n3560_3_1_1,n3560_3_1_1_7
n3562_3_1_1,n3562_3_1_1_6
n3568_3_1_1,n3568_3_1_1_6
n3572_3_1_1,n3572_3_1_1_7
n3592_3_1_1,n3592_3_1_1_5
n3603_3_1_1,n3603_3_1_1_6
n3604_3_1_1,n3604_3_1_1_5
n3619_3_1_1,n3619_3_1_1_6
n3631_3_1_1,n3631_3_1_1_5
n3637_3_1_1,n3637_3_1_1_7
n3648_3_1_1,n3648_3_1_1_7
n3668_3_1_1,n3668_3_1_1_7
n3676_3_1_1,n3676_3_1_1_6
n3682_3_1_1,n3682_3_1_1_7
n3685_3_1_1,n3685_3_1_1_7
n3687_3_1_1,n3687_3_1_1_5
n3697_3_1_1,n3697_3_1_1_6
n3713_3_1_1,n3713_3_1_1_8
n3752_3_1_1,n3752_3_1_1_6
n3768_3_1_1,n3768_3_1_1_6
n3770_3_1_1,n3770_3_1_1_8
n3800_3_1_1,n3800_3_1_1_7
n3802_3_1_1,n3802_3_1_1_5
n3809_3_1_1,n3809_3_1_1_6
n3814_3_1_1,n3814_3_1_1_6
n3834_3_1_1,n3834_3_1_1_6
n3836_3_1_1,n3836_3_1_1_7
n3861_3_1_1,n3861_3_1_1_5
n3864_3_1_1,n3864_3_1_1_4
n3865_3_1_1,n3865_3_1_1_6
n3868_3_1_1,n3868_3_1_1_6
n3881_3_1_1,n3881_3_1_1_7
n3886_3_1_1,n3886_3_1_1_6
n3904_3_1_1,n3904_3_1_1_5
n3909_3_1_1,n3909_3_1_1_7
n3913_3_1_1,n3913_3_1_1_8
n3914_3_1_1,n3914_3_1_1_8
n3930_3_1_1,n3930_3_1_1_6
n3932_3_1_1,n3932_3_1_1_8
n3935_3_1_1,n3935_3_1_1_4
n3939_3_1_1,n3939_3_1_1_6
n3943_3_1_1,n3943_3_1_1_5
n3946_3_1_1,n3946_3_1_1_5
n3965_3_1_1,n3965_3_1_1_5
n3972_3_1_1,n3972_3_1_1_7
n3985_3_1_1,n3985_3_1_1_7
n4017_3_1_1,n4017_3_1_1_6
n4021_3_1_1,n4021_3_1_1_6
n4027_3_1_1,n4027_3_1_1_6
n4031_3_1_1,n4031_3_1_1_5
n4038_3_1_1,n4038_3_1_1_8
n4049_3_1_1,n4049_3_1_1_5
n4076_3_1_1,n4076_3_1_1_6
n4085_3_1_1,n4085_3_1_1_7
n4086_3_1_1,n4086_3_1_1_5
n4100_3_1_1,n4100_3_1_1_5
n4116_3_1_1,n4116_3_1_1_6
n4121_3_1_1,n4121_3_1_1_7
n4135_3_1_1,n4135_3_1_1_5
n4136_3_1_1,n4136_3_1_1_7
n4148_3_1_1,n4148_3_1_1_5
n4155_3_1_1,n4155_3_1_1_5
n4157_3_1_1,n4157_3_1_1_5
n4161_3_1_1,n4161_3_1_1_6
n4164_3_1_1,n4164_3_1_1_5
n4183_3_1_1,n4183_3_1_1_5
n4188_3_1_1,n4188_3_1_1_6
n4192_3_1_1,n4192_3_1_1_7
n4203_3_1_1,n4203_3_1_1_5
n4212_3_1_1,n4212_3_1_1_8
n4222_3_1_1,n4222_3_1_1_6
n4228_3_1_1,n4228_3_1_1_5
n4237_3_1_1,n4237_3_1_1_7
n4266_3_1_1,n4266_3_1_1_6
n4272_3_1_1,n4272_3_1_1_6
n4273_3_1_1,n4273_3_1_1_8
n4281_3_1_1,n4281_3_1_1_8
n4285_3_1_1,n4285_3_1_1_6
n4294_3_1_1,n4294_3_1_1_6
n4297_3_1_1,n4297_3_1_1_7
n4300_3_1_1,n4300_3_1_1_6
n4308_3_1_1,n4308_3_1_1_7
n4316_3_1_1,n4316_3_1_1_6
n4331_3_1_1,n4331_3_1_1_5
n4336_3_1_1,n4336_3_1_1_7
n4338_3_1_1,n4338_3_1_1_7
n4360_3_1_1,n4360_3_1_1_7
n4368_3_1_1,n4368_3_1_1_4
n4390_3_1_1,n4390_3_1_1_7
n4396_3_1_1,n4396_3_1_1_4
n4402_3_1_1,n4402_3_1_1_8
n4418_3_1_1,n4418_3_1_1_5
n4423_3_1_1,n4423_3_1_1_6
n4427_3_1_1,n4427_3_1_1_6
n4436_3_1_1,n4436_3_1_1_5
n4444_3_1_1,n4444_3_1_1_7
n4464_3_1_1,n4464_3_1_1_7
n4467_3_1_1,n4467_3_1_1_8
n4474_3_1_1,n4474_3_1_1_6
n4489_3_1_1,n4489_3_1_1_5
n4494_3_1_1,n4494_3_1_1_7
n4501_3_1_1,n4501_3_1_1_6
n4502_3_1_1,n4502_3_1_1_7
n4517_3_1_1,n4517_3_1_1_6
n4520_3_1_1,n4520_3_1_1_5
n4529_3_1_1,n4529_3_1_1_5
n4534_3_1_1,n4534_3_1_1_6
n4543_3_1_1,n4543_3_1_1_4
n4547_3_1_1,n4547_3_1_1_6
n4574_3_1_1,n4574_3_1_1_5
n4586_3_1_1,n4586_3_1_1_6
n4595_3_1_1,n4595_3_1_1_6
n4597_3_1_1,n4597_3_1_1_4
n4602_3_1_1,n4602_3_1_1_6
n4626_3_1_1,n4626_3_1_1_4
n4627_3_1_1,n4627_3_1_1_7
n4631_3_1_1,n4631_3_1_1_4
n4643_3_1_1,n4643_3_1_1_7
n4664_3_1_1,n4664_3_1_1_6
n4669_3_1_1,n4669_3_1_1_5
n4675_3_1_1,n4675_3_1_1_5
n4676_3_1_1,n4676_3_1_1_5
n4688_3_1_1,n4688_3_1_1_7
n4715_3_1_1,n4715_3_1_1_6
n4745_3_1_1,n4745_3_1_1_8
n4753_3_1_1,n4753_3_1_1_6
n4755_3_1_1,n4755_3_1_1_5
n4756_3_1_1,n4756_3_1_1_7
n4759_3_1_1,n4759_3_1_1_5
n4776_3_1_1,n4776_3_1_1_7
n4778_3_1_1,n4778_3_1_1_7
n4780_3_1_1,n4780_3_1_1_5
n4788_3_1_1,n4788_3_1_1_6
n4814_3_1_1,n4814_3_1_1_5
n4821_3_1_1,n4821_3_1_1_7
n4825_3_1_1,n4825_3_1_1_6
n4830_3_1_1,n4830_3_1_1_4
n4837_3_1_1,n4837_3_1_1_4
n4838_3_1_1,n4838_3_1_1_5
n4849_3_1_1,n4849_3_1_1_5
n4851_3_1_1,n4851_3_1_1_5
n4859_3_1_1,n4859_3_1_1_6
n4871_3_1_1,n4871_3_1_1_6
n4872_3_1_1,n4872_3_1_1_4
n4909_3_1_1,n4909_3_1_1_6
n4920_3_1_1,n4920_3_1_1_7
n4922_3_1_1,n4922_3_1_1_5
