n9,n9_3
n15,n15_3
n16,n16_3
n19,n19_3
n23,n23_3
n24,n24_3
n32,n32_3
n33,n33_3
n37,n37_3
n38,n38_3
n46,n46_3
n48,n48_3
n51,n51_3
n52,n52_3
n55,n55_3
n76,n76_3
n81,n81_3
n82,n82_3
n84,n84_3
n87,n87_3
n89,n89_3
n91,n91_3
n92,n92_3
n96,n96_3
n102,n102_3
n109,n109_3
n112,n112_3
n115,n115_3
n116,n116_3
n118,n118_3
n122,n122_3
n140,n140_3
n141,n141_3
n144,n144_3
n147,n147_3
n148,n148_3
n151,n151_3
n155,n155_3
n157,n157_3
n159,n159_3
n165,n165_3
n172,n172_3
n181,n181_3
n186,n186_3
n188,n188_3
n196,n196_3
n197,n197_3
n200,n200_3
n204,n204_3
n214,n214_3
n234,n234_3
n235,n235_3
n241,n241_3
n243,n243_3
n245,n245_3
n247,n247_3
n256,n256_3
n257,n257_3
n259,n259_3
n265,n265_3
n272,n272_3
n274,n274_3
n278,n278_3
n280,n280_3
n289,n289_3
n294,n294_3
n295,n295_3
n303,n303_3
n312,n312_3
n313,n313_3
n316,n316_3
n322,n322_3
n324,n324_3
n333,n333_3
n338,n338_3
n340,n340_3
n344,n344_3
n354,n354_3
n368,n368_3
n371,n371_3
n375,n375_3
n384,n384_3
n386,n386_3
n387,n387_3
n388,n388_3
n391,n391_3
n392,n392_3
n396,n396_3
n397,n397_3
n401,n401_3
n409,n409_3
n412,n412_3
n424,n424_3
n426,n426_3
n427,n427_3
n433,n433_3
n434,n434_3
n436,n436_3
n443,n443_3
n451,n451_3
n461,n461_3
n465,n465_3
n466,n466_3
n470,n470_3
n471,n471_3
n473,n473_3
n478,n478_3
n488,n488_3
n494,n494_3
n495,n495_3
n501,n501_3
n502,n502_3
n504,n504_3
n515,n515_3
n517,n517_3
n519,n519_3
n527,n527_3
n531,n531_3
n546,n546_3
n552,n552_3
n557,n557_3
n562,n562_3
n566,n566_3
n567,n567_3
n568,n568_3
n570,n570_3
n574,n574_3
n576,n576_3
n581,n581_3
n586,n586_3
n587,n587_3
n589,n589_3
n596,n596_3
n614,n614_3
n617,n617_3
n622,n622_3
n625,n625_3
n629,n629_3
n631,n631_3
n634,n634_3
n641,n641_3
n644,n644_3
n667,n667_3
n670,n670_3
n686,n686_3
n687,n687_3
n693,n693_3
n695,n695_3
n697,n697_3
n709,n709_3
n723,n723_3
n737,n737_3
n742,n742_3
n744,n744_3
n749,n749_3
n754,n754_3
n758,n758_3
n759,n759_3
n761,n761_3
n763,n763_3
n770,n770_3
n780,n780_3
n782,n782_3
n803,n803_3
n804,n804_3
n809,n809_3
n821,n821_3
n826,n826_3
n834,n834_3
n839,n839_3
n859,n859_3
n861,n861_3
n869,n869_3
n873,n873_3
n881,n881_3
n883,n883_3
n892,n892_3
n899,n899_3
n912,n912_3
n914,n914_3
n924,n924_3
n927,n927_3
n933,n933_3
n939,n939_3
n945,n945_3
n947,n947_3
n958,n958_3
n972,n972_3
n976,n976_3
n978,n978_3
n984,n984_3
n987,n987_3
n988,n988_3
n995,n995_3
n1001,n1001_3
n1004,n1004_3
n1008,n1008_3
n1012,n1012_3
n1020,n1020_3
n1023,n1023_3
n1032,n1032_3
n1042,n1042_3
n1049,n1049_3
n1059,n1059_3
n1060,n1060_3
n1061,n1061_3
n1065,n1065_3
n1076,n1076_3
n1088,n1088_3
n1090,n1090_3
n1097,n1097_3
n1102,n1102_3
n1107,n1107_3
n1108,n1108_3
n1120,n1120_3
n1121,n1121_3
n1122,n1122_3
n1124,n1124_3
n1127,n1127_3
n1133,n1133_3
n1140,n1140_3
n1144,n1144_3
n1145,n1145_3
n1157,n1157_3
n1163,n1163_3
n1166,n1166_3
n1172,n1172_3
n1174,n1174_3
n1176,n1176_3
n1179,n1179_3
n1185,n1185_3
n1188,n1188_3
n1190,n1190_3
n1191,n1191_3
n1197,n1197_3
n1198,n1198_3
n1204,n1204_3
n1208,n1208_3
n1211,n1211_3
n1212,n1212_3
n1213,n1213_3
n1218,n1218_3
n1223,n1223_3
n1234,n1234_3
n1235,n1235_3
n1236,n1236_3
n1238,n1238_3
n1241,n1241_3
n1250,n1250_3
n1256,n1256_3
n1259,n1259_3
n1264,n1264_3
n1267,n1267_3
n1273,n1273_3
n1281,n1281_3
n1283,n1283_3
n1285,n1285_3
n1289,n1289_3
n1291,n1291_3
n1293,n1293_3
n1311,n1311_3
n1332,n1332_3
n1342,n1342_3
n1348,n1348_3
n1350,n1350_3
n1353,n1353_3
n1355,n1355_3
n1360,n1360_3
n1361,n1361_3
n1364,n1364_3
n1366,n1366_3
n1379,n1379_3
n1387,n1387_3
n1391,n1391_3
n1394,n1394_3
n1396,n1396_3
n1402,n1402_3
n1410,n1410_3
n1411,n1411_3
n1412,n1412_3
n1414,n1414_3
n1418,n1418_3
n1419,n1419_3
n1425,n1425_3
n1426,n1426_3
n1434,n1434_3
n1445,n1445_3
n1449,n1449_3
n1451,n1451_3
n1457,n1457_3
n1459,n1459_3
n1461,n1461_3
n1466,n1466_3
n1469,n1469_3
n1474,n1474_3
n1478,n1478_3
n1479,n1479_3
n1489,n1489_3
n1490,n1490_3
n1491,n1491_3
n1492,n1492_3
n1500,n1500_3
n1505,n1505_3
n1509,n1509_3
n1510,n1510_3
n1511,n1511_3
n1516,n1516_3
n1518,n1518_3
n1525,n1525_3
n1527,n1527_3
n1529,n1529_3
n1531,n1531_3
n1533,n1533_3
n1536,n1536_3
n1543,n1543_3
n1552,n1552_3
n1553,n1553_3
n1555,n1555_3
n1556,n1556_3
n1562,n1562_3
n1564,n1564_3
n1581,n1581_3
n1595,n1595_3
n1597,n1597_3
n1598,n1598_3
n1616,n1616_3
n1617,n1617_3
n1621,n1621_3
n1623,n1623_3
n1627,n1627_3
n1631,n1631_3
n1637,n1637_3
n1642,n1642_3
n1649,n1649_3
n1664,n1664_3
n1672,n1672_3
n1679,n1679_3
n1680,n1680_3
n1681,n1681_3
n1682,n1682_3
n1687,n1687_3
n1695,n1695_3
n1699,n1699_3
n1703,n1703_3
n1711,n1711_3
n1721,n1721_3
n1726,n1726_3
n1732,n1732_3
n1739,n1739_3
n1740,n1740_3
n1742,n1742_3
n1748,n1748_3
n1757,n1757_3
n1765,n1765_3
n1794,n1794_3
n1795,n1795_3
n1800,n1800_3
n1810,n1810_3
n1811,n1811_3
n1815,n1815_3
n1817,n1817_3
n1821,n1821_3
n1826,n1826_3
n1841,n1841_3
n1851,n1851_3
n1855,n1855_3
n1856,n1856_3
n1861,n1861_3
n1862,n1862_3
n1863,n1863_3
n1865,n1865_3
n1883,n1883_3
n1905,n1905_3
n1919,n1919_3
n1949,n1949_3
n1958,n1958_3
n1960,n1960_3
n1962,n1962_3
n1977,n1977_3
n1987,n1987_3
n1992,n1992_3
n1994,n1994_3
n1995,n1995_3
n1998,n1998_3
n2001,n2001_3
n2005,n2005_3
n2022,n2022_3
n2028,n2028_3
n2042,n2042_3
n2057,n2057_3
n2073,n2073_3
n2074,n2074_3
n2075,n2075_3
n2077,n2077_3
n2080,n2080_3
n2085,n2085_3
n2086,n2086_3
n2090,n2090_3
n2091,n2091_3
n2096,n2096_3
n2102,n2102_3
n2104,n2104_3
n2105,n2105_3
n2110,n2110_3
n2126,n2126_3
n2127,n2127_3
n2138,n2138_3
n2140,n2140_3
n2141,n2141_3
n2149,n2149_3
n2158,n2158_3
n2160,n2160_3
n2165,n2165_3
n2169,n2169_3
n2172,n2172_3
n2179,n2179_3
n2182,n2182_3
n2184,n2184_3
n2188,n2188_3
n2195,n2195_3
n2211,n2211_3
n2228,n2228_3
n2235,n2235_3
n2245,n2245_3
n2248,n2248_3
n2257,n2257_3
n2258,n2258_3
n2273,n2273_3
n2287,n2287_3
n2291,n2291_3
n2293,n2293_3
n2294,n2294_3
n2299,n2299_3
n2301,n2301_3
n2309,n2309_3
n2316,n2316_3
n2319,n2319_3
n2320,n2320_3
n2322,n2322_3
n2323,n2323_3
n2328,n2328_3
n2330,n2330_3
n2339,n2339_3
n2347,n2347_3
n2349,n2349_3
n2364,n2364_3
n2369,n2369_3
n2381,n2381_3
n2384,n2384_3
n2412,n2412_3
n2419,n2419_3
n2423,n2423_3
n2427,n2427_3
n2428,n2428_3
n2436,n2436_3
n2443,n2443_3
n2444,n2444_3
n2445,n2445_3
n2456,n2456_3
n2457,n2457_3
n2464,n2464_3
n2472,n2472_3
n2484,n2484_3
n2487,n2487_3
n2498,n2498_3
n2500,n2500_3
n2501,n2501_3
n2504,n2504_3
n2508,n2508_3
n2513,n2513_3
n2517,n2517_3
n2520,n2520_3
n2526,n2526_3
n2530,n2530_3
n2532,n2532_3
n2533,n2533_3
n2544,n2544_3
n2545,n2545_3
n2554,n2554_3
n2568,n2568_3
n2572,n2572_3
n2573,n2573_3
n2582,n2582_3
n2585,n2585_3
n2598,n2598_3
n2599,n2599_3
n2600,n2600_3
n2603,n2603_3
n2605,n2605_3
n2606,n2606_3
n2611,n2611_3
n2614,n2614_3
n2617,n2617_3
n2624,n2624_3
n2627,n2627_3
n2631,n2631_3
n2635,n2635_3
n2636,n2636_3
n2646,n2646_3
n2650,n2650_3
n2651,n2651_3
n2655,n2655_3
n2658,n2658_3
n2663,n2663_3
n2664,n2664_3
n2679,n2679_3
n2685,n2685_3
n2689,n2689_3
n2693,n2693_3
n2698,n2698_3
n2699,n2699_3
n2701,n2701_3
n2706,n2706_3
n2715,n2715_3
n2726,n2726_3
n2731,n2731_3
n2732,n2732_3
n2737,n2737_3
n2758,n2758_3
n2764,n2764_3
n2766,n2766_3
n2771,n2771_3
n2774,n2774_3
n2779,n2779_3
n2781,n2781_3
n2784,n2784_3
n2786,n2786_3
n2787,n2787_3
n2794,n2794_3
n2798,n2798_3
n2818,n2818_3
n2829,n2829_3
n2833,n2833_3
n2834,n2834_3
n2836,n2836_3
n2853,n2853_3
n2857,n2857_3
n2860,n2860_3
n2861,n2861_3
n2866,n2866_3
n2884,n2884_3
n2887,n2887_3
n2894,n2894_3
n2896,n2896_3
n2899,n2899_3
n2907,n2907_3
n2909,n2909_3
n2913,n2913_3
n2919,n2919_3
n2920,n2920_3
n2922,n2922_3
n2923,n2923_3
n2931,n2931_3
n2933,n2933_3
n2935,n2935_3
n2940,n2940_3
n2941,n2941_3
n2944,n2944_3
n2954,n2954_3
n2961,n2961_3
n2962,n2962_3
n2975,n2975_3
n2976,n2976_3
n2988,n2988_3
n2989,n2989_3
n3003,n3003_3
n3007,n3007_3
n3026,n3026_3
n3029,n3029_3
n3030,n3030_3
n3035,n3035_3
n3039,n3039_3
n3042,n3042_3
n3046,n3046_3
n3047,n3047_3
n3049,n3049_3
n3067,n3067_3
n3075,n3075_3
n3077,n3077_3
n3091,n3091_3
n3107,n3107_3
n3111,n3111_3
n3113,n3113_3
n3115,n3115_3
n3119,n3119_3
n3120,n3120_3
n3121,n3121_3
n3131,n3131_3
n3138,n3138_3
n3145,n3145_3
n3147,n3147_3
n3151,n3151_3
n3171,n3171_3
n3189,n3189_3
n3191,n3191_3
n3193,n3193_3
n3200,n3200_3
n3203,n3203_3
n3211,n3211_3
n3223,n3223_3
n3226,n3226_3
n3228,n3228_3
n3247,n3247_3
n3250,n3250_3
n3259,n3259_3
n3262,n3262_3
n3269,n3269_3
n3276,n3276_3
n3279,n3279_3
n3284,n3284_3
n3292,n3292_3
n3295,n3295_3
n3307,n3307_3
n3309,n3309_3
n3312,n3312_3
n3322,n3322_3
n3332,n3332_3
n3345,n3345_3
n3346,n3346_3
n3347,n3347_3
n3348,n3348_3
n3350,n3350_3
n3357,n3357_3
n3359,n3359_3
n3360,n3360_3
n3378,n3378_3
n3380,n3380_3
n3399,n3399_3
n3403,n3403_3
n3413,n3413_3
n3416,n3416_3
n3417,n3417_3
n3425,n3425_3
n3427,n3427_3
n3429,n3429_3
n3430,n3430_3
n3431,n3431_3
n3435,n3435_3
n3438,n3438_3
n3454,n3454_3
n3460,n3460_3
n3464,n3464_3
n3473,n3473_3
n3476,n3476_3
n3487,n3487_3
n3491,n3491_3
n3493,n3493_3
n3498,n3498_3
n3512,n3512_3
n3518,n3518_3
n3521,n3521_3
n3522,n3522_3
n3525,n3525_3
n3526,n3526_3
n3531,n3531_3
n3538,n3538_3
n3550,n3550_3
n3575,n3575_3
n3577,n3577_3
n3584,n3584_3
n3586,n3586_3
n3598,n3598_3
n3599,n3599_3
n3600,n3600_3
n3603,n3603_3
n3610,n3610_3
n3615,n3615_3
n3619,n3619_3
n3620,n3620_3
n3622,n3622_3
n3629,n3629_3
n3632,n3632_3
n3636,n3636_3
n3642,n3642_3
n3643,n3643_3
n3646,n3646_3
n3647,n3647_3
n3651,n3651_3
n3658,n3658_3
n3660,n3660_3
n3678,n3678_3
n3681,n3681_3
n3682,n3682_3
n3689,n3689_3
n3690,n3690_3
n3694,n3694_3
n3695,n3695_3
n3699,n3699_3
n3712,n3712_3
n3713,n3713_3
n3723,n3723_3
n3725,n3725_3
n3735,n3735_3
n3737,n3737_3
n3741,n3741_3
n3757,n3757_3
n3783,n3783_3
n3786,n3786_3
n3797,n3797_3
n3801,n3801_3
n3806,n3806_3
n3814,n3814_3
n3815,n3815_3
n3820,n3820_3
n3823,n3823_3
n3853,n3853_3
n3858,n3858_3
n3862,n3862_3
n3871,n3871_3
n3874,n3874_3
n3880,n3880_3
n3889,n3889_3
n3893,n3893_3
n3894,n3894_3
n3899,n3899_3
n3921,n3921_3
n3924,n3924_3
n3927,n3927_3
n3928,n3928_3
n3929,n3929_3
n3932,n3932_3
n3944,n3944_3
n3950,n3950_3
n3953,n3953_3
n3959,n3959_3
n3975,n3975_3
n3976,n3976_3
n3982,n3982_3
n3988,n3988_3
n3993,n3993_3
n3995,n3995_3
n3998,n3998_3
n4027,n4027_3
n4041,n4041_3
n4043,n4043_3
n4044,n4044_3
n4049,n4049_3
n4073,n4073_3
n4085,n4085_3
n4086,n4086_3
n4098,n4098_3
n4099,n4099_3
n4106,n4106_3
n4117,n4117_3
n4126,n4126_3
n4127,n4127_3
n4133,n4133_3
n4135,n4135_3
n4136,n4136_3
n4138,n4138_3
n4147,n4147_3
n4149,n4149_3
n4153,n4153_3
n4154,n4154_3
n4156,n4156_3
n4159,n4159_3
n4174,n4174_3
n4175,n4175_3
n4184,n4184_3
n4197,n4197_3
n4198,n4198_3
n4201,n4201_3
n4207,n4207_3
n4213,n4213_3
n4218,n4218_3
n4226,n4226_3
n4228,n4228_3
n4229,n4229_3
n4231,n4231_3
n4232,n4232_3
n4239,n4239_3
n4240,n4240_3
n4250,n4250_3
n4252,n4252_3
n4258,n4258_3
n4260,n4260_3
n4270,n4270_3
n4285,n4285_3
n4293,n4293_3
n4297,n4297_3
n4304,n4304_3
n4306,n4306_3
n4310,n4310_3
n4313,n4313_3
n4321,n4321_3
n4327,n4327_3
n4332,n4332_3
n4344,n4344_3
n4347,n4347_3
n4357,n4357_3
n4358,n4358_3
n4361,n4361_3
n4367,n4367_3
n4378,n4378_3
n4386,n4386_3
n4389,n4389_3
n4392,n4392_3
n4405,n4405_3
n4412,n4412_3
n4428,n4428_3
n4436,n4436_3
n4442,n4442_3
n4444,n4444_3
n4445,n4445_3
n4457,n4457_3
n4465,n4465_3
n4467,n4467_3
n4474,n4474_3
n4480,n4480_3
n4487,n4487_3
n4498,n4498_3
n4501,n4501_3
n4511,n4511_3
n4512,n4512_3
n4516,n4516_3
n4518,n4518_3
n4520,n4520_3
n4524,n4524_3
n4527,n4527_3
n4533,n4533_3
n4537,n4537_3
n4538,n4538_3
n4541,n4541_3
n4542,n4542_3
n4543,n4543_3
n4545,n4545_3
n4549,n4549_3
n4551,n4551_3
n4554,n4554_3
n4555,n4555_3
n4561,n4561_3
n4580,n4580_3
n4581,n4581_3
n4583,n4583_3
n4590,n4590_3
n4593,n4593_3
n4600,n4600_3
n4608,n4608_3
n4613,n4613_3
n4614,n4614_3
n4615,n4615_3
n4616,n4616_3
n4623,n4623_3
n4627,n4627_3
n4635,n4635_3
n4640,n4640_3
n4650,n4650_3
n4651,n4651_3
n4668,n4668_3
n4670,n4670_3
n4672,n4672_3
n4676,n4676_3
n4678,n4678_3
n4696,n4696_3
n4708,n4708_3
n4709,n4709_3
n4711,n4711_3
n4715,n4715_3
n4717,n4717_3
n4729,n4729_3
n4731,n4731_3
n4738,n4738_3
n4751,n4751_3
n4757,n4757_3
n4759,n4759_3
n4763,n4763_3
n4773,n4773_3
n4774,n4774_3
n4779,n4779_3
n4782,n4782_3
n4791,n4791_3
n4792,n4792_3
n4794,n4794_3
n4797,n4797_3
n4801,n4801_3
n4807,n4807_3
n4810,n4810_3
n4812,n4812_3
n4814,n4814_3
n4821,n4821_3
n4822,n4822_3
n4827,n4827_3
n4834,n4834_3
n4843,n4843_3
n4844,n4844_3
n4850,n4850_3
n4853,n4853_3
n4858,n4858_3
n4860,n4860_3
n4870,n4870_3
n4873,n4873_3
n4878,n4878_3
n4887,n4887_3
n4889,n4889_3
n4891,n4891_3
n4895,n4895_3
n4900,n4900_3
n4903,n4903_3
n4905,n4905_3
n4907,n4907_3
n4910,n4910_3
n4916,n4916_3
n4920,n4920_3
n4939,n4939_3
n4941,n4941_3
n4949,n4949_3
n4952,n4952_3
n4954,n4954_3
n4956,n4956_3
n4959,n4959_3
n4962,n4962_3
n4966,n4966_3
n4967,n4967_3
n4968,n4968_3
n4974,n4974_3
n4979,n4979_3
n4981,n4981_3
n4983,n4983_3
n4992,n4992_3
n4993,n4993_3
n5004,n5004_3
n5011,n5011_3
n5021,n5021_3
n5023,n5023_3
n5024,n5024_3
n5027,n5027_3
n5054,n5054_3
n5056,n5056_3
n5057,n5057_3
n5060,n5060_3
n5065,n5065_3
n5066,n5066_3
n5070,n5070_3
n5076,n5076_3
n5078,n5078_3
n5089,n5089_3
n5091,n5091_3
n5100,n5100_3
n5105,n5105_3
n5111,n5111_3
n5113,n5113_3
n5118,n5118_3
n5124,n5124_3
n5131,n5131_3
n5135,n5135_3
n5144,n5144_3
n5154,n5154_3
n5156,n5156_3
n5158,n5158_3
n5168,n5168_3
n5169,n5169_3
n5171,n5171_3
n5174,n5174_3
n5177,n5177_3
n5183,n5183_3
n5185,n5185_3
n5191,n5191_3
n5196,n5196_3
n5200,n5200_3
n5221,n5221_3
n5232,n5232_3
n5238,n5238_3
n5240,n5240_3
n5247,n5247_3
n5251,n5251_3
n5252,n5252_3
n5253,n5253_3
n5255,n5255_3
n5257,n5257_3
n5258,n5258_3
n5261,n5261_3
n5268,n5268_3
n5276,n5276_3
n5282,n5282_3
n5283,n5283_3
n5284,n5284_3
n5288,n5288_3
n5300,n5300_3
n5303,n5303_3
n5326,n5326_3
n5327,n5327_3
n5342,n5342_3
n5349,n5349_3
n5351,n5351_3
n5364,n5364_3
n5365,n5365_3
n5366,n5366_3
n5368,n5368_3
n5378,n5378_3
n5380,n5380_3
n5384,n5384_3
n5386,n5386_3
n5391,n5391_3
n5395,n5395_3
n5400,n5400_3
n5406,n5406_3
n5408,n5408_3
n5412,n5412_3
n5420,n5420_3
n5427,n5427_3
n5433,n5433_3
n5440,n5440_3
n5459,n5459_3
n5468,n5468_3
n5474,n5474_3
n5496,n5496_3
n5499,n5499_3
n5500,n5500_3
n5508,n5508_3
n5517,n5517_3
n5522,n5522_3
n5523,n5523_3
n5527,n5527_3
n5529,n5529_3
n5539,n5539_3
n5540,n5540_3
n5544,n5544_3
n5547,n5547_3
n5549,n5549_3
n5566,n5566_3
n5573,n5573_3
n5579,n5579_3
n5580,n5580_3
n5586,n5586_3
n5596,n5596_3
n5598,n5598_3
n5601,n5601_3
n5606,n5606_3
n5615,n5615_3
n5623,n5623_3
n5624,n5624_3
n5627,n5627_3
n5628,n5628_3
n5636,n5636_3
n5638,n5638_3
n5642,n5642_3
n5648,n5648_3
n5650,n5650_3
n5655,n5655_3
n5657,n5657_3
n5658,n5658_3
n5659,n5659_3
n5664,n5664_3
n5666,n5666_3
n5673,n5673_3
n5678,n5678_3
n5685,n5685_3
n5697,n5697_3
n5700,n5700_3
n5706,n5706_3
n5707,n5707_3
n5709,n5709_3
n5721,n5721_3
n5722,n5722_3
n5727,n5727_3
n5729,n5729_3
n5730,n5730_3
n5733,n5733_3
n5734,n5734_3
n5750,n5750_3
n5752,n5752_3
n5767,n5767_3
n5772,n5772_3
n5774,n5774_3
n5779,n5779_3
n5784,n5784_3
n5791,n5791_3
n5795,n5795_3
n5805,n5805_3
n5811,n5811_3
n5814,n5814_3
n5818,n5818_3
n5819,n5819_3
n5825,n5825_3
n5828,n5828_3
n5831,n5831_3
n5833,n5833_3
n5837,n5837_3
n5839,n5839_3
n5847,n5847_3
n5858,n5858_3
n5875,n5875_3
n5876,n5876_3
n5883,n5883_3
n5891,n5891_3
n5893,n5893_3
n5895,n5895_3
n5896,n5896_3
n5905,n5905_3
n5908,n5908_3
n5915,n5915_3
n5916,n5916_3
n5918,n5918_3
n5923,n5923_3
n5934,n5934_3
n5937,n5937_3
n5941,n5941_3
n5944,n5944_3
n5946,n5946_3
n5950,n5950_3
n5957,n5957_3
n5964,n5964_3
n5970,n5970_3
n5971,n5971_3
n5976,n5976_3
n5982,n5982_3
n5987,n5987_3
n5990,n5990_3
n5994,n5994_3
n5998,n5998_3
n6000,n6000_3
n6004,n6004_3
n6012,n6012_3
n6013,n6013_3
n6016,n6016_3
n6018,n6018_3
n6027,n6027_3
n6036,n6036_3
n6047,n6047_3
n6048,n6048_3
n6053,n6053_3
n6055,n6055_3
n6074,n6074_3
n6077,n6077_3
n6080,n6080_3
n6082,n6082_3
n6083,n6083_3
n6087,n6087_3
n6093,n6093_3
n6117,n6117_3
n6119,n6119_3
n6128,n6128_3
n6130,n6130_3
n6132,n6132_3
n6136,n6136_3
n6160,n6160_3
n6161,n6161_3
n6162,n6162_3
n6163,n6163_3
n6164,n6164_3
n6165,n6165_3
n6167,n6167_3
n6168,n6168_3
n6181,n6181_3
n6193,n6193_3
n6199,n6199_3
n6203,n6203_3
n6208,n6208_3
n6223,n6223_3
n6224,n6224_3
n6226,n6226_3
n6237,n6237_3
n6240,n6240_3
n6242,n6242_3
n6260,n6260_3
n6262,n6262_3
n6264,n6264_3
n6273,n6273_3
n6276,n6276_3
n6283,n6283_3
n6284,n6284_3
n6288,n6288_3
n6292,n6292_3
n6296,n6296_3
n6304,n6304_3
n6314,n6314_3
n6326,n6326_3
n6329,n6329_3
n6333,n6333_3
n6335,n6335_3
n6339,n6339_3
n6353,n6353_3
n6356,n6356_3
n6358,n6358_3
n6361,n6361_3
n6362,n6362_3
n6367,n6367_3
n6369,n6369_3
n6371,n6371_3
n6372,n6372_3
n6373,n6373_3
n6381,n6381_3
n6389,n6389_3
n6391,n6391_3
n6393,n6393_3
n6395,n6395_3
n6399,n6399_3
n6404,n6404_3
n6408,n6408_3
n6411,n6411_3
n6413,n6413_3
n6415,n6415_3
n6418,n6418_3
n6423,n6423_3
n6428,n6428_3
n6436,n6436_3
n6441,n6441_3
n6442,n6442_3
n6444,n6444_3
n6455,n6455_3
n6456,n6456_3
n6459,n6459_3
n6462,n6462_3
n6479,n6479_3
n6480,n6480_3
n6486,n6486_3
n6490,n6490_3
n6492,n6492_3
n6493,n6493_3
n6497,n6497_3
n6500,n6500_3
n6504,n6504_3
n6508,n6508_3
n6513,n6513_3
n6528,n6528_3
n6529,n6529_3
n6533,n6533_3
n6535,n6535_3
n6544,n6544_3
n6545,n6545_3
n6546,n6546_3
n6550,n6550_3
n6560,n6560_3
n6568,n6568_3
n6569,n6569_3
n6572,n6572_3
n6579,n6579_3
n6581,n6581_3
n6585,n6585_3
n6591,n6591_3
n6593,n6593_3
n6595,n6595_3
n6596,n6596_3
n6604,n6604_3
n6620,n6620_3
n6624,n6624_3
n6630,n6630_3
n6633,n6633_3
n6637,n6637_3
n6639,n6639_3
n6640,n6640_3
n6650,n6650_3
n6651,n6651_3
n6659,n6659_3
n6663,n6663_3
n6665,n6665_3
n6666,n6666_3
n6675,n6675_3
n6681,n6681_3
n6683,n6683_3
n6692,n6692_3
n6700,n6700_3
n6701,n6701_3
n6705,n6705_3
n6707,n6707_3
n6717,n6717_3
n6727,n6727_3
n6728,n6728_3
n6729,n6729_3
n6737,n6737_3
n6743,n6743_3
n6745,n6745_3
n6751,n6751_3
n6758,n6758_3
n6770,n6770_3
n6778,n6778_3
n6782,n6782_3
n6793,n6793_3
n6803,n6803_3
n6809,n6809_3
n6812,n6812_3
n6816,n6816_3
n6819,n6819_3
n6826,n6826_3
n6828,n6828_3
n6829,n6829_3
n6839,n6839_3
n6851,n6851_3
n6852,n6852_3
n6859,n6859_3
n6863,n6863_3
n6865,n6865_3
n6870,n6870_3
n6872,n6872_3
n6884,n6884_3
n6888,n6888_3
n6891,n6891_3
n6895,n6895_3
n6897,n6897_3
n6899,n6899_3
n6902,n6902_3
n6903,n6903_3
n6906,n6906_3
n6908,n6908_3
n6911,n6911_3
n6912,n6912_3
n6915,n6915_3
n6920,n6920_3
n6922,n6922_3
n6938,n6938_3
n6946,n6946_3
n6960,n6960_3
n6966,n6966_3
n6969,n6969_3
n6972,n6972_3
n6978,n6978_3
n6985,n6985_3
n6987,n6987_3
n6996,n6996_3
n6999,n6999_3
n7000,n7000_3
n7004,n7004_3
n7010,n7010_3
n7012,n7012_3
n7016,n7016_3
n7021,n7021_3
n7025,n7025_3
n7029,n7029_3
n7035,n7035_3
n7048,n7048_3
n7049,n7049_3
n7062,n7062_3
n7066,n7066_3
n7070,n7070_3
n7072,n7072_3
n7076,n7076_3
n7078,n7078_3
n7082,n7082_3
n7088,n7088_3
n7092,n7092_3
n7093,n7093_3
n7096,n7096_3
