n4926_3_1_1,n4926_3_1_1_15
n4927_3_1_1,n4927_3_1_1_13
n4928_3_1_1,n4928_3_1_1_8
n4929_3_1_1,n4929_3_1_1_7
n4930_3_1_1,n4930_3_1_1_11
n4931_3_1_1,n4931_3_1_1_9
n4932_3_1_1,n4932_3_1_1_10
n4933_3_1_1,n4933_3_1_1_6
n4934_3_1_1,n4934_3_1_1_17
n4935_3_1_1,n4935_3_1_1_9
n4936_3_1_1,n4936_3_1_1_14
n4937_3_1_1,n4937_3_1_1_6
n4938_3_1_1,n4938_3_1_1_6
n4939_3_1_1,n4939_3_1_1_10
n4940_3_1_1,n4940_3_1_1_27
n4941_3_1_1,n4941_3_1_1_16
n4942_3_1_1,n4942_3_1_1_17
n4943_3_1_1,n4943_3_1_1_9
n4944_3_1_1,n4944_3_1_1_14
n4945_3_1_1,n4945_3_1_1_6
n4946_3_1_1,n4946_3_1_1_10
n4947_3_1_1,n4947_3_1_1_6
n4948_3_1_1,n4948_3_1_1_21
n4949_3_1_1,n4949_3_1_1_9
n4950_3_1_1,n4950_3_1_1_15
n4951_3_1_1,n4951_3_1_1_10
n4952_3_1_1,n4952_3_1_1_8
n4953_3_1_1,n4953_3_1_1_8
n4954_3_1_1,n4954_3_1_1_6
n4955_3_1_1,n4955_3_1_1_7
n4956_3_1_1,n4956_3_1_1_7
n4957_3_1_1,n4957_3_1_1_8
n4958_3_1_1,n4958_3_1_1_9
n4959_3_1_1,n4959_3_1_1_11
n4960_3_1_1,n4960_3_1_1_10
n4961_3_1_1,n4961_3_1_1_8
n4962_3_1_1,n4962_3_1_1_11
n4963_3_1_1,n4963_3_1_1_7
n4964_3_1_1,n4964_3_1_1_9
n4965_3_1_1,n4965_3_1_1_7
n4966_3_1_1,n4966_3_1_1_8
n4967_3_1_1,n4967_3_1_1_20
n4968_3_1_1,n4968_3_1_1_31
n4969_3_1_1,n4969_3_1_1_8
n4970_3_1_1,n4970_3_1_1_10
n4971_3_1_1,n4971_3_1_1_8
n4972_3_1_1,n4972_3_1_1_5
n4973_3_1_1,n4973_3_1_1_8
n4974_3_1_1,n4974_3_1_1_8
n4975_3_1_1,n4975_3_1_1_18
n4976_3_1_1,n4976_3_1_1_13
n4977_3_1_1,n4977_3_1_1_9
n4978_3_1_1,n4978_3_1_1_7
n4979_3_1_1,n4979_3_1_1_18
n4980_3_1_1,n4980_3_1_1_16
n4981_3_1_1,n4981_3_1_1_9
n4982_3_1_1,n4982_3_1_1_10
n4983_3_1_1,n4983_3_1_1_8
n4984_3_1_1,n4984_3_1_1_11
n4985_3_1_1,n4985_3_1_1_10
n4986_3_1_1,n4986_3_1_1_6
n4987_3_1_1,n4987_3_1_1_8
n4988_3_1_1,n4988_3_1_1_8
n4989_3_1_1,n4989_3_1_1_8
n4990_3_1_1,n4990_3_1_1_7
n4991_3_1_1,n4991_3_1_1_8
n4992_3_1_1,n4992_3_1_1_9
n4993_3_1_1,n4993_3_1_1_10
n4994_3_1_1,n4994_3_1_1_7
n4995_3_1_1,n4995_3_1_1_23
n4996_3_1_1,n4996_3_1_1_29
n4997_3_1_1,n4997_3_1_1_10
n4998_3_1_1,n4998_3_1_1_14
n4999_3_1_1,n4999_3_1_1_29
n5000_3_1_1,n5000_3_1_1_7
n5001_3_1_1,n5001_3_1_1_7
n5002_3_1_1,n5002_3_1_1_5
n5003_3_1_1,n5003_3_1_1_7
n5004_3_1_1,n5004_3_1_1_10
n5005_3_1_1,n5005_3_1_1_7
n5006_3_1_1,n5006_3_1_1_19
n5007_3_1_1,n5007_3_1_1_9
n5008_3_1_1,n5008_3_1_1_8
n5009_3_1_1,n5009_3_1_1_8
n5010_3_1_1,n5010_3_1_1_6
n5011_3_1_1,n5011_3_1_1_7
n5012_3_1_1,n5012_3_1_1_6
n5013_3_1_1,n5013_3_1_1_8
n5014_3_1_1,n5014_3_1_1_17
n5015_3_1_1,n5015_3_1_1_9
n5016_3_1_1,n5016_3_1_1_14
n5017_3_1_1,n5017_3_1_1_7
n5018_3_1_1,n5018_3_1_1_6
n5019_3_1_1,n5019_3_1_1_15
n5020_3_1_1,n5020_3_1_1_10
n5021_3_1_1,n5021_3_1_1_5
n5022_3_1_1,n5022_3_1_1_13
n5023_3_1_1,n5023_3_1_1_7
n5024_3_1_1,n5024_3_1_1_22
n5025_3_1_1,n5025_3_1_1_28
n5026_3_1_1,n5026_3_1_1_15
n5027_3_1_1,n5027_3_1_1_12
n5028_3_1_1,n5028_3_1_1_12
n5029_3_1_1,n5029_3_1_1_7
n5030_3_1_1,n5030_3_1_1_25
n5031_3_1_1,n5031_3_1_1_12
n5032_3_1_1,n5032_3_1_1_9
n5033_3_1_1,n5033_3_1_1_8
n5034_3_1_1,n5034_3_1_1_12
n5035_3_1_1,n5035_3_1_1_14
n5036_3_1_1,n5036_3_1_1_8
n5037_3_1_1,n5037_3_1_1_15
n5038_3_1_1,n5038_3_1_1_8
n5039_3_1_1,n5039_3_1_1_30
n5040_3_1_1,n5040_3_1_1_6
n5041_3_1_1,n5041_3_1_1_19
n5042_3_1_1,n5042_3_1_1_12
n5043_3_1_1,n5043_3_1_1_9
n5044_3_1_1,n5044_3_1_1_14
n5045_3_1_1,n5045_3_1_1_8
n5046_3_1_1,n5046_3_1_1_8
n5047_3_1_1,n5047_3_1_1_9
n5048_3_1_1,n5048_3_1_1_12
n5049_3_1_1,n5049_3_1_1_7
n5050_3_1_1,n5050_3_1_1_13
n5051_3_1_1,n5051_3_1_1_12
n5052_3_1_1,n5052_3_1_1_13
n5053_3_1_1,n5053_3_1_1_14
n5054_3_1_1,n5054_3_1_1_8
n5055_3_1_1,n5055_3_1_1_24
n5056_3_1_1,n5056_3_1_1_7
n5057_3_1_1,n5057_3_1_1_17
n5058_3_1_1,n5058_3_1_1_12
n5059_3_1_1,n5059_3_1_1_12
n5060_3_1_1,n5060_3_1_1_7
n5061_3_1_1,n5061_3_1_1_15
n5062_3_1_1,n5062_3_1_1_9
n5063_3_1_1,n5063_3_1_1_11
n5064_3_1_1,n5064_3_1_1_9
n5065_3_1_1,n5065_3_1_1_27
n5066_3_1_1,n5066_3_1_1_7
n5067_3_1_1,n5067_3_1_1_7
n5068_3_1_1,n5068_3_1_1_7
n5069_3_1_1,n5069_3_1_1_6
n5070_3_1_1,n5070_3_1_1_12
n5071_3_1_1,n5071_3_1_1_7
n5072_3_1_1,n5072_3_1_1_12
n5073_3_1_1,n5073_3_1_1_6
n5074_3_1_1,n5074_3_1_1_5
n5075_3_1_1,n5075_3_1_1_11
n5076_3_1_1,n5076_3_1_1_8
n5077_3_1_1,n5077_3_1_1_7
n5078_3_1_1,n5078_3_1_1_8
n5079_3_1_1,n5079_3_1_1_10
n5080_3_1_1,n5080_3_1_1_12
n5081_3_1_1,n5081_3_1_1_8
n5082_3_1_1,n5082_3_1_1_14
n5083_3_1_1,n5083_3_1_1_28
n5084_3_1_1,n5084_3_1_1_9
n5085_3_1_1,n5085_3_1_1_6
n5086_3_1_1,n5086_3_1_1_24
n5087_3_1_1,n5087_3_1_1_9
n5088_3_1_1,n5088_3_1_1_9
n5089_3_1_1,n5089_3_1_1_15
n5090_3_1_1,n5090_3_1_1_11
n5091_3_1_1,n5091_3_1_1_19
n5092_3_1_1,n5092_3_1_1_19
n5093_3_1_1,n5093_3_1_1_10
n5094_3_1_1,n5094_3_1_1_8
n5095_3_1_1,n5095_3_1_1_11
n5096_3_1_1,n5096_3_1_1_9
n5097_3_1_1,n5097_3_1_1_14
n5098_3_1_1,n5098_3_1_1_8
n5099_3_1_1,n5099_3_1_1_11
n5100_3_1_1,n5100_3_1_1_10
n5101_3_1_1,n5101_3_1_1_13
n5102_3_1_1,n5102_3_1_1_14
n5103_3_1_1,n5103_3_1_1_14
n5104_3_1_1,n5104_3_1_1_6
n5105_3_1_1,n5105_3_1_1_20
n5106_3_1_1,n5106_3_1_1_10
n5107_3_1_1,n5107_3_1_1_14
n5108_3_1_1,n5108_3_1_1_13
n5109_3_1_1,n5109_3_1_1_17
n5110_3_1_1,n5110_3_1_1_11
n5111_3_1_1,n5111_3_1_1_5
n5112_3_1_1,n5112_3_1_1_12
n5113_3_1_1,n5113_3_1_1_15
n5114_3_1_1,n5114_3_1_1_7
n5115_3_1_1,n5115_3_1_1_9
n5116_3_1_1,n5116_3_1_1_10
n5117_3_1_1,n5117_3_1_1_9
n5118_3_1_1,n5118_3_1_1_17
n5119_3_1_1,n5119_3_1_1_7
n5120_3_1_1,n5120_3_1_1_7
n5121_3_1_1,n5121_3_1_1_8
n5122_3_1_1,n5122_3_1_1_9
n5123_3_1_1,n5123_3_1_1_9
n5124_3_1_1,n5124_3_1_1_10
n5125_3_1_1,n5125_3_1_1_7
n5126_3_1_1,n5126_3_1_1_11
n5127_3_1_1,n5127_3_1_1_7
n5128_3_1_1,n5128_3_1_1_6
n5129_3_1_1,n5129_3_1_1_10
n5130_3_1_1,n5130_3_1_1_10
n5131_3_1_1,n5131_3_1_1_22
n5132_3_1_1,n5132_3_1_1_6
n5133_3_1_1,n5133_3_1_1_18
n5134_3_1_1,n5134_3_1_1_15
n5135_3_1_1,n5135_3_1_1_12
n5136_3_1_1,n5136_3_1_1_20
n5137_3_1_1,n5137_3_1_1_15
n5138_3_1_1,n5138_3_1_1_8
n5139_3_1_1,n5139_3_1_1_8
n5140_3_1_1,n5140_3_1_1_16
n5141_3_1_1,n5141_3_1_1_20
n5142_3_1_1,n5142_3_1_1_8
n5143_3_1_1,n5143_3_1_1_11
n5144_3_1_1,n5144_3_1_1_6
n5145_3_1_1,n5145_3_1_1_10
n5146_3_1_1,n5146_3_1_1_13
n5147_3_1_1,n5147_3_1_1_6
n5148_3_1_1,n5148_3_1_1_7
n5149_3_1_1,n5149_3_1_1_18
n5150_3_1_1,n5150_3_1_1_11
n5151_3_1_1,n5151_3_1_1_8
n5152_3_1_1,n5152_3_1_1_15
n5153_3_1_1,n5153_3_1_1_7
n5154_3_1_1,n5154_3_1_1_6
n5155_3_1_1,n5155_3_1_1_9
n5156_3_1_1,n5156_3_1_1_8
n5157_3_1_1,n5157_3_1_1_10
n5158_3_1_1,n5158_3_1_1_7
n5159_3_1_1,n5159_3_1_1_12
n5160_3_1_1,n5160_3_1_1_26
n5161_3_1_1,n5161_3_1_1_13
n5162_3_1_1,n5162_3_1_1_17
n5163_3_1_1,n5163_3_1_1_7
n5164_3_1_1,n5164_3_1_1_11
n5165_3_1_1,n5165_3_1_1_10
n5166_3_1_1,n5166_3_1_1_15
n5167_3_1_1,n5167_3_1_1_14
n5168_3_1_1,n5168_3_1_1_22
n5169_3_1_1,n5169_3_1_1_17
n5170_3_1_1,n5170_3_1_1_20
n5171_3_1_1,n5171_3_1_1_7
n5172_3_1_1,n5172_3_1_1_8
n5173_3_1_1,n5173_3_1_1_7
n5174_3_1_1,n5174_3_1_1_12
n5175_3_1_1,n5175_3_1_1_8
n5176_3_1_1,n5176_3_1_1_8
n5177_3_1_1,n5177_3_1_1_9
n5178_3_1_1,n5178_3_1_1_11
n5179_3_1_1,n5179_3_1_1_10
n5180_3_1_1,n5180_3_1_1_12
n5181_3_1_1,n5181_3_1_1_11
n5182_3_1_1,n5182_3_1_1_7
n5183_3_1_1,n5183_3_1_1_10
n5184_3_1_1,n5184_3_1_1_7
n5185_3_1_1,n5185_3_1_1_5
n5186_3_1_1,n5186_3_1_1_13
n5187_3_1_1,n5187_3_1_1_7
n5188_3_1_1,n5188_3_1_1_13
n5189_3_1_1,n5189_3_1_1_10
n5190_3_1_1,n5190_3_1_1_7
n5191_3_1_1,n5191_3_1_1_30
n5192_3_1_1,n5192_3_1_1_14
n5193_3_1_1,n5193_3_1_1_22
n5194_3_1_1,n5194_3_1_1_6
n5195_3_1_1,n5195_3_1_1_15
n5196_3_1_1,n5196_3_1_1_8
n5197_3_1_1,n5197_3_1_1_9
n5198_3_1_1,n5198_3_1_1_13
n5199_3_1_1,n5199_3_1_1_7
n5200_3_1_1,n5200_3_1_1_7
n5201_3_1_1,n5201_3_1_1_8
n5202_3_1_1,n5202_3_1_1_11
n5203_3_1_1,n5203_3_1_1_7
n5204_3_1_1,n5204_3_1_1_13
n5205_3_1_1,n5205_3_1_1_8
n5206_3_1_1,n5206_3_1_1_9
n5207_3_1_1,n5207_3_1_1_9
n5208_3_1_1,n5208_3_1_1_5
n5209_3_1_1,n5209_3_1_1_11
n5210_3_1_1,n5210_3_1_1_8
n5211_3_1_1,n5211_3_1_1_9
n5212_3_1_1,n5212_3_1_1_10
n5213_3_1_1,n5213_3_1_1_8
n5214_3_1_1,n5214_3_1_1_6
n5215_3_1_1,n5215_3_1_1_6
n5216_3_1_1,n5216_3_1_1_11
n5217_3_1_1,n5217_3_1_1_15
n5218_3_1_1,n5218_3_1_1_12
n5219_3_1_1,n5219_3_1_1_12
n5220_3_1_1,n5220_3_1_1_7
n5221_3_1_1,n5221_3_1_1_10
n5222_3_1_1,n5222_3_1_1_18
n5223_3_1_1,n5223_3_1_1_7
n5224_3_1_1,n5224_3_1_1_28
n5225_3_1_1,n5225_3_1_1_7
n5226_3_1_1,n5226_3_1_1_13
n5227_3_1_1,n5227_3_1_1_7
n5228_3_1_1,n5228_3_1_1_12
n5229_3_1_1,n5229_3_1_1_7
n5230_3_1_1,n5230_3_1_1_15
n5231_3_1_1,n5231_3_1_1_9
n5232_3_1_1,n5232_3_1_1_16
n5233_3_1_1,n5233_3_1_1_12
n5234_3_1_1,n5234_3_1_1_13
n5235_3_1_1,n5235_3_1_1_12
n5236_3_1_1,n5236_3_1_1_6
n5237_3_1_1,n5237_3_1_1_13
n5238_3_1_1,n5238_3_1_1_11
n5239_3_1_1,n5239_3_1_1_7
n5240_3_1_1,n5240_3_1_1_12
n5241_3_1_1,n5241_3_1_1_7
n5242_3_1_1,n5242_3_1_1_23
n5243_3_1_1,n5243_3_1_1_8
n5244_3_1_1,n5244_3_1_1_9
n5245_3_1_1,n5245_3_1_1_6
n5246_3_1_1,n5246_3_1_1_10
n5247_3_1_1,n5247_3_1_1_13
n5248_3_1_1,n5248_3_1_1_8
n5249_3_1_1,n5249_3_1_1_6
n5250_3_1_1,n5250_3_1_1_6
n5251_3_1_1,n5251_3_1_1_7
n5252_3_1_1,n5252_3_1_1_8
n5253_3_1_1,n5253_3_1_1_9
n5254_3_1_1,n5254_3_1_1_8
n5255_3_1_1,n5255_3_1_1_6
n5256_3_1_1,n5256_3_1_1_9
n5257_3_1_1,n5257_3_1_1_13
n5258_3_1_1,n5258_3_1_1_12
n5259_3_1_1,n5259_3_1_1_8
n5260_3_1_1,n5260_3_1_1_8
n5261_3_1_1,n5261_3_1_1_5
n5262_3_1_1,n5262_3_1_1_19
n5263_3_1_1,n5263_3_1_1_17
n5264_3_1_1,n5264_3_1_1_15
n5265_3_1_1,n5265_3_1_1_9
n5266_3_1_1,n5266_3_1_1_5
n5267_3_1_1,n5267_3_1_1_9
n5268_3_1_1,n5268_3_1_1_15
n5269_3_1_1,n5269_3_1_1_8
n5270_3_1_1,n5270_3_1_1_14
n5271_3_1_1,n5271_3_1_1_11
n5272_3_1_1,n5272_3_1_1_13
n5273_3_1_1,n5273_3_1_1_12
n5274_3_1_1,n5274_3_1_1_6
n5275_3_1_1,n5275_3_1_1_15
n5276_3_1_1,n5276_3_1_1_10
n5277_3_1_1,n5277_3_1_1_23
n5278_3_1_1,n5278_3_1_1_5
n5279_3_1_1,n5279_3_1_1_5
n5280_3_1_1,n5280_3_1_1_11
n5281_3_1_1,n5281_3_1_1_9
n5282_3_1_1,n5282_3_1_1_12
n5283_3_1_1,n5283_3_1_1_10
n5284_3_1_1,n5284_3_1_1_8
n5285_3_1_1,n5285_3_1_1_10
n5286_3_1_1,n5286_3_1_1_22
n5287_3_1_1,n5287_3_1_1_8
n5288_3_1_1,n5288_3_1_1_8
n5289_3_1_1,n5289_3_1_1_9
n5290_3_1_1,n5290_3_1_1_7
n5291_3_1_1,n5291_3_1_1_7
n5292_3_1_1,n5292_3_1_1_17
n5293_3_1_1,n5293_3_1_1_9
n5294_3_1_1,n5294_3_1_1_9
n5295_3_1_1,n5295_3_1_1_7
n5296_3_1_1,n5296_3_1_1_6
n5297_3_1_1,n5297_3_1_1_14
n5298_3_1_1,n5298_3_1_1_11
n5299_3_1_1,n5299_3_1_1_9
n5300_3_1_1,n5300_3_1_1_22
n5301_3_1_1,n5301_3_1_1_7
n5302_3_1_1,n5302_3_1_1_18
n5303_3_1_1,n5303_3_1_1_8
n5304_3_1_1,n5304_3_1_1_18
n5305_3_1_1,n5305_3_1_1_15
n5306_3_1_1,n5306_3_1_1_8
n5307_3_1_1,n5307_3_1_1_9
n5308_3_1_1,n5308_3_1_1_6
n5309_3_1_1,n5309_3_1_1_10
n5310_3_1_1,n5310_3_1_1_12
n5311_3_1_1,n5311_3_1_1_9
n5312_3_1_1,n5312_3_1_1_10
n5313_3_1_1,n5313_3_1_1_8
n5314_3_1_1,n5314_3_1_1_5
n5315_3_1_1,n5315_3_1_1_14
n5316_3_1_1,n5316_3_1_1_6
n5317_3_1_1,n5317_3_1_1_9
n5318_3_1_1,n5318_3_1_1_13
n5319_3_1_1,n5319_3_1_1_9
n5320_3_1_1,n5320_3_1_1_7
n5321_3_1_1,n5321_3_1_1_7
n5322_3_1_1,n5322_3_1_1_12
n5323_3_1_1,n5323_3_1_1_15
n5324_3_1_1,n5324_3_1_1_5
n5325_3_1_1,n5325_3_1_1_8
n5326_3_1_1,n5326_3_1_1_6
n5327_3_1_1,n5327_3_1_1_5
n5328_3_1_1,n5328_3_1_1_9
n5329_3_1_1,n5329_3_1_1_10
n5330_3_1_1,n5330_3_1_1_10
n5331_3_1_1,n5331_3_1_1_8
n5332_3_1_1,n5332_3_1_1_16
n5333_3_1_1,n5333_3_1_1_8
n5334_3_1_1,n5334_3_1_1_14
n5335_3_1_1,n5335_3_1_1_8
n5336_3_1_1,n5336_3_1_1_13
n5337_3_1_1,n5337_3_1_1_7
n5338_3_1_1,n5338_3_1_1_15
n5339_3_1_1,n5339_3_1_1_7
n5340_3_1_1,n5340_3_1_1_10
n5341_3_1_1,n5341_3_1_1_16
n5342_3_1_1,n5342_3_1_1_10
n5343_3_1_1,n5343_3_1_1_29
n5344_3_1_1,n5344_3_1_1_9
n5345_3_1_1,n5345_3_1_1_9
n5346_3_1_1,n5346_3_1_1_8
n5347_3_1_1,n5347_3_1_1_11
n5348_3_1_1,n5348_3_1_1_12
n5349_3_1_1,n5349_3_1_1_18
n5350_3_1_1,n5350_3_1_1_7
n5351_3_1_1,n5351_3_1_1_10
n5352_3_1_1,n5352_3_1_1_9
n5353_3_1_1,n5353_3_1_1_13
n5354_3_1_1,n5354_3_1_1_14
n5355_3_1_1,n5355_3_1_1_25
n5356_3_1_1,n5356_3_1_1_9
n5357_3_1_1,n5357_3_1_1_15
n5358_3_1_1,n5358_3_1_1_14
n5359_3_1_1,n5359_3_1_1_24
n5360_3_1_1,n5360_3_1_1_18
n5361_3_1_1,n5361_3_1_1_16
n5362_3_1_1,n5362_3_1_1_14
n5363_3_1_1,n5363_3_1_1_7
n5364_3_1_1,n5364_3_1_1_6
n5365_3_1_1,n5365_3_1_1_7
n5366_3_1_1,n5366_3_1_1_6
n5367_3_1_1,n5367_3_1_1_11
n5368_3_1_1,n5368_3_1_1_18
n5369_3_1_1,n5369_3_1_1_41
n5370_3_1_1,n5370_3_1_1_11
n5371_3_1_1,n5371_3_1_1_6
n5372_3_1_1,n5372_3_1_1_5
n5373_3_1_1,n5373_3_1_1_6
n5374_3_1_1,n5374_3_1_1_11
n5375_3_1_1,n5375_3_1_1_12
n5376_3_1_1,n5376_3_1_1_7
n5377_3_1_1,n5377_3_1_1_7
n5378_3_1_1,n5378_3_1_1_10
n5379_3_1_1,n5379_3_1_1_7
n5380_3_1_1,n5380_3_1_1_10
n5381_3_1_1,n5381_3_1_1_13
n5382_3_1_1,n5382_3_1_1_6
n5383_3_1_1,n5383_3_1_1_13
n5384_3_1_1,n5384_3_1_1_9
n5385_3_1_1,n5385_3_1_1_9
n5386_3_1_1,n5386_3_1_1_8
n5387_3_1_1,n5387_3_1_1_18
n5388_3_1_1,n5388_3_1_1_14
n5389_3_1_1,n5389_3_1_1_8
n5390_3_1_1,n5390_3_1_1_5
n5391_3_1_1,n5391_3_1_1_18
n5392_3_1_1,n5392_3_1_1_12
n5393_3_1_1,n5393_3_1_1_7
n5394_3_1_1,n5394_3_1_1_8
n5395_3_1_1,n5395_3_1_1_7
n5396_3_1_1,n5396_3_1_1_10
n5397_3_1_1,n5397_3_1_1_10
n5398_3_1_1,n5398_3_1_1_13
n5399_3_1_1,n5399_3_1_1_10
n5400_3_1_1,n5400_3_1_1_10
n5401_3_1_1,n5401_3_1_1_7
n5402_3_1_1,n5402_3_1_1_17
n5403_3_1_1,n5403_3_1_1_9
n5404_3_1_1,n5404_3_1_1_15
n5405_3_1_1,n5405_3_1_1_9
n5406_3_1_1,n5406_3_1_1_11
n5407_3_1_1,n5407_3_1_1_28
n5408_3_1_1,n5408_3_1_1_9
n5409_3_1_1,n5409_3_1_1_8
n5410_3_1_1,n5410_3_1_1_10
n5411_3_1_1,n5411_3_1_1_27
n5412_3_1_1,n5412_3_1_1_11
n5413_3_1_1,n5413_3_1_1_12
n5414_3_1_1,n5414_3_1_1_8
n5415_3_1_1,n5415_3_1_1_6
n5416_3_1_1,n5416_3_1_1_9
n5417_3_1_1,n5417_3_1_1_6
n5418_3_1_1,n5418_3_1_1_8
n5419_3_1_1,n5419_3_1_1_9
n5420_3_1_1,n5420_3_1_1_17
n5421_3_1_1,n5421_3_1_1_6
n5422_3_1_1,n5422_3_1_1_12
n5423_3_1_1,n5423_3_1_1_8
n5424_3_1_1,n5424_3_1_1_6
n5425_3_1_1,n5425_3_1_1_18
n5426_3_1_1,n5426_3_1_1_11
n5427_3_1_1,n5427_3_1_1_15
n5428_3_1_1,n5428_3_1_1_7
n5429_3_1_1,n5429_3_1_1_14
n5430_3_1_1,n5430_3_1_1_10
n5431_3_1_1,n5431_3_1_1_8
n5432_3_1_1,n5432_3_1_1_16
n5433_3_1_1,n5433_3_1_1_9
n5434_3_1_1,n5434_3_1_1_14
n5435_3_1_1,n5435_3_1_1_6
n5436_3_1_1,n5436_3_1_1_16
n5437_3_1_1,n5437_3_1_1_11
n5438_3_1_1,n5438_3_1_1_12
n5439_3_1_1,n5439_3_1_1_15
n5440_3_1_1,n5440_3_1_1_9
n5441_3_1_1,n5441_3_1_1_10
n5442_3_1_1,n5442_3_1_1_9
n5443_3_1_1,n5443_3_1_1_6
n5444_3_1_1,n5444_3_1_1_8
n5445_3_1_1,n5445_3_1_1_20
n5446_3_1_1,n5446_3_1_1_8
n5447_3_1_1,n5447_3_1_1_8
n5448_3_1_1,n5448_3_1_1_6
n5449_3_1_1,n5449_3_1_1_8
n5450_3_1_1,n5450_3_1_1_8
n5451_3_1_1,n5451_3_1_1_26
n5452_3_1_1,n5452_3_1_1_8
n5453_3_1_1,n5453_3_1_1_28
n5454_3_1_1,n5454_3_1_1_8
n5455_3_1_1,n5455_3_1_1_19
n5456_3_1_1,n5456_3_1_1_9
n5457_3_1_1,n5457_3_1_1_12
n5458_3_1_1,n5458_3_1_1_17
n5459_3_1_1,n5459_3_1_1_8
n5460_3_1_1,n5460_3_1_1_7
n5461_3_1_1,n5461_3_1_1_7
n5462_3_1_1,n5462_3_1_1_9
n5463_3_1_1,n5463_3_1_1_7
n5464_3_1_1,n5464_3_1_1_19
n5465_3_1_1,n5465_3_1_1_6
n5466_3_1_1,n5466_3_1_1_6
n5467_3_1_1,n5467_3_1_1_21
n5468_3_1_1,n5468_3_1_1_10
n5469_3_1_1,n5469_3_1_1_6
n5470_3_1_1,n5470_3_1_1_9
n5471_3_1_1,n5471_3_1_1_7
n5472_3_1_1,n5472_3_1_1_10
n5473_3_1_1,n5473_3_1_1_18
n5474_3_1_1,n5474_3_1_1_12
n5475_3_1_1,n5475_3_1_1_7
n5476_3_1_1,n5476_3_1_1_15
n5477_3_1_1,n5477_3_1_1_16
n5478_3_1_1,n5478_3_1_1_6
n5479_3_1_1,n5479_3_1_1_6
n5480_3_1_1,n5480_3_1_1_6
n5481_3_1_1,n5481_3_1_1_7
n5482_3_1_1,n5482_3_1_1_22
n5483_3_1_1,n5483_3_1_1_6
n5484_3_1_1,n5484_3_1_1_9
n5485_3_1_1,n5485_3_1_1_11
n5486_3_1_1,n5486_3_1_1_11
n5487_3_1_1,n5487_3_1_1_8
n5488_3_1_1,n5488_3_1_1_7
n5489_3_1_1,n5489_3_1_1_6
n5490_3_1_1,n5490_3_1_1_8
n5491_3_1_1,n5491_3_1_1_7
n5492_3_1_1,n5492_3_1_1_15
n5493_3_1_1,n5493_3_1_1_18
n5494_3_1_1,n5494_3_1_1_11
n5495_3_1_1,n5495_3_1_1_6
n5496_3_1_1,n5496_3_1_1_7
n5497_3_1_1,n5497_3_1_1_8
n5498_3_1_1,n5498_3_1_1_15
n5499_3_1_1,n5499_3_1_1_10
n5500_3_1_1,n5500_3_1_1_16
n5501_3_1_1,n5501_3_1_1_9
n5502_3_1_1,n5502_3_1_1_5
n5503_3_1_1,n5503_3_1_1_11
n5504_3_1_1,n5504_3_1_1_8
n5505_3_1_1,n5505_3_1_1_7
n5506_3_1_1,n5506_3_1_1_9
n5507_3_1_1,n5507_3_1_1_16
n5508_3_1_1,n5508_3_1_1_8
n5509_3_1_1,n5509_3_1_1_7
n5510_3_1_1,n5510_3_1_1_5
n5511_3_1_1,n5511_3_1_1_15
n5512_3_1_1,n5512_3_1_1_21
n5513_3_1_1,n5513_3_1_1_5
n5514_3_1_1,n5514_3_1_1_15
n5515_3_1_1,n5515_3_1_1_8
n5516_3_1_1,n5516_3_1_1_21
n5517_3_1_1,n5517_3_1_1_10
n5518_3_1_1,n5518_3_1_1_7
n5519_3_1_1,n5519_3_1_1_11
n5520_3_1_1,n5520_3_1_1_12
n5521_3_1_1,n5521_3_1_1_13
n5522_3_1_1,n5522_3_1_1_12
n5523_3_1_1,n5523_3_1_1_8
n5524_3_1_1,n5524_3_1_1_10
n5525_3_1_1,n5525_3_1_1_6
n5526_3_1_1,n5526_3_1_1_7
n5527_3_1_1,n5527_3_1_1_16
n5528_3_1_1,n5528_3_1_1_7
n5529_3_1_1,n5529_3_1_1_8
n5530_3_1_1,n5530_3_1_1_6
n5531_3_1_1,n5531_3_1_1_6
n5532_3_1_1,n5532_3_1_1_10
n5533_3_1_1,n5533_3_1_1_9
n5534_3_1_1,n5534_3_1_1_7
n5535_3_1_1,n5535_3_1_1_15
n5536_3_1_1,n5536_3_1_1_25
n5537_3_1_1,n5537_3_1_1_11
n5538_3_1_1,n5538_3_1_1_7
n5539_3_1_1,n5539_3_1_1_11
n5540_3_1_1,n5540_3_1_1_9
n5541_3_1_1,n5541_3_1_1_11
n5542_3_1_1,n5542_3_1_1_13
n5543_3_1_1,n5543_3_1_1_8
n5544_3_1_1,n5544_3_1_1_8
n5545_3_1_1,n5545_3_1_1_18
n5546_3_1_1,n5546_3_1_1_12
n5547_3_1_1,n5547_3_1_1_13
n5548_3_1_1,n5548_3_1_1_6
n5549_3_1_1,n5549_3_1_1_16
n5550_3_1_1,n5550_3_1_1_11
n5551_3_1_1,n5551_3_1_1_12
n5552_3_1_1,n5552_3_1_1_7
n5553_3_1_1,n5553_3_1_1_11
n5554_3_1_1,n5554_3_1_1_5
n5555_3_1_1,n5555_3_1_1_10
n5556_3_1_1,n5556_3_1_1_10
n5557_3_1_1,n5557_3_1_1_13
n5558_3_1_1,n5558_3_1_1_9
n5559_3_1_1,n5559_3_1_1_8
n5560_3_1_1,n5560_3_1_1_9
n5561_3_1_1,n5561_3_1_1_11
n5562_3_1_1,n5562_3_1_1_12
n5563_3_1_1,n5563_3_1_1_13
n5564_3_1_1,n5564_3_1_1_6
n5565_3_1_1,n5565_3_1_1_7
n5566_3_1_1,n5566_3_1_1_9
n5567_3_1_1,n5567_3_1_1_6
n5568_3_1_1,n5568_3_1_1_10
n5569_3_1_1,n5569_3_1_1_6
n5570_3_1_1,n5570_3_1_1_8
n5571_3_1_1,n5571_3_1_1_5
n5572_3_1_1,n5572_3_1_1_24
n5573_3_1_1,n5573_3_1_1_7
n5574_3_1_1,n5574_3_1_1_8
n5575_3_1_1,n5575_3_1_1_20
n5576_3_1_1,n5576_3_1_1_12
n5577_3_1_1,n5577_3_1_1_12
n5578_3_1_1,n5578_3_1_1_12
n5579_3_1_1,n5579_3_1_1_9
n5580_3_1_1,n5580_3_1_1_12
n5581_3_1_1,n5581_3_1_1_7
n5582_3_1_1,n5582_3_1_1_6
n5583_3_1_1,n5583_3_1_1_8
n5584_3_1_1,n5584_3_1_1_10
n5585_3_1_1,n5585_3_1_1_8
n5586_3_1_1,n5586_3_1_1_8
n5587_3_1_1,n5587_3_1_1_13
n5588_3_1_1,n5588_3_1_1_8
n5589_3_1_1,n5589_3_1_1_5
n5590_3_1_1,n5590_3_1_1_7
n5591_3_1_1,n5591_3_1_1_11
n5592_3_1_1,n5592_3_1_1_21
n5593_3_1_1,n5593_3_1_1_11
n5594_3_1_1,n5594_3_1_1_7
n5595_3_1_1,n5595_3_1_1_10
n5596_3_1_1,n5596_3_1_1_7
n5597_3_1_1,n5597_3_1_1_10
n5598_3_1_1,n5598_3_1_1_8
n5599_3_1_1,n5599_3_1_1_10
n5600_3_1_1,n5600_3_1_1_9
n5601_3_1_1,n5601_3_1_1_18
n5602_3_1_1,n5602_3_1_1_8
n5603_3_1_1,n5603_3_1_1_15
n5604_3_1_1,n5604_3_1_1_8
n5605_3_1_1,n5605_3_1_1_9
n5606_3_1_1,n5606_3_1_1_14
n5607_3_1_1,n5607_3_1_1_6
n5608_3_1_1,n5608_3_1_1_12
n5609_3_1_1,n5609_3_1_1_18
n5610_3_1_1,n5610_3_1_1_9
n5611_3_1_1,n5611_3_1_1_13
n5612_3_1_1,n5612_3_1_1_11
n5613_3_1_1,n5613_3_1_1_14
n5614_3_1_1,n5614_3_1_1_10
n5615_3_1_1,n5615_3_1_1_12
n5616_3_1_1,n5616_3_1_1_7
n5617_3_1_1,n5617_3_1_1_12
n5618_3_1_1,n5618_3_1_1_7
n5619_3_1_1,n5619_3_1_1_13
n5620_3_1_1,n5620_3_1_1_7
n5621_3_1_1,n5621_3_1_1_12
n5622_3_1_1,n5622_3_1_1_7
n5623_3_1_1,n5623_3_1_1_19
n5624_3_1_1,n5624_3_1_1_7
n5625_3_1_1,n5625_3_1_1_6
n5626_3_1_1,n5626_3_1_1_8
n5627_3_1_1,n5627_3_1_1_21
n5628_3_1_1,n5628_3_1_1_9
n5629_3_1_1,n5629_3_1_1_16
n5630_3_1_1,n5630_3_1_1_11
n5631_3_1_1,n5631_3_1_1_10
n5632_3_1_1,n5632_3_1_1_10
n5633_3_1_1,n5633_3_1_1_15
n5634_3_1_1,n5634_3_1_1_7
n5635_3_1_1,n5635_3_1_1_19
n5636_3_1_1,n5636_3_1_1_12
n5637_3_1_1,n5637_3_1_1_8
n5638_3_1_1,n5638_3_1_1_7
n5639_3_1_1,n5639_3_1_1_11
n5640_3_1_1,n5640_3_1_1_7
n5641_3_1_1,n5641_3_1_1_13
n5642_3_1_1,n5642_3_1_1_13
n5643_3_1_1,n5643_3_1_1_14
n5644_3_1_1,n5644_3_1_1_7
n5645_3_1_1,n5645_3_1_1_6
n5646_3_1_1,n5646_3_1_1_12
n5647_3_1_1,n5647_3_1_1_14
n5648_3_1_1,n5648_3_1_1_9
n5649_3_1_1,n5649_3_1_1_22
n5650_3_1_1,n5650_3_1_1_11
n5651_3_1_1,n5651_3_1_1_15
n5652_3_1_1,n5652_3_1_1_9
n5653_3_1_1,n5653_3_1_1_15
n5654_3_1_1,n5654_3_1_1_25
n5655_3_1_1,n5655_3_1_1_32
n5656_3_1_1,n5656_3_1_1_12
n5657_3_1_1,n5657_3_1_1_11
n5658_3_1_1,n5658_3_1_1_13
n5659_3_1_1,n5659_3_1_1_7
n5660_3_1_1,n5660_3_1_1_6
n5661_3_1_1,n5661_3_1_1_8
n5662_3_1_1,n5662_3_1_1_7
n5663_3_1_1,n5663_3_1_1_6
n5664_3_1_1,n5664_3_1_1_23
n5665_3_1_1,n5665_3_1_1_11
n5666_3_1_1,n5666_3_1_1_11
n5667_3_1_1,n5667_3_1_1_8
n5668_3_1_1,n5668_3_1_1_15
n5669_3_1_1,n5669_3_1_1_14
n5670_3_1_1,n5670_3_1_1_6
n5671_3_1_1,n5671_3_1_1_7
n5672_3_1_1,n5672_3_1_1_5
n5673_3_1_1,n5673_3_1_1_11
n5674_3_1_1,n5674_3_1_1_9
n5675_3_1_1,n5675_3_1_1_6
n5676_3_1_1,n5676_3_1_1_8
n5677_3_1_1,n5677_3_1_1_13
n5678_3_1_1,n5678_3_1_1_9
n5679_3_1_1,n5679_3_1_1_6
n5680_3_1_1,n5680_3_1_1_14
n5681_3_1_1,n5681_3_1_1_11
n5682_3_1_1,n5682_3_1_1_12
n5683_3_1_1,n5683_3_1_1_13
n5684_3_1_1,n5684_3_1_1_10
n5685_3_1_1,n5685_3_1_1_12
n5686_3_1_1,n5686_3_1_1_14
n5687_3_1_1,n5687_3_1_1_20
n5688_3_1_1,n5688_3_1_1_8
n5689_3_1_1,n5689_3_1_1_6
n5690_3_1_1,n5690_3_1_1_17
n5691_3_1_1,n5691_3_1_1_11
n5692_3_1_1,n5692_3_1_1_11
n5693_3_1_1,n5693_3_1_1_26
n5694_3_1_1,n5694_3_1_1_24
n5695_3_1_1,n5695_3_1_1_7
n5696_3_1_1,n5696_3_1_1_7
n5697_3_1_1,n5697_3_1_1_12
n5698_3_1_1,n5698_3_1_1_38
n5699_3_1_1,n5699_3_1_1_9
n5700_3_1_1,n5700_3_1_1_9
n5701_3_1_1,n5701_3_1_1_12
n5702_3_1_1,n5702_3_1_1_20
n5703_3_1_1,n5703_3_1_1_36
n5704_3_1_1,n5704_3_1_1_10
n5705_3_1_1,n5705_3_1_1_7
n5706_3_1_1,n5706_3_1_1_14
n5707_3_1_1,n5707_3_1_1_16
n5708_3_1_1,n5708_3_1_1_15
n5709_3_1_1,n5709_3_1_1_7
n5710_3_1_1,n5710_3_1_1_8
n5711_3_1_1,n5711_3_1_1_6
n5712_3_1_1,n5712_3_1_1_9
n5713_3_1_1,n5713_3_1_1_6
n5714_3_1_1,n5714_3_1_1_19
n5715_3_1_1,n5715_3_1_1_18
n5716_3_1_1,n5716_3_1_1_7
n5717_3_1_1,n5717_3_1_1_8
n5718_3_1_1,n5718_3_1_1_19
n5719_3_1_1,n5719_3_1_1_9
n5720_3_1_1,n5720_3_1_1_8
n5721_3_1_1,n5721_3_1_1_9
n5722_3_1_1,n5722_3_1_1_7
n5723_3_1_1,n5723_3_1_1_10
n5724_3_1_1,n5724_3_1_1_10
n5725_3_1_1,n5725_3_1_1_8
n5726_3_1_1,n5726_3_1_1_10
n5727_3_1_1,n5727_3_1_1_9
n5728_3_1_1,n5728_3_1_1_7
n5729_3_1_1,n5729_3_1_1_21
n5730_3_1_1,n5730_3_1_1_14
n5731_3_1_1,n5731_3_1_1_7
n5732_3_1_1,n5732_3_1_1_26
n5733_3_1_1,n5733_3_1_1_18
n5734_3_1_1,n5734_3_1_1_7
n5735_3_1_1,n5735_3_1_1_14
n5736_3_1_1,n5736_3_1_1_8
n5737_3_1_1,n5737_3_1_1_8
n5738_3_1_1,n5738_3_1_1_10
n5739_3_1_1,n5739_3_1_1_12
n5740_3_1_1,n5740_3_1_1_11
n5741_3_1_1,n5741_3_1_1_12
n5742_3_1_1,n5742_3_1_1_8
n5743_3_1_1,n5743_3_1_1_20
n5744_3_1_1,n5744_3_1_1_6
n5745_3_1_1,n5745_3_1_1_6
n5746_3_1_1,n5746_3_1_1_8
n5747_3_1_1,n5747_3_1_1_7
n5748_3_1_1,n5748_3_1_1_10
n5749_3_1_1,n5749_3_1_1_9
n5750_3_1_1,n5750_3_1_1_8
n5751_3_1_1,n5751_3_1_1_9
n5752_3_1_1,n5752_3_1_1_23
n5753_3_1_1,n5753_3_1_1_31
n5754_3_1_1,n5754_3_1_1_7
n5755_3_1_1,n5755_3_1_1_16
n5756_3_1_1,n5756_3_1_1_6
n5757_3_1_1,n5757_3_1_1_7
n5758_3_1_1,n5758_3_1_1_6
n5759_3_1_1,n5759_3_1_1_14
n5760_3_1_1,n5760_3_1_1_6
n5761_3_1_1,n5761_3_1_1_14
n5762_3_1_1,n5762_3_1_1_8
n5763_3_1_1,n5763_3_1_1_10
n5764_3_1_1,n5764_3_1_1_10
n5765_3_1_1,n5765_3_1_1_16
n5766_3_1_1,n5766_3_1_1_7
n5767_3_1_1,n5767_3_1_1_7
n5768_3_1_1,n5768_3_1_1_6
n5769_3_1_1,n5769_3_1_1_10
n5770_3_1_1,n5770_3_1_1_14
n5771_3_1_1,n5771_3_1_1_6
n5772_3_1_1,n5772_3_1_1_10
n5773_3_1_1,n5773_3_1_1_9
n5774_3_1_1,n5774_3_1_1_9
n5775_3_1_1,n5775_3_1_1_10
n5776_3_1_1,n5776_3_1_1_6
n5777_3_1_1,n5777_3_1_1_10
n5778_3_1_1,n5778_3_1_1_11
n5779_3_1_1,n5779_3_1_1_8
n5780_3_1_1,n5780_3_1_1_6
n5781_3_1_1,n5781_3_1_1_18
n5782_3_1_1,n5782_3_1_1_14
n5783_3_1_1,n5783_3_1_1_13
n5784_3_1_1,n5784_3_1_1_22
n5785_3_1_1,n5785_3_1_1_20
n5786_3_1_1,n5786_3_1_1_7
n5787_3_1_1,n5787_3_1_1_8
n5788_3_1_1,n5788_3_1_1_18
n5789_3_1_1,n5789_3_1_1_11
n5790_3_1_1,n5790_3_1_1_15
n5791_3_1_1,n5791_3_1_1_8
n5792_3_1_1,n5792_3_1_1_12
n5793_3_1_1,n5793_3_1_1_14
n5794_3_1_1,n5794_3_1_1_11
n5795_3_1_1,n5795_3_1_1_11
n5796_3_1_1,n5796_3_1_1_7
n5797_3_1_1,n5797_3_1_1_12
n5798_3_1_1,n5798_3_1_1_17
n5799_3_1_1,n5799_3_1_1_12
n5800_3_1_1,n5800_3_1_1_20
n5801_3_1_1,n5801_3_1_1_10
n5802_3_1_1,n5802_3_1_1_6
n5803_3_1_1,n5803_3_1_1_25
n5804_3_1_1,n5804_3_1_1_9
n5805_3_1_1,n5805_3_1_1_6
n5806_3_1_1,n5806_3_1_1_14
n5807_3_1_1,n5807_3_1_1_15
n5808_3_1_1,n5808_3_1_1_7
n5809_3_1_1,n5809_3_1_1_12
n5810_3_1_1,n5810_3_1_1_9
n5811_3_1_1,n5811_3_1_1_7
n5812_3_1_1,n5812_3_1_1_17
n5813_3_1_1,n5813_3_1_1_9
n5814_3_1_1,n5814_3_1_1_6
n5815_3_1_1,n5815_3_1_1_10
n5816_3_1_1,n5816_3_1_1_9
n5817_3_1_1,n5817_3_1_1_6
n5818_3_1_1,n5818_3_1_1_9
n5819_3_1_1,n5819_3_1_1_12
n5820_3_1_1,n5820_3_1_1_17
n5821_3_1_1,n5821_3_1_1_18
n5822_3_1_1,n5822_3_1_1_9
n5823_3_1_1,n5823_3_1_1_6
n5824_3_1_1,n5824_3_1_1_9
n5825_3_1_1,n5825_3_1_1_16
n5826_3_1_1,n5826_3_1_1_8
n5827_3_1_1,n5827_3_1_1_10
n5828_3_1_1,n5828_3_1_1_8
n5829_3_1_1,n5829_3_1_1_10
n5830_3_1_1,n5830_3_1_1_6
n5831_3_1_1,n5831_3_1_1_10
n5832_3_1_1,n5832_3_1_1_10
n5833_3_1_1,n5833_3_1_1_9
n5834_3_1_1,n5834_3_1_1_9
n5835_3_1_1,n5835_3_1_1_10
n5836_3_1_1,n5836_3_1_1_18
n5837_3_1_1,n5837_3_1_1_11
n5838_3_1_1,n5838_3_1_1_6
n5839_3_1_1,n5839_3_1_1_12
n5840_3_1_1,n5840_3_1_1_14
n5841_3_1_1,n5841_3_1_1_13
n5842_3_1_1,n5842_3_1_1_7
n5843_3_1_1,n5843_3_1_1_15
n5844_3_1_1,n5844_3_1_1_18
n5845_3_1_1,n5845_3_1_1_7
n5846_3_1_1,n5846_3_1_1_13
n5847_3_1_1,n5847_3_1_1_12
n5848_3_1_1,n5848_3_1_1_10
n5849_3_1_1,n5849_3_1_1_8
n5850_3_1_1,n5850_3_1_1_15
n5851_3_1_1,n5851_3_1_1_20
n5852_3_1_1,n5852_3_1_1_8
n5853_3_1_1,n5853_3_1_1_15
n5854_3_1_1,n5854_3_1_1_17
n5855_3_1_1,n5855_3_1_1_7
n5856_3_1_1,n5856_3_1_1_6
n5857_3_1_1,n5857_3_1_1_8
n5858_3_1_1,n5858_3_1_1_11
n5859_3_1_1,n5859_3_1_1_8
n5860_3_1_1,n5860_3_1_1_17
n5861_3_1_1,n5861_3_1_1_16
n5862_3_1_1,n5862_3_1_1_9
n5863_3_1_1,n5863_3_1_1_6
n5864_3_1_1,n5864_3_1_1_11
n5865_3_1_1,n5865_3_1_1_6
n5866_3_1_1,n5866_3_1_1_15
n5867_3_1_1,n5867_3_1_1_6
n5868_3_1_1,n5868_3_1_1_8
n5869_3_1_1,n5869_3_1_1_19
n5870_3_1_1,n5870_3_1_1_7
n5871_3_1_1,n5871_3_1_1_15
n5872_3_1_1,n5872_3_1_1_11
n5873_3_1_1,n5873_3_1_1_6
n5874_3_1_1,n5874_3_1_1_6
n5875_3_1_1,n5875_3_1_1_10
n5876_3_1_1,n5876_3_1_1_8
n5877_3_1_1,n5877_3_1_1_8
n5878_3_1_1,n5878_3_1_1_7
n5879_3_1_1,n5879_3_1_1_16
n5880_3_1_1,n5880_3_1_1_7
n5881_3_1_1,n5881_3_1_1_7
n5882_3_1_1,n5882_3_1_1_21
n5883_3_1_1,n5883_3_1_1_17
n5884_3_1_1,n5884_3_1_1_13
n5885_3_1_1,n5885_3_1_1_7
n5886_3_1_1,n5886_3_1_1_8
n5887_3_1_1,n5887_3_1_1_17
n5888_3_1_1,n5888_3_1_1_26
n5889_3_1_1,n5889_3_1_1_11
n5890_3_1_1,n5890_3_1_1_7
n5891_3_1_1,n5891_3_1_1_7
n5892_3_1_1,n5892_3_1_1_12
n5893_3_1_1,n5893_3_1_1_12
n5894_3_1_1,n5894_3_1_1_6
n5895_3_1_1,n5895_3_1_1_9
n5896_3_1_1,n5896_3_1_1_9
n5897_3_1_1,n5897_3_1_1_11
n5898_3_1_1,n5898_3_1_1_6
n5899_3_1_1,n5899_3_1_1_7
n5900_3_1_1,n5900_3_1_1_20
n5901_3_1_1,n5901_3_1_1_7
n5902_3_1_1,n5902_3_1_1_9
n5903_3_1_1,n5903_3_1_1_5
n5904_3_1_1,n5904_3_1_1_14
n5905_3_1_1,n5905_3_1_1_8
n5906_3_1_1,n5906_3_1_1_7
n5907_3_1_1,n5907_3_1_1_9
n5908_3_1_1,n5908_3_1_1_10
n5909_3_1_1,n5909_3_1_1_6
n5910_3_1_1,n5910_3_1_1_11
n5911_3_1_1,n5911_3_1_1_9
n5912_3_1_1,n5912_3_1_1_7
n5913_3_1_1,n5913_3_1_1_18
n5914_3_1_1,n5914_3_1_1_7
n5915_3_1_1,n5915_3_1_1_15
n5916_3_1_1,n5916_3_1_1_10
n5917_3_1_1,n5917_3_1_1_15
n5918_3_1_1,n5918_3_1_1_11
n5919_3_1_1,n5919_3_1_1_10
n5920_3_1_1,n5920_3_1_1_14
n5921_3_1_1,n5921_3_1_1_11
n5922_3_1_1,n5922_3_1_1_8
n5923_3_1_1,n5923_3_1_1_9
n5924_3_1_1,n5924_3_1_1_6
n5925_3_1_1,n5925_3_1_1_5
n5926_3_1_1,n5926_3_1_1_7
n5927_3_1_1,n5927_3_1_1_9
n5928_3_1_1,n5928_3_1_1_9
n5929_3_1_1,n5929_3_1_1_7
n5930_3_1_1,n5930_3_1_1_10
n5931_3_1_1,n5931_3_1_1_9
n5932_3_1_1,n5932_3_1_1_16
n5933_3_1_1,n5933_3_1_1_7
n5934_3_1_1,n5934_3_1_1_6
n5935_3_1_1,n5935_3_1_1_6
n5936_3_1_1,n5936_3_1_1_8
n5937_3_1_1,n5937_3_1_1_14
n5938_3_1_1,n5938_3_1_1_8
n5939_3_1_1,n5939_3_1_1_16
n5940_3_1_1,n5940_3_1_1_9
n5941_3_1_1,n5941_3_1_1_15
n5942_3_1_1,n5942_3_1_1_10
n5943_3_1_1,n5943_3_1_1_6
n5944_3_1_1,n5944_3_1_1_8
n5945_3_1_1,n5945_3_1_1_9
n5946_3_1_1,n5946_3_1_1_8
n5947_3_1_1,n5947_3_1_1_10
n5948_3_1_1,n5948_3_1_1_11
n5949_3_1_1,n5949_3_1_1_8
n5950_3_1_1,n5950_3_1_1_8
n5951_3_1_1,n5951_3_1_1_11
n5952_3_1_1,n5952_3_1_1_9
n5953_3_1_1,n5953_3_1_1_38
n5954_3_1_1,n5954_3_1_1_16
n5955_3_1_1,n5955_3_1_1_9
n5956_3_1_1,n5956_3_1_1_8
n5957_3_1_1,n5957_3_1_1_13
n5958_3_1_1,n5958_3_1_1_8
n5959_3_1_1,n5959_3_1_1_12
n5960_3_1_1,n5960_3_1_1_8
n5961_3_1_1,n5961_3_1_1_10
n5962_3_1_1,n5962_3_1_1_18
n5963_3_1_1,n5963_3_1_1_8
n5964_3_1_1,n5964_3_1_1_11
n5965_3_1_1,n5965_3_1_1_17
n5966_3_1_1,n5966_3_1_1_12
n5967_3_1_1,n5967_3_1_1_9
n5968_3_1_1,n5968_3_1_1_7
n5969_3_1_1,n5969_3_1_1_13
n5970_3_1_1,n5970_3_1_1_16
n5971_3_1_1,n5971_3_1_1_8
n5972_3_1_1,n5972_3_1_1_36
n5973_3_1_1,n5973_3_1_1_6
n5974_3_1_1,n5974_3_1_1_19
n5975_3_1_1,n5975_3_1_1_7
n5976_3_1_1,n5976_3_1_1_10
n5977_3_1_1,n5977_3_1_1_36
n5978_3_1_1,n5978_3_1_1_18
n5979_3_1_1,n5979_3_1_1_10
n5980_3_1_1,n5980_3_1_1_16
n5981_3_1_1,n5981_3_1_1_15
n5982_3_1_1,n5982_3_1_1_10
n5983_3_1_1,n5983_3_1_1_9
n5984_3_1_1,n5984_3_1_1_15
n5985_3_1_1,n5985_3_1_1_6
n5986_3_1_1,n5986_3_1_1_8
n5987_3_1_1,n5987_3_1_1_9
n5988_3_1_1,n5988_3_1_1_16
n5989_3_1_1,n5989_3_1_1_9
n5990_3_1_1,n5990_3_1_1_9
n5991_3_1_1,n5991_3_1_1_10
n5992_3_1_1,n5992_3_1_1_19
n5993_3_1_1,n5993_3_1_1_13
n5994_3_1_1,n5994_3_1_1_7
n5995_3_1_1,n5995_3_1_1_10
n5996_3_1_1,n5996_3_1_1_26
n5997_3_1_1,n5997_3_1_1_12
n5998_3_1_1,n5998_3_1_1_12
n5999_3_1_1,n5999_3_1_1_12
n6000_3_1_1,n6000_3_1_1_15
n6001_3_1_1,n6001_3_1_1_12
n6002_3_1_1,n6002_3_1_1_6
n6003_3_1_1,n6003_3_1_1_7
n6004_3_1_1,n6004_3_1_1_12
n6005_3_1_1,n6005_3_1_1_7
n6006_3_1_1,n6006_3_1_1_21
n6007_3_1_1,n6007_3_1_1_19
n6008_3_1_1,n6008_3_1_1_17
n6009_3_1_1,n6009_3_1_1_7
n6010_3_1_1,n6010_3_1_1_11
n6011_3_1_1,n6011_3_1_1_8
n6012_3_1_1,n6012_3_1_1_8
n6013_3_1_1,n6013_3_1_1_9
n6014_3_1_1,n6014_3_1_1_31
n6015_3_1_1,n6015_3_1_1_5
n6016_3_1_1,n6016_3_1_1_7
n6017_3_1_1,n6017_3_1_1_7
n6018_3_1_1,n6018_3_1_1_7
n6019_3_1_1,n6019_3_1_1_25
n6020_3_1_1,n6020_3_1_1_14
n6021_3_1_1,n6021_3_1_1_6
n6022_3_1_1,n6022_3_1_1_16
n6023_3_1_1,n6023_3_1_1_6
n6024_3_1_1,n6024_3_1_1_7
n6025_3_1_1,n6025_3_1_1_7
n6026_3_1_1,n6026_3_1_1_16
n6027_3_1_1,n6027_3_1_1_13
n6028_3_1_1,n6028_3_1_1_6
n6029_3_1_1,n6029_3_1_1_11
n6030_3_1_1,n6030_3_1_1_11
n6031_3_1_1,n6031_3_1_1_6
n6032_3_1_1,n6032_3_1_1_10
n6033_3_1_1,n6033_3_1_1_19
n6034_3_1_1,n6034_3_1_1_13
n6035_3_1_1,n6035_3_1_1_7
n6036_3_1_1,n6036_3_1_1_6
n6037_3_1_1,n6037_3_1_1_7
n6038_3_1_1,n6038_3_1_1_9
n6039_3_1_1,n6039_3_1_1_13
n6040_3_1_1,n6040_3_1_1_6
n6041_3_1_1,n6041_3_1_1_29
n6042_3_1_1,n6042_3_1_1_9
n6043_3_1_1,n6043_3_1_1_8
n6044_3_1_1,n6044_3_1_1_15
n6045_3_1_1,n6045_3_1_1_7
n6046_3_1_1,n6046_3_1_1_10
n6047_3_1_1,n6047_3_1_1_8
n6048_3_1_1,n6048_3_1_1_6
n6049_3_1_1,n6049_3_1_1_11
n6050_3_1_1,n6050_3_1_1_26
n6051_3_1_1,n6051_3_1_1_6
n6052_3_1_1,n6052_3_1_1_65
n6053_3_1_1,n6053_3_1_1_9
n6054_3_1_1,n6054_3_1_1_14
n6055_3_1_1,n6055_3_1_1_27
n6056_3_1_1,n6056_3_1_1_7
n6057_3_1_1,n6057_3_1_1_10
n6058_3_1_1,n6058_3_1_1_12
n6059_3_1_1,n6059_3_1_1_6
n6060_3_1_1,n6060_3_1_1_7
n6061_3_1_1,n6061_3_1_1_6
n6062_3_1_1,n6062_3_1_1_8
n6063_3_1_1,n6063_3_1_1_9
n6064_3_1_1,n6064_3_1_1_6
n6065_3_1_1,n6065_3_1_1_10
n6066_3_1_1,n6066_3_1_1_7
n6067_3_1_1,n6067_3_1_1_10
n6068_3_1_1,n6068_3_1_1_7
n6069_3_1_1,n6069_3_1_1_5
n6070_3_1_1,n6070_3_1_1_9
n6071_3_1_1,n6071_3_1_1_7
n6072_3_1_1,n6072_3_1_1_16
n6073_3_1_1,n6073_3_1_1_20
n6074_3_1_1,n6074_3_1_1_8
n6075_3_1_1,n6075_3_1_1_11
n6076_3_1_1,n6076_3_1_1_7
n6077_3_1_1,n6077_3_1_1_11
n6078_3_1_1,n6078_3_1_1_8
n6079_3_1_1,n6079_3_1_1_11
n6080_3_1_1,n6080_3_1_1_14
n6081_3_1_1,n6081_3_1_1_6
n6082_3_1_1,n6082_3_1_1_7
n6083_3_1_1,n6083_3_1_1_12
n6084_3_1_1,n6084_3_1_1_6
n6085_3_1_1,n6085_3_1_1_9
n6086_3_1_1,n6086_3_1_1_9
n6087_3_1_1,n6087_3_1_1_6
n6088_3_1_1,n6088_3_1_1_9
n6089_3_1_1,n6089_3_1_1_10
n6090_3_1_1,n6090_3_1_1_7
n6091_3_1_1,n6091_3_1_1_8
n6092_3_1_1,n6092_3_1_1_20
n6093_3_1_1,n6093_3_1_1_10
n6094_3_1_1,n6094_3_1_1_17
n6095_3_1_1,n6095_3_1_1_9
n6096_3_1_1,n6096_3_1_1_17
n6097_3_1_1,n6097_3_1_1_8
n6098_3_1_1,n6098_3_1_1_18
n6099_3_1_1,n6099_3_1_1_21
n6100_3_1_1,n6100_3_1_1_7
n6101_3_1_1,n6101_3_1_1_20
n6102_3_1_1,n6102_3_1_1_9
n6103_3_1_1,n6103_3_1_1_18
n6104_3_1_1,n6104_3_1_1_6
n6105_3_1_1,n6105_3_1_1_6
n6106_3_1_1,n6106_3_1_1_12
n6107_3_1_1,n6107_3_1_1_24
n6108_3_1_1,n6108_3_1_1_11
n6109_3_1_1,n6109_3_1_1_7
n6110_3_1_1,n6110_3_1_1_7
n6111_3_1_1,n6111_3_1_1_10
n6112_3_1_1,n6112_3_1_1_10
n6113_3_1_1,n6113_3_1_1_15
n6114_3_1_1,n6114_3_1_1_9
n6115_3_1_1,n6115_3_1_1_12
n6116_3_1_1,n6116_3_1_1_7
n6117_3_1_1,n6117_3_1_1_7
n6118_3_1_1,n6118_3_1_1_10
n6119_3_1_1,n6119_3_1_1_13
n6120_3_1_1,n6120_3_1_1_11
n6121_3_1_1,n6121_3_1_1_13
n6122_3_1_1,n6122_3_1_1_19
n6123_3_1_1,n6123_3_1_1_8
n6124_3_1_1,n6124_3_1_1_12
n6125_3_1_1,n6125_3_1_1_6
n6126_3_1_1,n6126_3_1_1_1
n6127_3_1_1,n6127_3_1_1_1
n6128_3_1_1,n6128_3_1_1_1
n6129_3_1_1,n6129_3_1_1_1
n6130_3_1_1,n6130_3_1_1_1
n6131_3_1_1,n6131_3_1_1_1
n6132_3_1_1,n6132_3_1_1_1
n6133_3_1_1,n6133_3_1_1_1
n6134_3_1_1,n6134_3_1_1_1
n6135_3_1_1,n6135_3_1_1_1
n6136_3_1_1,n6136_3_1_1_1
n6137_3_1_1,n6137_3_1_1_1
n6138_3_1_1,n6138_3_1_1_1
n6139_3_1_1,n6139_3_1_1_1
n6140_3_1_1,n6140_3_1_1_1
n6141_3_1_1,n6141_3_1_1_1
n6142_3_1_1,n6142_3_1_1_1
n6143_3_1_1,n6143_3_1_1_1
n6144_3_1_1,n6144_3_1_1_1
n6145_3_1_1,n6145_3_1_1_1
n6146_3_1_1,n6146_3_1_1_1
n6147_3_1_1,n6147_3_1_1_1
n6148_3_1_1,n6148_3_1_1_1
n6149_3_1_1,n6149_3_1_1_1
n6150_3_1_1,n6150_3_1_1_1
n6151_3_1_1,n6151_3_1_1_1
n6152_3_1_1,n6152_3_1_1_1
n6153_3_1_1,n6153_3_1_1_1
n6154_3_1_1,n6154_3_1_1_1
n6155_3_1_1,n6155_3_1_1_1
n6156_3_1_1,n6156_3_1_1_1
n6157_3_1_1,n6157_3_1_1_1
n6158_3_1_1,n6158_3_1_1_1
n6159_3_1_1,n6159_3_1_1_1
n6160_3_1_1,n6160_3_1_1_1
n6161_3_1_1,n6161_3_1_1_1
n6162_3_1_1,n6162_3_1_1_1
n6163_3_1_1,n6163_3_1_1_1
n6164_3_1_1,n6164_3_1_1_1
n6165_3_1_1,n6165_3_1_1_1
n6166_3_1_1,n6166_3_1_1_1
n6167_3_1_1,n6167_3_1_1_1
n6168_3_1_1,n6168_3_1_1_1
n6169_3_1_1,n6169_3_1_1_1
n6170_3_1_1,n6170_3_1_1_1
n6171_3_1_1,n6171_3_1_1_1
n6172_3_1_1,n6172_3_1_1_1
n6173_3_1_1,n6173_3_1_1_1
n6174_3_1_1,n6174_3_1_1_1
n6175_3_1_1,n6175_3_1_1_1
n6176_3_1_1,n6176_3_1_1_1
n6177_3_1_1,n6177_3_1_1_1
n6178_3_1_1,n6178_3_1_1_1
n6179_3_1_1,n6179_3_1_1_1
n6180_3_1_1,n6180_3_1_1_1
n6181_3_1_1,n6181_3_1_1_1
n6182_3_1_1,n6182_3_1_1_1
n6183_3_1_1,n6183_3_1_1_1
n6184_3_1_1,n6184_3_1_1_1
n6185_3_1_1,n6185_3_1_1_1
n6186_3_1_1,n6186_3_1_1_1
n6187_3_1_1,n6187_3_1_1_1
n6188_3_1_1,n6188_3_1_1_1
n6189_3_1_1,n6189_3_1_1_1
n6190_3_1_1,n6190_3_1_1_1
n6191_3_1_1,n6191_3_1_1_1
n6192_3_1_1,n6192_3_1_1_1
n6193_3_1_1,n6193_3_1_1_1
n6194_3_1_1,n6194_3_1_1_1
n6195_3_1_1,n6195_3_1_1_1
n6196_3_1_1,n6196_3_1_1_1
n6197_3_1_1,n6197_3_1_1_1
n6198_3_1_1,n6198_3_1_1_1
n6199_3_1_1,n6199_3_1_1_1
n6200_3_1_1,n6200_3_1_1_1
n6201_3_1_1,n6201_3_1_1_1
n6202_3_1_1,n6202_3_1_1_1
n6203_3_1_1,n6203_3_1_1_1
n6204_3_1_1,n6204_3_1_1_1
n6205_3_1_1,n6205_3_1_1_1
n6206_3_1_1,n6206_3_1_1_1
n6207_3_1_1,n6207_3_1_1_1
n6208_3_1_1,n6208_3_1_1_1
n6209_3_1_1,n6209_3_1_1_1
n6210_3_1_1,n6210_3_1_1_1
n6211_3_1_1,n6211_3_1_1_1
n6212_3_1_1,n6212_3_1_1_1
n6213_3_1_1,n6213_3_1_1_1
n6214_3_1_1,n6214_3_1_1_1
n6215_3_1_1,n6215_3_1_1_1
n6216_3_1_1,n6216_3_1_1_1
n6217_3_1_1,n6217_3_1_1_1
n6218_3_1_1,n6218_3_1_1_1
n6219_3_1_1,n6219_3_1_1_1
n6220_3_1_1,n6220_3_1_1_1
n6221_3_1_1,n6221_3_1_1_1
n6222_3_1_1,n6222_3_1_1_1
n6223_3_1_1,n6223_3_1_1_1
n6224_3_1_1,n6224_3_1_1_1
n6225_3_1_1,n6225_3_1_1_1
n6226_3_1_1,n6226_3_1_1_1
n6227_3_1_1,n6227_3_1_1_1
n6228_3_1_1,n6228_3_1_1_1
n6229_3_1_1,n6229_3_1_1_1
n6230_3_1_1,n6230_3_1_1_1
n6231_3_1_1,n6231_3_1_1_1
n6232_3_1_1,n6232_3_1_1_1
n6233_3_1_1,n6233_3_1_1_1
n6234_3_1_1,n6234_3_1_1_1
n6235_3_1_1,n6235_3_1_1_1
n6236_3_1_1,n6236_3_1_1_1
n6237_3_1_1,n6237_3_1_1_1
n6238_3_1_1,n6238_3_1_1_1
n6239_3_1_1,n6239_3_1_1_1
n6240_3_1_1,n6240_3_1_1_1
n6241_3_1_1,n6241_3_1_1_1
n6242_3_1_1,n6242_3_1_1_1
n6243_3_1_1,n6243_3_1_1_1
n6244_3_1_1,n6244_3_1_1_1
n6245_3_1_1,n6245_3_1_1_1
n6246_3_1_1,n6246_3_1_1_1
n6247_3_1_1,n6247_3_1_1_1
n6248_3_1_1,n6248_3_1_1_1
n6249_3_1_1,n6249_3_1_1_1
n6250_3_1_1,n6250_3_1_1_1
n6251_3_1_1,n6251_3_1_1_1
n6252_3_1_1,n6252_3_1_1_1
n6253_3_1_1,n6253_3_1_1_1
n6254_3_1_1,n6254_3_1_1_1
n6255_3_1_1,n6255_3_1_1_1
n6256_3_1_1,n6256_3_1_1_1
n6257_3_1_1,n6257_3_1_1_1
n6258_3_1_1,n6258_3_1_1_1
n6259_3_1_1,n6259_3_1_1_1
n6260_3_1_1,n6260_3_1_1_1
n6261_3_1_1,n6261_3_1_1_1
n6262_3_1_1,n6262_3_1_1_1
n6263_3_1_1,n6263_3_1_1_1
n6264_3_1_1,n6264_3_1_1_1
n6265_3_1_1,n6265_3_1_1_1
n6266_3_1_1,n6266_3_1_1_1
n6267_3_1_1,n6267_3_1_1_1
n6268_3_1_1,n6268_3_1_1_1
n6269_3_1_1,n6269_3_1_1_1
n6270_3_1_1,n6270_3_1_1_1
n6271_3_1_1,n6271_3_1_1_1
n6272_3_1_1,n6272_3_1_1_1
n6273_3_1_1,n6273_3_1_1_1
n6274_3_1_1,n6274_3_1_1_1
n6275_3_1_1,n6275_3_1_1_1
n6276_3_1_1,n6276_3_1_1_1
n6277_3_1_1,n6277_3_1_1_1
n6278_3_1_1,n6278_3_1_1_1
n6279_3_1_1,n6279_3_1_1_1
n6280_3_1_1,n6280_3_1_1_1
n6281_3_1_1,n6281_3_1_1_1
n6282_3_1_1,n6282_3_1_1_1
n6283_3_1_1,n6283_3_1_1_1
n6284_3_1_1,n6284_3_1_1_1
n6285_3_1_1,n6285_3_1_1_1
n6286_3_1_1,n6286_3_1_1_1
n6287_3_1_1,n6287_3_1_1_1
n6288_3_1_1,n6288_3_1_1_1
n6289_3_1_1,n6289_3_1_1_1
n6290_3_1_1,n6290_3_1_1_1
n6291_3_1_1,n6291_3_1_1_1
n6292_3_1_1,n6292_3_1_1_1
n6293_3_1_1,n6293_3_1_1_1
n6294_3_1_1,n6294_3_1_1_1
n6295_3_1_1,n6295_3_1_1_1
n6296_3_1_1,n6296_3_1_1_1
n6297_3_1_1,n6297_3_1_1_1
n6298_3_1_1,n6298_3_1_1_1
n6299_3_1_1,n6299_3_1_1_1
n6300_3_1_1,n6300_3_1_1_1
n6301_3_1_1,n6301_3_1_1_1
n6302_3_1_1,n6302_3_1_1_1
n6303_3_1_1,n6303_3_1_1_1
n6304_3_1_1,n6304_3_1_1_1
n6305_3_1_1,n6305_3_1_1_1
n6306_3_1_1,n6306_3_1_1_1
n6307_3_1_1,n6307_3_1_1_1
n6308_3_1_1,n6308_3_1_1_1
n6309_3_1_1,n6309_3_1_1_1
n6310_3_1_1,n6310_3_1_1_1
n6311_3_1_1,n6311_3_1_1_1
n6312_3_1_1,n6312_3_1_1_1
n6313_3_1_1,n6313_3_1_1_1
n6314_3_1_1,n6314_3_1_1_1
n6315_3_1_1,n6315_3_1_1_1
n6316_3_1_1,n6316_3_1_1_1
n6317_3_1_1,n6317_3_1_1_1
n6318_3_1_1,n6318_3_1_1_1
n6319_3_1_1,n6319_3_1_1_1
n6320_3_1_1,n6320_3_1_1_1
n6321_3_1_1,n6321_3_1_1_1
n6322_3_1_1,n6322_3_1_1_1
n6323_3_1_1,n6323_3_1_1_1
n6324_3_1_1,n6324_3_1_1_1
n6325_3_1_1,n6325_3_1_1_1
n6326_3_1_1,n6326_3_1_1_1
n6327_3_1_1,n6327_3_1_1_1
n6328_3_1_1,n6328_3_1_1_1
n6329_3_1_1,n6329_3_1_1_1
n6330_3_1_1,n6330_3_1_1_1
n6331_3_1_1,n6331_3_1_1_1
n6332_3_1_1,n6332_3_1_1_1
n6333_3_1_1,n6333_3_1_1_1
n6334_3_1_1,n6334_3_1_1_1
n6335_3_1_1,n6335_3_1_1_1
n6336_3_1_1,n6336_3_1_1_1
n6337_3_1_1,n6337_3_1_1_1
n6338_3_1_1,n6338_3_1_1_1
n6339_3_1_1,n6339_3_1_1_1
n6340_3_1_1,n6340_3_1_1_1
n6341_3_1_1,n6341_3_1_1_1
n6342_3_1_1,n6342_3_1_1_1
n6343_3_1_1,n6343_3_1_1_1
n6344_3_1_1,n6344_3_1_1_1
n6345_3_1_1,n6345_3_1_1_1
n6346_3_1_1,n6346_3_1_1_1
n6347_3_1_1,n6347_3_1_1_1
n6348_3_1_1,n6348_3_1_1_1
n6349_3_1_1,n6349_3_1_1_1
n6350_3_1_1,n6350_3_1_1_1
n6351_3_1_1,n6351_3_1_1_1
n6352_3_1_1,n6352_3_1_1_1
n6353_3_1_1,n6353_3_1_1_1
n6354_3_1_1,n6354_3_1_1_1
n6355_3_1_1,n6355_3_1_1_1
n6356_3_1_1,n6356_3_1_1_1
n6357_3_1_1,n6357_3_1_1_1
n6358_3_1_1,n6358_3_1_1_1
n6359_3_1_1,n6359_3_1_1_1
n6360_3_1_1,n6360_3_1_1_1
n6361_3_1_1,n6361_3_1_1_1
n6362_3_1_1,n6362_3_1_1_1
n6363_3_1_1,n6363_3_1_1_1
n6364_3_1_1,n6364_3_1_1_1
n6365_3_1_1,n6365_3_1_1_1
n6366_3_1_1,n6366_3_1_1_1
n6367_3_1_1,n6367_3_1_1_1
n6368_3_1_1,n6368_3_1_1_1
n6369_3_1_1,n6369_3_1_1_1
n6370_3_1_1,n6370_3_1_1_1
n6371_3_1_1,n6371_3_1_1_1
n6372_3_1_1,n6372_3_1_1_1
n6373_3_1_1,n6373_3_1_1_1
n6374_3_1_1,n6374_3_1_1_1
n6375_3_1_1,n6375_3_1_1_1
n6376_3_1_1,n6376_3_1_1_1
n6377_3_1_1,n6377_3_1_1_1
n6378_3_1_1,n6378_3_1_1_1
n6379_3_1_1,n6379_3_1_1_1
n6380_3_1_1,n6380_3_1_1_1
n6381_3_1_1,n6381_3_1_1_1
n6382_3_1_1,n6382_3_1_1_1
n6383_3_1_1,n6383_3_1_1_1
n6384_3_1_1,n6384_3_1_1_1
n6385_3_1_1,n6385_3_1_1_1
n6386_3_1_1,n6386_3_1_1_1
n6387_3_1_1,n6387_3_1_1_1
n6388_3_1_1,n6388_3_1_1_1
n6389_3_1_1,n6389_3_1_1_1
n6390_3_1_1,n6390_3_1_1_1
n6391_3_1_1,n6391_3_1_1_1
n6392_3_1_1,n6392_3_1_1_1
n6393_3_1_1,n6393_3_1_1_1
n6394_3_1_1,n6394_3_1_1_1
n6395_3_1_1,n6395_3_1_1_1
n6396_3_1_1,n6396_3_1_1_1
n6397_3_1_1,n6397_3_1_1_1
n6398_3_1_1,n6398_3_1_1_1
n6399_3_1_1,n6399_3_1_1_1
n6400_3_1_1,n6400_3_1_1_1
n6401_3_1_1,n6401_3_1_1_1
n6402_3_1_1,n6402_3_1_1_1
n6403_3_1_1,n6403_3_1_1_1
n6404_3_1_1,n6404_3_1_1_1
n6405_3_1_1,n6405_3_1_1_1
n6406_3_1_1,n6406_3_1_1_1
n6407_3_1_1,n6407_3_1_1_1
n6408_3_1_1,n6408_3_1_1_1
n6409_3_1_1,n6409_3_1_1_1
n6410_3_1_1,n6410_3_1_1_1
n6411_3_1_1,n6411_3_1_1_1
n6412_3_1_1,n6412_3_1_1_1
n6413_3_1_1,n6413_3_1_1_1
n6414_3_1_1,n6414_3_1_1_1
n6415_3_1_1,n6415_3_1_1_1
n6416_3_1_1,n6416_3_1_1_1
n6417_3_1_1,n6417_3_1_1_1
n6418_3_1_1,n6418_3_1_1_1
n6419_3_1_1,n6419_3_1_1_1
n6420_3_1_1,n6420_3_1_1_1
n6421_3_1_1,n6421_3_1_1_1
n6422_3_1_1,n6422_3_1_1_1
n6423_3_1_1,n6423_3_1_1_1
n6424_3_1_1,n6424_3_1_1_1
n6425_3_1_1,n6425_3_1_1_1
n6426_3_1_1,n6426_3_1_1_1
n6427_3_1_1,n6427_3_1_1_1
n6428_3_1_1,n6428_3_1_1_1
n6429_3_1_1,n6429_3_1_1_1
n6430_3_1_1,n6430_3_1_1_1
n6431_3_1_1,n6431_3_1_1_1
n6432_3_1_1,n6432_3_1_1_1
n6433_3_1_1,n6433_3_1_1_1
n6434_3_1_1,n6434_3_1_1_1
n6435_3_1_1,n6435_3_1_1_1
n6436_3_1_1,n6436_3_1_1_1
n6437_3_1_1,n6437_3_1_1_1
n6438_3_1_1,n6438_3_1_1_1
n6439_3_1_1,n6439_3_1_1_1
n6440_3_1_1,n6440_3_1_1_1
n6441_3_1_1,n6441_3_1_1_1
n6442_3_1_1,n6442_3_1_1_1
n6443_3_1_1,n6443_3_1_1_1
n6444_3_1_1,n6444_3_1_1_1
n6445_3_1_1,n6445_3_1_1_1
n6446_3_1_1,n6446_3_1_1_1
n6447_3_1_1,n6447_3_1_1_1
n6448_3_1_1,n6448_3_1_1_1
n6449_3_1_1,n6449_3_1_1_1
n6450_3_1_1,n6450_3_1_1_1
n6451_3_1_1,n6451_3_1_1_1
n6452_3_1_1,n6452_3_1_1_1
n6453_3_1_1,n6453_3_1_1_1
n6454_3_1_1,n6454_3_1_1_1
n6455_3_1_1,n6455_3_1_1_1
n6456_3_1_1,n6456_3_1_1_1
n6457_3_1_1,n6457_3_1_1_1
n6458_3_1_1,n6458_3_1_1_1
n6459_3_1_1,n6459_3_1_1_1
n6460_3_1_1,n6460_3_1_1_1
n6461_3_1_1,n6461_3_1_1_1
n6462_3_1_1,n6462_3_1_1_1
n6463_3_1_1,n6463_3_1_1_1
n6464_3_1_1,n6464_3_1_1_1
n6465_3_1_1,n6465_3_1_1_1
n6466_3_1_1,n6466_3_1_1_1
n6467_3_1_1,n6467_3_1_1_1
n6468_3_1_1,n6468_3_1_1_1
n6469_3_1_1,n6469_3_1_1_1
n6470_3_1_1,n6470_3_1_1_1
n6471_3_1_1,n6471_3_1_1_1
n6472_3_1_1,n6472_3_1_1_1
n6473_3_1_1,n6473_3_1_1_1
n6474_3_1_1,n6474_3_1_1_1
n6475_3_1_1,n6475_3_1_1_1
n6476_3_1_1,n6476_3_1_1_1
n6477_3_1_1,n6477_3_1_1_1
n6478_3_1_1,n6478_3_1_1_1
n6479_3_1_1,n6479_3_1_1_1
n6480_3_1_1,n6480_3_1_1_1
n6481_3_1_1,n6481_3_1_1_1
n6482_3_1_1,n6482_3_1_1_1
n6483_3_1_1,n6483_3_1_1_1
n6484_3_1_1,n6484_3_1_1_1
n6485_3_1_1,n6485_3_1_1_1
n6486_3_1_1,n6486_3_1_1_1
n6487_3_1_1,n6487_3_1_1_1
n6488_3_1_1,n6488_3_1_1_1
n6489_3_1_1,n6489_3_1_1_1
n6490_3_1_1,n6490_3_1_1_1
n6491_3_1_1,n6491_3_1_1_1
n6492_3_1_1,n6492_3_1_1_1
n6493_3_1_1,n6493_3_1_1_1
n6494_3_1_1,n6494_3_1_1_1
n6495_3_1_1,n6495_3_1_1_1
n6496_3_1_1,n6496_3_1_1_1
n6497_3_1_1,n6497_3_1_1_1
n6498_3_1_1,n6498_3_1_1_1
n6499_3_1_1,n6499_3_1_1_1
n6500_3_1_1,n6500_3_1_1_1
n6501_3_1_1,n6501_3_1_1_1
n6502_3_1_1,n6502_3_1_1_1
n6503_3_1_1,n6503_3_1_1_1
n6504_3_1_1,n6504_3_1_1_1
n6505_3_1_1,n6505_3_1_1_1
n6506_3_1_1,n6506_3_1_1_1
n6507_3_1_1,n6507_3_1_1_1
n6508_3_1_1,n6508_3_1_1_1
n6509_3_1_1,n6509_3_1_1_1
n6510_3_1_1,n6510_3_1_1_1
n6511_3_1_1,n6511_3_1_1_1
n6512_3_1_1,n6512_3_1_1_1
n6513_3_1_1,n6513_3_1_1_1
n6514_3_1_1,n6514_3_1_1_1
n6515_3_1_1,n6515_3_1_1_1
n6516_3_1_1,n6516_3_1_1_1
n6517_3_1_1,n6517_3_1_1_1
n6518_3_1_1,n6518_3_1_1_1
n6519_3_1_1,n6519_3_1_1_1
n6520_3_1_1,n6520_3_1_1_1
n6521_3_1_1,n6521_3_1_1_1
n6522_3_1_1,n6522_3_1_1_1
n6523_3_1_1,n6523_3_1_1_1
n6524_3_1_1,n6524_3_1_1_1
n6525_3_1_1,n6525_3_1_1_1
n6526_3_1_1,n6526_3_1_1_1
n6527_3_1_1,n6527_3_1_1_1
n6528_3_1_1,n6528_3_1_1_1
n6529_3_1_1,n6529_3_1_1_1
n6530_3_1_1,n6530_3_1_1_1
n6531_3_1_1,n6531_3_1_1_1
n6532_3_1_1,n6532_3_1_1_1
n6533_3_1_1,n6533_3_1_1_1
n6534_3_1_1,n6534_3_1_1_1
n6535_3_1_1,n6535_3_1_1_1
n6536_3_1_1,n6536_3_1_1_1
n6537_3_1_1,n6537_3_1_1_1
n6538_3_1_1,n6538_3_1_1_1
n6539_3_1_1,n6539_3_1_1_1
n6540_3_1_1,n6540_3_1_1_1
n6541_3_1_1,n6541_3_1_1_1
n6542_3_1_1,n6542_3_1_1_1
n6543_3_1_1,n6543_3_1_1_1
n6544_3_1_1,n6544_3_1_1_1
n6545_3_1_1,n6545_3_1_1_1
n6546_3_1_1,n6546_3_1_1_1
n6547_3_1_1,n6547_3_1_1_1
n6548_3_1_1,n6548_3_1_1_1
n6549_3_1_1,n6549_3_1_1_1
n6550_3_1_1,n6550_3_1_1_1
n6551_3_1_1,n6551_3_1_1_1
n6552_3_1_1,n6552_3_1_1_1
n6553_3_1_1,n6553_3_1_1_1
n6554_3_1_1,n6554_3_1_1_1
n6555_3_1_1,n6555_3_1_1_1
n6556_3_1_1,n6556_3_1_1_1
n6557_3_1_1,n6557_3_1_1_1
n6558_3_1_1,n6558_3_1_1_1
n6559_3_1_1,n6559_3_1_1_1
n6560_3_1_1,n6560_3_1_1_1
n6561_3_1_1,n6561_3_1_1_1
n6562_3_1_1,n6562_3_1_1_1
n6563_3_1_1,n6563_3_1_1_1
n6564_3_1_1,n6564_3_1_1_1
n6565_3_1_1,n6565_3_1_1_1
n6566_3_1_1,n6566_3_1_1_1
n6567_3_1_1,n6567_3_1_1_1
n6568_3_1_1,n6568_3_1_1_1
n6569_3_1_1,n6569_3_1_1_1
n6570_3_1_1,n6570_3_1_1_1
n6571_3_1_1,n6571_3_1_1_1
n6572_3_1_1,n6572_3_1_1_1
n6573_3_1_1,n6573_3_1_1_1
n6574_3_1_1,n6574_3_1_1_1
n6575_3_1_1,n6575_3_1_1_1
n6576_3_1_1,n6576_3_1_1_1
n6577_3_1_1,n6577_3_1_1_1
n6578_3_1_1,n6578_3_1_1_1
n6579_3_1_1,n6579_3_1_1_1
n6580_3_1_1,n6580_3_1_1_1
n6581_3_1_1,n6581_3_1_1_1
n6582_3_1_1,n6582_3_1_1_1
n6583_3_1_1,n6583_3_1_1_1
n6584_3_1_1,n6584_3_1_1_1
n6585_3_1_1,n6585_3_1_1_1
n6586_3_1_1,n6586_3_1_1_1
n6587_3_1_1,n6587_3_1_1_1
n6588_3_1_1,n6588_3_1_1_1
n6589_3_1_1,n6589_3_1_1_1
n6590_3_1_1,n6590_3_1_1_1
n6591_3_1_1,n6591_3_1_1_1
n6592_3_1_1,n6592_3_1_1_1
n6593_3_1_1,n6593_3_1_1_1
n6594_3_1_1,n6594_3_1_1_1
n6595_3_1_1,n6595_3_1_1_1
n6596_3_1_1,n6596_3_1_1_1
n6597_3_1_1,n6597_3_1_1_1
n6598_3_1_1,n6598_3_1_1_1
n6599_3_1_1,n6599_3_1_1_1
n6600_3_1_1,n6600_3_1_1_1
n6601_3_1_1,n6601_3_1_1_1
n6602_3_1_1,n6602_3_1_1_1
n6603_3_1_1,n6603_3_1_1_1
n6604_3_1_1,n6604_3_1_1_1
n6605_3_1_1,n6605_3_1_1_1
n6606_3_1_1,n6606_3_1_1_1
n6607_3_1_1,n6607_3_1_1_1
n6608_3_1_1,n6608_3_1_1_1
n6609_3_1_1,n6609_3_1_1_1
n6610_3_1_1,n6610_3_1_1_1
n6611_3_1_1,n6611_3_1_1_1
n6612_3_1_1,n6612_3_1_1_1
n6613_3_1_1,n6613_3_1_1_1
n6614_3_1_1,n6614_3_1_1_1
n6615_3_1_1,n6615_3_1_1_1
n6616_3_1_1,n6616_3_1_1_1
n6617_3_1_1,n6617_3_1_1_1
n6618_3_1_1,n6618_3_1_1_1
n6619_3_1_1,n6619_3_1_1_1
n6620_3_1_1,n6620_3_1_1_1
n6621_3_1_1,n6621_3_1_1_1
n6622_3_1_1,n6622_3_1_1_1
n6623_3_1_1,n6623_3_1_1_1
n6624_3_1_1,n6624_3_1_1_1
n6625_3_1_1,n6625_3_1_1_1
n6626_3_1_1,n6626_3_1_1_1
n6627_3_1_1,n6627_3_1_1_1
n6628_3_1_1,n6628_3_1_1_1
n6629_3_1_1,n6629_3_1_1_1
n6630_3_1_1,n6630_3_1_1_1
n6631_3_1_1,n6631_3_1_1_1
n6632_3_1_1,n6632_3_1_1_1
n6633_3_1_1,n6633_3_1_1_1
n6634_3_1_1,n6634_3_1_1_1
n6635_3_1_1,n6635_3_1_1_1
n6636_3_1_1,n6636_3_1_1_1
n6637_3_1_1,n6637_3_1_1_1
n6638_3_1_1,n6638_3_1_1_1
n6639_3_1_1,n6639_3_1_1_1
n6640_3_1_1,n6640_3_1_1_1
n6641_3_1_1,n6641_3_1_1_1
n6642_3_1_1,n6642_3_1_1_1
n6643_3_1_1,n6643_3_1_1_1
n6644_3_1_1,n6644_3_1_1_1
n6645_3_1_1,n6645_3_1_1_1
n6646_3_1_1,n6646_3_1_1_1
n6647_3_1_1,n6647_3_1_1_1
n6648_3_1_1,n6648_3_1_1_1
n6649_3_1_1,n6649_3_1_1_1
n6650_3_1_1,n6650_3_1_1_1
n6651_3_1_1,n6651_3_1_1_1
n6652_3_1_1,n6652_3_1_1_1
n6653_3_1_1,n6653_3_1_1_1
n6654_3_1_1,n6654_3_1_1_1
n6655_3_1_1,n6655_3_1_1_1
n6656_3_1_1,n6656_3_1_1_1
n6657_3_1_1,n6657_3_1_1_1
n6658_3_1_1,n6658_3_1_1_1
n6659_3_1_1,n6659_3_1_1_1
n6660_3_1_1,n6660_3_1_1_1
n6661_3_1_1,n6661_3_1_1_1
n6662_3_1_1,n6662_3_1_1_1
n6663_3_1_1,n6663_3_1_1_1
n6664_3_1_1,n6664_3_1_1_1
n6665_3_1_1,n6665_3_1_1_1
n6666_3_1_1,n6666_3_1_1_1
n6667_3_1_1,n6667_3_1_1_1
n6668_3_1_1,n6668_3_1_1_1
n6669_3_1_1,n6669_3_1_1_1
n6670_3_1_1,n6670_3_1_1_1
n6671_3_1_1,n6671_3_1_1_1
n6672_3_1_1,n6672_3_1_1_1
n6673_3_1_1,n6673_3_1_1_1
n6674_3_1_1,n6674_3_1_1_1
n6675_3_1_1,n6675_3_1_1_1
n6676_3_1_1,n6676_3_1_1_1
n6677_3_1_1,n6677_3_1_1_1
n6678_3_1_1,n6678_3_1_1_1
n6679_3_1_1,n6679_3_1_1_1
n6680_3_1_1,n6680_3_1_1_1
n6681_3_1_1,n6681_3_1_1_1
n6682_3_1_1,n6682_3_1_1_1
n6683_3_1_1,n6683_3_1_1_1
n6684_3_1_1,n6684_3_1_1_1
n6685_3_1_1,n6685_3_1_1_1
n6686_3_1_1,n6686_3_1_1_1
n6687_3_1_1,n6687_3_1_1_1
n6688_3_1_1,n6688_3_1_1_1
n6689_3_1_1,n6689_3_1_1_1
n6690_3_1_1,n6690_3_1_1_1
n6691_3_1_1,n6691_3_1_1_1
n6692_3_1_1,n6692_3_1_1_1
n6693_3_1_1,n6693_3_1_1_1
n6694_3_1_1,n6694_3_1_1_1
n6695_3_1_1,n6695_3_1_1_1
n6696_3_1_1,n6696_3_1_1_1
n6697_3_1_1,n6697_3_1_1_1
n6698_3_1_1,n6698_3_1_1_1
n6699_3_1_1,n6699_3_1_1_1
n6700_3_1_1,n6700_3_1_1_1
n6701_3_1_1,n6701_3_1_1_1
n6702_3_1_1,n6702_3_1_1_1
n6703_3_1_1,n6703_3_1_1_1
n6704_3_1_1,n6704_3_1_1_1
n6705_3_1_1,n6705_3_1_1_1
n6706_3_1_1,n6706_3_1_1_1
n6707_3_1_1,n6707_3_1_1_1
n6708_3_1_1,n6708_3_1_1_1
n6709_3_1_1,n6709_3_1_1_1
n6710_3_1_1,n6710_3_1_1_1
n6711_3_1_1,n6711_3_1_1_1
n6712_3_1_1,n6712_3_1_1_1
n6713_3_1_1,n6713_3_1_1_1
n6714_3_1_1,n6714_3_1_1_1
n6715_3_1_1,n6715_3_1_1_1
n6716_3_1_1,n6716_3_1_1_1
n6717_3_1_1,n6717_3_1_1_1
n6718_3_1_1,n6718_3_1_1_1
n6719_3_1_1,n6719_3_1_1_1
n6720_3_1_1,n6720_3_1_1_1
n6721_3_1_1,n6721_3_1_1_1
n6722_3_1_1,n6722_3_1_1_1
n6723_3_1_1,n6723_3_1_1_1
n6724_3_1_1,n6724_3_1_1_1
n6725_3_1_1,n6725_3_1_1_1
n6726_3_1_1,n6726_3_1_1_1
n6727_3_1_1,n6727_3_1_1_1
n6728_3_1_1,n6728_3_1_1_1
n6729_3_1_1,n6729_3_1_1_1
n6730_3_1_1,n6730_3_1_1_1
n6731_3_1_1,n6731_3_1_1_1
n6732_3_1_1,n6732_3_1_1_1
n6733_3_1_1,n6733_3_1_1_1
n6734_3_1_1,n6734_3_1_1_1
n6735_3_1_1,n6735_3_1_1_1
n6736_3_1_1,n6736_3_1_1_1
n6737_3_1_1,n6737_3_1_1_1
n6738_3_1_1,n6738_3_1_1_1
n6739_3_1_1,n6739_3_1_1_1
n6740_3_1_1,n6740_3_1_1_1
n6741_3_1_1,n6741_3_1_1_1
n6742_3_1_1,n6742_3_1_1_1
n6743_3_1_1,n6743_3_1_1_1
n6744_3_1_1,n6744_3_1_1_1
n6745_3_1_1,n6745_3_1_1_1
n6746_3_1_1,n6746_3_1_1_1
n6747_3_1_1,n6747_3_1_1_1
n6748_3_1_1,n6748_3_1_1_1
n6749_3_1_1,n6749_3_1_1_1
n6750_3_1_1,n6750_3_1_1_1
n6751_3_1_1,n6751_3_1_1_1
n6752_3_1_1,n6752_3_1_1_1
n6753_3_1_1,n6753_3_1_1_1
n6754_3_1_1,n6754_3_1_1_1
n6755_3_1_1,n6755_3_1_1_1
n6756_3_1_1,n6756_3_1_1_1
n6757_3_1_1,n6757_3_1_1_1
n6758_3_1_1,n6758_3_1_1_1
n6759_3_1_1,n6759_3_1_1_1
n6760_3_1_1,n6760_3_1_1_1
n6761_3_1_1,n6761_3_1_1_1
n6762_3_1_1,n6762_3_1_1_1
n6763_3_1_1,n6763_3_1_1_1
n6764_3_1_1,n6764_3_1_1_1
n6765_3_1_1,n6765_3_1_1_1
n6766_3_1_1,n6766_3_1_1_1
n6767_3_1_1,n6767_3_1_1_1
n6768_3_1_1,n6768_3_1_1_1
n6769_3_1_1,n6769_3_1_1_1
n6770_3_1_1,n6770_3_1_1_1
n6771_3_1_1,n6771_3_1_1_1
n6772_3_1_1,n6772_3_1_1_1
n6773_3_1_1,n6773_3_1_1_1
n6774_3_1_1,n6774_3_1_1_1
n6775_3_1_1,n6775_3_1_1_1
n6776_3_1_1,n6776_3_1_1_1
n6777_3_1_1,n6777_3_1_1_1
n6778_3_1_1,n6778_3_1_1_1
n6779_3_1_1,n6779_3_1_1_1
n6780_3_1_1,n6780_3_1_1_1
n6781_3_1_1,n6781_3_1_1_1
n6782_3_1_1,n6782_3_1_1_1
n6783_3_1_1,n6783_3_1_1_1
n6784_3_1_1,n6784_3_1_1_1
n6785_3_1_1,n6785_3_1_1_1
n6786_3_1_1,n6786_3_1_1_1
n6787_3_1_1,n6787_3_1_1_1
n6788_3_1_1,n6788_3_1_1_1
n6789_3_1_1,n6789_3_1_1_1
n6790_3_1_1,n6790_3_1_1_1
n6791_3_1_1,n6791_3_1_1_1
n6792_3_1_1,n6792_3_1_1_1
n6793_3_1_1,n6793_3_1_1_1
n6794_3_1_1,n6794_3_1_1_1
n6795_3_1_1,n6795_3_1_1_1
n6796_3_1_1,n6796_3_1_1_1
n6797_3_1_1,n6797_3_1_1_1
n6798_3_1_1,n6798_3_1_1_1
n6799_3_1_1,n6799_3_1_1_1
n6800_3_1_1,n6800_3_1_1_1
n6801_3_1_1,n6801_3_1_1_1
n6802_3_1_1,n6802_3_1_1_1
n6803_3_1_1,n6803_3_1_1_1
n6804_3_1_1,n6804_3_1_1_1
n6805_3_1_1,n6805_3_1_1_1
n6806_3_1_1,n6806_3_1_1_1
n6807_3_1_1,n6807_3_1_1_1
n6808_3_1_1,n6808_3_1_1_1
n6809_3_1_1,n6809_3_1_1_1
n6810_3_1_1,n6810_3_1_1_1
n6811_3_1_1,n6811_3_1_1_1
n6812_3_1_1,n6812_3_1_1_1
n6813_3_1_1,n6813_3_1_1_1
n6814_3_1_1,n6814_3_1_1_1
n6815_3_1_1,n6815_3_1_1_1
n6816_3_1_1,n6816_3_1_1_1
n6817_3_1_1,n6817_3_1_1_1
n6818_3_1_1,n6818_3_1_1_1
n6819_3_1_1,n6819_3_1_1_1
n6820_3_1_1,n6820_3_1_1_1
n6821_3_1_1,n6821_3_1_1_1
n6822_3_1_1,n6822_3_1_1_1
n6823_3_1_1,n6823_3_1_1_1
n6824_3_1_1,n6824_3_1_1_1
n6825_3_1_1,n6825_3_1_1_1
n6826_3_1_1,n6826_3_1_1_1
n6827_3_1_1,n6827_3_1_1_1
n6828_3_1_1,n6828_3_1_1_1
n6829_3_1_1,n6829_3_1_1_1
n6830_3_1_1,n6830_3_1_1_1
n6831_3_1_1,n6831_3_1_1_1
n6832_3_1_1,n6832_3_1_1_1
n6833_3_1_1,n6833_3_1_1_1
n6834_3_1_1,n6834_3_1_1_1
n6835_3_1_1,n6835_3_1_1_1
n6836_3_1_1,n6836_3_1_1_1
n6837_3_1_1,n6837_3_1_1_1
n6838_3_1_1,n6838_3_1_1_1
n6839_3_1_1,n6839_3_1_1_1
n6840_3_1_1,n6840_3_1_1_1
n6841_3_1_1,n6841_3_1_1_1
n6842_3_1_1,n6842_3_1_1_1
n6843_3_1_1,n6843_3_1_1_1
n6844_3_1_1,n6844_3_1_1_1
n6845_3_1_1,n6845_3_1_1_1
n6846_3_1_1,n6846_3_1_1_1
n6847_3_1_1,n6847_3_1_1_1
n6848_3_1_1,n6848_3_1_1_1
n6849_3_1_1,n6849_3_1_1_1
n6850_3_1_1,n6850_3_1_1_1
n6851_3_1_1,n6851_3_1_1_1
n6852_3_1_1,n6852_3_1_1_1
n6853_3_1_1,n6853_3_1_1_1
n6854_3_1_1,n6854_3_1_1_1
n6855_3_1_1,n6855_3_1_1_1
n6856_3_1_1,n6856_3_1_1_1
n6857_3_1_1,n6857_3_1_1_1
n6858_3_1_1,n6858_3_1_1_1
n6859_3_1_1,n6859_3_1_1_1
n6860_3_1_1,n6860_3_1_1_1
n6861_3_1_1,n6861_3_1_1_1
n6862_3_1_1,n6862_3_1_1_1
n6863_3_1_1,n6863_3_1_1_1
n6864_3_1_1,n6864_3_1_1_1
n6865_3_1_1,n6865_3_1_1_1
n6866_3_1_1,n6866_3_1_1_1
n6867_3_1_1,n6867_3_1_1_1
n6868_3_1_1,n6868_3_1_1_1
n6869_3_1_1,n6869_3_1_1_1
n6870_3_1_1,n6870_3_1_1_1
n6871_3_1_1,n6871_3_1_1_1
n6872_3_1_1,n6872_3_1_1_1
n6873_3_1_1,n6873_3_1_1_1
n6874_3_1_1,n6874_3_1_1_1
n6875_3_1_1,n6875_3_1_1_1
n6876_3_1_1,n6876_3_1_1_1
n6877_3_1_1,n6877_3_1_1_1
n6878_3_1_1,n6878_3_1_1_1
n6879_3_1_1,n6879_3_1_1_1
n6880_3_1_1,n6880_3_1_1_1
n6881_3_1_1,n6881_3_1_1_1
n6882_3_1_1,n6882_3_1_1_1
n6883_3_1_1,n6883_3_1_1_1
n6884_3_1_1,n6884_3_1_1_1
n6885_3_1_1,n6885_3_1_1_1
n6886_3_1_1,n6886_3_1_1_1
n6887_3_1_1,n6887_3_1_1_1
n6888_3_1_1,n6888_3_1_1_1
n6889_3_1_1,n6889_3_1_1_1
n6890_3_1_1,n6890_3_1_1_1
n6891_3_1_1,n6891_3_1_1_1
n6892_3_1_1,n6892_3_1_1_1
n6893_3_1_1,n6893_3_1_1_1
n6894_3_1_1,n6894_3_1_1_1
n6895_3_1_1,n6895_3_1_1_1
n6896_3_1_1,n6896_3_1_1_1
n6897_3_1_1,n6897_3_1_1_1
n6898_3_1_1,n6898_3_1_1_1
n6899_3_1_1,n6899_3_1_1_1
n6900_3_1_1,n6900_3_1_1_1
n6901_3_1_1,n6901_3_1_1_1
n6902_3_1_1,n6902_3_1_1_1
n6903_3_1_1,n6903_3_1_1_1
n6904_3_1_1,n6904_3_1_1_1
n6905_3_1_1,n6905_3_1_1_1
n6906_3_1_1,n6906_3_1_1_1
n6907_3_1_1,n6907_3_1_1_1
n6908_3_1_1,n6908_3_1_1_1
n6909_3_1_1,n6909_3_1_1_1
n6910_3_1_1,n6910_3_1_1_1
n6911_3_1_1,n6911_3_1_1_1
n6912_3_1_1,n6912_3_1_1_1
n6913_3_1_1,n6913_3_1_1_1
n6914_3_1_1,n6914_3_1_1_1
n6915_3_1_1,n6915_3_1_1_1
n6916_3_1_1,n6916_3_1_1_1
n6917_3_1_1,n6917_3_1_1_1
n6918_3_1_1,n6918_3_1_1_1
n6919_3_1_1,n6919_3_1_1_1
n6920_3_1_1,n6920_3_1_1_1
n6921_3_1_1,n6921_3_1_1_1
n6922_3_1_1,n6922_3_1_1_1
n6923_3_1_1,n6923_3_1_1_1
n6924_3_1_1,n6924_3_1_1_1
n6925_3_1_1,n6925_3_1_1_1
n6926_3_1_1,n6926_3_1_1_1
n6927_3_1_1,n6927_3_1_1_1
n6928_3_1_1,n6928_3_1_1_1
n6929_3_1_1,n6929_3_1_1_1
n6930_3_1_1,n6930_3_1_1_1
n6931_3_1_1,n6931_3_1_1_1
n6932_3_1_1,n6932_3_1_1_1
n6933_3_1_1,n6933_3_1_1_1
n6934_3_1_1,n6934_3_1_1_1
n6935_3_1_1,n6935_3_1_1_1
n6936_3_1_1,n6936_3_1_1_1
n6937_3_1_1,n6937_3_1_1_1
n6938_3_1_1,n6938_3_1_1_1
n6939_3_1_1,n6939_3_1_1_1
n6940_3_1_1,n6940_3_1_1_1
n6941_3_1_1,n6941_3_1_1_1
n6942_3_1_1,n6942_3_1_1_1
n6943_3_1_1,n6943_3_1_1_1
n6944_3_1_1,n6944_3_1_1_1
n6945_3_1_1,n6945_3_1_1_1
n6946_3_1_1,n6946_3_1_1_1
n6947_3_1_1,n6947_3_1_1_1
n6948_3_1_1,n6948_3_1_1_1
n6949_3_1_1,n6949_3_1_1_1
n6950_3_1_1,n6950_3_1_1_1
n6951_3_1_1,n6951_3_1_1_1
n6952_3_1_1,n6952_3_1_1_1
n6953_3_1_1,n6953_3_1_1_1
n6954_3_1_1,n6954_3_1_1_1
n6955_3_1_1,n6955_3_1_1_1
n6956_3_1_1,n6956_3_1_1_1
n6957_3_1_1,n6957_3_1_1_1
n6958_3_1_1,n6958_3_1_1_1
n6959_3_1_1,n6959_3_1_1_1
n6960_3_1_1,n6960_3_1_1_1
n6961_3_1_1,n6961_3_1_1_1
n6962_3_1_1,n6962_3_1_1_1
n6963_3_1_1,n6963_3_1_1_1
n6964_3_1_1,n6964_3_1_1_1
n6965_3_1_1,n6965_3_1_1_1
n6966_3_1_1,n6966_3_1_1_1
n6967_3_1_1,n6967_3_1_1_1
n6968_3_1_1,n6968_3_1_1_1
n6969_3_1_1,n6969_3_1_1_1
n6970_3_1_1,n6970_3_1_1_1
n6971_3_1_1,n6971_3_1_1_1
n6972_3_1_1,n6972_3_1_1_1
n6973_3_1_1,n6973_3_1_1_1
n6974_3_1_1,n6974_3_1_1_1
n6975_3_1_1,n6975_3_1_1_1
n6976_3_1_1,n6976_3_1_1_1
n6977_3_1_1,n6977_3_1_1_1
n6978_3_1_1,n6978_3_1_1_1
n6979_3_1_1,n6979_3_1_1_1
n6980_3_1_1,n6980_3_1_1_1
n6981_3_1_1,n6981_3_1_1_1
n6982_3_1_1,n6982_3_1_1_1
n6983_3_1_1,n6983_3_1_1_1
n6984_3_1_1,n6984_3_1_1_1
n6985_3_1_1,n6985_3_1_1_1
n6986_3_1_1,n6986_3_1_1_1
n6987_3_1_1,n6987_3_1_1_1
n6988_3_1_1,n6988_3_1_1_1
n6989_3_1_1,n6989_3_1_1_1
n6990_3_1_1,n6990_3_1_1_1
n6991_3_1_1,n6991_3_1_1_1
n6992_3_1_1,n6992_3_1_1_1
n6993_3_1_1,n6993_3_1_1_1
n6994_3_1_1,n6994_3_1_1_1
n6995_3_1_1,n6995_3_1_1_1
n6996_3_1_1,n6996_3_1_1_1
n6997_3_1_1,n6997_3_1_1_1
n6998_3_1_1,n6998_3_1_1_1
n6999_3_1_1,n6999_3_1_1_1
n7000_3_1_1,n7000_3_1_1_1
n7001_3_1_1,n7001_3_1_1_1
n7002_3_1_1,n7002_3_1_1_1
n7003_3_1_1,n7003_3_1_1_1
n7004_3_1_1,n7004_3_1_1_1
n7005_3_1_1,n7005_3_1_1_1
n7006_3_1_1,n7006_3_1_1_1
n7007_3_1_1,n7007_3_1_1_1
n7008_3_1_1,n7008_3_1_1_1
n7009_3_1_1,n7009_3_1_1_1
n7010_3_1_1,n7010_3_1_1_1
n7011_3_1_1,n7011_3_1_1_1
n7012_3_1_1,n7012_3_1_1_1
n7013_3_1_1,n7013_3_1_1_1
n7014_3_1_1,n7014_3_1_1_1
n7015_3_1_1,n7015_3_1_1_1
n7016_3_1_1,n7016_3_1_1_1
n7017_3_1_1,n7017_3_1_1_1
n7018_3_1_1,n7018_3_1_1_1
n7019_3_1_1,n7019_3_1_1_1
n7020_3_1_1,n7020_3_1_1_1
n7021_3_1_1,n7021_3_1_1_1
n7022_3_1_1,n7022_3_1_1_1
n7023_3_1_1,n7023_3_1_1_1
n7024_3_1_1,n7024_3_1_1_1
n7025_3_1_1,n7025_3_1_1_1
n7026_3_1_1,n7026_3_1_1_1
n7027_3_1_1,n7027_3_1_1_1
n7028_3_1_1,n7028_3_1_1_1
n7029_3_1_1,n7029_3_1_1_1
n7030_3_1_1,n7030_3_1_1_1
n7031_3_1_1,n7031_3_1_1_1
n7032_3_1_1,n7032_3_1_1_1
n7033_3_1_1,n7033_3_1_1_1
n7034_3_1_1,n7034_3_1_1_1
n7035_3_1_1,n7035_3_1_1_1
n7036_3_1_1,n7036_3_1_1_1
n7037_3_1_1,n7037_3_1_1_1
n7038_3_1_1,n7038_3_1_1_1
n7039_3_1_1,n7039_3_1_1_1
n7040_3_1_1,n7040_3_1_1_1
n7041_3_1_1,n7041_3_1_1_1
n7042_3_1_1,n7042_3_1_1_1
n7043_3_1_1,n7043_3_1_1_1
n7044_3_1_1,n7044_3_1_1_1
n7045_3_1_1,n7045_3_1_1_1
n7046_3_1_1,n7046_3_1_1_1
n7047_3_1_1,n7047_3_1_1_1
n7048_3_1_1,n7048_3_1_1_1
n7049_3_1_1,n7049_3_1_1_1
n7050_3_1_1,n7050_3_1_1_1
n7051_3_1_1,n7051_3_1_1_1
n7052_3_1_1,n7052_3_1_1_1
n7053_3_1_1,n7053_3_1_1_1
n7054_3_1_1,n7054_3_1_1_1
n7055_3_1_1,n7055_3_1_1_1
n7056_3_1_1,n7056_3_1_1_1
n7057_3_1_1,n7057_3_1_1_1
n7058_3_1_1,n7058_3_1_1_1
n7059_3_1_1,n7059_3_1_1_1
n7060_3_1_1,n7060_3_1_1_1
n7061_3_1_1,n7061_3_1_1_1
n7062_3_1_1,n7062_3_1_1_1
n7063_3_1_1,n7063_3_1_1_1
n7064_3_1_1,n7064_3_1_1_1
n7065_3_1_1,n7065_3_1_1_1
n7066_3_1_1,n7066_3_1_1_1
n7067_3_1_1,n7067_3_1_1_1
n7068_3_1_1,n7068_3_1_1_1
n7069_3_1_1,n7069_3_1_1_1
n7070_3_1_1,n7070_3_1_1_1
n7071_3_1_1,n7071_3_1_1_1
n7072_3_1_1,n7072_3_1_1_1
n7073_3_1_1,n7073_3_1_1_1
n7074_3_1_1,n7074_3_1_1_1
n7075_3_1_1,n7075_3_1_1_1
n7076_3_1_1,n7076_3_1_1_1
n7077_3_1_1,n7077_3_1_1_1
n7078_3_1_1,n7078_3_1_1_1
n7079_3_1_1,n7079_3_1_1_1
n7080_3_1_1,n7080_3_1_1_1
n7081_3_1_1,n7081_3_1_1_1
n7082_3_1_1,n7082_3_1_1_1
n7083_3_1_1,n7083_3_1_1_1
n7084_3_1_1,n7084_3_1_1_1
n7085_3_1_1,n7085_3_1_1_1
n7086_3_1_1,n7086_3_1_1_1
n7087_3_1_1,n7087_3_1_1_1
n7088_3_1_1,n7088_3_1_1_1
n7089_3_1_1,n7089_3_1_1_1
n7090_3_1_1,n7090_3_1_1_1
n7091_3_1_1,n7091_3_1_1_1
n7092_3_1_1,n7092_3_1_1_1
n7093_3_1_1,n7093_3_1_1_1
n7094_3_1_1,n7094_3_1_1_1
n7095_3_1_1,n7095_3_1_1_1
n7096_3_1_1,n7096_3_1_1_1
n7097_3_1_1,n7097_3_1_1_1
n7098_3_1_1,n7098_3_1_1_1
n7099_3_1_1,n7099_3_1_1_1
n7100_3_1_1,n7100_3_1_1_1
