n1_3_1_1_1,n1_3_1_1_1_7
n2_3_1_1_1,n2_3_1_1_1_7
n3_3_1_1_1,n3_3_1_1_1_7
n4_3_1_1_1,n4_3_1_1_1_7
n5_3_1_1_1,n5_3_1_1_1_7
n7_3_1_1_1,n7_3_1_1_1_7
n8_3_1_1_1,n8_3_1_1_1_7
n9_3_1_1_1,n9_3_1_1_1_7
n10_3_1_1_1,n10_3_1_1_1_7
n11_3_1_1_1,n11_3_1_1_1_7
n12_3_1_1_1,n12_3_1_1_1_8
n13_3_1_1_1,n13_3_1_1_1_7
n14_3_1_1_1,n14_3_1_1_1_7
n15_3_1_1_1,n15_3_1_1_1_7
n17_3_1_1_1,n17_3_1_1_1_8
n18_3_1_1_1,n18_3_1_1_1_7
n19_3_1_1_1,n19_3_1_1_1_7
n20_3_1_1_1,n20_3_1_1_1_7
n21_3_1_1_1,n21_3_1_1_1_8
n22_3_1_1_1,n22_3_1_1_1_7
n23_3_1_1_1,n23_3_1_1_1_7
n24_3_1_1_1,n24_3_1_1_1_7
n25_3_1_1_1,n25_3_1_1_1_7
n26_3_1_1_1,n26_3_1_1_1_7
n27_3_1_1_1,n27_3_1_1_1_7
n28_3_1_1_1,n28_3_1_1_1_7
n29_3_1_1_1,n29_3_1_1_1_7
n31_3_1_1_1,n31_3_1_1_1_7
n33_3_1_1_1,n33_3_1_1_1_7
n34_3_1_1_1,n34_3_1_1_1_7
n35_3_1_1_1,n35_3_1_1_1_7
n36_3_1_1_1,n36_3_1_1_1_7
n37_3_1_1_1,n37_3_1_1_1_7
n38_3_1_1_1,n38_3_1_1_1_7
n39_3_1_1_1,n39_3_1_1_1_7
n40_3_1_1_1,n40_3_1_1_1_7
n41_3_1_1_1,n41_3_1_1_1_7
n42_3_1_1_1,n42_3_1_1_1_6
n43_3_1_1_1,n43_3_1_1_1_7
n45_3_1_1_1,n45_3_1_1_1_7
n46_3_1_1_1,n46_3_1_1_1_7
n47_3_1_1_1,n47_3_1_1_1_7
n48_3_1_1_1,n48_3_1_1_1_7
n49_3_1_1_1,n49_3_1_1_1_7
n50_3_1_1_1,n50_3_1_1_1_8
n51_3_1_1_1,n51_3_1_1_1_7
n52_3_1_1_1,n52_3_1_1_1_7
n54_3_1_1_1,n54_3_1_1_1_7
n55_3_1_1_1,n55_3_1_1_1_7
n56_3_1_1_1,n56_3_1_1_1_7
n57_3_1_1_1,n57_3_1_1_1_7
n58_3_1_1_1,n58_3_1_1_1_7
n59_3_1_1_1,n59_3_1_1_1_7
n60_3_1_1_1,n60_3_1_1_1_7
n61_3_1_1_1,n61_3_1_1_1_7
n62_3_1_1_1,n62_3_1_1_1_7
n63_3_1_1_1,n63_3_1_1_1_7
n64_3_1_1_1,n64_3_1_1_1_7
n65_3_1_1_1,n65_3_1_1_1_7
n66_3_1_1_1,n66_3_1_1_1_7
n67_3_1_1_1,n67_3_1_1_1_7
n68_3_1_1_1,n68_3_1_1_1_7
n69_3_1_1_1,n69_3_1_1_1_7
n70_3_1_1_1,n70_3_1_1_1_7
n71_3_1_1_1,n71_3_1_1_1_7
n72_3_1_1_1,n72_3_1_1_1_8
n73_3_1_1_1,n73_3_1_1_1_7
n74_3_1_1_1,n74_3_1_1_1_7
n75_3_1_1_1,n75_3_1_1_1_7
n76_3_1_1_1,n76_3_1_1_1_7
n77_3_1_1_1,n77_3_1_1_1_7
n78_3_1_1_1,n78_3_1_1_1_7
n80_3_1_1_1,n80_3_1_1_1_7
n81_3_1_1_1,n81_3_1_1_1_7
n82_3_1_1_1,n82_3_1_1_1_7
n83_3_1_1_1,n83_3_1_1_1_8
n84_3_1_1_1,n84_3_1_1_1_8
n85_3_1_1_1,n85_3_1_1_1_7
n86_3_1_1_1,n86_3_1_1_1_7
n87_3_1_1_1,n87_3_1_1_1_7
n88_3_1_1_1,n88_3_1_1_1_7
n89_3_1_1_1,n89_3_1_1_1_7
n90_3_1_1_1,n90_3_1_1_1_7
n91_3_1_1_1,n91_3_1_1_1_7
n92_3_1_1_1,n92_3_1_1_1_8
n93_3_1_1_1,n93_3_1_1_1_7
n94_3_1_1_1,n94_3_1_1_1_8
n95_3_1_1_1,n95_3_1_1_1_7
n96_3_1_1_1,n96_3_1_1_1_6
n97_3_1_1_1,n97_3_1_1_1_7
n99_3_1_1_1,n99_3_1_1_1_7
n100_3_1_1_1,n100_3_1_1_1_7
n101_3_1_1_1,n101_3_1_1_1_7
n102_3_1_1_1,n102_3_1_1_1_7
n103_3_1_1_1,n103_3_1_1_1_7
n104_3_1_1_1,n104_3_1_1_1_7
n105_3_1_1_1,n105_3_1_1_1_7
n106_3_1_1_1,n106_3_1_1_1_7
n107_3_1_1_1,n107_3_1_1_1_7
n108_3_1_1_1,n108_3_1_1_1_7
n109_3_1_1_1,n109_3_1_1_1_7
n110_3_1_1_1,n110_3_1_1_1_7
n111_3_1_1_1,n111_3_1_1_1_6
n112_3_1_1_1,n112_3_1_1_1_7
n113_3_1_1_1,n113_3_1_1_1_7
n114_3_1_1_1,n114_3_1_1_1_7
n115_3_1_1_1,n115_3_1_1_1_7
n117_3_1_1_1,n117_3_1_1_1_7
n118_3_1_1_1,n118_3_1_1_1_7
n119_3_1_1_1,n119_3_1_1_1_7
n120_3_1_1_1,n120_3_1_1_1_7
n121_3_1_1_1,n121_3_1_1_1_7
n122_3_1_1_1,n122_3_1_1_1_7
n123_3_1_1_1,n123_3_1_1_1_7
n124_3_1_1_1,n124_3_1_1_1_7
n125_3_1_1_1,n125_3_1_1_1_7
n126_3_1_1_1,n126_3_1_1_1_6
n127_3_1_1_1,n127_3_1_1_1_7
n128_3_1_1_1,n128_3_1_1_1_7
n129_3_1_1_1,n129_3_1_1_1_7
n130_3_1_1_1,n130_3_1_1_1_7
n131_3_1_1_1,n131_3_1_1_1_7
n132_3_1_1_1,n132_3_1_1_1_7
n133_3_1_1_1,n133_3_1_1_1_7
n134_3_1_1_1,n134_3_1_1_1_7
n135_3_1_1_1,n135_3_1_1_1_8
n136_3_1_1_1,n136_3_1_1_1_7
n137_3_1_1_1,n137_3_1_1_1_7
n139_3_1_1_1,n139_3_1_1_1_7
n140_3_1_1_1,n140_3_1_1_1_7
n141_3_1_1_1,n141_3_1_1_1_7
n142_3_1_1_1,n142_3_1_1_1_7
n143_3_1_1_1,n143_3_1_1_1_7
n144_3_1_1_1,n144_3_1_1_1_7
n145_3_1_1_1,n145_3_1_1_1_7
n146_3_1_1_1,n146_3_1_1_1_8
n147_3_1_1_1,n147_3_1_1_1_7
n148_3_1_1_1,n148_3_1_1_1_6
n149_3_1_1_1,n149_3_1_1_1_7
n150_3_1_1_1,n150_3_1_1_1_7
n151_3_1_1_1,n151_3_1_1_1_7
n152_3_1_1_1,n152_3_1_1_1_7
n153_3_1_1_1,n153_3_1_1_1_8
n155_3_1_1_1,n155_3_1_1_1_7
n156_3_1_1_1,n156_3_1_1_1_7
n157_3_1_1_1,n157_3_1_1_1_7
n158_3_1_1_1,n158_3_1_1_1_7
n159_3_1_1_1,n159_3_1_1_1_7
n160_3_1_1_1,n160_3_1_1_1_7
n161_3_1_1_1,n161_3_1_1_1_8
n162_3_1_1_1,n162_3_1_1_1_7
n163_3_1_1_1,n163_3_1_1_1_7
n164_3_1_1_1,n164_3_1_1_1_7
n165_3_1_1_1,n165_3_1_1_1_7
n166_3_1_1_1,n166_3_1_1_1_7
n167_3_1_1_1,n167_3_1_1_1_6
n168_3_1_1_1,n168_3_1_1_1_7
n169_3_1_1_1,n169_3_1_1_1_7
n170_3_1_1_1,n170_3_1_1_1_6
n171_3_1_1_1,n171_3_1_1_1_7
n172_3_1_1_1,n172_3_1_1_1_7
n173_3_1_1_1,n173_3_1_1_1_7
n174_3_1_1_1,n174_3_1_1_1_7
n175_3_1_1_1,n175_3_1_1_1_7
n176_3_1_1_1,n176_3_1_1_1_7
n177_3_1_1_1,n177_3_1_1_1_7
n178_3_1_1_1,n178_3_1_1_1_7
n179_3_1_1_1,n179_3_1_1_1_7
n180_3_1_1_1,n180_3_1_1_1_7
n181_3_1_1_1,n181_3_1_1_1_7
n182_3_1_1_1,n182_3_1_1_1_7
n184_3_1_1_1,n184_3_1_1_1_7
n185_3_1_1_1,n185_3_1_1_1_7
n186_3_1_1_1,n186_3_1_1_1_7
n187_3_1_1_1,n187_3_1_1_1_8
n188_3_1_1_1,n188_3_1_1_1_8
n189_3_1_1_1,n189_3_1_1_1_8
n190_3_1_1_1,n190_3_1_1_1_7
n191_3_1_1_1,n191_3_1_1_1_7
n192_3_1_1_1,n192_3_1_1_1_7
n194_3_1_1_1,n194_3_1_1_1_7
n195_3_1_1_1,n195_3_1_1_1_7
n196_3_1_1_1,n196_3_1_1_1_7
n197_3_1_1_1,n197_3_1_1_1_7
n198_3_1_1_1,n198_3_1_1_1_7
n199_3_1_1_1,n199_3_1_1_1_7
n200_3_1_1_1,n200_3_1_1_1_7
n201_3_1_1_1,n201_3_1_1_1_7
n202_3_1_1_1,n202_3_1_1_1_7
n203_3_1_1_1,n203_3_1_1_1_7
n204_3_1_1_1,n204_3_1_1_1_6
n205_3_1_1_1,n205_3_1_1_1_7
n206_3_1_1_1,n206_3_1_1_1_7
n207_3_1_1_1,n207_3_1_1_1_7
n208_3_1_1_1,n208_3_1_1_1_7
n209_3_1_1_1,n209_3_1_1_1_8
n210_3_1_1_1,n210_3_1_1_1_7
n211_3_1_1_1,n211_3_1_1_1_6
n212_3_1_1_1,n212_3_1_1_1_7
n213_3_1_1_1,n213_3_1_1_1_7
n214_3_1_1_1,n214_3_1_1_1_7
n215_3_1_1_1,n215_3_1_1_1_7
n216_3_1_1_1,n216_3_1_1_1_7
n217_3_1_1_1,n217_3_1_1_1_7
n219_3_1_1_1,n219_3_1_1_1_7
n220_3_1_1_1,n220_3_1_1_1_7
n221_3_1_1_1,n221_3_1_1_1_7
n222_3_1_1_1,n222_3_1_1_1_7
n224_3_1_1_1,n224_3_1_1_1_7
n225_3_1_1_1,n225_3_1_1_1_7
n226_3_1_1_1,n226_3_1_1_1_7
n227_3_1_1_1,n227_3_1_1_1_7
n228_3_1_1_1,n228_3_1_1_1_8
n229_3_1_1_1,n229_3_1_1_1_7
n230_3_1_1_1,n230_3_1_1_1_7
n231_3_1_1_1,n231_3_1_1_1_7
n232_3_1_1_1,n232_3_1_1_1_7
n233_3_1_1_1,n233_3_1_1_1_8
n234_3_1_1_1,n234_3_1_1_1_7
n235_3_1_1_1,n235_3_1_1_1_7
n236_3_1_1_1,n236_3_1_1_1_7
n237_3_1_1_1,n237_3_1_1_1_7
n238_3_1_1_1,n238_3_1_1_1_7
n239_3_1_1_1,n239_3_1_1_1_7
n240_3_1_1_1,n240_3_1_1_1_7
n241_3_1_1_1,n241_3_1_1_1_7
n242_3_1_1_1,n242_3_1_1_1_7
n243_3_1_1_1,n243_3_1_1_1_7
n244_3_1_1_1,n244_3_1_1_1_8
n245_3_1_1_1,n245_3_1_1_1_7
n246_3_1_1_1,n246_3_1_1_1_7
n247_3_1_1_1,n247_3_1_1_1_7
n248_3_1_1_1,n248_3_1_1_1_7
n249_3_1_1_1,n249_3_1_1_1_7
n250_3_1_1_1,n250_3_1_1_1_7
n251_3_1_1_1,n251_3_1_1_1_7
n252_3_1_1_1,n252_3_1_1_1_7
n253_3_1_1_1,n253_3_1_1_1_7
n254_3_1_1_1,n254_3_1_1_1_7
n255_3_1_1_1,n255_3_1_1_1_7
n256_3_1_1_1,n256_3_1_1_1_7
n257_3_1_1_1,n257_3_1_1_1_7
n258_3_1_1_1,n258_3_1_1_1_7
n259_3_1_1_1,n259_3_1_1_1_7
n260_3_1_1_1,n260_3_1_1_1_7
n261_3_1_1_1,n261_3_1_1_1_7
n263_3_1_1_1,n263_3_1_1_1_7
n264_3_1_1_1,n264_3_1_1_1_7
n265_3_1_1_1,n265_3_1_1_1_7
n266_3_1_1_1,n266_3_1_1_1_6
n267_3_1_1_1,n267_3_1_1_1_8
n268_3_1_1_1,n268_3_1_1_1_7
n269_3_1_1_1,n269_3_1_1_1_7
n270_3_1_1_1,n270_3_1_1_1_7
n271_3_1_1_1,n271_3_1_1_1_7
n272_3_1_1_1,n272_3_1_1_1_7
n273_3_1_1_1,n273_3_1_1_1_7
n274_3_1_1_1,n274_3_1_1_1_7
n275_3_1_1_1,n275_3_1_1_1_7
n277_3_1_1_1,n277_3_1_1_1_7
n279_3_1_1_1,n279_3_1_1_1_7
n280_3_1_1_1,n280_3_1_1_1_7
n281_3_1_1_1,n281_3_1_1_1_7
n282_3_1_1_1,n282_3_1_1_1_7
n283_3_1_1_1,n283_3_1_1_1_7
n284_3_1_1_1,n284_3_1_1_1_8
n285_3_1_1_1,n285_3_1_1_1_8
n286_3_1_1_1,n286_3_1_1_1_7
n287_3_1_1_1,n287_3_1_1_1_7
n288_3_1_1_1,n288_3_1_1_1_7
n289_3_1_1_1,n289_3_1_1_1_7
n291_3_1_1_1,n291_3_1_1_1_7
n292_3_1_1_1,n292_3_1_1_1_6
n293_3_1_1_1,n293_3_1_1_1_7
n294_3_1_1_1,n294_3_1_1_1_7
n295_3_1_1_1,n295_3_1_1_1_7
n296_3_1_1_1,n296_3_1_1_1_7
n297_3_1_1_1,n297_3_1_1_1_7
n299_3_1_1_1,n299_3_1_1_1_7
n300_3_1_1_1,n300_3_1_1_1_7
n301_3_1_1_1,n301_3_1_1_1_7
n302_3_1_1_1,n302_3_1_1_1_7
n303_3_1_1_1,n303_3_1_1_1_7
n304_3_1_1_1,n304_3_1_1_1_7
n306_3_1_1_1,n306_3_1_1_1_8
n307_3_1_1_1,n307_3_1_1_1_7
n308_3_1_1_1,n308_3_1_1_1_7
n309_3_1_1_1,n309_3_1_1_1_7
n310_3_1_1_1,n310_3_1_1_1_7
n311_3_1_1_1,n311_3_1_1_1_7
n312_3_1_1_1,n312_3_1_1_1_7
n313_3_1_1_1,n313_3_1_1_1_7
n314_3_1_1_1,n314_3_1_1_1_7
n315_3_1_1_1,n315_3_1_1_1_6
n316_3_1_1_1,n316_3_1_1_1_7
n317_3_1_1_1,n317_3_1_1_1_7
n318_3_1_1_1,n318_3_1_1_1_7
n319_3_1_1_1,n319_3_1_1_1_7
n320_3_1_1_1,n320_3_1_1_1_7
n321_3_1_1_1,n321_3_1_1_1_7
n322_3_1_1_1,n322_3_1_1_1_7
n323_3_1_1_1,n323_3_1_1_1_7
n324_3_1_1_1,n324_3_1_1_1_7
n326_3_1_1_1,n326_3_1_1_1_7
n327_3_1_1_1,n327_3_1_1_1_7
n328_3_1_1_1,n328_3_1_1_1_8
n329_3_1_1_1,n329_3_1_1_1_7
n330_3_1_1_1,n330_3_1_1_1_7
n331_3_1_1_1,n331_3_1_1_1_7
n332_3_1_1_1,n332_3_1_1_1_7
n333_3_1_1_1,n333_3_1_1_1_7
n334_3_1_1_1,n334_3_1_1_1_8
n335_3_1_1_1,n335_3_1_1_1_7
n336_3_1_1_1,n336_3_1_1_1_7
n337_3_1_1_1,n337_3_1_1_1_8
n338_3_1_1_1,n338_3_1_1_1_7
n339_3_1_1_1,n339_3_1_1_1_7
n340_3_1_1_1,n340_3_1_1_1_7
n341_3_1_1_1,n341_3_1_1_1_7
n342_3_1_1_1,n342_3_1_1_1_7
n343_3_1_1_1,n343_3_1_1_1_7
n344_3_1_1_1,n344_3_1_1_1_7
n345_3_1_1_1,n345_3_1_1_1_7
n346_3_1_1_1,n346_3_1_1_1_8
n347_3_1_1_1,n347_3_1_1_1_7
n348_3_1_1_1,n348_3_1_1_1_7
n349_3_1_1_1,n349_3_1_1_1_7
n350_3_1_1_1,n350_3_1_1_1_7
n351_3_1_1_1,n351_3_1_1_1_7
n352_3_1_1_1,n352_3_1_1_1_7
n353_3_1_1_1,n353_3_1_1_1_7
n354_3_1_1_1,n354_3_1_1_1_7
n356_3_1_1_1,n356_3_1_1_1_8
n357_3_1_1_1,n357_3_1_1_1_7
n358_3_1_1_1,n358_3_1_1_1_7
n359_3_1_1_1,n359_3_1_1_1_7
n360_3_1_1_1,n360_3_1_1_1_8
n361_3_1_1_1,n361_3_1_1_1_7
n362_3_1_1_1,n362_3_1_1_1_7
n363_3_1_1_1,n363_3_1_1_1_8
n364_3_1_1_1,n364_3_1_1_1_7
n365_3_1_1_1,n365_3_1_1_1_8
n366_3_1_1_1,n366_3_1_1_1_7
n367_3_1_1_1,n367_3_1_1_1_7
n368_3_1_1_1,n368_3_1_1_1_7
n369_3_1_1_1,n369_3_1_1_1_7
n370_3_1_1_1,n370_3_1_1_1_7
n371_3_1_1_1,n371_3_1_1_1_7
n372_3_1_1_1,n372_3_1_1_1_7
n373_3_1_1_1,n373_3_1_1_1_7
n375_3_1_1_1,n375_3_1_1_1_7
n376_3_1_1_1,n376_3_1_1_1_7
n377_3_1_1_1,n377_3_1_1_1_7
n378_3_1_1_1,n378_3_1_1_1_7
n379_3_1_1_1,n379_3_1_1_1_7
n380_3_1_1_1,n380_3_1_1_1_7
n381_3_1_1_1,n381_3_1_1_1_7
n382_3_1_1_1,n382_3_1_1_1_7
n383_3_1_1_1,n383_3_1_1_1_7
n384_3_1_1_1,n384_3_1_1_1_7
n385_3_1_1_1,n385_3_1_1_1_7
n386_3_1_1_1,n386_3_1_1_1_7
n387_3_1_1_1,n387_3_1_1_1_7
n388_3_1_1_1,n388_3_1_1_1_6
n389_3_1_1_1,n389_3_1_1_1_7
n390_3_1_1_1,n390_3_1_1_1_7
n391_3_1_1_1,n391_3_1_1_1_7
n392_3_1_1_1,n392_3_1_1_1_8
n393_3_1_1_1,n393_3_1_1_1_7
n394_3_1_1_1,n394_3_1_1_1_7
n395_3_1_1_1,n395_3_1_1_1_8
n396_3_1_1_1,n396_3_1_1_1_7
n397_3_1_1_1,n397_3_1_1_1_7
n399_3_1_1_1,n399_3_1_1_1_7
n400_3_1_1_1,n400_3_1_1_1_8
n401_3_1_1_1,n401_3_1_1_1_7
n402_3_1_1_1,n402_3_1_1_1_8
n403_3_1_1_1,n403_3_1_1_1_7
n404_3_1_1_1,n404_3_1_1_1_8
n405_3_1_1_1,n405_3_1_1_1_7
n406_3_1_1_1,n406_3_1_1_1_7
n407_3_1_1_1,n407_3_1_1_1_7
n408_3_1_1_1,n408_3_1_1_1_7
n409_3_1_1_1,n409_3_1_1_1_7
n411_3_1_1_1,n411_3_1_1_1_7
n412_3_1_1_1,n412_3_1_1_1_7
n414_3_1_1_1,n414_3_1_1_1_7
n415_3_1_1_1,n415_3_1_1_1_7
n416_3_1_1_1,n416_3_1_1_1_7
n417_3_1_1_1,n417_3_1_1_1_7
n418_3_1_1_1,n418_3_1_1_1_7
n421_3_1_1_1,n421_3_1_1_1_7
n422_3_1_1_1,n422_3_1_1_1_8
n423_3_1_1_1,n423_3_1_1_1_7
n424_3_1_1_1,n424_3_1_1_1_7
n425_3_1_1_1,n425_3_1_1_1_7
n426_3_1_1_1,n426_3_1_1_1_7
n427_3_1_1_1,n427_3_1_1_1_7
n428_3_1_1_1,n428_3_1_1_1_7
n429_3_1_1_1,n429_3_1_1_1_7
n430_3_1_1_1,n430_3_1_1_1_7
n431_3_1_1_1,n431_3_1_1_1_7
n432_3_1_1_1,n432_3_1_1_1_7
n433_3_1_1_1,n433_3_1_1_1_8
n434_3_1_1_1,n434_3_1_1_1_6
n435_3_1_1_1,n435_3_1_1_1_8
n436_3_1_1_1,n436_3_1_1_1_7
n437_3_1_1_1,n437_3_1_1_1_7
n438_3_1_1_1,n438_3_1_1_1_8
n439_3_1_1_1,n439_3_1_1_1_7
n440_3_1_1_1,n440_3_1_1_1_7
n441_3_1_1_1,n441_3_1_1_1_7
n442_3_1_1_1,n442_3_1_1_1_7
n443_3_1_1_1,n443_3_1_1_1_7
n444_3_1_1_1,n444_3_1_1_1_7
n445_3_1_1_1,n445_3_1_1_1_7
n446_3_1_1_1,n446_3_1_1_1_7
n447_3_1_1_1,n447_3_1_1_1_7
n448_3_1_1_1,n448_3_1_1_1_7
n449_3_1_1_1,n449_3_1_1_1_7
n450_3_1_1_1,n450_3_1_1_1_7
n452_3_1_1_1,n452_3_1_1_1_7
n453_3_1_1_1,n453_3_1_1_1_7
n454_3_1_1_1,n454_3_1_1_1_7
n455_3_1_1_1,n455_3_1_1_1_7
n456_3_1_1_1,n456_3_1_1_1_8
n457_3_1_1_1,n457_3_1_1_1_7
n458_3_1_1_1,n458_3_1_1_1_7
n459_3_1_1_1,n459_3_1_1_1_7
n460_3_1_1_1,n460_3_1_1_1_7
n461_3_1_1_1,n461_3_1_1_1_7
n462_3_1_1_1,n462_3_1_1_1_7
n463_3_1_1_1,n463_3_1_1_1_6
n464_3_1_1_1,n464_3_1_1_1_7
n465_3_1_1_1,n465_3_1_1_1_7
n466_3_1_1_1,n466_3_1_1_1_7
n467_3_1_1_1,n467_3_1_1_1_8
n468_3_1_1_1,n468_3_1_1_1_7
n469_3_1_1_1,n469_3_1_1_1_8
n470_3_1_1_1,n470_3_1_1_1_7
n471_3_1_1_1,n471_3_1_1_1_7
n472_3_1_1_1,n472_3_1_1_1_7
n473_3_1_1_1,n473_3_1_1_1_8
n474_3_1_1_1,n474_3_1_1_1_7
n475_3_1_1_1,n475_3_1_1_1_7
n477_3_1_1_1,n477_3_1_1_1_7
n478_3_1_1_1,n478_3_1_1_1_7
n479_3_1_1_1,n479_3_1_1_1_7
n480_3_1_1_1,n480_3_1_1_1_7
n481_3_1_1_1,n481_3_1_1_1_8
n482_3_1_1_1,n482_3_1_1_1_7
n483_3_1_1_1,n483_3_1_1_1_7
n484_3_1_1_1,n484_3_1_1_1_7
n485_3_1_1_1,n485_3_1_1_1_7
n486_3_1_1_1,n486_3_1_1_1_7
n487_3_1_1_1,n487_3_1_1_1_7
n488_3_1_1_1,n488_3_1_1_1_7
n489_3_1_1_1,n489_3_1_1_1_7
n490_3_1_1_1,n490_3_1_1_1_7
n491_3_1_1_1,n491_3_1_1_1_7
n492_3_1_1_1,n492_3_1_1_1_6
n494_3_1_1_1,n494_3_1_1_1_7
n495_3_1_1_1,n495_3_1_1_1_8
n496_3_1_1_1,n496_3_1_1_1_7
n497_3_1_1_1,n497_3_1_1_1_8
n498_3_1_1_1,n498_3_1_1_1_7
n499_3_1_1_1,n499_3_1_1_1_7
n501_3_1_1_1,n501_3_1_1_1_7
n502_3_1_1_1,n502_3_1_1_1_7
n503_3_1_1_1,n503_3_1_1_1_7
n504_3_1_1_1,n504_3_1_1_1_7
n505_3_1_1_1,n505_3_1_1_1_7
n506_3_1_1_1,n506_3_1_1_1_7
n507_3_1_1_1,n507_3_1_1_1_7
n509_3_1_1_1,n509_3_1_1_1_7
n510_3_1_1_1,n510_3_1_1_1_8
n511_3_1_1_1,n511_3_1_1_1_7
n512_3_1_1_1,n512_3_1_1_1_7
n513_3_1_1_1,n513_3_1_1_1_7
n514_3_1_1_1,n514_3_1_1_1_7
n515_3_1_1_1,n515_3_1_1_1_7
n518_3_1_1_1,n518_3_1_1_1_6
n519_3_1_1_1,n519_3_1_1_1_7
n520_3_1_1_1,n520_3_1_1_1_7
n521_3_1_1_1,n521_3_1_1_1_7
n523_3_1_1_1,n523_3_1_1_1_7
n524_3_1_1_1,n524_3_1_1_1_7
n525_3_1_1_1,n525_3_1_1_1_7
n526_3_1_1_1,n526_3_1_1_1_7
n527_3_1_1_1,n527_3_1_1_1_7
n528_3_1_1_1,n528_3_1_1_1_7
n529_3_1_1_1,n529_3_1_1_1_7
n530_3_1_1_1,n530_3_1_1_1_7
n531_3_1_1_1,n531_3_1_1_1_7
n532_3_1_1_1,n532_3_1_1_1_7
n533_3_1_1_1,n533_3_1_1_1_7
n534_3_1_1_1,n534_3_1_1_1_7
n535_3_1_1_1,n535_3_1_1_1_7
n536_3_1_1_1,n536_3_1_1_1_8
n537_3_1_1_1,n537_3_1_1_1_7
n538_3_1_1_1,n538_3_1_1_1_8
n539_3_1_1_1,n539_3_1_1_1_7
n541_3_1_1_1,n541_3_1_1_1_7
n542_3_1_1_1,n542_3_1_1_1_7
n543_3_1_1_1,n543_3_1_1_1_7
n544_3_1_1_1,n544_3_1_1_1_7
n545_3_1_1_1,n545_3_1_1_1_7
n547_3_1_1_1,n547_3_1_1_1_7
n548_3_1_1_1,n548_3_1_1_1_7
n549_3_1_1_1,n549_3_1_1_1_7
n550_3_1_1_1,n550_3_1_1_1_7
n551_3_1_1_1,n551_3_1_1_1_7
n552_3_1_1_1,n552_3_1_1_1_7
n553_3_1_1_1,n553_3_1_1_1_7
n554_3_1_1_1,n554_3_1_1_1_7
n555_3_1_1_1,n555_3_1_1_1_8
n556_3_1_1_1,n556_3_1_1_1_7
n557_3_1_1_1,n557_3_1_1_1_7
n558_3_1_1_1,n558_3_1_1_1_7
n559_3_1_1_1,n559_3_1_1_1_7
n560_3_1_1_1,n560_3_1_1_1_6
n561_3_1_1_1,n561_3_1_1_1_7
n562_3_1_1_1,n562_3_1_1_1_7
n563_3_1_1_1,n563_3_1_1_1_7
n564_3_1_1_1,n564_3_1_1_1_8
n565_3_1_1_1,n565_3_1_1_1_7
n566_3_1_1_1,n566_3_1_1_1_6
n567_3_1_1_1,n567_3_1_1_1_7
n568_3_1_1_1,n568_3_1_1_1_7
n569_3_1_1_1,n569_3_1_1_1_8
n570_3_1_1_1,n570_3_1_1_1_7
n571_3_1_1_1,n571_3_1_1_1_7
n572_3_1_1_1,n572_3_1_1_1_7
n573_3_1_1_1,n573_3_1_1_1_7
n574_3_1_1_1,n574_3_1_1_1_7
n575_3_1_1_1,n575_3_1_1_1_8
n576_3_1_1_1,n576_3_1_1_1_7
n577_3_1_1_1,n577_3_1_1_1_7
n578_3_1_1_1,n578_3_1_1_1_6
n579_3_1_1_1,n579_3_1_1_1_7
n580_3_1_1_1,n580_3_1_1_1_7
n581_3_1_1_1,n581_3_1_1_1_7
n582_3_1_1_1,n582_3_1_1_1_7
n583_3_1_1_1,n583_3_1_1_1_7
n584_3_1_1_1,n584_3_1_1_1_7
n585_3_1_1_1,n585_3_1_1_1_7
n586_3_1_1_1,n586_3_1_1_1_7
n587_3_1_1_1,n587_3_1_1_1_7
n588_3_1_1_1,n588_3_1_1_1_7
n589_3_1_1_1,n589_3_1_1_1_7
n590_3_1_1_1,n590_3_1_1_1_7
n591_3_1_1_1,n591_3_1_1_1_7
n592_3_1_1_1,n592_3_1_1_1_7
n593_3_1_1_1,n593_3_1_1_1_7
n594_3_1_1_1,n594_3_1_1_1_8
n595_3_1_1_1,n595_3_1_1_1_7
n596_3_1_1_1,n596_3_1_1_1_8
n598_3_1_1_1,n598_3_1_1_1_7
n599_3_1_1_1,n599_3_1_1_1_8
n600_3_1_1_1,n600_3_1_1_1_7
n601_3_1_1_1,n601_3_1_1_1_7
n602_3_1_1_1,n602_3_1_1_1_7
n603_3_1_1_1,n603_3_1_1_1_7
n604_3_1_1_1,n604_3_1_1_1_8
n605_3_1_1_1,n605_3_1_1_1_7
n606_3_1_1_1,n606_3_1_1_1_7
n607_3_1_1_1,n607_3_1_1_1_7
n608_3_1_1_1,n608_3_1_1_1_6
n609_3_1_1_1,n609_3_1_1_1_7
n610_3_1_1_1,n610_3_1_1_1_7
n611_3_1_1_1,n611_3_1_1_1_7
n612_3_1_1_1,n612_3_1_1_1_7
n614_3_1_1_1,n614_3_1_1_1_6
n615_3_1_1_1,n615_3_1_1_1_7
n616_3_1_1_1,n616_3_1_1_1_8
n617_3_1_1_1,n617_3_1_1_1_7
n618_3_1_1_1,n618_3_1_1_1_6
n619_3_1_1_1,n619_3_1_1_1_7
n620_3_1_1_1,n620_3_1_1_1_7
n621_3_1_1_1,n621_3_1_1_1_7
n622_3_1_1_1,n622_3_1_1_1_7
n623_3_1_1_1,n623_3_1_1_1_8
n624_3_1_1_1,n624_3_1_1_1_7
n625_3_1_1_1,n625_3_1_1_1_7
n626_3_1_1_1,n626_3_1_1_1_7
n627_3_1_1_1,n627_3_1_1_1_7
n628_3_1_1_1,n628_3_1_1_1_7
n629_3_1_1_1,n629_3_1_1_1_7
n630_3_1_1_1,n630_3_1_1_1_7
n631_3_1_1_1,n631_3_1_1_1_7
n632_3_1_1_1,n632_3_1_1_1_7
n633_3_1_1_1,n633_3_1_1_1_7
n634_3_1_1_1,n634_3_1_1_1_7
n635_3_1_1_1,n635_3_1_1_1_7
n636_3_1_1_1,n636_3_1_1_1_7
n637_3_1_1_1,n637_3_1_1_1_7
n638_3_1_1_1,n638_3_1_1_1_7
n640_3_1_1_1,n640_3_1_1_1_7
n641_3_1_1_1,n641_3_1_1_1_7
n642_3_1_1_1,n642_3_1_1_1_7
n643_3_1_1_1,n643_3_1_1_1_8
n644_3_1_1_1,n644_3_1_1_1_7
n645_3_1_1_1,n645_3_1_1_1_7
n646_3_1_1_1,n646_3_1_1_1_7
n648_3_1_1_1,n648_3_1_1_1_7
n649_3_1_1_1,n649_3_1_1_1_7
n650_3_1_1_1,n650_3_1_1_1_7
n651_3_1_1_1,n651_3_1_1_1_7
n652_3_1_1_1,n652_3_1_1_1_7
n653_3_1_1_1,n653_3_1_1_1_7
n654_3_1_1_1,n654_3_1_1_1_7
n655_3_1_1_1,n655_3_1_1_1_8
n656_3_1_1_1,n656_3_1_1_1_7
n657_3_1_1_1,n657_3_1_1_1_7
n658_3_1_1_1,n658_3_1_1_1_7
n659_3_1_1_1,n659_3_1_1_1_7
n662_3_1_1_1,n662_3_1_1_1_7
n663_3_1_1_1,n663_3_1_1_1_8
n664_3_1_1_1,n664_3_1_1_1_7
n665_3_1_1_1,n665_3_1_1_1_7
n666_3_1_1_1,n666_3_1_1_1_7
n667_3_1_1_1,n667_3_1_1_1_7
n668_3_1_1_1,n668_3_1_1_1_7
n669_3_1_1_1,n669_3_1_1_1_7
n670_3_1_1_1,n670_3_1_1_1_7
n671_3_1_1_1,n671_3_1_1_1_7
n672_3_1_1_1,n672_3_1_1_1_7
n673_3_1_1_1,n673_3_1_1_1_7
n674_3_1_1_1,n674_3_1_1_1_8
n675_3_1_1_1,n675_3_1_1_1_7
n676_3_1_1_1,n676_3_1_1_1_7
n677_3_1_1_1,n677_3_1_1_1_7
n678_3_1_1_1,n678_3_1_1_1_7
n679_3_1_1_1,n679_3_1_1_1_7
n680_3_1_1_1,n680_3_1_1_1_7
n681_3_1_1_1,n681_3_1_1_1_7
n682_3_1_1_1,n682_3_1_1_1_7
n683_3_1_1_1,n683_3_1_1_1_7
n684_3_1_1_1,n684_3_1_1_1_7
n687_3_1_1_1,n687_3_1_1_1_7
n688_3_1_1_1,n688_3_1_1_1_7
n689_3_1_1_1,n689_3_1_1_1_7
n691_3_1_1_1,n691_3_1_1_1_7
n692_3_1_1_1,n692_3_1_1_1_8
n693_3_1_1_1,n693_3_1_1_1_7
n694_3_1_1_1,n694_3_1_1_1_7
n695_3_1_1_1,n695_3_1_1_1_6
n696_3_1_1_1,n696_3_1_1_1_7
n697_3_1_1_1,n697_3_1_1_1_7
n699_3_1_1_1,n699_3_1_1_1_7
n700_3_1_1_1,n700_3_1_1_1_8
n701_3_1_1_1,n701_3_1_1_1_7
n702_3_1_1_1,n702_3_1_1_1_7
n703_3_1_1_1,n703_3_1_1_1_7
n704_3_1_1_1,n704_3_1_1_1_8
n705_3_1_1_1,n705_3_1_1_1_7
n706_3_1_1_1,n706_3_1_1_1_7
n708_3_1_1_1,n708_3_1_1_1_7
n709_3_1_1_1,n709_3_1_1_1_7
n710_3_1_1_1,n710_3_1_1_1_7
n711_3_1_1_1,n711_3_1_1_1_7
n712_3_1_1_1,n712_3_1_1_1_7
n713_3_1_1_1,n713_3_1_1_1_7
n714_3_1_1_1,n714_3_1_1_1_7
n715_3_1_1_1,n715_3_1_1_1_7
n716_3_1_1_1,n716_3_1_1_1_7
n717_3_1_1_1,n717_3_1_1_1_7
n718_3_1_1_1,n718_3_1_1_1_7
n719_3_1_1_1,n719_3_1_1_1_7
n721_3_1_1_1,n721_3_1_1_1_7
n722_3_1_1_1,n722_3_1_1_1_7
n723_3_1_1_1,n723_3_1_1_1_7
n724_3_1_1_1,n724_3_1_1_1_7
n726_3_1_1_1,n726_3_1_1_1_7
n727_3_1_1_1,n727_3_1_1_1_7
n728_3_1_1_1,n728_3_1_1_1_7
n729_3_1_1_1,n729_3_1_1_1_7
n730_3_1_1_1,n730_3_1_1_1_7
n731_3_1_1_1,n731_3_1_1_1_7
n733_3_1_1_1,n733_3_1_1_1_7
n734_3_1_1_1,n734_3_1_1_1_7
n735_3_1_1_1,n735_3_1_1_1_7
n736_3_1_1_1,n736_3_1_1_1_7
n737_3_1_1_1,n737_3_1_1_1_7
n738_3_1_1_1,n738_3_1_1_1_7
n739_3_1_1_1,n739_3_1_1_1_7
n740_3_1_1_1,n740_3_1_1_1_7
n742_3_1_1_1,n742_3_1_1_1_7
n743_3_1_1_1,n743_3_1_1_1_7
n744_3_1_1_1,n744_3_1_1_1_7
n745_3_1_1_1,n745_3_1_1_1_7
n746_3_1_1_1,n746_3_1_1_1_7
n747_3_1_1_1,n747_3_1_1_1_7
n748_3_1_1_1,n748_3_1_1_1_7
n749_3_1_1_1,n749_3_1_1_1_7
n750_3_1_1_1,n750_3_1_1_1_7
n752_3_1_1_1,n752_3_1_1_1_7
n753_3_1_1_1,n753_3_1_1_1_6
n754_3_1_1_1,n754_3_1_1_1_7
n755_3_1_1_1,n755_3_1_1_1_7
n756_3_1_1_1,n756_3_1_1_1_7
n757_3_1_1_1,n757_3_1_1_1_6
n758_3_1_1_1,n758_3_1_1_1_7
n759_3_1_1_1,n759_3_1_1_1_7
n760_3_1_1_1,n760_3_1_1_1_8
n761_3_1_1_1,n761_3_1_1_1_7
n762_3_1_1_1,n762_3_1_1_1_8
n763_3_1_1_1,n763_3_1_1_1_7
n764_3_1_1_1,n764_3_1_1_1_7
n766_3_1_1_1,n766_3_1_1_1_7
n767_3_1_1_1,n767_3_1_1_1_7
n768_3_1_1_1,n768_3_1_1_1_7
n769_3_1_1_1,n769_3_1_1_1_7
n770_3_1_1_1,n770_3_1_1_1_6
n771_3_1_1_1,n771_3_1_1_1_7
n772_3_1_1_1,n772_3_1_1_1_6
n773_3_1_1_1,n773_3_1_1_1_7
n774_3_1_1_1,n774_3_1_1_1_7
n775_3_1_1_1,n775_3_1_1_1_7
n776_3_1_1_1,n776_3_1_1_1_7
n777_3_1_1_1,n777_3_1_1_1_7
n778_3_1_1_1,n778_3_1_1_1_7
n779_3_1_1_1,n779_3_1_1_1_7
n780_3_1_1_1,n780_3_1_1_1_7
n781_3_1_1_1,n781_3_1_1_1_7
n782_3_1_1_1,n782_3_1_1_1_7
n783_3_1_1_1,n783_3_1_1_1_7
n784_3_1_1_1,n784_3_1_1_1_7
n785_3_1_1_1,n785_3_1_1_1_7
n786_3_1_1_1,n786_3_1_1_1_7
n787_3_1_1_1,n787_3_1_1_1_7
n788_3_1_1_1,n788_3_1_1_1_7
n789_3_1_1_1,n789_3_1_1_1_7
n790_3_1_1_1,n790_3_1_1_1_7
n791_3_1_1_1,n791_3_1_1_1_7
n792_3_1_1_1,n792_3_1_1_1_7
n794_3_1_1_1,n794_3_1_1_1_7
n795_3_1_1_1,n795_3_1_1_1_7
n797_3_1_1_1,n797_3_1_1_1_7
n798_3_1_1_1,n798_3_1_1_1_7
n799_3_1_1_1,n799_3_1_1_1_7
n800_3_1_1_1,n800_3_1_1_1_8
n801_3_1_1_1,n801_3_1_1_1_7
n802_3_1_1_1,n802_3_1_1_1_7
n803_3_1_1_1,n803_3_1_1_1_8
n804_3_1_1_1,n804_3_1_1_1_7
n805_3_1_1_1,n805_3_1_1_1_7
n806_3_1_1_1,n806_3_1_1_1_8
n807_3_1_1_1,n807_3_1_1_1_7
n809_3_1_1_1,n809_3_1_1_1_7
n810_3_1_1_1,n810_3_1_1_1_7
n811_3_1_1_1,n811_3_1_1_1_7
n812_3_1_1_1,n812_3_1_1_1_7
n813_3_1_1_1,n813_3_1_1_1_7
n814_3_1_1_1,n814_3_1_1_1_7
n816_3_1_1_1,n816_3_1_1_1_7
n817_3_1_1_1,n817_3_1_1_1_7
n818_3_1_1_1,n818_3_1_1_1_7
n819_3_1_1_1,n819_3_1_1_1_7
n821_3_1_1_1,n821_3_1_1_1_8
n822_3_1_1_1,n822_3_1_1_1_7
n823_3_1_1_1,n823_3_1_1_1_7
n824_3_1_1_1,n824_3_1_1_1_8
n825_3_1_1_1,n825_3_1_1_1_7
n826_3_1_1_1,n826_3_1_1_1_8
n827_3_1_1_1,n827_3_1_1_1_7
n828_3_1_1_1,n828_3_1_1_1_7
n829_3_1_1_1,n829_3_1_1_1_7
n830_3_1_1_1,n830_3_1_1_1_7
n831_3_1_1_1,n831_3_1_1_1_8
n832_3_1_1_1,n832_3_1_1_1_7
n833_3_1_1_1,n833_3_1_1_1_7
n835_3_1_1_1,n835_3_1_1_1_7
n836_3_1_1_1,n836_3_1_1_1_7
n837_3_1_1_1,n837_3_1_1_1_7
n838_3_1_1_1,n838_3_1_1_1_7
n839_3_1_1_1,n839_3_1_1_1_7
n840_3_1_1_1,n840_3_1_1_1_7
n841_3_1_1_1,n841_3_1_1_1_6
n842_3_1_1_1,n842_3_1_1_1_8
n844_3_1_1_1,n844_3_1_1_1_6
n845_3_1_1_1,n845_3_1_1_1_7
n846_3_1_1_1,n846_3_1_1_1_7
n847_3_1_1_1,n847_3_1_1_1_7
n848_3_1_1_1,n848_3_1_1_1_7
n849_3_1_1_1,n849_3_1_1_1_7
n852_3_1_1_1,n852_3_1_1_1_7
n853_3_1_1_1,n853_3_1_1_1_7
n854_3_1_1_1,n854_3_1_1_1_7
n855_3_1_1_1,n855_3_1_1_1_7
n857_3_1_1_1,n857_3_1_1_1_8
n858_3_1_1_1,n858_3_1_1_1_8
n859_3_1_1_1,n859_3_1_1_1_7
n860_3_1_1_1,n860_3_1_1_1_7
n861_3_1_1_1,n861_3_1_1_1_7
n862_3_1_1_1,n862_3_1_1_1_7
n863_3_1_1_1,n863_3_1_1_1_7
n864_3_1_1_1,n864_3_1_1_1_7
n865_3_1_1_1,n865_3_1_1_1_7
n866_3_1_1_1,n866_3_1_1_1_7
n867_3_1_1_1,n867_3_1_1_1_7
n868_3_1_1_1,n868_3_1_1_1_7
n869_3_1_1_1,n869_3_1_1_1_7
n870_3_1_1_1,n870_3_1_1_1_7
n871_3_1_1_1,n871_3_1_1_1_7
n872_3_1_1_1,n872_3_1_1_1_7
n873_3_1_1_1,n873_3_1_1_1_7
n874_3_1_1_1,n874_3_1_1_1_7
n875_3_1_1_1,n875_3_1_1_1_7
n876_3_1_1_1,n876_3_1_1_1_7
n877_3_1_1_1,n877_3_1_1_1_8
n878_3_1_1_1,n878_3_1_1_1_7
n879_3_1_1_1,n879_3_1_1_1_8
n880_3_1_1_1,n880_3_1_1_1_7
n881_3_1_1_1,n881_3_1_1_1_7
n882_3_1_1_1,n882_3_1_1_1_7
n883_3_1_1_1,n883_3_1_1_1_8
n884_3_1_1_1,n884_3_1_1_1_7
n885_3_1_1_1,n885_3_1_1_1_7
n886_3_1_1_1,n886_3_1_1_1_7
n887_3_1_1_1,n887_3_1_1_1_7
n888_3_1_1_1,n888_3_1_1_1_7
n889_3_1_1_1,n889_3_1_1_1_7
n890_3_1_1_1,n890_3_1_1_1_6
n891_3_1_1_1,n891_3_1_1_1_6
n892_3_1_1_1,n892_3_1_1_1_7
n893_3_1_1_1,n893_3_1_1_1_6
n894_3_1_1_1,n894_3_1_1_1_8
n895_3_1_1_1,n895_3_1_1_1_8
n896_3_1_1_1,n896_3_1_1_1_7
n897_3_1_1_1,n897_3_1_1_1_7
n899_3_1_1_1,n899_3_1_1_1_7
n900_3_1_1_1,n900_3_1_1_1_7
n901_3_1_1_1,n901_3_1_1_1_7
n902_3_1_1_1,n902_3_1_1_1_7
n903_3_1_1_1,n903_3_1_1_1_7
n904_3_1_1_1,n904_3_1_1_1_7
n905_3_1_1_1,n905_3_1_1_1_7
n906_3_1_1_1,n906_3_1_1_1_7
n907_3_1_1_1,n907_3_1_1_1_7
n908_3_1_1_1,n908_3_1_1_1_7
n909_3_1_1_1,n909_3_1_1_1_8
n910_3_1_1_1,n910_3_1_1_1_7
n911_3_1_1_1,n911_3_1_1_1_7
n912_3_1_1_1,n912_3_1_1_1_8
n913_3_1_1_1,n913_3_1_1_1_6
n914_3_1_1_1,n914_3_1_1_1_7
n915_3_1_1_1,n915_3_1_1_1_7
n916_3_1_1_1,n916_3_1_1_1_7
n917_3_1_1_1,n917_3_1_1_1_7
n918_3_1_1_1,n918_3_1_1_1_7
n919_3_1_1_1,n919_3_1_1_1_7
n920_3_1_1_1,n920_3_1_1_1_7
n921_3_1_1_1,n921_3_1_1_1_7
n922_3_1_1_1,n922_3_1_1_1_8
n923_3_1_1_1,n923_3_1_1_1_7
n924_3_1_1_1,n924_3_1_1_1_7
n925_3_1_1_1,n925_3_1_1_1_7
n926_3_1_1_1,n926_3_1_1_1_7
n927_3_1_1_1,n927_3_1_1_1_7
n928_3_1_1_1,n928_3_1_1_1_7
n929_3_1_1_1,n929_3_1_1_1_6
n930_3_1_1_1,n930_3_1_1_1_8
n931_3_1_1_1,n931_3_1_1_1_7
n932_3_1_1_1,n932_3_1_1_1_7
n933_3_1_1_1,n933_3_1_1_1_7
n934_3_1_1_1,n934_3_1_1_1_7
n935_3_1_1_1,n935_3_1_1_1_8
n936_3_1_1_1,n936_3_1_1_1_7
n937_3_1_1_1,n937_3_1_1_1_7
n938_3_1_1_1,n938_3_1_1_1_7
n939_3_1_1_1,n939_3_1_1_1_7
n941_3_1_1_1,n941_3_1_1_1_7
n942_3_1_1_1,n942_3_1_1_1_7
n943_3_1_1_1,n943_3_1_1_1_7
n944_3_1_1_1,n944_3_1_1_1_7
n945_3_1_1_1,n945_3_1_1_1_8
n946_3_1_1_1,n946_3_1_1_1_7
n947_3_1_1_1,n947_3_1_1_1_7
n948_3_1_1_1,n948_3_1_1_1_7
n949_3_1_1_1,n949_3_1_1_1_8
n950_3_1_1_1,n950_3_1_1_1_7
n951_3_1_1_1,n951_3_1_1_1_7
n953_3_1_1_1,n953_3_1_1_1_6
n954_3_1_1_1,n954_3_1_1_1_7
n955_3_1_1_1,n955_3_1_1_1_6
n956_3_1_1_1,n956_3_1_1_1_8
n958_3_1_1_1,n958_3_1_1_1_8
n959_3_1_1_1,n959_3_1_1_1_7
n960_3_1_1_1,n960_3_1_1_1_7
n961_3_1_1_1,n961_3_1_1_1_8
n962_3_1_1_1,n962_3_1_1_1_7
n963_3_1_1_1,n963_3_1_1_1_7
n964_3_1_1_1,n964_3_1_1_1_7
n966_3_1_1_1,n966_3_1_1_1_7
n967_3_1_1_1,n967_3_1_1_1_7
n969_3_1_1_1,n969_3_1_1_1_7
n970_3_1_1_1,n970_3_1_1_1_7
n971_3_1_1_1,n971_3_1_1_1_7
n972_3_1_1_1,n972_3_1_1_1_7
n973_3_1_1_1,n973_3_1_1_1_7
n974_3_1_1_1,n974_3_1_1_1_7
n975_3_1_1_1,n975_3_1_1_1_7
n976_3_1_1_1,n976_3_1_1_1_7
n977_3_1_1_1,n977_3_1_1_1_7
n978_3_1_1_1,n978_3_1_1_1_7
n979_3_1_1_1,n979_3_1_1_1_7
n980_3_1_1_1,n980_3_1_1_1_7
n981_3_1_1_1,n981_3_1_1_1_7
n982_3_1_1_1,n982_3_1_1_1_7
n983_3_1_1_1,n983_3_1_1_1_7
n984_3_1_1_1,n984_3_1_1_1_7
n985_3_1_1_1,n985_3_1_1_1_7
n986_3_1_1_1,n986_3_1_1_1_6
n987_3_1_1_1,n987_3_1_1_1_7
n989_3_1_1_1,n989_3_1_1_1_7
n990_3_1_1_1,n990_3_1_1_1_7
n991_3_1_1_1,n991_3_1_1_1_7
n992_3_1_1_1,n992_3_1_1_1_7
n993_3_1_1_1,n993_3_1_1_1_7
n994_3_1_1_1,n994_3_1_1_1_6
n995_3_1_1_1,n995_3_1_1_1_7
n996_3_1_1_1,n996_3_1_1_1_7
n997_3_1_1_1,n997_3_1_1_1_7
n998_3_1_1_1,n998_3_1_1_1_8
n999_3_1_1_1,n999_3_1_1_1_7
n1000_3_1_1_1,n1000_3_1_1_1_7
n1001_3_1_1_1,n1001_3_1_1_1_7
n1002_3_1_1_1,n1002_3_1_1_1_7
n1003_3_1_1_1,n1003_3_1_1_1_7
n1004_3_1_1_1,n1004_3_1_1_1_7
n1005_3_1_1_1,n1005_3_1_1_1_7
n1006_3_1_1_1,n1006_3_1_1_1_7
n1007_3_1_1_1,n1007_3_1_1_1_7
n1008_3_1_1_1,n1008_3_1_1_1_8
n1009_3_1_1_1,n1009_3_1_1_1_7
n1010_3_1_1_1,n1010_3_1_1_1_7
n1011_3_1_1_1,n1011_3_1_1_1_7
n1012_3_1_1_1,n1012_3_1_1_1_7
n1013_3_1_1_1,n1013_3_1_1_1_7
n1014_3_1_1_1,n1014_3_1_1_1_7
n1015_3_1_1_1,n1015_3_1_1_1_7
n1016_3_1_1_1,n1016_3_1_1_1_8
n1017_3_1_1_1,n1017_3_1_1_1_7
n1019_3_1_1_1,n1019_3_1_1_1_8
n1020_3_1_1_1,n1020_3_1_1_1_7
n1021_3_1_1_1,n1021_3_1_1_1_7
n1022_3_1_1_1,n1022_3_1_1_1_7
n1023_3_1_1_1,n1023_3_1_1_1_7
n1025_3_1_1_1,n1025_3_1_1_1_7
n1026_3_1_1_1,n1026_3_1_1_1_7
n1027_3_1_1_1,n1027_3_1_1_1_7
n1028_3_1_1_1,n1028_3_1_1_1_6
n1029_3_1_1_1,n1029_3_1_1_1_7
n1030_3_1_1_1,n1030_3_1_1_1_7
n1031_3_1_1_1,n1031_3_1_1_1_7
n1032_3_1_1_1,n1032_3_1_1_1_7
n1033_3_1_1_1,n1033_3_1_1_1_7
n1034_3_1_1_1,n1034_3_1_1_1_7
n1036_3_1_1_1,n1036_3_1_1_1_7
n1037_3_1_1_1,n1037_3_1_1_1_7
n1038_3_1_1_1,n1038_3_1_1_1_7
n1039_3_1_1_1,n1039_3_1_1_1_7
n1040_3_1_1_1,n1040_3_1_1_1_7
n1042_3_1_1_1,n1042_3_1_1_1_7
n1043_3_1_1_1,n1043_3_1_1_1_7
n1044_3_1_1_1,n1044_3_1_1_1_7
n1046_3_1_1_1,n1046_3_1_1_1_7
n1047_3_1_1_1,n1047_3_1_1_1_7
n1048_3_1_1_1,n1048_3_1_1_1_7
n1049_3_1_1_1,n1049_3_1_1_1_7
n1050_3_1_1_1,n1050_3_1_1_1_7
n1051_3_1_1_1,n1051_3_1_1_1_7
n1052_3_1_1_1,n1052_3_1_1_1_7
n1053_3_1_1_1,n1053_3_1_1_1_7
n1054_3_1_1_1,n1054_3_1_1_1_7
n1055_3_1_1_1,n1055_3_1_1_1_7
n1056_3_1_1_1,n1056_3_1_1_1_7
n1057_3_1_1_1,n1057_3_1_1_1_7
n1058_3_1_1_1,n1058_3_1_1_1_7
n1059_3_1_1_1,n1059_3_1_1_1_7
n1060_3_1_1_1,n1060_3_1_1_1_7
n1062_3_1_1_1,n1062_3_1_1_1_7
n1063_3_1_1_1,n1063_3_1_1_1_6
n1064_3_1_1_1,n1064_3_1_1_1_7
n1065_3_1_1_1,n1065_3_1_1_1_7
n1066_3_1_1_1,n1066_3_1_1_1_7
n1067_3_1_1_1,n1067_3_1_1_1_7
n1068_3_1_1_1,n1068_3_1_1_1_7
n1069_3_1_1_1,n1069_3_1_1_1_7
n1070_3_1_1_1,n1070_3_1_1_1_7
n1071_3_1_1_1,n1071_3_1_1_1_7
n1072_3_1_1_1,n1072_3_1_1_1_7
n1073_3_1_1_1,n1073_3_1_1_1_7
n1074_3_1_1_1,n1074_3_1_1_1_7
n1076_3_1_1_1,n1076_3_1_1_1_7
n1077_3_1_1_1,n1077_3_1_1_1_7
n1078_3_1_1_1,n1078_3_1_1_1_7
n1079_3_1_1_1,n1079_3_1_1_1_7
n1080_3_1_1_1,n1080_3_1_1_1_7
n1081_3_1_1_1,n1081_3_1_1_1_8
n1082_3_1_1_1,n1082_3_1_1_1_7
n1083_3_1_1_1,n1083_3_1_1_1_7
n1084_3_1_1_1,n1084_3_1_1_1_7
n1085_3_1_1_1,n1085_3_1_1_1_7
n1086_3_1_1_1,n1086_3_1_1_1_7
n1087_3_1_1_1,n1087_3_1_1_1_7
n1088_3_1_1_1,n1088_3_1_1_1_7
n1089_3_1_1_1,n1089_3_1_1_1_7
n1090_3_1_1_1,n1090_3_1_1_1_7
n1091_3_1_1_1,n1091_3_1_1_1_7
n1092_3_1_1_1,n1092_3_1_1_1_7
n1093_3_1_1_1,n1093_3_1_1_1_7
n1094_3_1_1_1,n1094_3_1_1_1_7
n1095_3_1_1_1,n1095_3_1_1_1_7
n1096_3_1_1_1,n1096_3_1_1_1_7
n1097_3_1_1_1,n1097_3_1_1_1_7
n1098_3_1_1_1,n1098_3_1_1_1_8
n1099_3_1_1_1,n1099_3_1_1_1_7
n1100_3_1_1_1,n1100_3_1_1_1_7
n1101_3_1_1_1,n1101_3_1_1_1_7
n1102_3_1_1_1,n1102_3_1_1_1_7
n1103_3_1_1_1,n1103_3_1_1_1_7
n1104_3_1_1_1,n1104_3_1_1_1_7
n1105_3_1_1_1,n1105_3_1_1_1_7
n1106_3_1_1_1,n1106_3_1_1_1_7
n1107_3_1_1_1,n1107_3_1_1_1_7
n1108_3_1_1_1,n1108_3_1_1_1_7
n1109_3_1_1_1,n1109_3_1_1_1_8
n1110_3_1_1_1,n1110_3_1_1_1_7
n1111_3_1_1_1,n1111_3_1_1_1_7
n1112_3_1_1_1,n1112_3_1_1_1_7
n1113_3_1_1_1,n1113_3_1_1_1_7
n1114_3_1_1_1,n1114_3_1_1_1_7
n1115_3_1_1_1,n1115_3_1_1_1_7
n1116_3_1_1_1,n1116_3_1_1_1_7
n1117_3_1_1_1,n1117_3_1_1_1_7
n1118_3_1_1_1,n1118_3_1_1_1_7
n1119_3_1_1_1,n1119_3_1_1_1_7
n1120_3_1_1_1,n1120_3_1_1_1_7
n1121_3_1_1_1,n1121_3_1_1_1_7
n1122_3_1_1_1,n1122_3_1_1_1_7
n1123_3_1_1_1,n1123_3_1_1_1_7
n1124_3_1_1_1,n1124_3_1_1_1_7
n1125_3_1_1_1,n1125_3_1_1_1_7
n1126_3_1_1_1,n1126_3_1_1_1_7
n1127_3_1_1_1,n1127_3_1_1_1_8
n1128_3_1_1_1,n1128_3_1_1_1_7
n1129_3_1_1_1,n1129_3_1_1_1_6
n1130_3_1_1_1,n1130_3_1_1_1_7
n1131_3_1_1_1,n1131_3_1_1_1_7
n1132_3_1_1_1,n1132_3_1_1_1_7
n1133_3_1_1_1,n1133_3_1_1_1_7
n1134_3_1_1_1,n1134_3_1_1_1_7
n1135_3_1_1_1,n1135_3_1_1_1_6
n1136_3_1_1_1,n1136_3_1_1_1_7
n1137_3_1_1_1,n1137_3_1_1_1_7
n1138_3_1_1_1,n1138_3_1_1_1_7
n1139_3_1_1_1,n1139_3_1_1_1_7
n1140_3_1_1_1,n1140_3_1_1_1_7
n1141_3_1_1_1,n1141_3_1_1_1_7
n1142_3_1_1_1,n1142_3_1_1_1_7
n1143_3_1_1_1,n1143_3_1_1_1_6
n1145_3_1_1_1,n1145_3_1_1_1_7
n1146_3_1_1_1,n1146_3_1_1_1_7
n1147_3_1_1_1,n1147_3_1_1_1_7
n1148_3_1_1_1,n1148_3_1_1_1_7
n1149_3_1_1_1,n1149_3_1_1_1_7
n1150_3_1_1_1,n1150_3_1_1_1_7
n1151_3_1_1_1,n1151_3_1_1_1_7
n1152_3_1_1_1,n1152_3_1_1_1_7
n1153_3_1_1_1,n1153_3_1_1_1_8
n1154_3_1_1_1,n1154_3_1_1_1_7
n1155_3_1_1_1,n1155_3_1_1_1_7
n1156_3_1_1_1,n1156_3_1_1_1_7
n1157_3_1_1_1,n1157_3_1_1_1_7
n1158_3_1_1_1,n1158_3_1_1_1_7
n1159_3_1_1_1,n1159_3_1_1_1_7
n1160_3_1_1_1,n1160_3_1_1_1_7
n1161_3_1_1_1,n1161_3_1_1_1_7
n1162_3_1_1_1,n1162_3_1_1_1_7
n1163_3_1_1_1,n1163_3_1_1_1_7
n1165_3_1_1_1,n1165_3_1_1_1_7
n1166_3_1_1_1,n1166_3_1_1_1_7
n1167_3_1_1_1,n1167_3_1_1_1_7
n1168_3_1_1_1,n1168_3_1_1_1_7
n1169_3_1_1_1,n1169_3_1_1_1_7
n1170_3_1_1_1,n1170_3_1_1_1_6
n1171_3_1_1_1,n1171_3_1_1_1_7
n1172_3_1_1_1,n1172_3_1_1_1_7
n1173_3_1_1_1,n1173_3_1_1_1_7
n1174_3_1_1_1,n1174_3_1_1_1_7
n1175_3_1_1_1,n1175_3_1_1_1_7
n1176_3_1_1_1,n1176_3_1_1_1_7
n1177_3_1_1_1,n1177_3_1_1_1_7
n1178_3_1_1_1,n1178_3_1_1_1_7
n1179_3_1_1_1,n1179_3_1_1_1_7
n1180_3_1_1_1,n1180_3_1_1_1_7
n1181_3_1_1_1,n1181_3_1_1_1_7
n1182_3_1_1_1,n1182_3_1_1_1_8
n1183_3_1_1_1,n1183_3_1_1_1_7
n1184_3_1_1_1,n1184_3_1_1_1_7
n1185_3_1_1_1,n1185_3_1_1_1_7
n1186_3_1_1_1,n1186_3_1_1_1_7
n1187_3_1_1_1,n1187_3_1_1_1_7
n1188_3_1_1_1,n1188_3_1_1_1_7
n1189_3_1_1_1,n1189_3_1_1_1_7
n1190_3_1_1_1,n1190_3_1_1_1_7
n1191_3_1_1_1,n1191_3_1_1_1_8
n1192_3_1_1_1,n1192_3_1_1_1_7
n1193_3_1_1_1,n1193_3_1_1_1_7
n1194_3_1_1_1,n1194_3_1_1_1_7
n1195_3_1_1_1,n1195_3_1_1_1_7
n1196_3_1_1_1,n1196_3_1_1_1_7
n1197_3_1_1_1,n1197_3_1_1_1_7
n1198_3_1_1_1,n1198_3_1_1_1_7
n1199_3_1_1_1,n1199_3_1_1_1_7
n1200_3_1_1_1,n1200_3_1_1_1_7
n1202_3_1_1_1,n1202_3_1_1_1_7
n1203_3_1_1_1,n1203_3_1_1_1_8
n1204_3_1_1_1,n1204_3_1_1_1_8
n1205_3_1_1_1,n1205_3_1_1_1_7
n1207_3_1_1_1,n1207_3_1_1_1_7
n1208_3_1_1_1,n1208_3_1_1_1_7
n1209_3_1_1_1,n1209_3_1_1_1_6
n1210_3_1_1_1,n1210_3_1_1_1_7
n1211_3_1_1_1,n1211_3_1_1_1_8
n1212_3_1_1_1,n1212_3_1_1_1_7
n1213_3_1_1_1,n1213_3_1_1_1_7
n1214_3_1_1_1,n1214_3_1_1_1_7
n1215_3_1_1_1,n1215_3_1_1_1_7
n1217_3_1_1_1,n1217_3_1_1_1_7
n1218_3_1_1_1,n1218_3_1_1_1_7
n1219_3_1_1_1,n1219_3_1_1_1_7
n1220_3_1_1_1,n1220_3_1_1_1_7
n1221_3_1_1_1,n1221_3_1_1_1_7
n1222_3_1_1_1,n1222_3_1_1_1_7
n1223_3_1_1_1,n1223_3_1_1_1_7
n1224_3_1_1_1,n1224_3_1_1_1_7
n1225_3_1_1_1,n1225_3_1_1_1_7
n1226_3_1_1_1,n1226_3_1_1_1_6
n1227_3_1_1_1,n1227_3_1_1_1_7
n1229_3_1_1_1,n1229_3_1_1_1_7
n1230_3_1_1_1,n1230_3_1_1_1_7
n1231_3_1_1_1,n1231_3_1_1_1_7
n1232_3_1_1_1,n1232_3_1_1_1_7
n1233_3_1_1_1,n1233_3_1_1_1_7
n1234_3_1_1_1,n1234_3_1_1_1_7
n1235_3_1_1_1,n1235_3_1_1_1_6
n1236_3_1_1_1,n1236_3_1_1_1_7
n1237_3_1_1_1,n1237_3_1_1_1_7
n1239_3_1_1_1,n1239_3_1_1_1_8
n1240_3_1_1_1,n1240_3_1_1_1_7
n1241_3_1_1_1,n1241_3_1_1_1_6
n1242_3_1_1_1,n1242_3_1_1_1_7
n1243_3_1_1_1,n1243_3_1_1_1_7
n1244_3_1_1_1,n1244_3_1_1_1_7
n1245_3_1_1_1,n1245_3_1_1_1_7
n1246_3_1_1_1,n1246_3_1_1_1_7
n1247_3_1_1_1,n1247_3_1_1_1_7
n1248_3_1_1_1,n1248_3_1_1_1_7
n1249_3_1_1_1,n1249_3_1_1_1_7
n1250_3_1_1_1,n1250_3_1_1_1_7
n1251_3_1_1_1,n1251_3_1_1_1_7
n1252_3_1_1_1,n1252_3_1_1_1_6
n1253_3_1_1_1,n1253_3_1_1_1_7
n1254_3_1_1_1,n1254_3_1_1_1_8
n1255_3_1_1_1,n1255_3_1_1_1_7
n1256_3_1_1_1,n1256_3_1_1_1_7
n1257_3_1_1_1,n1257_3_1_1_1_7
n1258_3_1_1_1,n1258_3_1_1_1_7
n1259_3_1_1_1,n1259_3_1_1_1_7
n1260_3_1_1_1,n1260_3_1_1_1_7
n1261_3_1_1_1,n1261_3_1_1_1_6
n1262_3_1_1_1,n1262_3_1_1_1_7
n1263_3_1_1_1,n1263_3_1_1_1_7
n1264_3_1_1_1,n1264_3_1_1_1_8
n1265_3_1_1_1,n1265_3_1_1_1_7
n1266_3_1_1_1,n1266_3_1_1_1_8
n1267_3_1_1_1,n1267_3_1_1_1_7
n1268_3_1_1_1,n1268_3_1_1_1_6
n1269_3_1_1_1,n1269_3_1_1_1_8
n1270_3_1_1_1,n1270_3_1_1_1_7
n1271_3_1_1_1,n1271_3_1_1_1_7
n1272_3_1_1_1,n1272_3_1_1_1_7
n1273_3_1_1_1,n1273_3_1_1_1_8
n1274_3_1_1_1,n1274_3_1_1_1_7
n1275_3_1_1_1,n1275_3_1_1_1_7
n1276_3_1_1_1,n1276_3_1_1_1_7
n1277_3_1_1_1,n1277_3_1_1_1_7
n1278_3_1_1_1,n1278_3_1_1_1_7
n1279_3_1_1_1,n1279_3_1_1_1_6
n1280_3_1_1_1,n1280_3_1_1_1_8
n1282_3_1_1_1,n1282_3_1_1_1_7
n1283_3_1_1_1,n1283_3_1_1_1_7
n1284_3_1_1_1,n1284_3_1_1_1_7
n1285_3_1_1_1,n1285_3_1_1_1_7
n1286_3_1_1_1,n1286_3_1_1_1_7
n1287_3_1_1_1,n1287_3_1_1_1_7
n1288_3_1_1_1,n1288_3_1_1_1_7
n1289_3_1_1_1,n1289_3_1_1_1_7
n1290_3_1_1_1,n1290_3_1_1_1_7
n1291_3_1_1_1,n1291_3_1_1_1_7
n1292_3_1_1_1,n1292_3_1_1_1_7
n1293_3_1_1_1,n1293_3_1_1_1_7
n1294_3_1_1_1,n1294_3_1_1_1_7
n1295_3_1_1_1,n1295_3_1_1_1_7
n1296_3_1_1_1,n1296_3_1_1_1_6
n1297_3_1_1_1,n1297_3_1_1_1_7
n1298_3_1_1_1,n1298_3_1_1_1_8
n1299_3_1_1_1,n1299_3_1_1_1_7
n1300_3_1_1_1,n1300_3_1_1_1_7
n1301_3_1_1_1,n1301_3_1_1_1_8
n1302_3_1_1_1,n1302_3_1_1_1_7
n1303_3_1_1_1,n1303_3_1_1_1_7
n1304_3_1_1_1,n1304_3_1_1_1_8
n1305_3_1_1_1,n1305_3_1_1_1_7
n1306_3_1_1_1,n1306_3_1_1_1_7
n1307_3_1_1_1,n1307_3_1_1_1_7
n1309_3_1_1_1,n1309_3_1_1_1_7
n1310_3_1_1_1,n1310_3_1_1_1_7
n1311_3_1_1_1,n1311_3_1_1_1_7
n1312_3_1_1_1,n1312_3_1_1_1_7
n1313_3_1_1_1,n1313_3_1_1_1_7
n1314_3_1_1_1,n1314_3_1_1_1_7
n1315_3_1_1_1,n1315_3_1_1_1_7
n1316_3_1_1_1,n1316_3_1_1_1_7
n1317_3_1_1_1,n1317_3_1_1_1_7
n1318_3_1_1_1,n1318_3_1_1_1_7
n1319_3_1_1_1,n1319_3_1_1_1_8
n1320_3_1_1_1,n1320_3_1_1_1_7
n1321_3_1_1_1,n1321_3_1_1_1_7
n1322_3_1_1_1,n1322_3_1_1_1_7
n1323_3_1_1_1,n1323_3_1_1_1_6
n1324_3_1_1_1,n1324_3_1_1_1_7
n1325_3_1_1_1,n1325_3_1_1_1_7
n1326_3_1_1_1,n1326_3_1_1_1_7
n1329_3_1_1_1,n1329_3_1_1_1_7
n1330_3_1_1_1,n1330_3_1_1_1_7
n1331_3_1_1_1,n1331_3_1_1_1_8
n1332_3_1_1_1,n1332_3_1_1_1_7
n1333_3_1_1_1,n1333_3_1_1_1_6
n1334_3_1_1_1,n1334_3_1_1_1_7
n1335_3_1_1_1,n1335_3_1_1_1_7
n1336_3_1_1_1,n1336_3_1_1_1_7
n1337_3_1_1_1,n1337_3_1_1_1_7
n1339_3_1_1_1,n1339_3_1_1_1_7
n1340_3_1_1_1,n1340_3_1_1_1_7
n1341_3_1_1_1,n1341_3_1_1_1_7
n1342_3_1_1_1,n1342_3_1_1_1_8
n1343_3_1_1_1,n1343_3_1_1_1_7
n1344_3_1_1_1,n1344_3_1_1_1_8
n1345_3_1_1_1,n1345_3_1_1_1_8
n1346_3_1_1_1,n1346_3_1_1_1_7
n1347_3_1_1_1,n1347_3_1_1_1_7
n1348_3_1_1_1,n1348_3_1_1_1_8
n1349_3_1_1_1,n1349_3_1_1_1_7
n1350_3_1_1_1,n1350_3_1_1_1_7
n1351_3_1_1_1,n1351_3_1_1_1_7
n1353_3_1_1_1,n1353_3_1_1_1_7
n1354_3_1_1_1,n1354_3_1_1_1_7
n1355_3_1_1_1,n1355_3_1_1_1_7
n1356_3_1_1_1,n1356_3_1_1_1_7
n1357_3_1_1_1,n1357_3_1_1_1_7
n1358_3_1_1_1,n1358_3_1_1_1_8
n1359_3_1_1_1,n1359_3_1_1_1_7
n1360_3_1_1_1,n1360_3_1_1_1_7
n1361_3_1_1_1,n1361_3_1_1_1_7
n1362_3_1_1_1,n1362_3_1_1_1_7
n1363_3_1_1_1,n1363_3_1_1_1_7
n1364_3_1_1_1,n1364_3_1_1_1_7
n1365_3_1_1_1,n1365_3_1_1_1_7
n1366_3_1_1_1,n1366_3_1_1_1_7
n1367_3_1_1_1,n1367_3_1_1_1_6
n1368_3_1_1_1,n1368_3_1_1_1_7
n1369_3_1_1_1,n1369_3_1_1_1_7
n1371_3_1_1_1,n1371_3_1_1_1_7
n1372_3_1_1_1,n1372_3_1_1_1_7
n1373_3_1_1_1,n1373_3_1_1_1_7
n1374_3_1_1_1,n1374_3_1_1_1_8
n1375_3_1_1_1,n1375_3_1_1_1_7
n1376_3_1_1_1,n1376_3_1_1_1_7
n1377_3_1_1_1,n1377_3_1_1_1_7
n1378_3_1_1_1,n1378_3_1_1_1_7
n1379_3_1_1_1,n1379_3_1_1_1_7
n1380_3_1_1_1,n1380_3_1_1_1_7
n1381_3_1_1_1,n1381_3_1_1_1_7
n1382_3_1_1_1,n1382_3_1_1_1_7
n1383_3_1_1_1,n1383_3_1_1_1_7
n1384_3_1_1_1,n1384_3_1_1_1_7
n1385_3_1_1_1,n1385_3_1_1_1_7
n1386_3_1_1_1,n1386_3_1_1_1_8
n1387_3_1_1_1,n1387_3_1_1_1_7
n1388_3_1_1_1,n1388_3_1_1_1_7
n1389_3_1_1_1,n1389_3_1_1_1_7
n1390_3_1_1_1,n1390_3_1_1_1_7
n1391_3_1_1_1,n1391_3_1_1_1_7
n1392_3_1_1_1,n1392_3_1_1_1_7
n1393_3_1_1_1,n1393_3_1_1_1_7
n1394_3_1_1_1,n1394_3_1_1_1_7
n1395_3_1_1_1,n1395_3_1_1_1_7
n1396_3_1_1_1,n1396_3_1_1_1_7
n1397_3_1_1_1,n1397_3_1_1_1_7
n1398_3_1_1_1,n1398_3_1_1_1_7
n1399_3_1_1_1,n1399_3_1_1_1_7
n1400_3_1_1_1,n1400_3_1_1_1_6
n1401_3_1_1_1,n1401_3_1_1_1_7
n1402_3_1_1_1,n1402_3_1_1_1_7
n1403_3_1_1_1,n1403_3_1_1_1_7
n1404_3_1_1_1,n1404_3_1_1_1_7
n1405_3_1_1_1,n1405_3_1_1_1_7
n1406_3_1_1_1,n1406_3_1_1_1_8
n1408_3_1_1_1,n1408_3_1_1_1_7
n1409_3_1_1_1,n1409_3_1_1_1_7
n1410_3_1_1_1,n1410_3_1_1_1_7
n1411_3_1_1_1,n1411_3_1_1_1_7
n1412_3_1_1_1,n1412_3_1_1_1_7
n1413_3_1_1_1,n1413_3_1_1_1_7
n1414_3_1_1_1,n1414_3_1_1_1_7
n1415_3_1_1_1,n1415_3_1_1_1_6
n1416_3_1_1_1,n1416_3_1_1_1_6
n1417_3_1_1_1,n1417_3_1_1_1_7
n1418_3_1_1_1,n1418_3_1_1_1_7
n1419_3_1_1_1,n1419_3_1_1_1_7
n1420_3_1_1_1,n1420_3_1_1_1_7
n1422_3_1_1_1,n1422_3_1_1_1_7
n1423_3_1_1_1,n1423_3_1_1_1_7
n1424_3_1_1_1,n1424_3_1_1_1_7
n1425_3_1_1_1,n1425_3_1_1_1_7
n1426_3_1_1_1,n1426_3_1_1_1_7
n1427_3_1_1_1,n1427_3_1_1_1_7
n1428_3_1_1_1,n1428_3_1_1_1_7
n1429_3_1_1_1,n1429_3_1_1_1_7
n1430_3_1_1_1,n1430_3_1_1_1_7
n1431_3_1_1_1,n1431_3_1_1_1_7
n1432_3_1_1_1,n1432_3_1_1_1_8
n1433_3_1_1_1,n1433_3_1_1_1_7
n1434_3_1_1_1,n1434_3_1_1_1_7
n1435_3_1_1_1,n1435_3_1_1_1_7
n1436_3_1_1_1,n1436_3_1_1_1_8
n1437_3_1_1_1,n1437_3_1_1_1_7
n1438_3_1_1_1,n1438_3_1_1_1_7
n1439_3_1_1_1,n1439_3_1_1_1_8
n1440_3_1_1_1,n1440_3_1_1_1_6
n1441_3_1_1_1,n1441_3_1_1_1_7
n1442_3_1_1_1,n1442_3_1_1_1_7
n1443_3_1_1_1,n1443_3_1_1_1_7
n1444_3_1_1_1,n1444_3_1_1_1_6
n1445_3_1_1_1,n1445_3_1_1_1_8
n1446_3_1_1_1,n1446_3_1_1_1_7
n1447_3_1_1_1,n1447_3_1_1_1_7
n1448_3_1_1_1,n1448_3_1_1_1_8
n1451_3_1_1_1,n1451_3_1_1_1_7
n1452_3_1_1_1,n1452_3_1_1_1_7
n1453_3_1_1_1,n1453_3_1_1_1_7
n1454_3_1_1_1,n1454_3_1_1_1_7
n1455_3_1_1_1,n1455_3_1_1_1_7
n1456_3_1_1_1,n1456_3_1_1_1_7
n1457_3_1_1_1,n1457_3_1_1_1_7
n1458_3_1_1_1,n1458_3_1_1_1_7
n1459_3_1_1_1,n1459_3_1_1_1_7
n1460_3_1_1_1,n1460_3_1_1_1_8
n1461_3_1_1_1,n1461_3_1_1_1_7
n1462_3_1_1_1,n1462_3_1_1_1_7
n1463_3_1_1_1,n1463_3_1_1_1_8
n1464_3_1_1_1,n1464_3_1_1_1_7
n1465_3_1_1_1,n1465_3_1_1_1_8
n1466_3_1_1_1,n1466_3_1_1_1_8
n1467_3_1_1_1,n1467_3_1_1_1_8
n1468_3_1_1_1,n1468_3_1_1_1_6
n1469_3_1_1_1,n1469_3_1_1_1_7
n1470_3_1_1_1,n1470_3_1_1_1_8
n1471_3_1_1_1,n1471_3_1_1_1_7
n1472_3_1_1_1,n1472_3_1_1_1_7
n1474_3_1_1_1,n1474_3_1_1_1_7
n1475_3_1_1_1,n1475_3_1_1_1_7
n1476_3_1_1_1,n1476_3_1_1_1_7
n1477_3_1_1_1,n1477_3_1_1_1_7
n1478_3_1_1_1,n1478_3_1_1_1_7
n1479_3_1_1_1,n1479_3_1_1_1_7
n1480_3_1_1_1,n1480_3_1_1_1_7
n1482_3_1_1_1,n1482_3_1_1_1_8
n1483_3_1_1_1,n1483_3_1_1_1_7
n1484_3_1_1_1,n1484_3_1_1_1_7
n1485_3_1_1_1,n1485_3_1_1_1_7
n1486_3_1_1_1,n1486_3_1_1_1_7
n1487_3_1_1_1,n1487_3_1_1_1_6
n1488_3_1_1_1,n1488_3_1_1_1_8
n1489_3_1_1_1,n1489_3_1_1_1_7
n1490_3_1_1_1,n1490_3_1_1_1_7
n1491_3_1_1_1,n1491_3_1_1_1_6
n1492_3_1_1_1,n1492_3_1_1_1_7
n1493_3_1_1_1,n1493_3_1_1_1_7
n1494_3_1_1_1,n1494_3_1_1_1_6
n1495_3_1_1_1,n1495_3_1_1_1_8
n1496_3_1_1_1,n1496_3_1_1_1_7
n1497_3_1_1_1,n1497_3_1_1_1_6
n1498_3_1_1_1,n1498_3_1_1_1_7
n1499_3_1_1_1,n1499_3_1_1_1_7
n1500_3_1_1_1,n1500_3_1_1_1_7
n1501_3_1_1_1,n1501_3_1_1_1_7
n1502_3_1_1_1,n1502_3_1_1_1_7
n1503_3_1_1_1,n1503_3_1_1_1_7
n1504_3_1_1_1,n1504_3_1_1_1_7
n1505_3_1_1_1,n1505_3_1_1_1_7
n1506_3_1_1_1,n1506_3_1_1_1_7
n1507_3_1_1_1,n1507_3_1_1_1_7
n1508_3_1_1_1,n1508_3_1_1_1_6
n1509_3_1_1_1,n1509_3_1_1_1_7
n1510_3_1_1_1,n1510_3_1_1_1_7
n1511_3_1_1_1,n1511_3_1_1_1_7
n1512_3_1_1_1,n1512_3_1_1_1_7
n1513_3_1_1_1,n1513_3_1_1_1_7
n1514_3_1_1_1,n1514_3_1_1_1_7
n1515_3_1_1_1,n1515_3_1_1_1_8
n1516_3_1_1_1,n1516_3_1_1_1_7
n1517_3_1_1_1,n1517_3_1_1_1_7
n1518_3_1_1_1,n1518_3_1_1_1_7
n1519_3_1_1_1,n1519_3_1_1_1_7
n1520_3_1_1_1,n1520_3_1_1_1_7
n1521_3_1_1_1,n1521_3_1_1_1_7
n1522_3_1_1_1,n1522_3_1_1_1_7
n1523_3_1_1_1,n1523_3_1_1_1_7
n1524_3_1_1_1,n1524_3_1_1_1_7
n1525_3_1_1_1,n1525_3_1_1_1_7
n1526_3_1_1_1,n1526_3_1_1_1_7
n1527_3_1_1_1,n1527_3_1_1_1_7
n1528_3_1_1_1,n1528_3_1_1_1_7
n1529_3_1_1_1,n1529_3_1_1_1_7
n1530_3_1_1_1,n1530_3_1_1_1_8
n1531_3_1_1_1,n1531_3_1_1_1_7
n1532_3_1_1_1,n1532_3_1_1_1_7
n1533_3_1_1_1,n1533_3_1_1_1_7
n1534_3_1_1_1,n1534_3_1_1_1_7
n1535_3_1_1_1,n1535_3_1_1_1_7
n1536_3_1_1_1,n1536_3_1_1_1_7
n1537_3_1_1_1,n1537_3_1_1_1_7
n1538_3_1_1_1,n1538_3_1_1_1_7
n1539_3_1_1_1,n1539_3_1_1_1_7
n1540_3_1_1_1,n1540_3_1_1_1_6
n1541_3_1_1_1,n1541_3_1_1_1_7
n1542_3_1_1_1,n1542_3_1_1_1_8
n1543_3_1_1_1,n1543_3_1_1_1_7
n1544_3_1_1_1,n1544_3_1_1_1_7
n1545_3_1_1_1,n1545_3_1_1_1_7
n1546_3_1_1_1,n1546_3_1_1_1_7
n1547_3_1_1_1,n1547_3_1_1_1_7
n1548_3_1_1_1,n1548_3_1_1_1_7
n1549_3_1_1_1,n1549_3_1_1_1_7
n1550_3_1_1_1,n1550_3_1_1_1_7
n1551_3_1_1_1,n1551_3_1_1_1_7
n1552_3_1_1_1,n1552_3_1_1_1_7
n1554_3_1_1_1,n1554_3_1_1_1_7
n1555_3_1_1_1,n1555_3_1_1_1_7
n1556_3_1_1_1,n1556_3_1_1_1_7
n1557_3_1_1_1,n1557_3_1_1_1_7
n1559_3_1_1_1,n1559_3_1_1_1_6
n1560_3_1_1_1,n1560_3_1_1_1_7
n1561_3_1_1_1,n1561_3_1_1_1_7
n1562_3_1_1_1,n1562_3_1_1_1_7
n1563_3_1_1_1,n1563_3_1_1_1_7
n1564_3_1_1_1,n1564_3_1_1_1_7
n1565_3_1_1_1,n1565_3_1_1_1_7
n1566_3_1_1_1,n1566_3_1_1_1_7
n1567_3_1_1_1,n1567_3_1_1_1_8
n1568_3_1_1_1,n1568_3_1_1_1_7
n1569_3_1_1_1,n1569_3_1_1_1_7
n1570_3_1_1_1,n1570_3_1_1_1_7
n1571_3_1_1_1,n1571_3_1_1_1_7
n1572_3_1_1_1,n1572_3_1_1_1_7
n1574_3_1_1_1,n1574_3_1_1_1_6
n1575_3_1_1_1,n1575_3_1_1_1_7
n1576_3_1_1_1,n1576_3_1_1_1_7
n1577_3_1_1_1,n1577_3_1_1_1_7
n1578_3_1_1_1,n1578_3_1_1_1_7
n1579_3_1_1_1,n1579_3_1_1_1_7
n1580_3_1_1_1,n1580_3_1_1_1_7
n1581_3_1_1_1,n1581_3_1_1_1_7
n1582_3_1_1_1,n1582_3_1_1_1_7
n1583_3_1_1_1,n1583_3_1_1_1_7
n1584_3_1_1_1,n1584_3_1_1_1_7
n1585_3_1_1_1,n1585_3_1_1_1_7
n1586_3_1_1_1,n1586_3_1_1_1_7
n1588_3_1_1_1,n1588_3_1_1_1_7
n1589_3_1_1_1,n1589_3_1_1_1_7
n1590_3_1_1_1,n1590_3_1_1_1_7
n1591_3_1_1_1,n1591_3_1_1_1_7
n1592_3_1_1_1,n1592_3_1_1_1_7
n1593_3_1_1_1,n1593_3_1_1_1_7
n1595_3_1_1_1,n1595_3_1_1_1_7
n1596_3_1_1_1,n1596_3_1_1_1_7
n1597_3_1_1_1,n1597_3_1_1_1_7
n1598_3_1_1_1,n1598_3_1_1_1_8
n1599_3_1_1_1,n1599_3_1_1_1_7
n1600_3_1_1_1,n1600_3_1_1_1_7
n1601_3_1_1_1,n1601_3_1_1_1_7
n1602_3_1_1_1,n1602_3_1_1_1_7
n1603_3_1_1_1,n1603_3_1_1_1_7
n1604_3_1_1_1,n1604_3_1_1_1_7
n1605_3_1_1_1,n1605_3_1_1_1_7
n1606_3_1_1_1,n1606_3_1_1_1_7
n1607_3_1_1_1,n1607_3_1_1_1_7
n1608_3_1_1_1,n1608_3_1_1_1_7
n1609_3_1_1_1,n1609_3_1_1_1_7
n1610_3_1_1_1,n1610_3_1_1_1_7
n1611_3_1_1_1,n1611_3_1_1_1_7
n1612_3_1_1_1,n1612_3_1_1_1_8
n1613_3_1_1_1,n1613_3_1_1_1_7
n1614_3_1_1_1,n1614_3_1_1_1_7
n1615_3_1_1_1,n1615_3_1_1_1_7
n1616_3_1_1_1,n1616_3_1_1_1_6
n1617_3_1_1_1,n1617_3_1_1_1_7
n1618_3_1_1_1,n1618_3_1_1_1_7
n1620_3_1_1_1,n1620_3_1_1_1_7
n1621_3_1_1_1,n1621_3_1_1_1_7
n1622_3_1_1_1,n1622_3_1_1_1_7
n1623_3_1_1_1,n1623_3_1_1_1_7
n1624_3_1_1_1,n1624_3_1_1_1_7
n1625_3_1_1_1,n1625_3_1_1_1_7
n1626_3_1_1_1,n1626_3_1_1_1_7
n1627_3_1_1_1,n1627_3_1_1_1_7
n1628_3_1_1_1,n1628_3_1_1_1_7
n1629_3_1_1_1,n1629_3_1_1_1_7
n1630_3_1_1_1,n1630_3_1_1_1_8
n1631_3_1_1_1,n1631_3_1_1_1_7
n1632_3_1_1_1,n1632_3_1_1_1_6
n1633_3_1_1_1,n1633_3_1_1_1_8
n1634_3_1_1_1,n1634_3_1_1_1_7
n1635_3_1_1_1,n1635_3_1_1_1_7
n1636_3_1_1_1,n1636_3_1_1_1_7
n1637_3_1_1_1,n1637_3_1_1_1_7
n1638_3_1_1_1,n1638_3_1_1_1_7
n1639_3_1_1_1,n1639_3_1_1_1_7
n1640_3_1_1_1,n1640_3_1_1_1_7
n1641_3_1_1_1,n1641_3_1_1_1_7
n1642_3_1_1_1,n1642_3_1_1_1_8
n1643_3_1_1_1,n1643_3_1_1_1_7
n1644_3_1_1_1,n1644_3_1_1_1_7
n1645_3_1_1_1,n1645_3_1_1_1_7
n1646_3_1_1_1,n1646_3_1_1_1_7
n1647_3_1_1_1,n1647_3_1_1_1_7
n1648_3_1_1_1,n1648_3_1_1_1_7
n1649_3_1_1_1,n1649_3_1_1_1_7
n1650_3_1_1_1,n1650_3_1_1_1_7
n1651_3_1_1_1,n1651_3_1_1_1_8
n1652_3_1_1_1,n1652_3_1_1_1_7
n1654_3_1_1_1,n1654_3_1_1_1_7
n1655_3_1_1_1,n1655_3_1_1_1_7
n1656_3_1_1_1,n1656_3_1_1_1_7
n1657_3_1_1_1,n1657_3_1_1_1_7
n1658_3_1_1_1,n1658_3_1_1_1_7
n1659_3_1_1_1,n1659_3_1_1_1_7
n1660_3_1_1_1,n1660_3_1_1_1_7
n1661_3_1_1_1,n1661_3_1_1_1_7
n1662_3_1_1_1,n1662_3_1_1_1_8
n1663_3_1_1_1,n1663_3_1_1_1_7
n1664_3_1_1_1,n1664_3_1_1_1_7
n1665_3_1_1_1,n1665_3_1_1_1_8
n1666_3_1_1_1,n1666_3_1_1_1_8
n1667_3_1_1_1,n1667_3_1_1_1_7
n1668_3_1_1_1,n1668_3_1_1_1_7
n1669_3_1_1_1,n1669_3_1_1_1_7
n1670_3_1_1_1,n1670_3_1_1_1_7
n1671_3_1_1_1,n1671_3_1_1_1_6
n1672_3_1_1_1,n1672_3_1_1_1_7
n1673_3_1_1_1,n1673_3_1_1_1_8
n1674_3_1_1_1,n1674_3_1_1_1_7
n1675_3_1_1_1,n1675_3_1_1_1_7
n1676_3_1_1_1,n1676_3_1_1_1_7
n1677_3_1_1_1,n1677_3_1_1_1_7
n1679_3_1_1_1,n1679_3_1_1_1_7
n1680_3_1_1_1,n1680_3_1_1_1_7
n1681_3_1_1_1,n1681_3_1_1_1_7
n1682_3_1_1_1,n1682_3_1_1_1_7
n1683_3_1_1_1,n1683_3_1_1_1_7
n1684_3_1_1_1,n1684_3_1_1_1_8
n1685_3_1_1_1,n1685_3_1_1_1_7
n1686_3_1_1_1,n1686_3_1_1_1_7
n1687_3_1_1_1,n1687_3_1_1_1_7
n1688_3_1_1_1,n1688_3_1_1_1_6
n1689_3_1_1_1,n1689_3_1_1_1_7
n1690_3_1_1_1,n1690_3_1_1_1_7
n1691_3_1_1_1,n1691_3_1_1_1_7
n1692_3_1_1_1,n1692_3_1_1_1_7
n1693_3_1_1_1,n1693_3_1_1_1_6
n1694_3_1_1_1,n1694_3_1_1_1_7
n1695_3_1_1_1,n1695_3_1_1_1_7
n1696_3_1_1_1,n1696_3_1_1_1_7
n1697_3_1_1_1,n1697_3_1_1_1_7
n1698_3_1_1_1,n1698_3_1_1_1_7
n1699_3_1_1_1,n1699_3_1_1_1_7
n1700_3_1_1_1,n1700_3_1_1_1_7
n1701_3_1_1_1,n1701_3_1_1_1_7
n1702_3_1_1_1,n1702_3_1_1_1_7
n1703_3_1_1_1,n1703_3_1_1_1_7
n1704_3_1_1_1,n1704_3_1_1_1_7
n1707_3_1_1_1,n1707_3_1_1_1_7
n1708_3_1_1_1,n1708_3_1_1_1_8
n1709_3_1_1_1,n1709_3_1_1_1_7
n1710_3_1_1_1,n1710_3_1_1_1_7
n1711_3_1_1_1,n1711_3_1_1_1_7
n1712_3_1_1_1,n1712_3_1_1_1_7
n1713_3_1_1_1,n1713_3_1_1_1_7
n1714_3_1_1_1,n1714_3_1_1_1_7
n1715_3_1_1_1,n1715_3_1_1_1_7
n1716_3_1_1_1,n1716_3_1_1_1_7
n1717_3_1_1_1,n1717_3_1_1_1_7
n1718_3_1_1_1,n1718_3_1_1_1_8
n1719_3_1_1_1,n1719_3_1_1_1_7
n1720_3_1_1_1,n1720_3_1_1_1_7
n1721_3_1_1_1,n1721_3_1_1_1_7
n1722_3_1_1_1,n1722_3_1_1_1_7
n1723_3_1_1_1,n1723_3_1_1_1_7
n1725_3_1_1_1,n1725_3_1_1_1_7
n1726_3_1_1_1,n1726_3_1_1_1_7
n1727_3_1_1_1,n1727_3_1_1_1_7
n1728_3_1_1_1,n1728_3_1_1_1_7
n1729_3_1_1_1,n1729_3_1_1_1_6
n1730_3_1_1_1,n1730_3_1_1_1_8
n1732_3_1_1_1,n1732_3_1_1_1_7
n1733_3_1_1_1,n1733_3_1_1_1_7
n1734_3_1_1_1,n1734_3_1_1_1_7
n1735_3_1_1_1,n1735_3_1_1_1_7
n1736_3_1_1_1,n1736_3_1_1_1_7
n1737_3_1_1_1,n1737_3_1_1_1_7
n1738_3_1_1_1,n1738_3_1_1_1_7
n1739_3_1_1_1,n1739_3_1_1_1_7
n1740_3_1_1_1,n1740_3_1_1_1_7
n1741_3_1_1_1,n1741_3_1_1_1_7
n1742_3_1_1_1,n1742_3_1_1_1_7
n1743_3_1_1_1,n1743_3_1_1_1_7
n1744_3_1_1_1,n1744_3_1_1_1_7
n1745_3_1_1_1,n1745_3_1_1_1_8
n1746_3_1_1_1,n1746_3_1_1_1_7
n1747_3_1_1_1,n1747_3_1_1_1_8
n1748_3_1_1_1,n1748_3_1_1_1_7
n1749_3_1_1_1,n1749_3_1_1_1_7
n1750_3_1_1_1,n1750_3_1_1_1_7
n1751_3_1_1_1,n1751_3_1_1_1_7
n1752_3_1_1_1,n1752_3_1_1_1_7
n1753_3_1_1_1,n1753_3_1_1_1_7
n1754_3_1_1_1,n1754_3_1_1_1_8
n1755_3_1_1_1,n1755_3_1_1_1_7
n1756_3_1_1_1,n1756_3_1_1_1_7
n1757_3_1_1_1,n1757_3_1_1_1_7
n1758_3_1_1_1,n1758_3_1_1_1_7
n1759_3_1_1_1,n1759_3_1_1_1_7
n1760_3_1_1_1,n1760_3_1_1_1_7
n1762_3_1_1_1,n1762_3_1_1_1_7
n1763_3_1_1_1,n1763_3_1_1_1_7
n1764_3_1_1_1,n1764_3_1_1_1_7
n1765_3_1_1_1,n1765_3_1_1_1_8
n1766_3_1_1_1,n1766_3_1_1_1_6
n1767_3_1_1_1,n1767_3_1_1_1_8
n1768_3_1_1_1,n1768_3_1_1_1_7
n1769_3_1_1_1,n1769_3_1_1_1_8
n1770_3_1_1_1,n1770_3_1_1_1_7
n1771_3_1_1_1,n1771_3_1_1_1_7
n1772_3_1_1_1,n1772_3_1_1_1_7
n1773_3_1_1_1,n1773_3_1_1_1_7
n1774_3_1_1_1,n1774_3_1_1_1_7
n1775_3_1_1_1,n1775_3_1_1_1_7
n1776_3_1_1_1,n1776_3_1_1_1_7
n1778_3_1_1_1,n1778_3_1_1_1_7
n1779_3_1_1_1,n1779_3_1_1_1_7
n1780_3_1_1_1,n1780_3_1_1_1_7
n1781_3_1_1_1,n1781_3_1_1_1_6
n1782_3_1_1_1,n1782_3_1_1_1_7
n1784_3_1_1_1,n1784_3_1_1_1_7
n1785_3_1_1_1,n1785_3_1_1_1_6
n1786_3_1_1_1,n1786_3_1_1_1_7
n1787_3_1_1_1,n1787_3_1_1_1_7
n1788_3_1_1_1,n1788_3_1_1_1_8
n1789_3_1_1_1,n1789_3_1_1_1_7
n1790_3_1_1_1,n1790_3_1_1_1_7
n1791_3_1_1_1,n1791_3_1_1_1_7
n1792_3_1_1_1,n1792_3_1_1_1_7
n1793_3_1_1_1,n1793_3_1_1_1_7
n1794_3_1_1_1,n1794_3_1_1_1_7
n1795_3_1_1_1,n1795_3_1_1_1_7
n1796_3_1_1_1,n1796_3_1_1_1_7
n1797_3_1_1_1,n1797_3_1_1_1_7
n1798_3_1_1_1,n1798_3_1_1_1_8
n1799_3_1_1_1,n1799_3_1_1_1_7
n1800_3_1_1_1,n1800_3_1_1_1_7
n1801_3_1_1_1,n1801_3_1_1_1_8
n1802_3_1_1_1,n1802_3_1_1_1_7
n1803_3_1_1_1,n1803_3_1_1_1_6
n1804_3_1_1_1,n1804_3_1_1_1_7
n1805_3_1_1_1,n1805_3_1_1_1_7
n1806_3_1_1_1,n1806_3_1_1_1_8
n1807_3_1_1_1,n1807_3_1_1_1_7
n1809_3_1_1_1,n1809_3_1_1_1_7
n1810_3_1_1_1,n1810_3_1_1_1_7
n1812_3_1_1_1,n1812_3_1_1_1_7
n1813_3_1_1_1,n1813_3_1_1_1_7
n1814_3_1_1_1,n1814_3_1_1_1_8
n1815_3_1_1_1,n1815_3_1_1_1_8
n1816_3_1_1_1,n1816_3_1_1_1_8
n1817_3_1_1_1,n1817_3_1_1_1_7
n1818_3_1_1_1,n1818_3_1_1_1_7
n1819_3_1_1_1,n1819_3_1_1_1_7
n1820_3_1_1_1,n1820_3_1_1_1_7
n1821_3_1_1_1,n1821_3_1_1_1_7
n1822_3_1_1_1,n1822_3_1_1_1_7
n1823_3_1_1_1,n1823_3_1_1_1_6
n1824_3_1_1_1,n1824_3_1_1_1_7
n1825_3_1_1_1,n1825_3_1_1_1_7
n1826_3_1_1_1,n1826_3_1_1_1_7
n1827_3_1_1_1,n1827_3_1_1_1_7
n1828_3_1_1_1,n1828_3_1_1_1_7
n1830_3_1_1_1,n1830_3_1_1_1_7
n1831_3_1_1_1,n1831_3_1_1_1_7
n1832_3_1_1_1,n1832_3_1_1_1_7
n1833_3_1_1_1,n1833_3_1_1_1_7
n1834_3_1_1_1,n1834_3_1_1_1_7
n1835_3_1_1_1,n1835_3_1_1_1_7
n1836_3_1_1_1,n1836_3_1_1_1_7
n1837_3_1_1_1,n1837_3_1_1_1_7
n1838_3_1_1_1,n1838_3_1_1_1_7
n1839_3_1_1_1,n1839_3_1_1_1_7
n1840_3_1_1_1,n1840_3_1_1_1_8
n1841_3_1_1_1,n1841_3_1_1_1_7
n1842_3_1_1_1,n1842_3_1_1_1_7
n1843_3_1_1_1,n1843_3_1_1_1_7
n1844_3_1_1_1,n1844_3_1_1_1_7
n1845_3_1_1_1,n1845_3_1_1_1_7
n1846_3_1_1_1,n1846_3_1_1_1_7
n1847_3_1_1_1,n1847_3_1_1_1_7
n1848_3_1_1_1,n1848_3_1_1_1_7
n1849_3_1_1_1,n1849_3_1_1_1_7
n1850_3_1_1_1,n1850_3_1_1_1_7
n1851_3_1_1_1,n1851_3_1_1_1_7
n1852_3_1_1_1,n1852_3_1_1_1_8
n1853_3_1_1_1,n1853_3_1_1_1_7
n1854_3_1_1_1,n1854_3_1_1_1_7
n1855_3_1_1_1,n1855_3_1_1_1_7
n1856_3_1_1_1,n1856_3_1_1_1_7
n1857_3_1_1_1,n1857_3_1_1_1_7
n1858_3_1_1_1,n1858_3_1_1_1_7
n1859_3_1_1_1,n1859_3_1_1_1_7
n1860_3_1_1_1,n1860_3_1_1_1_7
n1861_3_1_1_1,n1861_3_1_1_1_7
n1862_3_1_1_1,n1862_3_1_1_1_7
n1863_3_1_1_1,n1863_3_1_1_1_7
n1864_3_1_1_1,n1864_3_1_1_1_7
n1865_3_1_1_1,n1865_3_1_1_1_7
n1866_3_1_1_1,n1866_3_1_1_1_7
n1867_3_1_1_1,n1867_3_1_1_1_8
n1868_3_1_1_1,n1868_3_1_1_1_7
n1869_3_1_1_1,n1869_3_1_1_1_7
n1870_3_1_1_1,n1870_3_1_1_1_7
n1871_3_1_1_1,n1871_3_1_1_1_7
n1872_3_1_1_1,n1872_3_1_1_1_8
n1873_3_1_1_1,n1873_3_1_1_1_6
n1874_3_1_1_1,n1874_3_1_1_1_7
n1875_3_1_1_1,n1875_3_1_1_1_7
n1876_3_1_1_1,n1876_3_1_1_1_8
n1877_3_1_1_1,n1877_3_1_1_1_7
n1878_3_1_1_1,n1878_3_1_1_1_8
n1880_3_1_1_1,n1880_3_1_1_1_8
n1881_3_1_1_1,n1881_3_1_1_1_7
n1882_3_1_1_1,n1882_3_1_1_1_7
n1883_3_1_1_1,n1883_3_1_1_1_7
n1884_3_1_1_1,n1884_3_1_1_1_7
n1885_3_1_1_1,n1885_3_1_1_1_7
n1887_3_1_1_1,n1887_3_1_1_1_7
n1888_3_1_1_1,n1888_3_1_1_1_7
n1889_3_1_1_1,n1889_3_1_1_1_6
n1890_3_1_1_1,n1890_3_1_1_1_8
n1891_3_1_1_1,n1891_3_1_1_1_6
n1892_3_1_1_1,n1892_3_1_1_1_7
n1893_3_1_1_1,n1893_3_1_1_1_7
n1894_3_1_1_1,n1894_3_1_1_1_7
n1895_3_1_1_1,n1895_3_1_1_1_7
n1896_3_1_1_1,n1896_3_1_1_1_7
n1897_3_1_1_1,n1897_3_1_1_1_6
n1898_3_1_1_1,n1898_3_1_1_1_7
n1899_3_1_1_1,n1899_3_1_1_1_7
n1900_3_1_1_1,n1900_3_1_1_1_7
n1901_3_1_1_1,n1901_3_1_1_1_7
n1902_3_1_1_1,n1902_3_1_1_1_7
n1903_3_1_1_1,n1903_3_1_1_1_7
n1904_3_1_1_1,n1904_3_1_1_1_7
n1905_3_1_1_1,n1905_3_1_1_1_7
n1906_3_1_1_1,n1906_3_1_1_1_7
n1907_3_1_1_1,n1907_3_1_1_1_8
n1908_3_1_1_1,n1908_3_1_1_1_6
n1909_3_1_1_1,n1909_3_1_1_1_7
n1911_3_1_1_1,n1911_3_1_1_1_6
n1912_3_1_1_1,n1912_3_1_1_1_7
n1913_3_1_1_1,n1913_3_1_1_1_7
n1914_3_1_1_1,n1914_3_1_1_1_7
n1915_3_1_1_1,n1915_3_1_1_1_7
n1916_3_1_1_1,n1916_3_1_1_1_8
n1917_3_1_1_1,n1917_3_1_1_1_7
n1918_3_1_1_1,n1918_3_1_1_1_7
n1919_3_1_1_1,n1919_3_1_1_1_7
n1920_3_1_1_1,n1920_3_1_1_1_7
n1921_3_1_1_1,n1921_3_1_1_1_7
n1922_3_1_1_1,n1922_3_1_1_1_7
n1923_3_1_1_1,n1923_3_1_1_1_7
n1924_3_1_1_1,n1924_3_1_1_1_7
n1925_3_1_1_1,n1925_3_1_1_1_6
n1926_3_1_1_1,n1926_3_1_1_1_8
n1927_3_1_1_1,n1927_3_1_1_1_7
n1928_3_1_1_1,n1928_3_1_1_1_8
n1929_3_1_1_1,n1929_3_1_1_1_7
n1930_3_1_1_1,n1930_3_1_1_1_7
n1931_3_1_1_1,n1931_3_1_1_1_7
n1933_3_1_1_1,n1933_3_1_1_1_7
n1935_3_1_1_1,n1935_3_1_1_1_6
n1936_3_1_1_1,n1936_3_1_1_1_7
n1937_3_1_1_1,n1937_3_1_1_1_7
n1938_3_1_1_1,n1938_3_1_1_1_7
n1939_3_1_1_1,n1939_3_1_1_1_7
n1940_3_1_1_1,n1940_3_1_1_1_7
n1941_3_1_1_1,n1941_3_1_1_1_7
n1942_3_1_1_1,n1942_3_1_1_1_7
n1944_3_1_1_1,n1944_3_1_1_1_7
n1945_3_1_1_1,n1945_3_1_1_1_7
n1946_3_1_1_1,n1946_3_1_1_1_7
n1947_3_1_1_1,n1947_3_1_1_1_7
n1948_3_1_1_1,n1948_3_1_1_1_7
n1950_3_1_1_1,n1950_3_1_1_1_8
n1951_3_1_1_1,n1951_3_1_1_1_7
n1952_3_1_1_1,n1952_3_1_1_1_7
n1953_3_1_1_1,n1953_3_1_1_1_7
n1954_3_1_1_1,n1954_3_1_1_1_7
n1956_3_1_1_1,n1956_3_1_1_1_7
n1957_3_1_1_1,n1957_3_1_1_1_7
n1959_3_1_1_1,n1959_3_1_1_1_6
n1961_3_1_1_1,n1961_3_1_1_1_7
n1962_3_1_1_1,n1962_3_1_1_1_7
n1963_3_1_1_1,n1963_3_1_1_1_7
n1964_3_1_1_1,n1964_3_1_1_1_7
n1966_3_1_1_1,n1966_3_1_1_1_7
n1967_3_1_1_1,n1967_3_1_1_1_6
n1968_3_1_1_1,n1968_3_1_1_1_7
n1970_3_1_1_1,n1970_3_1_1_1_7
n1971_3_1_1_1,n1971_3_1_1_1_6
n1972_3_1_1_1,n1972_3_1_1_1_7
n1973_3_1_1_1,n1973_3_1_1_1_8
n1974_3_1_1_1,n1974_3_1_1_1_6
n1975_3_1_1_1,n1975_3_1_1_1_8
n1976_3_1_1_1,n1976_3_1_1_1_7
n1977_3_1_1_1,n1977_3_1_1_1_8
n1979_3_1_1_1,n1979_3_1_1_1_7
n1980_3_1_1_1,n1980_3_1_1_1_7
n1981_3_1_1_1,n1981_3_1_1_1_7
n1982_3_1_1_1,n1982_3_1_1_1_7
n1983_3_1_1_1,n1983_3_1_1_1_7
n1985_3_1_1_1,n1985_3_1_1_1_7
n1986_3_1_1_1,n1986_3_1_1_1_7
n1987_3_1_1_1,n1987_3_1_1_1_7
n1988_3_1_1_1,n1988_3_1_1_1_7
n1989_3_1_1_1,n1989_3_1_1_1_7
n1990_3_1_1_1,n1990_3_1_1_1_7
n1991_3_1_1_1,n1991_3_1_1_1_7
n1992_3_1_1_1,n1992_3_1_1_1_7
n1993_3_1_1_1,n1993_3_1_1_1_7
n1994_3_1_1_1,n1994_3_1_1_1_7
n1995_3_1_1_1,n1995_3_1_1_1_7
n1996_3_1_1_1,n1996_3_1_1_1_7
n1997_3_1_1_1,n1997_3_1_1_1_7
n1998_3_1_1_1,n1998_3_1_1_1_7
n1999_3_1_1_1,n1999_3_1_1_1_7
n2000_3_1_1_1,n2000_3_1_1_1_7
n2001_3_1_1_1,n2001_3_1_1_1_7
n2002_3_1_1_1,n2002_3_1_1_1_7
n2003_3_1_1_1,n2003_3_1_1_1_7
n2004_3_1_1_1,n2004_3_1_1_1_8
n2005_3_1_1_1,n2005_3_1_1_1_8
n2006_3_1_1_1,n2006_3_1_1_1_7
n2007_3_1_1_1,n2007_3_1_1_1_7
n2008_3_1_1_1,n2008_3_1_1_1_7
n2009_3_1_1_1,n2009_3_1_1_1_7
n2011_3_1_1_1,n2011_3_1_1_1_7
n2012_3_1_1_1,n2012_3_1_1_1_7
n2013_3_1_1_1,n2013_3_1_1_1_8
n2014_3_1_1_1,n2014_3_1_1_1_7
n2015_3_1_1_1,n2015_3_1_1_1_8
n2016_3_1_1_1,n2016_3_1_1_1_7
n2017_3_1_1_1,n2017_3_1_1_1_7
n2018_3_1_1_1,n2018_3_1_1_1_7
n2020_3_1_1_1,n2020_3_1_1_1_7
n2021_3_1_1_1,n2021_3_1_1_1_7
n2022_3_1_1_1,n2022_3_1_1_1_7
n2023_3_1_1_1,n2023_3_1_1_1_7
n2024_3_1_1_1,n2024_3_1_1_1_7
n2025_3_1_1_1,n2025_3_1_1_1_7
n2026_3_1_1_1,n2026_3_1_1_1_7
n2027_3_1_1_1,n2027_3_1_1_1_7
n2028_3_1_1_1,n2028_3_1_1_1_7
n2029_3_1_1_1,n2029_3_1_1_1_7
n2030_3_1_1_1,n2030_3_1_1_1_7
n2031_3_1_1_1,n2031_3_1_1_1_7
n2032_3_1_1_1,n2032_3_1_1_1_7
n2033_3_1_1_1,n2033_3_1_1_1_7
n2034_3_1_1_1,n2034_3_1_1_1_7
n2035_3_1_1_1,n2035_3_1_1_1_7
n2037_3_1_1_1,n2037_3_1_1_1_7
n2038_3_1_1_1,n2038_3_1_1_1_7
n2039_3_1_1_1,n2039_3_1_1_1_7
n2040_3_1_1_1,n2040_3_1_1_1_7
n2041_3_1_1_1,n2041_3_1_1_1_7
n2042_3_1_1_1,n2042_3_1_1_1_7
n2043_3_1_1_1,n2043_3_1_1_1_8
n2045_3_1_1_1,n2045_3_1_1_1_7
n2046_3_1_1_1,n2046_3_1_1_1_7
n2047_3_1_1_1,n2047_3_1_1_1_7
n2048_3_1_1_1,n2048_3_1_1_1_7
n2049_3_1_1_1,n2049_3_1_1_1_7
n2050_3_1_1_1,n2050_3_1_1_1_7
n2051_3_1_1_1,n2051_3_1_1_1_7
n2053_3_1_1_1,n2053_3_1_1_1_8
n2054_3_1_1_1,n2054_3_1_1_1_8
n2055_3_1_1_1,n2055_3_1_1_1_7
n2056_3_1_1_1,n2056_3_1_1_1_7
n2057_3_1_1_1,n2057_3_1_1_1_7
n2058_3_1_1_1,n2058_3_1_1_1_8
n2059_3_1_1_1,n2059_3_1_1_1_7
n2060_3_1_1_1,n2060_3_1_1_1_7
n2061_3_1_1_1,n2061_3_1_1_1_7
n2062_3_1_1_1,n2062_3_1_1_1_7
n2063_3_1_1_1,n2063_3_1_1_1_7
n2064_3_1_1_1,n2064_3_1_1_1_7
n2065_3_1_1_1,n2065_3_1_1_1_7
n2066_3_1_1_1,n2066_3_1_1_1_7
n2067_3_1_1_1,n2067_3_1_1_1_7
n2068_3_1_1_1,n2068_3_1_1_1_7
n2070_3_1_1_1,n2070_3_1_1_1_7
n2071_3_1_1_1,n2071_3_1_1_1_7
n2072_3_1_1_1,n2072_3_1_1_1_7
n2073_3_1_1_1,n2073_3_1_1_1_7
n2074_3_1_1_1,n2074_3_1_1_1_7
n2075_3_1_1_1,n2075_3_1_1_1_7
n2076_3_1_1_1,n2076_3_1_1_1_7
n2077_3_1_1_1,n2077_3_1_1_1_7
n2078_3_1_1_1,n2078_3_1_1_1_7
n2079_3_1_1_1,n2079_3_1_1_1_6
n2080_3_1_1_1,n2080_3_1_1_1_7
n2081_3_1_1_1,n2081_3_1_1_1_7
n2083_3_1_1_1,n2083_3_1_1_1_8
n2084_3_1_1_1,n2084_3_1_1_1_7
n2086_3_1_1_1,n2086_3_1_1_1_7
n2087_3_1_1_1,n2087_3_1_1_1_7
n2088_3_1_1_1,n2088_3_1_1_1_7
n2089_3_1_1_1,n2089_3_1_1_1_7
n2090_3_1_1_1,n2090_3_1_1_1_7
n2091_3_1_1_1,n2091_3_1_1_1_7
n2092_3_1_1_1,n2092_3_1_1_1_7
n2093_3_1_1_1,n2093_3_1_1_1_7
n2094_3_1_1_1,n2094_3_1_1_1_7
n2095_3_1_1_1,n2095_3_1_1_1_7
n2096_3_1_1_1,n2096_3_1_1_1_7
n2097_3_1_1_1,n2097_3_1_1_1_7
n2098_3_1_1_1,n2098_3_1_1_1_7
n2099_3_1_1_1,n2099_3_1_1_1_7
n2100_3_1_1_1,n2100_3_1_1_1_7
n2101_3_1_1_1,n2101_3_1_1_1_7
n2102_3_1_1_1,n2102_3_1_1_1_7
n2103_3_1_1_1,n2103_3_1_1_1_6
n2104_3_1_1_1,n2104_3_1_1_1_7
n2105_3_1_1_1,n2105_3_1_1_1_8
n2106_3_1_1_1,n2106_3_1_1_1_7
n2107_3_1_1_1,n2107_3_1_1_1_7
n2108_3_1_1_1,n2108_3_1_1_1_7
n2109_3_1_1_1,n2109_3_1_1_1_7
n2110_3_1_1_1,n2110_3_1_1_1_7
n2111_3_1_1_1,n2111_3_1_1_1_7
n2112_3_1_1_1,n2112_3_1_1_1_7
n2114_3_1_1_1,n2114_3_1_1_1_7
n2115_3_1_1_1,n2115_3_1_1_1_7
n2116_3_1_1_1,n2116_3_1_1_1_7
n2117_3_1_1_1,n2117_3_1_1_1_7
n2118_3_1_1_1,n2118_3_1_1_1_7
n2120_3_1_1_1,n2120_3_1_1_1_8
n2121_3_1_1_1,n2121_3_1_1_1_7
n2122_3_1_1_1,n2122_3_1_1_1_7
n2123_3_1_1_1,n2123_3_1_1_1_7
n2124_3_1_1_1,n2124_3_1_1_1_7
n2125_3_1_1_1,n2125_3_1_1_1_7
n2126_3_1_1_1,n2126_3_1_1_1_7
n2127_3_1_1_1,n2127_3_1_1_1_7
n2128_3_1_1_1,n2128_3_1_1_1_7
n2129_3_1_1_1,n2129_3_1_1_1_7
n2130_3_1_1_1,n2130_3_1_1_1_6
n2132_3_1_1_1,n2132_3_1_1_1_7
n2133_3_1_1_1,n2133_3_1_1_1_7
n2134_3_1_1_1,n2134_3_1_1_1_7
n2135_3_1_1_1,n2135_3_1_1_1_7
n2137_3_1_1_1,n2137_3_1_1_1_7
n2138_3_1_1_1,n2138_3_1_1_1_7
n2139_3_1_1_1,n2139_3_1_1_1_7
n2140_3_1_1_1,n2140_3_1_1_1_8
n2141_3_1_1_1,n2141_3_1_1_1_7
n2142_3_1_1_1,n2142_3_1_1_1_7
n2143_3_1_1_1,n2143_3_1_1_1_7
n2144_3_1_1_1,n2144_3_1_1_1_7
n2145_3_1_1_1,n2145_3_1_1_1_7
n2146_3_1_1_1,n2146_3_1_1_1_7
n2147_3_1_1_1,n2147_3_1_1_1_7
n2148_3_1_1_1,n2148_3_1_1_1_7
n2149_3_1_1_1,n2149_3_1_1_1_7
n2150_3_1_1_1,n2150_3_1_1_1_7
n2151_3_1_1_1,n2151_3_1_1_1_8
n2152_3_1_1_1,n2152_3_1_1_1_8
n2153_3_1_1_1,n2153_3_1_1_1_7
n2154_3_1_1_1,n2154_3_1_1_1_7
n2155_3_1_1_1,n2155_3_1_1_1_7
n2156_3_1_1_1,n2156_3_1_1_1_7
n2157_3_1_1_1,n2157_3_1_1_1_7
n2158_3_1_1_1,n2158_3_1_1_1_7
n2159_3_1_1_1,n2159_3_1_1_1_7
n2160_3_1_1_1,n2160_3_1_1_1_7
n2162_3_1_1_1,n2162_3_1_1_1_7
n2163_3_1_1_1,n2163_3_1_1_1_7
n2165_3_1_1_1,n2165_3_1_1_1_7
n2166_3_1_1_1,n2166_3_1_1_1_7
n2167_3_1_1_1,n2167_3_1_1_1_7
n2168_3_1_1_1,n2168_3_1_1_1_7
n2169_3_1_1_1,n2169_3_1_1_1_7
n2170_3_1_1_1,n2170_3_1_1_1_7
n2172_3_1_1_1,n2172_3_1_1_1_7
n2173_3_1_1_1,n2173_3_1_1_1_7
n2174_3_1_1_1,n2174_3_1_1_1_6
n2175_3_1_1_1,n2175_3_1_1_1_7
