n2376_3_1_1,n2376_3_1_1_6
n2378_3_1_1,n2378_3_1_1_6
n2383_3_1_1,n2383_3_1_1_6
n2385_3_1_1,n2385_3_1_1_6
n2387_3_1_1,n2387_3_1_1_6
n2389_3_1_1,n2389_3_1_1_7
n2391_3_1_1,n2391_3_1_1_6
n2392_3_1_1,n2392_3_1_1_4
n2393_3_1_1,n2393_3_1_1_5
n2394_3_1_1,n2394_3_1_1_7
n2397_3_1_1,n2397_3_1_1_7
n2399_3_1_1,n2399_3_1_1_9
n2400_3_1_1,n2400_3_1_1_6
n2402_3_1_1,n2402_3_1_1_7
n2403_3_1_1,n2403_3_1_1_7
n2406_3_1_1,n2406_3_1_1_8
n2407_3_1_1,n2407_3_1_1_5
n2408_3_1_1,n2408_3_1_1_7
n2409_3_1_1,n2409_3_1_1_6
n2412_3_1_1,n2412_3_1_1_6
n2416_3_1_1,n2416_3_1_1_6
n2422_3_1_1,n2422_3_1_1_7
n2423_3_1_1,n2423_3_1_1_7
n2425_3_1_1,n2425_3_1_1_7
n2429_3_1_1,n2429_3_1_1_6
n2432_3_1_1,n2432_3_1_1_7
n2433_3_1_1,n2433_3_1_1_9
n2434_3_1_1,n2434_3_1_1_5
n2436_3_1_1,n2436_3_1_1_7
n2437_3_1_1,n2437_3_1_1_9
n2438_3_1_1,n2438_3_1_1_7
n2439_3_1_1,n2439_3_1_1_6
n2440_3_1_1,n2440_3_1_1_7
n2445_3_1_1,n2445_3_1_1_7
n2446_3_1_1,n2446_3_1_1_7
n2447_3_1_1,n2447_3_1_1_5
n2448_3_1_1,n2448_3_1_1_7
n2450_3_1_1,n2450_3_1_1_7
n2451_3_1_1,n2451_3_1_1_6
n2453_3_1_1,n2453_3_1_1_7
n2454_3_1_1,n2454_3_1_1_5
n2455_3_1_1,n2455_3_1_1_5
n2456_3_1_1,n2456_3_1_1_6
n2459_3_1_1,n2459_3_1_1_6
n2462_3_1_1,n2462_3_1_1_5
n2469_3_1_1,n2469_3_1_1_8
n2473_3_1_1,n2473_3_1_1_6
n2474_3_1_1,n2474_3_1_1_5
n2475_3_1_1,n2475_3_1_1_5
n2476_3_1_1,n2476_3_1_1_6
n2478_3_1_1,n2478_3_1_1_8
n2479_3_1_1,n2479_3_1_1_7
n2482_3_1_1,n2482_3_1_1_6
n2483_3_1_1,n2483_3_1_1_7
n2485_3_1_1,n2485_3_1_1_9
n2486_3_1_1,n2486_3_1_1_7
n2487_3_1_1,n2487_3_1_1_8
n2488_3_1_1,n2488_3_1_1_5
n2491_3_1_1,n2491_3_1_1_6
n2492_3_1_1,n2492_3_1_1_6
n2493_3_1_1,n2493_3_1_1_6
n2494_3_1_1,n2494_3_1_1_6
n2497_3_1_1,n2497_3_1_1_5
n2500_3_1_1,n2500_3_1_1_8
n2501_3_1_1,n2501_3_1_1_5
n2502_3_1_1,n2502_3_1_1_6
n2505_3_1_1,n2505_3_1_1_8
n2508_3_1_1,n2508_3_1_1_7
n2509_3_1_1,n2509_3_1_1_7
n2512_3_1_1,n2512_3_1_1_7
n2513_3_1_1,n2513_3_1_1_7
n2514_3_1_1,n2514_3_1_1_5
n2517_3_1_1,n2517_3_1_1_6
n2518_3_1_1,n2518_3_1_1_7
n2520_3_1_1,n2520_3_1_1_8
n2522_3_1_1,n2522_3_1_1_6
n2524_3_1_1,n2524_3_1_1_6
n2525_3_1_1,n2525_3_1_1_7
n2528_3_1_1,n2528_3_1_1_6
n2531_3_1_1,n2531_3_1_1_5
n2533_3_1_1,n2533_3_1_1_6
n2538_3_1_1,n2538_3_1_1_5
n2539_3_1_1,n2539_3_1_1_6
n2542_3_1_1,n2542_3_1_1_7
n2547_3_1_1,n2547_3_1_1_7
n2548_3_1_1,n2548_3_1_1_7
n2549_3_1_1,n2549_3_1_1_6
n2550_3_1_1,n2550_3_1_1_5
n2551_3_1_1,n2551_3_1_1_5
n2552_3_1_1,n2552_3_1_1_6
n2553_3_1_1,n2553_3_1_1_5
n2556_3_1_1,n2556_3_1_1_8
n2558_3_1_1,n2558_3_1_1_5
n2559_3_1_1,n2559_3_1_1_6
n2560_3_1_1,n2560_3_1_1_7
n2561_3_1_1,n2561_3_1_1_6
n2563_3_1_1,n2563_3_1_1_8
n2564_3_1_1,n2564_3_1_1_6
n2568_3_1_1,n2568_3_1_1_6
n2573_3_1_1,n2573_3_1_1_7
n2574_3_1_1,n2574_3_1_1_7
n2575_3_1_1,n2575_3_1_1_6
n2576_3_1_1,n2576_3_1_1_5
n2578_3_1_1,n2578_3_1_1_6
n2579_3_1_1,n2579_3_1_1_6
n2584_3_1_1,n2584_3_1_1_6
n2585_3_1_1,n2585_3_1_1_6
n2586_3_1_1,n2586_3_1_1_7
n2588_3_1_1,n2588_3_1_1_5
n2592_3_1_1,n2592_3_1_1_7
n2593_3_1_1,n2593_3_1_1_6
n2594_3_1_1,n2594_3_1_1_7
n2596_3_1_1,n2596_3_1_1_6
n2597_3_1_1,n2597_3_1_1_9
n2598_3_1_1,n2598_3_1_1_5
n2599_3_1_1,n2599_3_1_1_8
n2602_3_1_1,n2602_3_1_1_7
n2604_3_1_1,n2604_3_1_1_6
n2605_3_1_1,n2605_3_1_1_6
n2607_3_1_1,n2607_3_1_1_6
n2609_3_1_1,n2609_3_1_1_6
n2612_3_1_1,n2612_3_1_1_7
n2614_3_1_1,n2614_3_1_1_6
n2615_3_1_1,n2615_3_1_1_6
n2619_3_1_1,n2619_3_1_1_7
n2620_3_1_1,n2620_3_1_1_5
n2623_3_1_1,n2623_3_1_1_6
n2625_3_1_1,n2625_3_1_1_6
n2627_3_1_1,n2627_3_1_1_7
n2634_3_1_1,n2634_3_1_1_8
n2635_3_1_1,n2635_3_1_1_7
n2636_3_1_1,n2636_3_1_1_5
n2637_3_1_1,n2637_3_1_1_6
n2639_3_1_1,n2639_3_1_1_6
n2647_3_1_1,n2647_3_1_1_8
n2660_3_1_1,n2660_3_1_1_6
n2661_3_1_1,n2661_3_1_1_7
n2662_3_1_1,n2662_3_1_1_4
n2668_3_1_1,n2668_3_1_1_8
n2669_3_1_1,n2669_3_1_1_7
n2671_3_1_1,n2671_3_1_1_6
n2672_3_1_1,n2672_3_1_1_5
n2675_3_1_1,n2675_3_1_1_7
n2676_3_1_1,n2676_3_1_1_8
n2677_3_1_1,n2677_3_1_1_7
n2682_3_1_1,n2682_3_1_1_7
n2686_3_1_1,n2686_3_1_1_7
n2688_3_1_1,n2688_3_1_1_7
n2690_3_1_1,n2690_3_1_1_7
n2692_3_1_1,n2692_3_1_1_6
n2693_3_1_1,n2693_3_1_1_8
n2695_3_1_1,n2695_3_1_1_8
n2696_3_1_1,n2696_3_1_1_7
n2697_3_1_1,n2697_3_1_1_5
n2699_3_1_1,n2699_3_1_1_6
n2702_3_1_1,n2702_3_1_1_6
n2703_3_1_1,n2703_3_1_1_8
n2704_3_1_1,n2704_3_1_1_6
n2705_3_1_1,n2705_3_1_1_5
n2707_3_1_1,n2707_3_1_1_7
n2713_3_1_1,n2713_3_1_1_5
n2715_3_1_1,n2715_3_1_1_6
n2716_3_1_1,n2716_3_1_1_5
n2719_3_1_1,n2719_3_1_1_7
n2720_3_1_1,n2720_3_1_1_5
n2721_3_1_1,n2721_3_1_1_7
n2723_3_1_1,n2723_3_1_1_7
n2726_3_1_1,n2726_3_1_1_7
n2728_3_1_1,n2728_3_1_1_6
n2730_3_1_1,n2730_3_1_1_7
n2731_3_1_1,n2731_3_1_1_4
n2732_3_1_1,n2732_3_1_1_7
n2734_3_1_1,n2734_3_1_1_6
n2735_3_1_1,n2735_3_1_1_5
n2741_3_1_1,n2741_3_1_1_7
n2744_3_1_1,n2744_3_1_1_7
n2745_3_1_1,n2745_3_1_1_8
n2748_3_1_1,n2748_3_1_1_4
n2755_3_1_1,n2755_3_1_1_5
n2757_3_1_1,n2757_3_1_1_7
n2758_3_1_1,n2758_3_1_1_5
n2759_3_1_1,n2759_3_1_1_7
n2762_3_1_1,n2762_3_1_1_7
n2763_3_1_1,n2763_3_1_1_7
n2767_3_1_1,n2767_3_1_1_5
n2769_3_1_1,n2769_3_1_1_7
n2773_3_1_1,n2773_3_1_1_6
n2775_3_1_1,n2775_3_1_1_7
n2776_3_1_1,n2776_3_1_1_7
n2780_3_1_1,n2780_3_1_1_9
n2782_3_1_1,n2782_3_1_1_9
n2784_3_1_1,n2784_3_1_1_6
n2785_3_1_1,n2785_3_1_1_8
n2787_3_1_1,n2787_3_1_1_6
n2788_3_1_1,n2788_3_1_1_6
n2793_3_1_1,n2793_3_1_1_7
n2794_3_1_1,n2794_3_1_1_5
n2797_3_1_1,n2797_3_1_1_7
n2798_3_1_1,n2798_3_1_1_8
n2801_3_1_1,n2801_3_1_1_7
n2807_3_1_1,n2807_3_1_1_6
n2808_3_1_1,n2808_3_1_1_7
n2810_3_1_1,n2810_3_1_1_6
n2811_3_1_1,n2811_3_1_1_7
n2812_3_1_1,n2812_3_1_1_5
n2813_3_1_1,n2813_3_1_1_7
n2814_3_1_1,n2814_3_1_1_6
n2816_3_1_1,n2816_3_1_1_9
n2817_3_1_1,n2817_3_1_1_5
n2819_3_1_1,n2819_3_1_1_8
n2826_3_1_1,n2826_3_1_1_6
n2831_3_1_1,n2831_3_1_1_8
n2832_3_1_1,n2832_3_1_1_6
n2833_3_1_1,n2833_3_1_1_7
n2834_3_1_1,n2834_3_1_1_7
n2835_3_1_1,n2835_3_1_1_6
n2836_3_1_1,n2836_3_1_1_6
n2837_3_1_1,n2837_3_1_1_6
n2838_3_1_1,n2838_3_1_1_9
n2839_3_1_1,n2839_3_1_1_6
n2840_3_1_1,n2840_3_1_1_7
n2841_3_1_1,n2841_3_1_1_6
n2842_3_1_1,n2842_3_1_1_7
n2844_3_1_1,n2844_3_1_1_7
n2847_3_1_1,n2847_3_1_1_6
n2850_3_1_1,n2850_3_1_1_6
n2853_3_1_1,n2853_3_1_1_7
n2857_3_1_1,n2857_3_1_1_7
n2858_3_1_1,n2858_3_1_1_7
n2860_3_1_1,n2860_3_1_1_8
n2862_3_1_1,n2862_3_1_1_7
n2864_3_1_1,n2864_3_1_1_6
n2865_3_1_1,n2865_3_1_1_6
n2866_3_1_1,n2866_3_1_1_7
n2867_3_1_1,n2867_3_1_1_6
n2870_3_1_1,n2870_3_1_1_6
n2878_3_1_1,n2878_3_1_1_7
n2880_3_1_1,n2880_3_1_1_8
n2883_3_1_1,n2883_3_1_1_6
n2884_3_1_1,n2884_3_1_1_8
n2886_3_1_1,n2886_3_1_1_7
n2888_3_1_1,n2888_3_1_1_6
n2890_3_1_1,n2890_3_1_1_6
n2891_3_1_1,n2891_3_1_1_7
n2892_3_1_1,n2892_3_1_1_5
n2893_3_1_1,n2893_3_1_1_7
n2896_3_1_1,n2896_3_1_1_7
n2904_3_1_1,n2904_3_1_1_7
n2906_3_1_1,n2906_3_1_1_7
n2907_3_1_1,n2907_3_1_1_5
n2913_3_1_1,n2913_3_1_1_5
n2914_3_1_1,n2914_3_1_1_7
n2918_3_1_1,n2918_3_1_1_8
n2925_3_1_1,n2925_3_1_1_7
n2926_3_1_1,n2926_3_1_1_7
n2927_3_1_1,n2927_3_1_1_4
n2931_3_1_1,n2931_3_1_1_7
n2934_3_1_1,n2934_3_1_1_7
n2935_3_1_1,n2935_3_1_1_7
n2936_3_1_1,n2936_3_1_1_5
n2940_3_1_1,n2940_3_1_1_6
n2943_3_1_1,n2943_3_1_1_7
n2944_3_1_1,n2944_3_1_1_5
n2947_3_1_1,n2947_3_1_1_7
n2948_3_1_1,n2948_3_1_1_7
n2952_3_1_1,n2952_3_1_1_6
n2953_3_1_1,n2953_3_1_1_6
n2954_3_1_1,n2954_3_1_1_8
n2955_3_1_1,n2955_3_1_1_6
n2956_3_1_1,n2956_3_1_1_6
n2958_3_1_1,n2958_3_1_1_7
n2962_3_1_1,n2962_3_1_1_6
n2967_3_1_1,n2967_3_1_1_5
n2968_3_1_1,n2968_3_1_1_5
n2972_3_1_1,n2972_3_1_1_7
n2973_3_1_1,n2973_3_1_1_6
n2974_3_1_1,n2974_3_1_1_7
n2977_3_1_1,n2977_3_1_1_6
n2978_3_1_1,n2978_3_1_1_6
n2980_3_1_1,n2980_3_1_1_5
n2981_3_1_1,n2981_3_1_1_5
n2983_3_1_1,n2983_3_1_1_8
n2985_3_1_1,n2985_3_1_1_6
n2989_3_1_1,n2989_3_1_1_7
n2997_3_1_1,n2997_3_1_1_6
n2999_3_1_1,n2999_3_1_1_5
n3002_3_1_1,n3002_3_1_1_9
n3003_3_1_1,n3003_3_1_1_7
n3004_3_1_1,n3004_3_1_1_5
n3005_3_1_1,n3005_3_1_1_8
n3010_3_1_1,n3010_3_1_1_5
n3012_3_1_1,n3012_3_1_1_7
n3013_3_1_1,n3013_3_1_1_6
n3014_3_1_1,n3014_3_1_1_6
n3015_3_1_1,n3015_3_1_1_6
n3016_3_1_1,n3016_3_1_1_8
n3018_3_1_1,n3018_3_1_1_6
n3023_3_1_1,n3023_3_1_1_7
n3025_3_1_1,n3025_3_1_1_7
n3026_3_1_1,n3026_3_1_1_5
n3029_3_1_1,n3029_3_1_1_8
n3036_3_1_1,n3036_3_1_1_5
n3042_3_1_1,n3042_3_1_1_5
n3045_3_1_1,n3045_3_1_1_5
n3050_3_1_1,n3050_3_1_1_9
n3051_3_1_1,n3051_3_1_1_8
n3053_3_1_1,n3053_3_1_1_9
n3054_3_1_1,n3054_3_1_1_7
n3065_3_1_1,n3065_3_1_1_6
n3066_3_1_1,n3066_3_1_1_6
n3068_3_1_1,n3068_3_1_1_5
n3069_3_1_1,n3069_3_1_1_7
n3070_3_1_1,n3070_3_1_1_7
n3071_3_1_1,n3071_3_1_1_6
n3073_3_1_1,n3073_3_1_1_7
n3077_3_1_1,n3077_3_1_1_6
n3078_3_1_1,n3078_3_1_1_6
n3079_3_1_1,n3079_3_1_1_7
n3081_3_1_1,n3081_3_1_1_6
n3087_3_1_1,n3087_3_1_1_7
n3088_3_1_1,n3088_3_1_1_7
n3089_3_1_1,n3089_3_1_1_6
n3091_3_1_1,n3091_3_1_1_6
n3093_3_1_1,n3093_3_1_1_6
n3094_3_1_1,n3094_3_1_1_8
n3096_3_1_1,n3096_3_1_1_6
n3097_3_1_1,n3097_3_1_1_7
n3101_3_1_1,n3101_3_1_1_6
n3103_3_1_1,n3103_3_1_1_7
n3106_3_1_1,n3106_3_1_1_6
n3111_3_1_1,n3111_3_1_1_8
n3114_3_1_1,n3114_3_1_1_5
n3115_3_1_1,n3115_3_1_1_5
n3118_3_1_1,n3118_3_1_1_6
n3119_3_1_1,n3119_3_1_1_5
n3122_3_1_1,n3122_3_1_1_5
n3124_3_1_1,n3124_3_1_1_6
n3126_3_1_1,n3126_3_1_1_6
n3128_3_1_1,n3128_3_1_1_7
n3129_3_1_1,n3129_3_1_1_5
n3133_3_1_1,n3133_3_1_1_6
n3134_3_1_1,n3134_3_1_1_7
n3135_3_1_1,n3135_3_1_1_8
n3138_3_1_1,n3138_3_1_1_6
n3141_3_1_1,n3141_3_1_1_8
n3142_3_1_1,n3142_3_1_1_6
n3147_3_1_1,n3147_3_1_1_6
n3149_3_1_1,n3149_3_1_1_6
n3150_3_1_1,n3150_3_1_1_7
n3151_3_1_1,n3151_3_1_1_6
n3152_3_1_1,n3152_3_1_1_4
n3156_3_1_1,n3156_3_1_1_5
n3160_3_1_1,n3160_3_1_1_7
n3164_3_1_1,n3164_3_1_1_7
n3165_3_1_1,n3165_3_1_1_7
n3166_3_1_1,n3166_3_1_1_7
n3168_3_1_1,n3168_3_1_1_6
n3172_3_1_1,n3172_3_1_1_7
n3173_3_1_1,n3173_3_1_1_7
n3176_3_1_1,n3176_3_1_1_8
n3177_3_1_1,n3177_3_1_1_6
n3178_3_1_1,n3178_3_1_1_7
n3179_3_1_1,n3179_3_1_1_6
n3181_3_1_1,n3181_3_1_1_8
n3188_3_1_1,n3188_3_1_1_7
n3189_3_1_1,n3189_3_1_1_5
n3190_3_1_1,n3190_3_1_1_6
n3196_3_1_1,n3196_3_1_1_7
n3198_3_1_1,n3198_3_1_1_6
n3199_3_1_1,n3199_3_1_1_5
n3203_3_1_1,n3203_3_1_1_6
n3206_3_1_1,n3206_3_1_1_4
n3209_3_1_1,n3209_3_1_1_6
n3210_3_1_1,n3210_3_1_1_8
n3215_3_1_1,n3215_3_1_1_8
n3216_3_1_1,n3216_3_1_1_7
n3217_3_1_1,n3217_3_1_1_8
n3219_3_1_1,n3219_3_1_1_8
n3220_3_1_1,n3220_3_1_1_6
n3221_3_1_1,n3221_3_1_1_6
n3223_3_1_1,n3223_3_1_1_7
n3233_3_1_1,n3233_3_1_1_7
n3236_3_1_1,n3236_3_1_1_7
n3237_3_1_1,n3237_3_1_1_5
n3246_3_1_1,n3246_3_1_1_6
n3248_3_1_1,n3248_3_1_1_7
n3249_3_1_1,n3249_3_1_1_7
n3250_3_1_1,n3250_3_1_1_4
n3251_3_1_1,n3251_3_1_1_5
n3253_3_1_1,n3253_3_1_1_7
n3254_3_1_1,n3254_3_1_1_7
n3256_3_1_1,n3256_3_1_1_8
n3258_3_1_1,n3258_3_1_1_9
n3259_3_1_1,n3259_3_1_1_5
n3261_3_1_1,n3261_3_1_1_8
n3263_3_1_1,n3263_3_1_1_5
n3265_3_1_1,n3265_3_1_1_8
n3266_3_1_1,n3266_3_1_1_6
n3267_3_1_1,n3267_3_1_1_5
n3268_3_1_1,n3268_3_1_1_5
n3272_3_1_1,n3272_3_1_1_8
n3273_3_1_1,n3273_3_1_1_8
n3274_3_1_1,n3274_3_1_1_5
n3275_3_1_1,n3275_3_1_1_8
n3279_3_1_1,n3279_3_1_1_6
n3280_3_1_1,n3280_3_1_1_7
n3285_3_1_1,n3285_3_1_1_6
n3286_3_1_1,n3286_3_1_1_6
n3287_3_1_1,n3287_3_1_1_6
n3294_3_1_1,n3294_3_1_1_7
n3297_3_1_1,n3297_3_1_1_8
n3300_3_1_1,n3300_3_1_1_6
n3304_3_1_1,n3304_3_1_1_7
n3305_3_1_1,n3305_3_1_1_5
n3306_3_1_1,n3306_3_1_1_6
n3309_3_1_1,n3309_3_1_1_8
n3311_3_1_1,n3311_3_1_1_8
n3313_3_1_1,n3313_3_1_1_6
n3317_3_1_1,n3317_3_1_1_6
n3321_3_1_1,n3321_3_1_1_8
n3322_3_1_1,n3322_3_1_1_8
n3323_3_1_1,n3323_3_1_1_6
n3324_3_1_1,n3324_3_1_1_4
n3325_3_1_1,n3325_3_1_1_9
n3328_3_1_1,n3328_3_1_1_4
n3331_3_1_1,n3331_3_1_1_8
n3332_3_1_1,n3332_3_1_1_7
n3334_3_1_1,n3334_3_1_1_6
n3336_3_1_1,n3336_3_1_1_6
n3339_3_1_1,n3339_3_1_1_9
n3340_3_1_1,n3340_3_1_1_6
n3342_3_1_1,n3342_3_1_1_8
n3344_3_1_1,n3344_3_1_1_6
n3350_3_1_1,n3350_3_1_1_6
n3351_3_1_1,n3351_3_1_1_6
n3352_3_1_1,n3352_3_1_1_5
n3357_3_1_1,n3357_3_1_1_5
n3358_3_1_1,n3358_3_1_1_7
n3359_3_1_1,n3359_3_1_1_5
n3361_3_1_1,n3361_3_1_1_7
n3362_3_1_1,n3362_3_1_1_7
n3364_3_1_1,n3364_3_1_1_8
n3366_3_1_1,n3366_3_1_1_5
n3368_3_1_1,n3368_3_1_1_6
n3369_3_1_1,n3369_3_1_1_5
n3374_3_1_1,n3374_3_1_1_7
n3375_3_1_1,n3375_3_1_1_7
n3376_3_1_1,n3376_3_1_1_5
n3377_3_1_1,n3377_3_1_1_5
n3378_3_1_1,n3378_3_1_1_6
n3379_3_1_1,n3379_3_1_1_4
n3380_3_1_1,n3380_3_1_1_6
n3383_3_1_1,n3383_3_1_1_6
n3387_3_1_1,n3387_3_1_1_6
n3399_3_1_1,n3399_3_1_1_8
n3400_3_1_1,n3400_3_1_1_6
n3401_3_1_1,n3401_3_1_1_8
n3402_3_1_1,n3402_3_1_1_7
n3405_3_1_1,n3405_3_1_1_8
n3409_3_1_1,n3409_3_1_1_6
n3413_3_1_1,n3413_3_1_1_9
n3414_3_1_1,n3414_3_1_1_8
n3417_3_1_1,n3417_3_1_1_4
n3419_3_1_1,n3419_3_1_1_7
n3423_3_1_1,n3423_3_1_1_5
n3425_3_1_1,n3425_3_1_1_5
n3431_3_1_1,n3431_3_1_1_4
n3435_3_1_1,n3435_3_1_1_6
n3436_3_1_1,n3436_3_1_1_7
n3437_3_1_1,n3437_3_1_1_6
n3438_3_1_1,n3438_3_1_1_7
n3440_3_1_1,n3440_3_1_1_7
n3443_3_1_1,n3443_3_1_1_5
n3445_3_1_1,n3445_3_1_1_6
n3446_3_1_1,n3446_3_1_1_7
n3447_3_1_1,n3447_3_1_1_7
n3448_3_1_1,n3448_3_1_1_6
n3452_3_1_1,n3452_3_1_1_8
n3453_3_1_1,n3453_3_1_1_5
n3456_3_1_1,n3456_3_1_1_7
n3458_3_1_1,n3458_3_1_1_7
n3460_3_1_1,n3460_3_1_1_6
n3462_3_1_1,n3462_3_1_1_6
n3465_3_1_1,n3465_3_1_1_7
n3467_3_1_1,n3467_3_1_1_7
n3468_3_1_1,n3468_3_1_1_7
n3469_3_1_1,n3469_3_1_1_8
n3470_3_1_1,n3470_3_1_1_8
n3473_3_1_1,n3473_3_1_1_7
n3478_3_1_1,n3478_3_1_1_5
n3479_3_1_1,n3479_3_1_1_5
n3480_3_1_1,n3480_3_1_1_9
n3481_3_1_1,n3481_3_1_1_5
n3482_3_1_1,n3482_3_1_1_6
n3484_3_1_1,n3484_3_1_1_6
n3487_3_1_1,n3487_3_1_1_6
n3488_3_1_1,n3488_3_1_1_6
n3490_3_1_1,n3490_3_1_1_7
n3492_3_1_1,n3492_3_1_1_6
n3494_3_1_1,n3494_3_1_1_7
n3502_3_1_1,n3502_3_1_1_9
n3503_3_1_1,n3503_3_1_1_7
n3504_3_1_1,n3504_3_1_1_6
n3508_3_1_1,n3508_3_1_1_7
n3509_3_1_1,n3509_3_1_1_7
n3516_3_1_1,n3516_3_1_1_5
n3521_3_1_1,n3521_3_1_1_9
n3523_3_1_1,n3523_3_1_1_5
n3524_3_1_1,n3524_3_1_1_4
n3531_3_1_1,n3531_3_1_1_6
n3536_3_1_1,n3536_3_1_1_7
n3537_3_1_1,n3537_3_1_1_8
n3538_3_1_1,n3538_3_1_1_6
n3540_3_1_1,n3540_3_1_1_4
n3541_3_1_1,n3541_3_1_1_5
n3542_3_1_1,n3542_3_1_1_6
n3544_3_1_1,n3544_3_1_1_6
n3546_3_1_1,n3546_3_1_1_8
n3550_3_1_1,n3550_3_1_1_4
n3552_3_1_1,n3552_3_1_1_7
n3554_3_1_1,n3554_3_1_1_6
n3559_3_1_1,n3559_3_1_1_6
n3560_3_1_1,n3560_3_1_1_8
n3561_3_1_1,n3561_3_1_1_7
n3562_3_1_1,n3562_3_1_1_7
n3563_3_1_1,n3563_3_1_1_7
n3568_3_1_1,n3568_3_1_1_7
n3571_3_1_1,n3571_3_1_1_8
n3572_3_1_1,n3572_3_1_1_8
n3574_3_1_1,n3574_3_1_1_6
n3576_3_1_1,n3576_3_1_1_5
n3580_3_1_1,n3580_3_1_1_6
n3583_3_1_1,n3583_3_1_1_8
n3584_3_1_1,n3584_3_1_1_6
n3585_3_1_1,n3585_3_1_1_7
n3590_3_1_1,n3590_3_1_1_7
n3591_3_1_1,n3591_3_1_1_5
n3596_3_1_1,n3596_3_1_1_9
n3601_3_1_1,n3601_3_1_1_6
n3603_3_1_1,n3603_3_1_1_7
n3612_3_1_1,n3612_3_1_1_6
n3614_3_1_1,n3614_3_1_1_8
n3615_3_1_1,n3615_3_1_1_7
n3617_3_1_1,n3617_3_1_1_6
n3618_3_1_1,n3618_3_1_1_6
n3621_3_1_1,n3621_3_1_1_6
n3624_3_1_1,n3624_3_1_1_5
n3627_3_1_1,n3627_3_1_1_6
n3628_3_1_1,n3628_3_1_1_5
n3629_3_1_1,n3629_3_1_1_6
n3631_3_1_1,n3631_3_1_1_6
n3633_3_1_1,n3633_3_1_1_7
n3635_3_1_1,n3635_3_1_1_6
n3636_3_1_1,n3636_3_1_1_7
n3638_3_1_1,n3638_3_1_1_6
n3641_3_1_1,n3641_3_1_1_6
n3648_3_1_1,n3648_3_1_1_8
n3651_3_1_1,n3651_3_1_1_8
n3654_3_1_1,n3654_3_1_1_5
n3655_3_1_1,n3655_3_1_1_6
n3657_3_1_1,n3657_3_1_1_7
n3661_3_1_1,n3661_3_1_1_6
n3662_3_1_1,n3662_3_1_1_6
n3666_3_1_1,n3666_3_1_1_5
n3667_3_1_1,n3667_3_1_1_7
n3669_3_1_1,n3669_3_1_1_6
n3670_3_1_1,n3670_3_1_1_5
n3672_3_1_1,n3672_3_1_1_6
n3673_3_1_1,n3673_3_1_1_6
n3675_3_1_1,n3675_3_1_1_7
n3677_3_1_1,n3677_3_1_1_5
n3681_3_1_1,n3681_3_1_1_8
n3682_3_1_1,n3682_3_1_1_8
n3684_3_1_1,n3684_3_1_1_6
n3685_3_1_1,n3685_3_1_1_8
n3687_3_1_1,n3687_3_1_1_6
n3689_3_1_1,n3689_3_1_1_6
n3690_3_1_1,n3690_3_1_1_7
n3694_3_1_1,n3694_3_1_1_7
n3695_3_1_1,n3695_3_1_1_5
n3698_3_1_1,n3698_3_1_1_9
n3699_3_1_1,n3699_3_1_1_7
n3701_3_1_1,n3701_3_1_1_7
n3703_3_1_1,n3703_3_1_1_7
n3704_3_1_1,n3704_3_1_1_5
n3708_3_1_1,n3708_3_1_1_6
n3711_3_1_1,n3711_3_1_1_4
n3713_3_1_1,n3713_3_1_1_9
n3719_3_1_1,n3719_3_1_1_9
n3722_3_1_1,n3722_3_1_1_6
n3723_3_1_1,n3723_3_1_1_5
n3728_3_1_1,n3728_3_1_1_8
n3729_3_1_1,n3729_3_1_1_8
n3731_3_1_1,n3731_3_1_1_6
n3739_3_1_1,n3739_3_1_1_9
n3742_3_1_1,n3742_3_1_1_9
n3744_3_1_1,n3744_3_1_1_6
n3746_3_1_1,n3746_3_1_1_7
n3748_3_1_1,n3748_3_1_1_8
n3749_3_1_1,n3749_3_1_1_6
n3750_3_1_1,n3750_3_1_1_6
n3757_3_1_1,n3757_3_1_1_5
n3761_3_1_1,n3761_3_1_1_7
n3763_3_1_1,n3763_3_1_1_6
n3766_3_1_1,n3766_3_1_1_5
n3767_3_1_1,n3767_3_1_1_5
n3770_3_1_1,n3770_3_1_1_9
n3773_3_1_1,n3773_3_1_1_6
n3779_3_1_1,n3779_3_1_1_7
n3780_3_1_1,n3780_3_1_1_7
n3781_3_1_1,n3781_3_1_1_6
n3783_3_1_1,n3783_3_1_1_7
n3785_3_1_1,n3785_3_1_1_5
n3787_3_1_1,n3787_3_1_1_6
n3789_3_1_1,n3789_3_1_1_5
n3793_3_1_1,n3793_3_1_1_6
n3794_3_1_1,n3794_3_1_1_5
n3797_3_1_1,n3797_3_1_1_8
n3799_3_1_1,n3799_3_1_1_8
n3800_3_1_1,n3800_3_1_1_8
n3801_3_1_1,n3801_3_1_1_6
n3803_3_1_1,n3803_3_1_1_7
n3813_3_1_1,n3813_3_1_1_6
n3817_3_1_1,n3817_3_1_1_7
n3821_3_1_1,n3821_3_1_1_5
n3822_3_1_1,n3822_3_1_1_5
n3825_3_1_1,n3825_3_1_1_8
n3826_3_1_1,n3826_3_1_1_5
n3827_3_1_1,n3827_3_1_1_6
n3828_3_1_1,n3828_3_1_1_8
n3832_3_1_1,n3832_3_1_1_6
n3833_3_1_1,n3833_3_1_1_6
n3834_3_1_1,n3834_3_1_1_7
n3835_3_1_1,n3835_3_1_1_6
n3837_3_1_1,n3837_3_1_1_6
n3849_3_1_1,n3849_3_1_1_8
n3852_3_1_1,n3852_3_1_1_7
n3854_3_1_1,n3854_3_1_1_6
n3857_3_1_1,n3857_3_1_1_5
n3858_3_1_1,n3858_3_1_1_7
n3859_3_1_1,n3859_3_1_1_8
n3860_3_1_1,n3860_3_1_1_4
n3865_3_1_1,n3865_3_1_1_7
n3870_3_1_1,n3870_3_1_1_5
n3872_3_1_1,n3872_3_1_1_5
n3877_3_1_1,n3877_3_1_1_6
n3883_3_1_1,n3883_3_1_1_8
n3884_3_1_1,n3884_3_1_1_6
n3888_3_1_1,n3888_3_1_1_8
n3893_3_1_1,n3893_3_1_1_5
n3895_3_1_1,n3895_3_1_1_7
n3896_3_1_1,n3896_3_1_1_5
n3897_3_1_1,n3897_3_1_1_6
n3898_3_1_1,n3898_3_1_1_6
n3903_3_1_1,n3903_3_1_1_4
n3905_3_1_1,n3905_3_1_1_6
n3908_3_1_1,n3908_3_1_1_7
n3916_3_1_1,n3916_3_1_1_7
n3917_3_1_1,n3917_3_1_1_5
n3918_3_1_1,n3918_3_1_1_9
n3919_3_1_1,n3919_3_1_1_6
n3920_3_1_1,n3920_3_1_1_6
n3921_3_1_1,n3921_3_1_1_5
n3923_3_1_1,n3923_3_1_1_7
n3925_3_1_1,n3925_3_1_1_6
n3927_3_1_1,n3927_3_1_1_7
n3928_3_1_1,n3928_3_1_1_5
n3929_3_1_1,n3929_3_1_1_6
n3931_3_1_1,n3931_3_1_1_6
n3933_3_1_1,n3933_3_1_1_8
n3936_3_1_1,n3936_3_1_1_6
n3937_3_1_1,n3937_3_1_1_6
n3939_3_1_1,n3939_3_1_1_7
n3941_3_1_1,n3941_3_1_1_5
n3943_3_1_1,n3943_3_1_1_6
n3948_3_1_1,n3948_3_1_1_5
n3953_3_1_1,n3953_3_1_1_8
n3956_3_1_1,n3956_3_1_1_6
n3959_3_1_1,n3959_3_1_1_9
n3962_3_1_1,n3962_3_1_1_6
n3964_3_1_1,n3964_3_1_1_7
n3967_3_1_1,n3967_3_1_1_8
n3968_3_1_1,n3968_3_1_1_6
n3970_3_1_1,n3970_3_1_1_6
n3972_3_1_1,n3972_3_1_1_8
n3974_3_1_1,n3974_3_1_1_5
n3975_3_1_1,n3975_3_1_1_6
n3976_3_1_1,n3976_3_1_1_8
n3977_3_1_1,n3977_3_1_1_7
n3981_3_1_1,n3981_3_1_1_5
n3984_3_1_1,n3984_3_1_1_7
n3986_3_1_1,n3986_3_1_1_7
n3988_3_1_1,n3988_3_1_1_6
n3990_3_1_1,n3990_3_1_1_8
n3996_3_1_1,n3996_3_1_1_8
n3999_3_1_1,n3999_3_1_1_6
n4001_3_1_1,n4001_3_1_1_6
n4006_3_1_1,n4006_3_1_1_5
n4007_3_1_1,n4007_3_1_1_6
n4010_3_1_1,n4010_3_1_1_5
n4013_3_1_1,n4013_3_1_1_6
n4016_3_1_1,n4016_3_1_1_5
n4017_3_1_1,n4017_3_1_1_7
n4018_3_1_1,n4018_3_1_1_7
n4020_3_1_1,n4020_3_1_1_8
n4022_3_1_1,n4022_3_1_1_9
n4024_3_1_1,n4024_3_1_1_8
n4026_3_1_1,n4026_3_1_1_7
n4031_3_1_1,n4031_3_1_1_6
n4033_3_1_1,n4033_3_1_1_7
n4038_3_1_1,n4038_3_1_1_9
n4039_3_1_1,n4039_3_1_1_5
n4040_3_1_1,n4040_3_1_1_8
n4042_3_1_1,n4042_3_1_1_7
n4047_3_1_1,n4047_3_1_1_7
n4049_3_1_1,n4049_3_1_1_6
n4051_3_1_1,n4051_3_1_1_7
n4052_3_1_1,n4052_3_1_1_7
n4054_3_1_1,n4054_3_1_1_6
n4058_3_1_1,n4058_3_1_1_6
n4061_3_1_1,n4061_3_1_1_8
n4063_3_1_1,n4063_3_1_1_7
n4065_3_1_1,n4065_3_1_1_6
n4069_3_1_1,n4069_3_1_1_4
n4070_3_1_1,n4070_3_1_1_4
n4071_3_1_1,n4071_3_1_1_6
n4072_3_1_1,n4072_3_1_1_6
n4073_3_1_1,n4073_3_1_1_5
n4074_3_1_1,n4074_3_1_1_4
n4079_3_1_1,n4079_3_1_1_7
n4080_3_1_1,n4080_3_1_1_7
n4082_3_1_1,n4082_3_1_1_8
n4088_3_1_1,n4088_3_1_1_6
n4090_3_1_1,n4090_3_1_1_7
n4091_3_1_1,n4091_3_1_1_9
n4092_3_1_1,n4092_3_1_1_6
n4093_3_1_1,n4093_3_1_1_5
n4094_3_1_1,n4094_3_1_1_5
n4098_3_1_1,n4098_3_1_1_6
n4099_3_1_1,n4099_3_1_1_4
n4102_3_1_1,n4102_3_1_1_6
n4103_3_1_1,n4103_3_1_1_7
n4104_3_1_1,n4104_3_1_1_8
n4105_3_1_1,n4105_3_1_1_5
n4108_3_1_1,n4108_3_1_1_6
n4113_3_1_1,n4113_3_1_1_7
n4114_3_1_1,n4114_3_1_1_5
n4116_3_1_1,n4116_3_1_1_7
n4119_3_1_1,n4119_3_1_1_7
n4120_3_1_1,n4120_3_1_1_5
n4123_3_1_1,n4123_3_1_1_7
n4125_3_1_1,n4125_3_1_1_6
n4126_3_1_1,n4126_3_1_1_7
n4128_3_1_1,n4128_3_1_1_7
n4131_3_1_1,n4131_3_1_1_7
n4132_3_1_1,n4132_3_1_1_6
n4139_3_1_1,n4139_3_1_1_8
n4140_3_1_1,n4140_3_1_1_8
n4141_3_1_1,n4141_3_1_1_6
n4143_3_1_1,n4143_3_1_1_7
n4144_3_1_1,n4144_3_1_1_8
n4148_3_1_1,n4148_3_1_1_6
n4151_3_1_1,n4151_3_1_1_6
n4153_3_1_1,n4153_3_1_1_8
n4157_3_1_1,n4157_3_1_1_6
n4165_3_1_1,n4165_3_1_1_7
n4167_3_1_1,n4167_3_1_1_5
n4168_3_1_1,n4168_3_1_1_5
n4169_3_1_1,n4169_3_1_1_7
n4172_3_1_1,n4172_3_1_1_6
n4173_3_1_1,n4173_3_1_1_7
n4176_3_1_1,n4176_3_1_1_7
n4178_3_1_1,n4178_3_1_1_8
n4181_3_1_1,n4181_3_1_1_5
n4183_3_1_1,n4183_3_1_1_6
n4185_3_1_1,n4185_3_1_1_5
n4186_3_1_1,n4186_3_1_1_8
n4187_3_1_1,n4187_3_1_1_7
n4189_3_1_1,n4189_3_1_1_6
n4192_3_1_1,n4192_3_1_1_8
n4193_3_1_1,n4193_3_1_1_6
n4197_3_1_1,n4197_3_1_1_7
n4203_3_1_1,n4203_3_1_1_6
n4204_3_1_1,n4204_3_1_1_5
n4206_3_1_1,n4206_3_1_1_8
n4207_3_1_1,n4207_3_1_1_8
n4215_3_1_1,n4215_3_1_1_7
n4217_3_1_1,n4217_3_1_1_5
n4220_3_1_1,n4220_3_1_1_9
n4227_3_1_1,n4227_3_1_1_5
n4230_3_1_1,n4230_3_1_1_6
n4231_3_1_1,n4231_3_1_1_7
n4232_3_1_1,n4232_3_1_1_6
n4233_3_1_1,n4233_3_1_1_6
n4235_3_1_1,n4235_3_1_1_8
n4236_3_1_1,n4236_3_1_1_8
n4237_3_1_1,n4237_3_1_1_8
n4238_3_1_1,n4238_3_1_1_5
n4241_3_1_1,n4241_3_1_1_5
n4242_3_1_1,n4242_3_1_1_5
n4243_3_1_1,n4243_3_1_1_7
n4244_3_1_1,n4244_3_1_1_5
n4246_3_1_1,n4246_3_1_1_5
n4247_3_1_1,n4247_3_1_1_7
n4250_3_1_1,n4250_3_1_1_6
n4252_3_1_1,n4252_3_1_1_5
n4253_3_1_1,n4253_3_1_1_7
n4254_3_1_1,n4254_3_1_1_6
n4260_3_1_1,n4260_3_1_1_7
n4261_3_1_1,n4261_3_1_1_6
n4263_3_1_1,n4263_3_1_1_8
n4264_3_1_1,n4264_3_1_1_7
n4265_3_1_1,n4265_3_1_1_7
n4267_3_1_1,n4267_3_1_1_9
n4268_3_1_1,n4268_3_1_1_6
n4269_3_1_1,n4269_3_1_1_7
n4271_3_1_1,n4271_3_1_1_8
n4272_3_1_1,n4272_3_1_1_7
n4273_3_1_1,n4273_3_1_1_9
n4276_3_1_1,n4276_3_1_1_6
n4277_3_1_1,n4277_3_1_1_8
n4280_3_1_1,n4280_3_1_1_6
n4282_3_1_1,n4282_3_1_1_6
n4286_3_1_1,n4286_3_1_1_8
n4290_3_1_1,n4290_3_1_1_7
n4292_3_1_1,n4292_3_1_1_8
n4295_3_1_1,n4295_3_1_1_7
n4297_3_1_1,n4297_3_1_1_8
n4303_3_1_1,n4303_3_1_1_6
n4307_3_1_1,n4307_3_1_1_5
n4308_3_1_1,n4308_3_1_1_8
n4309_3_1_1,n4309_3_1_1_8
n4310_3_1_1,n4310_3_1_1_5
n4311_3_1_1,n4311_3_1_1_6
n4312_3_1_1,n4312_3_1_1_5
n4318_3_1_1,n4318_3_1_1_7
n4319_3_1_1,n4319_3_1_1_7
n4320_3_1_1,n4320_3_1_1_7
n4321_3_1_1,n4321_3_1_1_8
n4323_3_1_1,n4323_3_1_1_7
n4325_3_1_1,n4325_3_1_1_5
n4327_3_1_1,n4327_3_1_1_8
n4328_3_1_1,n4328_3_1_1_9
n4329_3_1_1,n4329_3_1_1_7
n4330_3_1_1,n4330_3_1_1_5
n4332_3_1_1,n4332_3_1_1_4
n4334_3_1_1,n4334_3_1_1_5
n4335_3_1_1,n4335_3_1_1_7
n4337_3_1_1,n4337_3_1_1_5
n4339_3_1_1,n4339_3_1_1_5
n4340_3_1_1,n4340_3_1_1_6
n4343_3_1_1,n4343_3_1_1_8
n4345_3_1_1,n4345_3_1_1_7
n4346_3_1_1,n4346_3_1_1_7
n4348_3_1_1,n4348_3_1_1_8
n4349_3_1_1,n4349_3_1_1_5
n4350_3_1_1,n4350_3_1_1_5
n4354_3_1_1,n4354_3_1_1_8
n4355_3_1_1,n4355_3_1_1_5
n4362_3_1_1,n4362_3_1_1_9
n4365_3_1_1,n4365_3_1_1_6
n4367_3_1_1,n4367_3_1_1_7
n4372_3_1_1,n4372_3_1_1_5
n4374_3_1_1,n4374_3_1_1_7
n4375_3_1_1,n4375_3_1_1_7
n4377_3_1_1,n4377_3_1_1_7
n4380_3_1_1,n4380_3_1_1_5
n4381_3_1_1,n4381_3_1_1_8
n4385_3_1_1,n4385_3_1_1_5
n4386_3_1_1,n4386_3_1_1_8
n4388_3_1_1,n4388_3_1_1_9
n4390_3_1_1,n4390_3_1_1_8
n4392_3_1_1,n4392_3_1_1_7
n4393_3_1_1,n4393_3_1_1_6
n4394_3_1_1,n4394_3_1_1_6
n4395_3_1_1,n4395_3_1_1_7
n4398_3_1_1,n4398_3_1_1_7
n4403_3_1_1,n4403_3_1_1_6
n4405_3_1_1,n4405_3_1_1_7
n4407_3_1_1,n4407_3_1_1_8
n4408_3_1_1,n4408_3_1_1_6
n4409_3_1_1,n4409_3_1_1_5
n4410_3_1_1,n4410_3_1_1_7
n4412_3_1_1,n4412_3_1_1_5
n4414_3_1_1,n4414_3_1_1_7
n4415_3_1_1,n4415_3_1_1_6
n4416_3_1_1,n4416_3_1_1_4
n4417_3_1_1,n4417_3_1_1_8
n4420_3_1_1,n4420_3_1_1_6
n4421_3_1_1,n4421_3_1_1_7
n4429_3_1_1,n4429_3_1_1_9
n4430_3_1_1,n4430_3_1_1_6
n4433_3_1_1,n4433_3_1_1_6
n4434_3_1_1,n4434_3_1_1_6
n4436_3_1_1,n4436_3_1_1_6
n4439_3_1_1,n4439_3_1_1_6
n4440_3_1_1,n4440_3_1_1_8
n4443_3_1_1,n4443_3_1_1_8
n4444_3_1_1,n4444_3_1_1_8
n4447_3_1_1,n4447_3_1_1_7
n4448_3_1_1,n4448_3_1_1_7
n4452_3_1_1,n4452_3_1_1_5
n4454_3_1_1,n4454_3_1_1_5
n4456_3_1_1,n4456_3_1_1_7
n4457_3_1_1,n4457_3_1_1_6
n4459_3_1_1,n4459_3_1_1_8
n4461_3_1_1,n4461_3_1_1_8
n4464_3_1_1,n4464_3_1_1_8
n4465_3_1_1,n4465_3_1_1_6
n4471_3_1_1,n4471_3_1_1_7
n4472_3_1_1,n4472_3_1_1_6
n4474_3_1_1,n4474_3_1_1_7
n4479_3_1_1,n4479_3_1_1_6
n4481_3_1_1,n4481_3_1_1_6
n4482_3_1_1,n4482_3_1_1_6
n4483_3_1_1,n4483_3_1_1_5
n4488_3_1_1,n4488_3_1_1_5
n4496_3_1_1,n4496_3_1_1_8
n4498_3_1_1,n4498_3_1_1_7
n4499_3_1_1,n4499_3_1_1_7
n4501_3_1_1,n4501_3_1_1_7
n4503_3_1_1,n4503_3_1_1_7
n4509_3_1_1,n4509_3_1_1_5
n4510_3_1_1,n4510_3_1_1_7
n4511_3_1_1,n4511_3_1_1_7
n4514_3_1_1,n4514_3_1_1_6
n4517_3_1_1,n4517_3_1_1_7
n4518_3_1_1,n4518_3_1_1_8
n4521_3_1_1,n4521_3_1_1_5
n4522_3_1_1,n4522_3_1_1_7
n4525_3_1_1,n4525_3_1_1_8
n4531_3_1_1,n4531_3_1_1_7
n4533_3_1_1,n4533_3_1_1_5
n4534_3_1_1,n4534_3_1_1_7
n4538_3_1_1,n4538_3_1_1_7
n4539_3_1_1,n4539_3_1_1_4
n4540_3_1_1,n4540_3_1_1_6
n4541_3_1_1,n4541_3_1_1_5
n4542_3_1_1,n4542_3_1_1_7
n4545_3_1_1,n4545_3_1_1_6
n4548_3_1_1,n4548_3_1_1_6
n4549_3_1_1,n4549_3_1_1_8
n4553_3_1_1,n4553_3_1_1_5
n4554_3_1_1,n4554_3_1_1_6
n4555_3_1_1,n4555_3_1_1_6
n4556_3_1_1,n4556_3_1_1_6
n4559_3_1_1,n4559_3_1_1_5
n4560_3_1_1,n4560_3_1_1_7
n4562_3_1_1,n4562_3_1_1_6
n4563_3_1_1,n4563_3_1_1_6
n4566_3_1_1,n4566_3_1_1_6
n4571_3_1_1,n4571_3_1_1_5
n4575_3_1_1,n4575_3_1_1_7
n4580_3_1_1,n4580_3_1_1_7
n4581_3_1_1,n4581_3_1_1_5
n4584_3_1_1,n4584_3_1_1_7
n4585_3_1_1,n4585_3_1_1_6
n4588_3_1_1,n4588_3_1_1_8
n4589_3_1_1,n4589_3_1_1_7
n4590_3_1_1,n4590_3_1_1_6
n4591_3_1_1,n4591_3_1_1_7
n4593_3_1_1,n4593_3_1_1_6
n4600_3_1_1,n4600_3_1_1_7
n4601_3_1_1,n4601_3_1_1_6
n4605_3_1_1,n4605_3_1_1_8
n4606_3_1_1,n4606_3_1_1_6
n4608_3_1_1,n4608_3_1_1_6
n4611_3_1_1,n4611_3_1_1_6
n4613_3_1_1,n4613_3_1_1_6
n4614_3_1_1,n4614_3_1_1_6
n4616_3_1_1,n4616_3_1_1_5
n4617_3_1_1,n4617_3_1_1_5
n4620_3_1_1,n4620_3_1_1_6
n4622_3_1_1,n4622_3_1_1_7
n4624_3_1_1,n4624_3_1_1_8
n4625_3_1_1,n4625_3_1_1_7
n4628_3_1_1,n4628_3_1_1_7
n4630_3_1_1,n4630_3_1_1_7
n4631_3_1_1,n4631_3_1_1_5
n4634_3_1_1,n4634_3_1_1_6
n4636_3_1_1,n4636_3_1_1_6
n4637_3_1_1,n4637_3_1_1_8
n4638_3_1_1,n4638_3_1_1_6
n4640_3_1_1,n4640_3_1_1_5
n4643_3_1_1,n4643_3_1_1_8
n4644_3_1_1,n4644_3_1_1_4
n4645_3_1_1,n4645_3_1_1_6
n4646_3_1_1,n4646_3_1_1_6
n4647_3_1_1,n4647_3_1_1_6
n4650_3_1_1,n4650_3_1_1_6
n4656_3_1_1,n4656_3_1_1_5
n4658_3_1_1,n4658_3_1_1_5
n4662_3_1_1,n4662_3_1_1_6
n4664_3_1_1,n4664_3_1_1_7
n4665_3_1_1,n4665_3_1_1_7
n4671_3_1_1,n4671_3_1_1_5
n4672_3_1_1,n4672_3_1_1_7
n4673_3_1_1,n4673_3_1_1_7
n4676_3_1_1,n4676_3_1_1_6
n4677_3_1_1,n4677_3_1_1_6
n4678_3_1_1,n4678_3_1_1_7
n4685_3_1_1,n4685_3_1_1_6
n4686_3_1_1,n4686_3_1_1_8
n4687_3_1_1,n4687_3_1_1_6
n4688_3_1_1,n4688_3_1_1_8
n4689_3_1_1,n4689_3_1_1_5
n4691_3_1_1,n4691_3_1_1_7
n4693_3_1_1,n4693_3_1_1_7
n4694_3_1_1,n4694_3_1_1_8
n4701_3_1_1,n4701_3_1_1_6
n4705_3_1_1,n4705_3_1_1_6
n4706_3_1_1,n4706_3_1_1_8
n4714_3_1_1,n4714_3_1_1_7
n4716_3_1_1,n4716_3_1_1_7
n4717_3_1_1,n4717_3_1_1_7
n4718_3_1_1,n4718_3_1_1_5
n4719_3_1_1,n4719_3_1_1_6
n4720_3_1_1,n4720_3_1_1_6
n4721_3_1_1,n4721_3_1_1_7
n4722_3_1_1,n4722_3_1_1_8
n4724_3_1_1,n4724_3_1_1_6
n4726_3_1_1,n4726_3_1_1_7
n4729_3_1_1,n4729_3_1_1_6
n4732_3_1_1,n4732_3_1_1_6
n4735_3_1_1,n4735_3_1_1_6
n4738_3_1_1,n4738_3_1_1_6
n4740_3_1_1,n4740_3_1_1_9
n4741_3_1_1,n4741_3_1_1_8
n4744_3_1_1,n4744_3_1_1_8
n4745_3_1_1,n4745_3_1_1_9
n4747_3_1_1,n4747_3_1_1_5
n4751_3_1_1,n4751_3_1_1_5
n4752_3_1_1,n4752_3_1_1_9
n4753_3_1_1,n4753_3_1_1_7
n4754_3_1_1,n4754_3_1_1_5
n4755_3_1_1,n4755_3_1_1_6
n4757_3_1_1,n4757_3_1_1_6
n4758_3_1_1,n4758_3_1_1_8
n4768_3_1_1,n4768_3_1_1_5
n4769_3_1_1,n4769_3_1_1_7
n4775_3_1_1,n4775_3_1_1_6
n4779_3_1_1,n4779_3_1_1_7
n4780_3_1_1,n4780_3_1_1_6
n4782_3_1_1,n4782_3_1_1_8
n4783_3_1_1,n4783_3_1_1_5
n4784_3_1_1,n4784_3_1_1_5
n4785_3_1_1,n4785_3_1_1_8
n4788_3_1_1,n4788_3_1_1_7
n4789_3_1_1,n4789_3_1_1_8
n4793_3_1_1,n4793_3_1_1_6
n4795_3_1_1,n4795_3_1_1_5
n4800_3_1_1,n4800_3_1_1_8
n4806_3_1_1,n4806_3_1_1_6
n4807_3_1_1,n4807_3_1_1_7
n4815_3_1_1,n4815_3_1_1_5
n4816_3_1_1,n4816_3_1_1_6
n4824_3_1_1,n4824_3_1_1_5
n4825_3_1_1,n4825_3_1_1_7
n4826_3_1_1,n4826_3_1_1_8
n4828_3_1_1,n4828_3_1_1_5
n4830_3_1_1,n4830_3_1_1_5
n4831_3_1_1,n4831_3_1_1_7
n4832_3_1_1,n4832_3_1_1_7
n4833_3_1_1,n4833_3_1_1_7
n4834_3_1_1,n4834_3_1_1_6
n4838_3_1_1,n4838_3_1_1_6
n4841_3_1_1,n4841_3_1_1_5
n4842_3_1_1,n4842_3_1_1_7
n4847_3_1_1,n4847_3_1_1_5
n4850_3_1_1,n4850_3_1_1_7
n4853_3_1_1,n4853_3_1_1_8
n4858_3_1_1,n4858_3_1_1_6
n4859_3_1_1,n4859_3_1_1_7
n4861_3_1_1,n4861_3_1_1_8
n4863_3_1_1,n4863_3_1_1_6
n4868_3_1_1,n4868_3_1_1_8
n4870_3_1_1,n4870_3_1_1_8
n4872_3_1_1,n4872_3_1_1_5
n4873_3_1_1,n4873_3_1_1_6
n4879_3_1_1,n4879_3_1_1_5
n4880_3_1_1,n4880_3_1_1_6
n4881_3_1_1,n4881_3_1_1_6
n4883_3_1_1,n4883_3_1_1_7
n4884_3_1_1,n4884_3_1_1_8
n4885_3_1_1,n4885_3_1_1_5
n4886_3_1_1,n4886_3_1_1_5
n4888_3_1_1,n4888_3_1_1_6
n4889_3_1_1,n4889_3_1_1_6
n4892_3_1_1,n4892_3_1_1_6
n4895_3_1_1,n4895_3_1_1_6
n4896_3_1_1,n4896_3_1_1_7
n4897_3_1_1,n4897_3_1_1_6
n4899_3_1_1,n4899_3_1_1_6
n4900_3_1_1,n4900_3_1_1_7
n4901_3_1_1,n4901_3_1_1_8
n4904_3_1_1,n4904_3_1_1_7
n4906_3_1_1,n4906_3_1_1_7
n4907_3_1_1,n4907_3_1_1_7
n4910_3_1_1,n4910_3_1_1_7
n4911_3_1_1,n4911_3_1_1_6
n4914_3_1_1,n4914_3_1_1_5
n4916_3_1_1,n4916_3_1_1_5
n4917_3_1_1,n4917_3_1_1_7
